Commodity,NominationModality,TradingModality,MarketArea,IndexName,TimeResolution,DeliveryStart,DeliveryEnd,IndexPrice,Currency,Volume,VolumeUnit
Power,Intraday,Continuous,NL,IDFULL,H,2021-08-20T00:00:00+02:00,2021-08-20T01:00:00+02:00,89.61,EUR,142.500,MWh
Power,Intraday,Continuous,NL,IDFULL,H,2021-08-20T01:00:00+02:00,2021-08-20T02:00:00+02:00,83.89,EUR,321.300,MWh
Power,Intraday,Continuous,NL,IDFULL,H,2021-08-20T02:00:00+02:00,2021-08-20T03:00:00+02:00,81.78,EUR,606.500,MWh
Power,Intraday,Continuous,NL,IDFULL,H,2021-08-20T03:00:00+02:00,2021-08-20T04:00:00+02:00,79.67,EUR,1016.800,MWh
Power,Intraday,Continuous,NL,IDFULL,H,2021-08-20T04:00:00+02:00,2021-08-20T05:00:00+02:00,80.78,EUR,813.200,MWh
Power,Intraday,Continuous,NL,IDFULL,H,2021-08-20T05:00:00+02:00,2021-08-20T06:00:00+02:00,84.12,EUR,728.700,MWh
Power,Intraday,Continuous,NL,IDFULL,H,2021-08-20T06:00:00+02:00,2021-08-20T07:00:00+02:00,99.38,EUR,624.000,MWh
Power,Intraday,Continuous,NL,IDFULL,H,2021-08-20T07:00:00+02:00,2021-08-20T08:00:00+02:00,114.20,EUR,583.300,MWh
Power,Intraday,Continuous,NL,IDFULL,H,2021-08-20T08:00:00+02:00,2021-08-20T09:00:00+02:00,120.06,EUR,603.800,MWh
Power,Intraday,Continuous,NL,IDFULL,H,2021-08-20T09:00:00+02:00,2021-08-20T10:00:00+02:00,114.86,EUR,823.800,MWh
Power,Intraday,Continuous,NL,IDFULL,H,2021-08-20T10:00:00+02:00,2021-08-20T11:00:00+02:00,105.69,EUR,1047.900,MWh
Power,Intraday,Continuous,NL,IDFULL,H,2021-08-20T11:00:00+02:00,2021-08-20T12:00:00+02:00,102.32,EUR,1157.200,MWh
Power,Intraday,Continuous,NL,IDFULL,H,2021-08-20T12:00:00+02:00,2021-08-20T13:00:00+02:00,97.99,EUR,1471.400,MWh
Power,Intraday,Continuous,NL,IDFULL,H,2021-08-20T13:00:00+02:00,2021-08-20T14:00:00+02:00,86.14,EUR,1435.400,MWh
Power,Intraday,Continuous,NL,IDFULL,H,2021-08-20T14:00:00+02:00,2021-08-20T15:00:00+02:00,86.03,EUR,1364.100,MWh
Power,Intraday,Continuous,NL,IDFULL,H,2021-08-20T15:00:00+02:00,2021-08-20T16:00:00+02:00,85.23,EUR,1261.200,MWh
Power,Intraday,Continuous,NL,IDFULL,H,2021-08-20T16:00:00+02:00,2021-08-20T17:00:00+02:00,90.48,EUR,1036.100,MWh
Power,Intraday,Continuous,NL,IDFULL,H,2021-08-20T17:00:00+02:00,2021-08-20T18:00:00+02:00,99.94,EUR,654.200,MWh
Power,Intraday,Continuous,NL,IDFULL,H,2021-08-20T18:00:00+02:00,2021-08-20T19:00:00+02:00,114.49,EUR,690.700,MWh
Power,Intraday,Continuous,NL,IDFULL,H,2021-08-20T19:00:00+02:00,2021-08-20T20:00:00+02:00,131.55,EUR,945.800,MWh
Power,Intraday,Continuous,NL,IDFULL,H,2021-08-20T20:00:00+02:00,2021-08-20T21:00:00+02:00,133.14,EUR,583.500,MWh
Power,Intraday,Continuous,NL,IDFULL,H,2021-08-20T21:00:00+02:00,2021-08-20T22:00:00+02:00,126.96,EUR,556.700,MWh
Power,Intraday,Continuous,NL,IDFULL,H,2021-08-20T22:00:00+02:00,2021-08-20T23:00:00+02:00,117.81,EUR,443.900,MWh
Power,Intraday,Continuous,NL,IDFULL,H,2021-08-20T23:00:00+02:00,2021-08-21T00:00:00+02:00,107.94,EUR,603.300,MWh
Power,Intraday,Continuous,NL,ID1,H,2021-08-20T00:00:00+02:00,2021-08-20T01:00:00+02:00,89.40,EUR,,MWh
Power,Intraday,Continuous,NL,ID1,H,2021-08-20T01:00:00+02:00,2021-08-20T02:00:00+02:00,84.40,EUR,,MWh
Power,Intraday,Continuous,NL,ID1,H,2021-08-20T02:00:00+02:00,2021-08-20T03:00:00+02:00,85.00,EUR,25.000,MWh
Power,Intraday,Continuous,NL,ID1,H,2021-08-20T03:00:00+02:00,2021-08-20T04:00:00+02:00,68.19,EUR,101.000,MWh
Power,Intraday,Continuous,NL,ID1,H,2021-08-20T04:00:00+02:00,2021-08-20T05:00:00+02:00,79.02,EUR,,MWh
Power,Intraday,Continuous,NL,ID1,H,2021-08-20T05:00:00+02:00,2021-08-20T06:00:00+02:00,83.20,EUR,,MWh
Power,Intraday,Continuous,NL,ID1,H,2021-08-20T06:00:00+02:00,2021-08-20T07:00:00+02:00,90.00,EUR,10.000,MWh
Power,Intraday,Continuous,NL,ID1,H,2021-08-20T07:00:00+02:00,2021-08-20T08:00:00+02:00,101.24,EUR,20.000,MWh
Power,Intraday,Continuous,NL,ID1,H,2021-08-20T08:00:00+02:00,2021-08-20T09:00:00+02:00,111.48,EUR,38.000,MWh
Power,Intraday,Continuous,NL,ID1,H,2021-08-20T09:00:00+02:00,2021-08-20T10:00:00+02:00,107.74,EUR,60.000,MWh
Power,Intraday,Continuous,NL,ID1,H,2021-08-20T10:00:00+02:00,2021-08-20T11:00:00+02:00,111.64,EUR,53.800,MWh
Power,Intraday,Continuous,NL,ID1,H,2021-08-20T11:00:00+02:00,2021-08-20T12:00:00+02:00,106.15,EUR,159.000,MWh
Power,Intraday,Continuous,NL,ID1,H,2021-08-20T12:00:00+02:00,2021-08-20T13:00:00+02:00,84.94,EUR,120.900,MWh
Power,Intraday,Continuous,NL,ID1,H,2021-08-20T13:00:00+02:00,2021-08-20T14:00:00+02:00,75.97,EUR,245.700,MWh
Power,Intraday,Continuous,NL,ID1,H,2021-08-20T14:00:00+02:00,2021-08-20T15:00:00+02:00,108.38,EUR,112.900,MWh
Power,Intraday,Continuous,NL,ID1,H,2021-08-20T15:00:00+02:00,2021-08-20T16:00:00+02:00,87.57,EUR,46.200,MWh
Power,Intraday,Continuous,NL,ID1,H,2021-08-20T16:00:00+02:00,2021-08-20T17:00:00+02:00,108.29,EUR,23.800,MWh
Power,Intraday,Continuous,NL,ID1,H,2021-08-20T17:00:00+02:00,2021-08-20T18:00:00+02:00,100.94,EUR,,MWh
Power,Intraday,Continuous,NL,ID1,H,2021-08-20T18:00:00+02:00,2021-08-20T19:00:00+02:00,107.90,EUR,10.400,MWh
Power,Intraday,Continuous,NL,ID1,H,2021-08-20T19:00:00+02:00,2021-08-20T20:00:00+02:00,133.29,EUR,,MWh
Power,Intraday,Continuous,NL,ID1,H,2021-08-20T20:00:00+02:00,2021-08-20T21:00:00+02:00,134.85,EUR,14.300,MWh
Power,Intraday,Continuous,NL,ID1,H,2021-08-20T21:00:00+02:00,2021-08-20T22:00:00+02:00,126.73,EUR,,MWh
Power,Intraday,Continuous,NL,ID1,H,2021-08-20T22:00:00+02:00,2021-08-20T23:00:00+02:00,121.14,EUR,,MWh
Power,Intraday,Continuous,NL,ID1,H,2021-08-20T23:00:00+02:00,2021-08-21T00:00:00+02:00,109.31,EUR,,MWh
Power,Intraday,Continuous,NL,ID3,H,2021-08-20T00:00:00+02:00,2021-08-20T01:00:00+02:00,89.40,EUR,118.700,MWh
Power,Intraday,Continuous,NL,ID3,H,2021-08-20T01:00:00+02:00,2021-08-20T02:00:00+02:00,84.40,EUR,230.500,MWh
Power,Intraday,Continuous,NL,ID3,H,2021-08-20T02:00:00+02:00,2021-08-20T03:00:00+02:00,81.38,EUR,368.600,MWh
Power,Intraday,Continuous,NL,ID3,H,2021-08-20T03:00:00+02:00,2021-08-20T04:00:00+02:00,78.04,EUR,567.200,MWh
Power,Intraday,Continuous,NL,ID3,H,2021-08-20T04:00:00+02:00,2021-08-20T05:00:00+02:00,79.02,EUR,524.000,MWh
Power,Intraday,Continuous,NL,ID3,H,2021-08-20T05:00:00+02:00,2021-08-20T06:00:00+02:00,83.20,EUR,547.200,MWh
Power,Intraday,Continuous,NL,ID3,H,2021-08-20T06:00:00+02:00,2021-08-20T07:00:00+02:00,99.93,EUR,387.000,MWh
Power,Intraday,Continuous,NL,ID3,H,2021-08-20T07:00:00+02:00,2021-08-20T08:00:00+02:00,114.03,EUR,429.300,MWh
Power,Intraday,Continuous,NL,ID3,H,2021-08-20T08:00:00+02:00,2021-08-20T09:00:00+02:00,121.04,EUR,433.100,MWh
Power,Intraday,Continuous,NL,ID3,H,2021-08-20T09:00:00+02:00,2021-08-20T10:00:00+02:00,114.98,EUR,741.400,MWh
Power,Intraday,Continuous,NL,ID3,H,2021-08-20T10:00:00+02:00,2021-08-20T11:00:00+02:00,105.43,EUR,834.700,MWh
Power,Intraday,Continuous,NL,ID3,H,2021-08-20T11:00:00+02:00,2021-08-20T12:00:00+02:00,101.44,EUR,805.700,MWh
Power,Intraday,Continuous,NL,ID3,H,2021-08-20T12:00:00+02:00,2021-08-20T13:00:00+02:00,98.38,EUR,1108.000,MWh
Power,Intraday,Continuous,NL,ID3,H,2021-08-20T13:00:00+02:00,2021-08-20T14:00:00+02:00,85.98,EUR,1255.800,MWh
Power,Intraday,Continuous,NL,ID3,H,2021-08-20T14:00:00+02:00,2021-08-20T15:00:00+02:00,86.46,EUR,1042.500,MWh
Power,Intraday,Continuous,NL,ID3,H,2021-08-20T15:00:00+02:00,2021-08-20T16:00:00+02:00,85.15,EUR,911.400,MWh
Power,Intraday,Continuous,NL,ID3,H,2021-08-20T16:00:00+02:00,2021-08-20T17:00:00+02:00,91.87,EUR,701.000,MWh
Power,Intraday,Continuous,NL,ID3,H,2021-08-20T17:00:00+02:00,2021-08-20T18:00:00+02:00,100.94,EUR,459.300,MWh
Power,Intraday,Continuous,NL,ID3,H,2021-08-20T18:00:00+02:00,2021-08-20T19:00:00+02:00,115.54,EUR,519.900,MWh
Power,Intraday,Continuous,NL,ID3,H,2021-08-20T19:00:00+02:00,2021-08-20T20:00:00+02:00,133.29,EUR,754.100,MWh
Power,Intraday,Continuous,NL,ID3,H,2021-08-20T20:00:00+02:00,2021-08-20T21:00:00+02:00,135.98,EUR,282.300,MWh
Power,Intraday,Continuous,NL,ID3,H,2021-08-20T21:00:00+02:00,2021-08-20T22:00:00+02:00,126.73,EUR,250.800,MWh
Power,Intraday,Continuous,NL,ID3,H,2021-08-20T22:00:00+02:00,2021-08-20T23:00:00+02:00,121.14,EUR,215.300,MWh
Power,Intraday,Continuous,NL,ID3,H,2021-08-20T23:00:00+02:00,2021-08-21T00:00:00+02:00,109.31,EUR,267.700,MWh
Power,Intraday,Continuous,NL,IDFULL,HH,2021-08-20T00:00:00+02:00,2021-08-20T00:30:00+02:00,89.61,EUR,,MWh
Power,Intraday,Continuous,NL,IDFULL,HH,2021-08-20T00:30:00+02:00,2021-08-20T01:00:00+02:00,89.61,EUR,,MWh
Power,Intraday,Continuous,NL,IDFULL,HH,2021-08-20T01:00:00+02:00,2021-08-20T01:30:00+02:00,83.89,EUR,,MWh
Power,Intraday,Continuous,NL,IDFULL,HH,2021-08-20T01:30:00+02:00,2021-08-20T02:00:00+02:00,83.89,EUR,,MWh
Power,Intraday,Continuous,NL,IDFULL,HH,2021-08-20T02:00:00+02:00,2021-08-20T02:30:00+02:00,81.78,EUR,,MWh
Power,Intraday,Continuous,NL,IDFULL,HH,2021-08-20T02:30:00+02:00,2021-08-20T03:00:00+02:00,81.78,EUR,,MWh
Power,Intraday,Continuous,NL,IDFULL,HH,2021-08-20T03:00:00+02:00,2021-08-20T03:30:00+02:00,79.67,EUR,,MWh
Power,Intraday,Continuous,NL,IDFULL,HH,2021-08-20T03:30:00+02:00,2021-08-20T04:00:00+02:00,79.67,EUR,,MWh
Power,Intraday,Continuous,NL,IDFULL,HH,2021-08-20T04:00:00+02:00,2021-08-20T04:30:00+02:00,80.78,EUR,,MWh
Power,Intraday,Continuous,NL,IDFULL,HH,2021-08-20T04:30:00+02:00,2021-08-20T05:00:00+02:00,80.78,EUR,,MWh
Power,Intraday,Continuous,NL,IDFULL,HH,2021-08-20T05:00:00+02:00,2021-08-20T05:30:00+02:00,84.12,EUR,,MWh
Power,Intraday,Continuous,NL,IDFULL,HH,2021-08-20T05:30:00+02:00,2021-08-20T06:00:00+02:00,84.12,EUR,,MWh
Power,Intraday,Continuous,NL,IDFULL,HH,2021-08-20T06:00:00+02:00,2021-08-20T06:30:00+02:00,99.38,EUR,,MWh
Power,Intraday,Continuous,NL,IDFULL,HH,2021-08-20T06:30:00+02:00,2021-08-20T07:00:00+02:00,99.38,EUR,,MWh
Power,Intraday,Continuous,NL,IDFULL,HH,2021-08-20T07:00:00+02:00,2021-08-20T07:30:00+02:00,114.20,EUR,,MWh
Power,Intraday,Continuous,NL,IDFULL,HH,2021-08-20T07:30:00+02:00,2021-08-20T08:00:00+02:00,114.20,EUR,,MWh
Power,Intraday,Continuous,NL,IDFULL,HH,2021-08-20T08:00:00+02:00,2021-08-20T08:30:00+02:00,120.06,EUR,,MWh
Power,Intraday,Continuous,NL,IDFULL,HH,2021-08-20T08:30:00+02:00,2021-08-20T09:00:00+02:00,120.06,EUR,,MWh
Power,Intraday,Continuous,NL,IDFULL,HH,2021-08-20T09:00:00+02:00,2021-08-20T09:30:00+02:00,114.86,EUR,,MWh
Power,Intraday,Continuous,NL,IDFULL,HH,2021-08-20T09:30:00+02:00,2021-08-20T10:00:00+02:00,114.86,EUR,,MWh
Power,Intraday,Continuous,NL,IDFULL,HH,2021-08-20T10:00:00+02:00,2021-08-20T10:30:00+02:00,105.69,EUR,,MWh
Power,Intraday,Continuous,NL,IDFULL,HH,2021-08-20T10:30:00+02:00,2021-08-20T11:00:00+02:00,105.69,EUR,,MWh
Power,Intraday,Continuous,NL,IDFULL,HH,2021-08-20T11:00:00+02:00,2021-08-20T11:30:00+02:00,102.32,EUR,,MWh
Power,Intraday,Continuous,NL,IDFULL,HH,2021-08-20T11:30:00+02:00,2021-08-20T12:00:00+02:00,102.32,EUR,,MWh
Power,Intraday,Continuous,NL,IDFULL,HH,2021-08-20T12:00:00+02:00,2021-08-20T12:30:00+02:00,97.99,EUR,,MWh
Power,Intraday,Continuous,NL,IDFULL,HH,2021-08-20T12:30:00+02:00,2021-08-20T13:00:00+02:00,97.99,EUR,,MWh
Power,Intraday,Continuous,NL,IDFULL,HH,2021-08-20T13:00:00+02:00,2021-08-20T13:30:00+02:00,86.14,EUR,,MWh
Power,Intraday,Continuous,NL,IDFULL,HH,2021-08-20T13:30:00+02:00,2021-08-20T14:00:00+02:00,86.14,EUR,,MWh
Power,Intraday,Continuous,NL,IDFULL,HH,2021-08-20T14:00:00+02:00,2021-08-20T14:30:00+02:00,86.03,EUR,,MWh
Power,Intraday,Continuous,NL,IDFULL,HH,2021-08-20T14:30:00+02:00,2021-08-20T15:00:00+02:00,86.03,EUR,,MWh
Power,Intraday,Continuous,NL,IDFULL,HH,2021-08-20T15:00:00+02:00,2021-08-20T15:30:00+02:00,85.23,EUR,,MWh
Power,Intraday,Continuous,NL,IDFULL,HH,2021-08-20T15:30:00+02:00,2021-08-20T16:00:00+02:00,85.23,EUR,,MWh
Power,Intraday,Continuous,NL,IDFULL,HH,2021-08-20T16:00:00+02:00,2021-08-20T16:30:00+02:00,90.48,EUR,,MWh
Power,Intraday,Continuous,NL,IDFULL,HH,2021-08-20T16:30:00+02:00,2021-08-20T17:00:00+02:00,90.48,EUR,,MWh
Power,Intraday,Continuous,NL,IDFULL,HH,2021-08-20T17:00:00+02:00,2021-08-20T17:30:00+02:00,99.94,EUR,,MWh
Power,Intraday,Continuous,NL,IDFULL,HH,2021-08-20T17:30:00+02:00,2021-08-20T18:00:00+02:00,99.94,EUR,,MWh
Power,Intraday,Continuous,NL,IDFULL,HH,2021-08-20T18:00:00+02:00,2021-08-20T18:30:00+02:00,114.49,EUR,,MWh
Power,Intraday,Continuous,NL,IDFULL,HH,2021-08-20T18:30:00+02:00,2021-08-20T19:00:00+02:00,114.49,EUR,,MWh
Power,Intraday,Continuous,NL,IDFULL,HH,2021-08-20T19:00:00+02:00,2021-08-20T19:30:00+02:00,115.05,EUR,12.200,MWh
Power,Intraday,Continuous,NL,IDFULL,HH,2021-08-20T19:30:00+02:00,2021-08-20T20:00:00+02:00,148.05,EUR,,MWh
Power,Intraday,Continuous,NL,IDFULL,HH,2021-08-20T20:00:00+02:00,2021-08-20T20:30:00+02:00,133.14,EUR,,MWh
Power,Intraday,Continuous,NL,IDFULL,HH,2021-08-20T20:30:00+02:00,2021-08-20T21:00:00+02:00,133.14,EUR,,MWh
Power,Intraday,Continuous,NL,IDFULL,HH,2021-08-20T21:00:00+02:00,2021-08-20T21:30:00+02:00,126.96,EUR,,MWh
Power,Intraday,Continuous,NL,IDFULL,HH,2021-08-20T21:30:00+02:00,2021-08-20T22:00:00+02:00,126.96,EUR,,MWh
Power,Intraday,Continuous,NL,IDFULL,HH,2021-08-20T22:00:00+02:00,2021-08-20T22:30:00+02:00,127.14,EUR,,MWh
Power,Intraday,Continuous,NL,IDFULL,HH,2021-08-20T22:30:00+02:00,2021-08-20T23:00:00+02:00,108.48,EUR,10.700,MWh
Power,Intraday,Continuous,NL,IDFULL,HH,2021-08-20T23:00:00+02:00,2021-08-20T23:30:00+02:00,107.94,EUR,,MWh
Power,Intraday,Continuous,NL,IDFULL,HH,2021-08-20T23:30:00+02:00,2021-08-21T00:00:00+02:00,107.94,EUR,,MWh
Power,Intraday,Continuous,NL,ID1,HH,2021-08-20T00:00:00+02:00,2021-08-20T00:30:00+02:00,89.61,EUR,,MWh
Power,Intraday,Continuous,NL,ID1,HH,2021-08-20T00:30:00+02:00,2021-08-20T01:00:00+02:00,89.61,EUR,,MWh
Power,Intraday,Continuous,NL,ID1,HH,2021-08-20T01:00:00+02:00,2021-08-20T01:30:00+02:00,83.89,EUR,,MWh
Power,Intraday,Continuous,NL,ID1,HH,2021-08-20T01:30:00+02:00,2021-08-20T02:00:00+02:00,83.89,EUR,,MWh
Power,Intraday,Continuous,NL,ID1,HH,2021-08-20T02:00:00+02:00,2021-08-20T02:30:00+02:00,81.78,EUR,,MWh
Power,Intraday,Continuous,NL,ID1,HH,2021-08-20T02:30:00+02:00,2021-08-20T03:00:00+02:00,81.78,EUR,,MWh
Power,Intraday,Continuous,NL,ID1,HH,2021-08-20T03:00:00+02:00,2021-08-20T03:30:00+02:00,79.67,EUR,,MWh
Power,Intraday,Continuous,NL,ID1,HH,2021-08-20T03:30:00+02:00,2021-08-20T04:00:00+02:00,79.67,EUR,,MWh
Power,Intraday,Continuous,NL,ID1,HH,2021-08-20T04:00:00+02:00,2021-08-20T04:30:00+02:00,80.78,EUR,,MWh
Power,Intraday,Continuous,NL,ID1,HH,2021-08-20T04:30:00+02:00,2021-08-20T05:00:00+02:00,80.78,EUR,,MWh
Power,Intraday,Continuous,NL,ID1,HH,2021-08-20T05:00:00+02:00,2021-08-20T05:30:00+02:00,84.12,EUR,,MWh
Power,Intraday,Continuous,NL,ID1,HH,2021-08-20T05:30:00+02:00,2021-08-20T06:00:00+02:00,84.12,EUR,,MWh
Power,Intraday,Continuous,NL,ID1,HH,2021-08-20T06:00:00+02:00,2021-08-20T06:30:00+02:00,99.38,EUR,,MWh
Power,Intraday,Continuous,NL,ID1,HH,2021-08-20T06:30:00+02:00,2021-08-20T07:00:00+02:00,99.38,EUR,,MWh
Power,Intraday,Continuous,NL,ID1,HH,2021-08-20T07:00:00+02:00,2021-08-20T07:30:00+02:00,114.20,EUR,,MWh
Power,Intraday,Continuous,NL,ID1,HH,2021-08-20T07:30:00+02:00,2021-08-20T08:00:00+02:00,114.20,EUR,,MWh
Power,Intraday,Continuous,NL,ID1,HH,2021-08-20T08:00:00+02:00,2021-08-20T08:30:00+02:00,120.06,EUR,,MWh
Power,Intraday,Continuous,NL,ID1,HH,2021-08-20T08:30:00+02:00,2021-08-20T09:00:00+02:00,120.06,EUR,,MWh
Power,Intraday,Continuous,NL,ID1,HH,2021-08-20T09:00:00+02:00,2021-08-20T09:30:00+02:00,114.86,EUR,,MWh
Power,Intraday,Continuous,NL,ID1,HH,2021-08-20T09:30:00+02:00,2021-08-20T10:00:00+02:00,114.86,EUR,,MWh
Power,Intraday,Continuous,NL,ID1,HH,2021-08-20T10:00:00+02:00,2021-08-20T10:30:00+02:00,105.69,EUR,,MWh
Power,Intraday,Continuous,NL,ID1,HH,2021-08-20T10:30:00+02:00,2021-08-20T11:00:00+02:00,105.69,EUR,,MWh
Power,Intraday,Continuous,NL,ID1,HH,2021-08-20T11:00:00+02:00,2021-08-20T11:30:00+02:00,102.32,EUR,,MWh
Power,Intraday,Continuous,NL,ID1,HH,2021-08-20T11:30:00+02:00,2021-08-20T12:00:00+02:00,102.32,EUR,,MWh
Power,Intraday,Continuous,NL,ID1,HH,2021-08-20T12:00:00+02:00,2021-08-20T12:30:00+02:00,97.99,EUR,,MWh
Power,Intraday,Continuous,NL,ID1,HH,2021-08-20T12:30:00+02:00,2021-08-20T13:00:00+02:00,97.99,EUR,,MWh
Power,Intraday,Continuous,NL,ID1,HH,2021-08-20T13:00:00+02:00,2021-08-20T13:30:00+02:00,86.14,EUR,,MWh
Power,Intraday,Continuous,NL,ID1,HH,2021-08-20T13:30:00+02:00,2021-08-20T14:00:00+02:00,86.14,EUR,,MWh
Power,Intraday,Continuous,NL,ID1,HH,2021-08-20T14:00:00+02:00,2021-08-20T14:30:00+02:00,86.03,EUR,,MWh
Power,Intraday,Continuous,NL,ID1,HH,2021-08-20T14:30:00+02:00,2021-08-20T15:00:00+02:00,86.03,EUR,,MWh
Power,Intraday,Continuous,NL,ID1,HH,2021-08-20T15:00:00+02:00,2021-08-20T15:30:00+02:00,85.23,EUR,,MWh
Power,Intraday,Continuous,NL,ID1,HH,2021-08-20T15:30:00+02:00,2021-08-20T16:00:00+02:00,85.23,EUR,,MWh
Power,Intraday,Continuous,NL,ID1,HH,2021-08-20T16:00:00+02:00,2021-08-20T16:30:00+02:00,90.48,EUR,,MWh
Power,Intraday,Continuous,NL,ID1,HH,2021-08-20T16:30:00+02:00,2021-08-20T17:00:00+02:00,90.48,EUR,,MWh
Power,Intraday,Continuous,NL,ID1,HH,2021-08-20T17:00:00+02:00,2021-08-20T17:30:00+02:00,99.94,EUR,,MWh
Power,Intraday,Continuous,NL,ID1,HH,2021-08-20T17:30:00+02:00,2021-08-20T18:00:00+02:00,99.94,EUR,,MWh
Power,Intraday,Continuous,NL,ID1,HH,2021-08-20T18:00:00+02:00,2021-08-20T18:30:00+02:00,114.49,EUR,,MWh
Power,Intraday,Continuous,NL,ID1,HH,2021-08-20T18:30:00+02:00,2021-08-20T19:00:00+02:00,114.49,EUR,,MWh
Power,Intraday,Continuous,NL,ID1,HH,2021-08-20T19:00:00+02:00,2021-08-20T19:30:00+02:00,115.05,EUR,,MWh
Power,Intraday,Continuous,NL,ID1,HH,2021-08-20T19:30:00+02:00,2021-08-20T20:00:00+02:00,148.05,EUR,,MWh
Power,Intraday,Continuous,NL,ID1,HH,2021-08-20T20:00:00+02:00,2021-08-20T20:30:00+02:00,133.14,EUR,,MWh
Power,Intraday,Continuous,NL,ID1,HH,2021-08-20T20:30:00+02:00,2021-08-20T21:00:00+02:00,133.14,EUR,,MWh
Power,Intraday,Continuous,NL,ID1,HH,2021-08-20T21:00:00+02:00,2021-08-20T21:30:00+02:00,126.96,EUR,,MWh
Power,Intraday,Continuous,NL,ID1,HH,2021-08-20T21:30:00+02:00,2021-08-20T22:00:00+02:00,126.96,EUR,,MWh
Power,Intraday,Continuous,NL,ID1,HH,2021-08-20T22:00:00+02:00,2021-08-20T22:30:00+02:00,127.14,EUR,,MWh
Power,Intraday,Continuous,NL,ID1,HH,2021-08-20T22:30:00+02:00,2021-08-20T23:00:00+02:00,108.48,EUR,,MWh
Power,Intraday,Continuous,NL,ID1,HH,2021-08-20T23:00:00+02:00,2021-08-20T23:30:00+02:00,107.94,EUR,,MWh
Power,Intraday,Continuous,NL,ID1,HH,2021-08-20T23:30:00+02:00,2021-08-21T00:00:00+02:00,107.94,EUR,,MWh
Power,Intraday,Continuous,NL,ID3,HH,2021-08-20T00:00:00+02:00,2021-08-20T00:30:00+02:00,89.61,EUR,,MWh
Power,Intraday,Continuous,NL,ID3,HH,2021-08-20T00:30:00+02:00,2021-08-20T01:00:00+02:00,89.61,EUR,,MWh
Power,Intraday,Continuous,NL,ID3,HH,2021-08-20T01:00:00+02:00,2021-08-20T01:30:00+02:00,83.89,EUR,,MWh
Power,Intraday,Continuous,NL,ID3,HH,2021-08-20T01:30:00+02:00,2021-08-20T02:00:00+02:00,83.89,EUR,,MWh
Power,Intraday,Continuous,NL,ID3,HH,2021-08-20T02:00:00+02:00,2021-08-20T02:30:00+02:00,81.78,EUR,,MWh
Power,Intraday,Continuous,NL,ID3,HH,2021-08-20T02:30:00+02:00,2021-08-20T03:00:00+02:00,81.78,EUR,,MWh
Power,Intraday,Continuous,NL,ID3,HH,2021-08-20T03:00:00+02:00,2021-08-20T03:30:00+02:00,79.67,EUR,,MWh
Power,Intraday,Continuous,NL,ID3,HH,2021-08-20T03:30:00+02:00,2021-08-20T04:00:00+02:00,79.67,EUR,,MWh
Power,Intraday,Continuous,NL,ID3,HH,2021-08-20T04:00:00+02:00,2021-08-20T04:30:00+02:00,80.78,EUR,,MWh
Power,Intraday,Continuous,NL,ID3,HH,2021-08-20T04:30:00+02:00,2021-08-20T05:00:00+02:00,80.78,EUR,,MWh
Power,Intraday,Continuous,NL,ID3,HH,2021-08-20T05:00:00+02:00,2021-08-20T05:30:00+02:00,84.12,EUR,,MWh
Power,Intraday,Continuous,NL,ID3,HH,2021-08-20T05:30:00+02:00,2021-08-20T06:00:00+02:00,84.12,EUR,,MWh
Power,Intraday,Continuous,NL,ID3,HH,2021-08-20T06:00:00+02:00,2021-08-20T06:30:00+02:00,99.38,EUR,,MWh
Power,Intraday,Continuous,NL,ID3,HH,2021-08-20T06:30:00+02:00,2021-08-20T07:00:00+02:00,99.38,EUR,,MWh
Power,Intraday,Continuous,NL,ID3,HH,2021-08-20T07:00:00+02:00,2021-08-20T07:30:00+02:00,114.20,EUR,,MWh
Power,Intraday,Continuous,NL,ID3,HH,2021-08-20T07:30:00+02:00,2021-08-20T08:00:00+02:00,114.20,EUR,,MWh
Power,Intraday,Continuous,NL,ID3,HH,2021-08-20T08:00:00+02:00,2021-08-20T08:30:00+02:00,120.06,EUR,,MWh
Power,Intraday,Continuous,NL,ID3,HH,2021-08-20T08:30:00+02:00,2021-08-20T09:00:00+02:00,120.06,EUR,,MWh
Power,Intraday,Continuous,NL,ID3,HH,2021-08-20T09:00:00+02:00,2021-08-20T09:30:00+02:00,114.86,EUR,,MWh
Power,Intraday,Continuous,NL,ID3,HH,2021-08-20T09:30:00+02:00,2021-08-20T10:00:00+02:00,114.86,EUR,,MWh
Power,Intraday,Continuous,NL,ID3,HH,2021-08-20T10:00:00+02:00,2021-08-20T10:30:00+02:00,105.69,EUR,,MWh
Power,Intraday,Continuous,NL,ID3,HH,2021-08-20T10:30:00+02:00,2021-08-20T11:00:00+02:00,105.69,EUR,,MWh
Power,Intraday,Continuous,NL,ID3,HH,2021-08-20T11:00:00+02:00,2021-08-20T11:30:00+02:00,102.32,EUR,,MWh
Power,Intraday,Continuous,NL,ID3,HH,2021-08-20T11:30:00+02:00,2021-08-20T12:00:00+02:00,102.32,EUR,,MWh
Power,Intraday,Continuous,NL,ID3,HH,2021-08-20T12:00:00+02:00,2021-08-20T12:30:00+02:00,97.99,EUR,,MWh
Power,Intraday,Continuous,NL,ID3,HH,2021-08-20T12:30:00+02:00,2021-08-20T13:00:00+02:00,97.99,EUR,,MWh
Power,Intraday,Continuous,NL,ID3,HH,2021-08-20T13:00:00+02:00,2021-08-20T13:30:00+02:00,86.14,EUR,,MWh
Power,Intraday,Continuous,NL,ID3,HH,2021-08-20T13:30:00+02:00,2021-08-20T14:00:00+02:00,86.14,EUR,,MWh
Power,Intraday,Continuous,NL,ID3,HH,2021-08-20T14:00:00+02:00,2021-08-20T14:30:00+02:00,86.03,EUR,,MWh
Power,Intraday,Continuous,NL,ID3,HH,2021-08-20T14:30:00+02:00,2021-08-20T15:00:00+02:00,86.03,EUR,,MWh
Power,Intraday,Continuous,NL,ID3,HH,2021-08-20T15:00:00+02:00,2021-08-20T15:30:00+02:00,85.23,EUR,,MWh
Power,Intraday,Continuous,NL,ID3,HH,2021-08-20T15:30:00+02:00,2021-08-20T16:00:00+02:00,85.23,EUR,,MWh
Power,Intraday,Continuous,NL,ID3,HH,2021-08-20T16:00:00+02:00,2021-08-20T16:30:00+02:00,90.48,EUR,,MWh
Power,Intraday,Continuous,NL,ID3,HH,2021-08-20T16:30:00+02:00,2021-08-20T17:00:00+02:00,90.48,EUR,,MWh
Power,Intraday,Continuous,NL,ID3,HH,2021-08-20T17:00:00+02:00,2021-08-20T17:30:00+02:00,99.94,EUR,,MWh
Power,Intraday,Continuous,NL,ID3,HH,2021-08-20T17:30:00+02:00,2021-08-20T18:00:00+02:00,99.94,EUR,,MWh
Power,Intraday,Continuous,NL,ID3,HH,2021-08-20T18:00:00+02:00,2021-08-20T18:30:00+02:00,114.49,EUR,,MWh
Power,Intraday,Continuous,NL,ID3,HH,2021-08-20T18:30:00+02:00,2021-08-20T19:00:00+02:00,114.49,EUR,,MWh
Power,Intraday,Continuous,NL,ID3,HH,2021-08-20T19:00:00+02:00,2021-08-20T19:30:00+02:00,115.05,EUR,,MWh
Power,Intraday,Continuous,NL,ID3,HH,2021-08-20T19:30:00+02:00,2021-08-20T20:00:00+02:00,148.05,EUR,,MWh
Power,Intraday,Continuous,NL,ID3,HH,2021-08-20T20:00:00+02:00,2021-08-20T20:30:00+02:00,133.14,EUR,,MWh
Power,Intraday,Continuous,NL,ID3,HH,2021-08-20T20:30:00+02:00,2021-08-20T21:00:00+02:00,133.14,EUR,,MWh
Power,Intraday,Continuous,NL,ID3,HH,2021-08-20T21:00:00+02:00,2021-08-20T21:30:00+02:00,126.96,EUR,,MWh
Power,Intraday,Continuous,NL,ID3,HH,2021-08-20T21:30:00+02:00,2021-08-20T22:00:00+02:00,126.96,EUR,,MWh
Power,Intraday,Continuous,NL,ID3,HH,2021-08-20T22:00:00+02:00,2021-08-20T22:30:00+02:00,127.14,EUR,,MWh
Power,Intraday,Continuous,NL,ID3,HH,2021-08-20T22:30:00+02:00,2021-08-20T23:00:00+02:00,108.48,EUR,,MWh
Power,Intraday,Continuous,NL,ID3,HH,2021-08-20T23:00:00+02:00,2021-08-20T23:30:00+02:00,107.94,EUR,,MWh
Power,Intraday,Continuous,NL,ID3,HH,2021-08-20T23:30:00+02:00,2021-08-21T00:00:00+02:00,107.94,EUR,,MWh
Power,Intraday,Continuous,NL,IDFULL,QH,2021-08-20T00:00:00+02:00,2021-08-20T00:15:00+02:00,105.37,EUR,25.630,MWh
Power,Intraday,Continuous,NL,IDFULL,QH,2021-08-20T00:15:00+02:00,2021-08-20T00:30:00+02:00,87.46,EUR,13.480,MWh
Power,Intraday,Continuous,NL,IDFULL,QH,2021-08-20T00:30:00+02:00,2021-08-20T00:45:00+02:00,81.02,EUR,42.280,MWh
Power,Intraday,Continuous,NL,IDFULL,QH,2021-08-20T00:45:00+02:00,2021-08-20T01:00:00+02:00,78.97,EUR,37.880,MWh
Power,Intraday,Continuous,NL,IDFULL,QH,2021-08-20T01:00:00+02:00,2021-08-20T01:15:00+02:00,93.42,EUR,19.050,MWh
Power,Intraday,Continuous,NL,IDFULL,QH,2021-08-20T01:15:00+02:00,2021-08-20T01:30:00+02:00,85.86,EUR,26.450,MWh
Power,Intraday,Continuous,NL,IDFULL,QH,2021-08-20T01:30:00+02:00,2021-08-20T01:45:00+02:00,81.11,EUR,47.280,MWh
Power,Intraday,Continuous,NL,IDFULL,QH,2021-08-20T01:45:00+02:00,2021-08-20T02:00:00+02:00,79.88,EUR,47.580,MWh
Power,Intraday,Continuous,NL,IDFULL,QH,2021-08-20T02:00:00+02:00,2021-08-20T02:15:00+02:00,82.14,EUR,36.450,MWh
Power,Intraday,Continuous,NL,IDFULL,QH,2021-08-20T02:15:00+02:00,2021-08-20T02:30:00+02:00,82.00,EUR,24.750,MWh
Power,Intraday,Continuous,NL,IDFULL,QH,2021-08-20T02:30:00+02:00,2021-08-20T02:45:00+02:00,79.54,EUR,33.700,MWh
Power,Intraday,Continuous,NL,IDFULL,QH,2021-08-20T02:45:00+02:00,2021-08-20T03:00:00+02:00,78.58,EUR,39.430,MWh
Power,Intraday,Continuous,NL,IDFULL,QH,2021-08-20T03:00:00+02:00,2021-08-20T03:15:00+02:00,80.37,EUR,71.850,MWh
Power,Intraday,Continuous,NL,IDFULL,QH,2021-08-20T03:15:00+02:00,2021-08-20T03:30:00+02:00,77.18,EUR,27.350,MWh
Power,Intraday,Continuous,NL,IDFULL,QH,2021-08-20T03:30:00+02:00,2021-08-20T03:45:00+02:00,78.22,EUR,44.200,MWh
Power,Intraday,Continuous,NL,IDFULL,QH,2021-08-20T03:45:00+02:00,2021-08-20T04:00:00+02:00,79.52,EUR,69.880,MWh
Power,Intraday,Continuous,NL,IDFULL,QH,2021-08-20T04:00:00+02:00,2021-08-20T04:15:00+02:00,76.07,EUR,46.580,MWh
Power,Intraday,Continuous,NL,IDFULL,QH,2021-08-20T04:15:00+02:00,2021-08-20T04:30:00+02:00,79.58,EUR,40.730,MWh
Power,Intraday,Continuous,NL,IDFULL,QH,2021-08-20T04:30:00+02:00,2021-08-20T04:45:00+02:00,80.91,EUR,58.350,MWh
Power,Intraday,Continuous,NL,IDFULL,QH,2021-08-20T04:45:00+02:00,2021-08-20T05:00:00+02:00,89.47,EUR,21.800,MWh
Power,Intraday,Continuous,NL,IDFULL,QH,2021-08-20T05:00:00+02:00,2021-08-20T05:15:00+02:00,77.43,EUR,42.830,MWh
Power,Intraday,Continuous,NL,IDFULL,QH,2021-08-20T05:15:00+02:00,2021-08-20T05:30:00+02:00,79.22,EUR,40.150,MWh
Power,Intraday,Continuous,NL,IDFULL,QH,2021-08-20T05:30:00+02:00,2021-08-20T05:45:00+02:00,79.95,EUR,50.900,MWh
Power,Intraday,Continuous,NL,IDFULL,QH,2021-08-20T05:45:00+02:00,2021-08-20T06:00:00+02:00,106.60,EUR,33.580,MWh
Power,Intraday,Continuous,NL,IDFULL,QH,2021-08-20T06:00:00+02:00,2021-08-20T06:15:00+02:00,75.66,EUR,65.780,MWh
Power,Intraday,Continuous,NL,IDFULL,QH,2021-08-20T06:15:00+02:00,2021-08-20T06:30:00+02:00,95.79,EUR,25.630,MWh
Power,Intraday,Continuous,NL,IDFULL,QH,2021-08-20T06:30:00+02:00,2021-08-20T06:45:00+02:00,105.87,EUR,25.150,MWh
Power,Intraday,Continuous,NL,IDFULL,QH,2021-08-20T06:45:00+02:00,2021-08-20T07:00:00+02:00,116.33,EUR,59.600,MWh
Power,Intraday,Continuous,NL,IDFULL,QH,2021-08-20T07:00:00+02:00,2021-08-20T07:15:00+02:00,97.30,EUR,42.380,MWh
Power,Intraday,Continuous,NL,IDFULL,QH,2021-08-20T07:15:00+02:00,2021-08-20T07:30:00+02:00,111.59,EUR,31.830,MWh
Power,Intraday,Continuous,NL,IDFULL,QH,2021-08-20T07:30:00+02:00,2021-08-20T07:45:00+02:00,118.22,EUR,37.780,MWh
Power,Intraday,Continuous,NL,IDFULL,QH,2021-08-20T07:45:00+02:00,2021-08-20T08:00:00+02:00,123.78,EUR,63.400,MWh
Power,Intraday,Continuous,NL,IDFULL,QH,2021-08-20T08:00:00+02:00,2021-08-20T08:15:00+02:00,129.24,EUR,30.880,MWh
Power,Intraday,Continuous,NL,IDFULL,QH,2021-08-20T08:15:00+02:00,2021-08-20T08:30:00+02:00,125.59,EUR,24.100,MWh
Power,Intraday,Continuous,NL,IDFULL,QH,2021-08-20T08:30:00+02:00,2021-08-20T08:45:00+02:00,115.58,EUR,27.300,MWh
Power,Intraday,Continuous,NL,IDFULL,QH,2021-08-20T08:45:00+02:00,2021-08-20T09:00:00+02:00,110.21,EUR,42.830,MWh
Power,Intraday,Continuous,NL,IDFULL,QH,2021-08-20T09:00:00+02:00,2021-08-20T09:15:00+02:00,133.60,EUR,64.530,MWh
Power,Intraday,Continuous,NL,IDFULL,QH,2021-08-20T09:15:00+02:00,2021-08-20T09:30:00+02:00,115.19,EUR,48.500,MWh
Power,Intraday,Continuous,NL,IDFULL,QH,2021-08-20T09:30:00+02:00,2021-08-20T09:45:00+02:00,104.97,EUR,83.050,MWh
Power,Intraday,Continuous,NL,IDFULL,QH,2021-08-20T09:45:00+02:00,2021-08-20T10:00:00+02:00,98.32,EUR,118.700,MWh
Power,Intraday,Continuous,NL,IDFULL,QH,2021-08-20T10:00:00+02:00,2021-08-20T10:15:00+02:00,122.27,EUR,106.630,MWh
Power,Intraday,Continuous,NL,IDFULL,QH,2021-08-20T10:15:00+02:00,2021-08-20T10:30:00+02:00,105.96,EUR,106.380,MWh
Power,Intraday,Continuous,NL,IDFULL,QH,2021-08-20T10:30:00+02:00,2021-08-20T10:45:00+02:00,97.01,EUR,106.150,MWh
Power,Intraday,Continuous,NL,IDFULL,QH,2021-08-20T10:45:00+02:00,2021-08-20T11:00:00+02:00,90.44,EUR,128.080,MWh
Power,Intraday,Continuous,NL,IDFULL,QH,2021-08-20T11:00:00+02:00,2021-08-20T11:15:00+02:00,114.74,EUR,94.630,MWh
Power,Intraday,Continuous,NL,IDFULL,QH,2021-08-20T11:15:00+02:00,2021-08-20T11:30:00+02:00,102.17,EUR,52.050,MWh
Power,Intraday,Continuous,NL,IDFULL,QH,2021-08-20T11:30:00+02:00,2021-08-20T11:45:00+02:00,100.64,EUR,45.230,MWh
Power,Intraday,Continuous,NL,IDFULL,QH,2021-08-20T11:45:00+02:00,2021-08-20T12:00:00+02:00,92.77,EUR,61.450,MWh
Power,Intraday,Continuous,NL,IDFULL,QH,2021-08-20T12:00:00+02:00,2021-08-20T12:15:00+02:00,114.03,EUR,32.780,MWh
Power,Intraday,Continuous,NL,IDFULL,QH,2021-08-20T12:15:00+02:00,2021-08-20T12:30:00+02:00,98.93,EUR,38.650,MWh
Power,Intraday,Continuous,NL,IDFULL,QH,2021-08-20T12:30:00+02:00,2021-08-20T12:45:00+02:00,97.12,EUR,51.980,MWh
Power,Intraday,Continuous,NL,IDFULL,QH,2021-08-20T12:45:00+02:00,2021-08-20T13:00:00+02:00,85.18,EUR,87.550,MWh
Power,Intraday,Continuous,NL,IDFULL,QH,2021-08-20T13:00:00+02:00,2021-08-20T13:15:00+02:00,97.36,EUR,26.980,MWh
Power,Intraday,Continuous,NL,IDFULL,QH,2021-08-20T13:15:00+02:00,2021-08-20T13:30:00+02:00,86.21,EUR,66.230,MWh
Power,Intraday,Continuous,NL,IDFULL,QH,2021-08-20T13:30:00+02:00,2021-08-20T13:45:00+02:00,82.74,EUR,62.200,MWh
Power,Intraday,Continuous,NL,IDFULL,QH,2021-08-20T13:45:00+02:00,2021-08-20T14:00:00+02:00,75.73,EUR,60.780,MWh
Power,Intraday,Continuous,NL,IDFULL,QH,2021-08-20T14:00:00+02:00,2021-08-20T14:15:00+02:00,84.00,EUR,11.000,MWh
Power,Intraday,Continuous,NL,IDFULL,QH,2021-08-20T14:15:00+02:00,2021-08-20T14:30:00+02:00,85.39,EUR,18.400,MWh
Power,Intraday,Continuous,NL,IDFULL,QH,2021-08-20T14:30:00+02:00,2021-08-20T14:45:00+02:00,86.40,EUR,60.630,MWh
Power,Intraday,Continuous,NL,IDFULL,QH,2021-08-20T14:45:00+02:00,2021-08-20T15:00:00+02:00,91.22,EUR,68.850,MWh
Power,Intraday,Continuous,NL,IDFULL,QH,2021-08-20T15:00:00+02:00,2021-08-20T15:15:00+02:00,81.32,EUR,104.750,MWh
Power,Intraday,Continuous,NL,IDFULL,QH,2021-08-20T15:15:00+02:00,2021-08-20T15:30:00+02:00,82.64,EUR,31.250,MWh
Power,Intraday,Continuous,NL,IDFULL,QH,2021-08-20T15:30:00+02:00,2021-08-20T15:45:00+02:00,82.54,EUR,84.930,MWh
Power,Intraday,Continuous,NL,IDFULL,QH,2021-08-20T15:45:00+02:00,2021-08-20T16:00:00+02:00,95.02,EUR,53.450,MWh
Power,Intraday,Continuous,NL,IDFULL,QH,2021-08-20T16:00:00+02:00,2021-08-20T16:15:00+02:00,81.78,EUR,127.000,MWh
Power,Intraday,Continuous,NL,IDFULL,QH,2021-08-20T16:15:00+02:00,2021-08-20T16:30:00+02:00,86.23,EUR,45.200,MWh
Power,Intraday,Continuous,NL,IDFULL,QH,2021-08-20T16:30:00+02:00,2021-08-20T16:45:00+02:00,89.91,EUR,92.730,MWh
Power,Intraday,Continuous,NL,IDFULL,QH,2021-08-20T16:45:00+02:00,2021-08-20T17:00:00+02:00,110.67,EUR,95.300,MWh
Power,Intraday,Continuous,NL,IDFULL,QH,2021-08-20T17:00:00+02:00,2021-08-20T17:15:00+02:00,79.36,EUR,57.800,MWh
Power,Intraday,Continuous,NL,IDFULL,QH,2021-08-20T17:15:00+02:00,2021-08-20T17:30:00+02:00,100.65,EUR,16.630,MWh
Power,Intraday,Continuous,NL,IDFULL,QH,2021-08-20T17:30:00+02:00,2021-08-20T17:45:00+02:00,107.81,EUR,60.080,MWh
Power,Intraday,Continuous,NL,IDFULL,QH,2021-08-20T17:45:00+02:00,2021-08-20T18:00:00+02:00,114.21,EUR,75.380,MWh
Power,Intraday,Continuous,NL,IDFULL,QH,2021-08-20T18:00:00+02:00,2021-08-20T18:15:00+02:00,94.60,EUR,50.200,MWh
Power,Intraday,Continuous,NL,IDFULL,QH,2021-08-20T18:15:00+02:00,2021-08-20T18:30:00+02:00,107.82,EUR,36.950,MWh
Power,Intraday,Continuous,NL,IDFULL,QH,2021-08-20T18:30:00+02:00,2021-08-20T18:45:00+02:00,115.69,EUR,48.480,MWh
Power,Intraday,Continuous,NL,IDFULL,QH,2021-08-20T18:45:00+02:00,2021-08-20T19:00:00+02:00,122.28,EUR,66.930,MWh
Power,Intraday,Continuous,NL,IDFULL,QH,2021-08-20T19:00:00+02:00,2021-08-20T19:15:00+02:00,114.48,EUR,125.300,MWh
Power,Intraday,Continuous,NL,IDFULL,QH,2021-08-20T19:15:00+02:00,2021-08-20T19:30:00+02:00,120.85,EUR,51.480,MWh
Power,Intraday,Continuous,NL,IDFULL,QH,2021-08-20T19:30:00+02:00,2021-08-20T19:45:00+02:00,128.54,EUR,52.950,MWh
Power,Intraday,Continuous,NL,IDFULL,QH,2021-08-20T19:45:00+02:00,2021-08-20T20:00:00+02:00,158.16,EUR,53.200,MWh
Power,Intraday,Continuous,NL,IDFULL,QH,2021-08-20T20:00:00+02:00,2021-08-20T20:15:00+02:00,149.51,EUR,35.500,MWh
Power,Intraday,Continuous,NL,IDFULL,QH,2021-08-20T20:15:00+02:00,2021-08-20T20:30:00+02:00,129.57,EUR,31.150,MWh
Power,Intraday,Continuous,NL,IDFULL,QH,2021-08-20T20:30:00+02:00,2021-08-20T20:45:00+02:00,125.83,EUR,29.300,MWh
Power,Intraday,Continuous,NL,IDFULL,QH,2021-08-20T20:45:00+02:00,2021-08-20T21:00:00+02:00,120.87,EUR,30.250,MWh
Power,Intraday,Continuous,NL,IDFULL,QH,2021-08-20T21:00:00+02:00,2021-08-20T21:15:00+02:00,139.57,EUR,19.880,MWh
Power,Intraday,Continuous,NL,IDFULL,QH,2021-08-20T21:15:00+02:00,2021-08-20T21:30:00+02:00,127.31,EUR,22.880,MWh
Power,Intraday,Continuous,NL,IDFULL,QH,2021-08-20T21:30:00+02:00,2021-08-20T21:45:00+02:00,122.23,EUR,21.880,MWh
Power,Intraday,Continuous,NL,IDFULL,QH,2021-08-20T21:45:00+02:00,2021-08-20T22:00:00+02:00,113.59,EUR,57.300,MWh
Power,Intraday,Continuous,NL,IDFULL,QH,2021-08-20T22:00:00+02:00,2021-08-20T22:15:00+02:00,122.23,EUR,23.250,MWh
Power,Intraday,Continuous,NL,IDFULL,QH,2021-08-20T22:15:00+02:00,2021-08-20T22:30:00+02:00,114.84,EUR,8.050,MWh
Power,Intraday,Continuous,NL,IDFULL,QH,2021-08-20T22:30:00+02:00,2021-08-20T22:45:00+02:00,111.59,EUR,21.030,MWh
Power,Intraday,Continuous,NL,IDFULL,QH,2021-08-20T22:45:00+02:00,2021-08-20T23:00:00+02:00,103.06,EUR,82.250,MWh
Power,Intraday,Continuous,NL,IDFULL,QH,2021-08-20T23:00:00+02:00,2021-08-20T23:15:00+02:00,119.64,EUR,47.900,MWh
Power,Intraday,Continuous,NL,IDFULL,QH,2021-08-20T23:15:00+02:00,2021-08-20T23:30:00+02:00,108.66,EUR,30.880,MWh
Power,Intraday,Continuous,NL,IDFULL,QH,2021-08-20T23:30:00+02:00,2021-08-20T23:45:00+02:00,104.22,EUR,43.250,MWh
Power,Intraday,Continuous,NL,IDFULL,QH,2021-08-20T23:45:00+02:00,2021-08-21T00:00:00+02:00,95.60,EUR,100.300,MWh
Power,Intraday,Continuous,NL,ID1,QH,2021-08-20T00:00:00+02:00,2021-08-20T00:15:00+02:00,105.57,EUR,,MWh
Power,Intraday,Continuous,NL,ID1,QH,2021-08-20T00:15:00+02:00,2021-08-20T00:30:00+02:00,87.46,EUR,,MWh
Power,Intraday,Continuous,NL,ID1,QH,2021-08-20T00:30:00+02:00,2021-08-20T00:45:00+02:00,80.86,EUR,,MWh
Power,Intraday,Continuous,NL,ID1,QH,2021-08-20T00:45:00+02:00,2021-08-20T01:00:00+02:00,78.00,EUR,,MWh
Power,Intraday,Continuous,NL,ID1,QH,2021-08-20T01:00:00+02:00,2021-08-20T01:15:00+02:00,95.94,EUR,,MWh
Power,Intraday,Continuous,NL,ID1,QH,2021-08-20T01:15:00+02:00,2021-08-20T01:30:00+02:00,87.00,EUR,,MWh
Power,Intraday,Continuous,NL,ID1,QH,2021-08-20T01:30:00+02:00,2021-08-20T01:45:00+02:00,81.40,EUR,,MWh
Power,Intraday,Continuous,NL,ID1,QH,2021-08-20T01:45:00+02:00,2021-08-20T02:00:00+02:00,80.37,EUR,,MWh
Power,Intraday,Continuous,NL,ID1,QH,2021-08-20T02:00:00+02:00,2021-08-20T02:15:00+02:00,81.37,EUR,,MWh
Power,Intraday,Continuous,NL,ID1,QH,2021-08-20T02:15:00+02:00,2021-08-20T02:30:00+02:00,81.98,EUR,,MWh
Power,Intraday,Continuous,NL,ID1,QH,2021-08-20T02:30:00+02:00,2021-08-20T02:45:00+02:00,60.00,EUR,2.500,MWh
Power,Intraday,Continuous,NL,ID1,QH,2021-08-20T02:45:00+02:00,2021-08-20T03:00:00+02:00,78.55,EUR,,MWh
Power,Intraday,Continuous,NL,ID1,QH,2021-08-20T03:00:00+02:00,2021-08-20T03:15:00+02:00,80.04,EUR,,MWh
Power,Intraday,Continuous,NL,ID1,QH,2021-08-20T03:15:00+02:00,2021-08-20T03:30:00+02:00,60.00,EUR,4.500,MWh
Power,Intraday,Continuous,NL,ID1,QH,2021-08-20T03:30:00+02:00,2021-08-20T03:45:00+02:00,60.00,EUR,6.250,MWh
Power,Intraday,Continuous,NL,ID1,QH,2021-08-20T03:45:00+02:00,2021-08-20T04:00:00+02:00,79.04,EUR,,MWh
Power,Intraday,Continuous,NL,ID1,QH,2021-08-20T04:00:00+02:00,2021-08-20T04:15:00+02:00,74.41,EUR,,MWh
Power,Intraday,Continuous,NL,ID1,QH,2021-08-20T04:15:00+02:00,2021-08-20T04:30:00+02:00,78.58,EUR,,MWh
Power,Intraday,Continuous,NL,ID1,QH,2021-08-20T04:30:00+02:00,2021-08-20T04:45:00+02:00,80.58,EUR,,MWh
Power,Intraday,Continuous,NL,ID1,QH,2021-08-20T04:45:00+02:00,2021-08-20T05:00:00+02:00,60.00,EUR,2.500,MWh
Power,Intraday,Continuous,NL,ID1,QH,2021-08-20T05:00:00+02:00,2021-08-20T05:15:00+02:00,77.36,EUR,,MWh
Power,Intraday,Continuous,NL,ID1,QH,2021-08-20T05:15:00+02:00,2021-08-20T05:30:00+02:00,79.32,EUR,,MWh
Power,Intraday,Continuous,NL,ID1,QH,2021-08-20T05:30:00+02:00,2021-08-20T05:45:00+02:00,60.00,EUR,7.500,MWh
Power,Intraday,Continuous,NL,ID1,QH,2021-08-20T05:45:00+02:00,2021-08-20T06:00:00+02:00,104.28,EUR,,MWh
Power,Intraday,Continuous,NL,ID1,QH,2021-08-20T06:00:00+02:00,2021-08-20T06:15:00+02:00,78.28,EUR,,MWh
Power,Intraday,Continuous,NL,ID1,QH,2021-08-20T06:15:00+02:00,2021-08-20T06:30:00+02:00,101.48,EUR,,MWh
Power,Intraday,Continuous,NL,ID1,QH,2021-08-20T06:30:00+02:00,2021-08-20T06:45:00+02:00,104.17,EUR,,MWh
Power,Intraday,Continuous,NL,ID1,QH,2021-08-20T06:45:00+02:00,2021-08-20T07:00:00+02:00,112.24,EUR,,MWh
Power,Intraday,Continuous,NL,ID1,QH,2021-08-20T07:00:00+02:00,2021-08-20T07:15:00+02:00,101.92,EUR,,MWh
Power,Intraday,Continuous,NL,ID1,QH,2021-08-20T07:15:00+02:00,2021-08-20T07:30:00+02:00,112.44,EUR,,MWh
Power,Intraday,Continuous,NL,ID1,QH,2021-08-20T07:30:00+02:00,2021-08-20T07:45:00+02:00,115.00,EUR,5.000,MWh
Power,Intraday,Continuous,NL,ID1,QH,2021-08-20T07:45:00+02:00,2021-08-20T08:00:00+02:00,113.88,EUR,,MWh
Power,Intraday,Continuous,NL,ID1,QH,2021-08-20T08:00:00+02:00,2021-08-20T08:15:00+02:00,145.10,EUR,2.500,MWh
Power,Intraday,Continuous,NL,ID1,QH,2021-08-20T08:15:00+02:00,2021-08-20T08:30:00+02:00,128.45,EUR,,MWh
Power,Intraday,Continuous,NL,ID1,QH,2021-08-20T08:30:00+02:00,2021-08-20T08:45:00+02:00,116.83,EUR,,MWh
Power,Intraday,Continuous,NL,ID1,QH,2021-08-20T08:45:00+02:00,2021-08-20T09:00:00+02:00,109.47,EUR,,MWh
Power,Intraday,Continuous,NL,ID1,QH,2021-08-20T09:00:00+02:00,2021-08-20T09:15:00+02:00,133.65,EUR,,MWh
Power,Intraday,Continuous,NL,ID1,QH,2021-08-20T09:15:00+02:00,2021-08-20T09:30:00+02:00,114.96,EUR,,MWh
Power,Intraday,Continuous,NL,ID1,QH,2021-08-20T09:30:00+02:00,2021-08-20T09:45:00+02:00,104.98,EUR,,MWh
Power,Intraday,Continuous,NL,ID1,QH,2021-08-20T09:45:00+02:00,2021-08-20T10:00:00+02:00,98.67,EUR,,MWh
Power,Intraday,Continuous,NL,ID1,QH,2021-08-20T10:00:00+02:00,2021-08-20T10:15:00+02:00,122.56,EUR,,MWh
Power,Intraday,Continuous,NL,ID1,QH,2021-08-20T10:15:00+02:00,2021-08-20T10:30:00+02:00,104.49,EUR,,MWh
Power,Intraday,Continuous,NL,ID1,QH,2021-08-20T10:30:00+02:00,2021-08-20T10:45:00+02:00,96.23,EUR,,MWh
Power,Intraday,Continuous,NL,ID1,QH,2021-08-20T10:45:00+02:00,2021-08-20T11:00:00+02:00,115.00,EUR,6.230,MWh
Power,Intraday,Continuous,NL,ID1,QH,2021-08-20T11:00:00+02:00,2021-08-20T11:15:00+02:00,114.37,EUR,,MWh
Power,Intraday,Continuous,NL,ID1,QH,2021-08-20T11:15:00+02:00,2021-08-20T11:30:00+02:00,101.59,EUR,,MWh
Power,Intraday,Continuous,NL,ID1,QH,2021-08-20T11:30:00+02:00,2021-08-20T11:45:00+02:00,101.82,EUR,,MWh
Power,Intraday,Continuous,NL,ID1,QH,2021-08-20T11:45:00+02:00,2021-08-20T12:00:00+02:00,91.07,EUR,3.680,MWh
Power,Intraday,Continuous,NL,ID1,QH,2021-08-20T12:00:00+02:00,2021-08-20T12:15:00+02:00,113.94,EUR,,MWh
Power,Intraday,Continuous,NL,ID1,QH,2021-08-20T12:15:00+02:00,2021-08-20T12:30:00+02:00,99.14,EUR,,MWh
Power,Intraday,Continuous,NL,ID1,QH,2021-08-20T12:30:00+02:00,2021-08-20T12:45:00+02:00,97.07,EUR,,MWh
Power,Intraday,Continuous,NL,ID1,QH,2021-08-20T12:45:00+02:00,2021-08-20T13:00:00+02:00,85.64,EUR,,MWh
Power,Intraday,Continuous,NL,ID1,QH,2021-08-20T13:00:00+02:00,2021-08-20T13:15:00+02:00,60.00,EUR,2.500,MWh
Power,Intraday,Continuous,NL,ID1,QH,2021-08-20T13:15:00+02:00,2021-08-20T13:30:00+02:00,86.23,EUR,,MWh
Power,Intraday,Continuous,NL,ID1,QH,2021-08-20T13:30:00+02:00,2021-08-20T13:45:00+02:00,82.62,EUR,,MWh
Power,Intraday,Continuous,NL,ID1,QH,2021-08-20T13:45:00+02:00,2021-08-20T14:00:00+02:00,76.01,EUR,,MWh
Power,Intraday,Continuous,NL,ID1,QH,2021-08-20T14:00:00+02:00,2021-08-20T14:15:00+02:00,85.80,EUR,3.750,MWh
Power,Intraday,Continuous,NL,ID1,QH,2021-08-20T14:15:00+02:00,2021-08-20T14:30:00+02:00,85.53,EUR,,MWh
Power,Intraday,Continuous,NL,ID1,QH,2021-08-20T14:30:00+02:00,2021-08-20T14:45:00+02:00,87.30,EUR,,MWh
Power,Intraday,Continuous,NL,ID1,QH,2021-08-20T14:45:00+02:00,2021-08-20T15:00:00+02:00,91.68,EUR,,MWh
Power,Intraday,Continuous,NL,ID1,QH,2021-08-20T15:00:00+02:00,2021-08-20T15:15:00+02:00,81.37,EUR,,MWh
Power,Intraday,Continuous,NL,ID1,QH,2021-08-20T15:15:00+02:00,2021-08-20T15:30:00+02:00,82.44,EUR,,MWh
Power,Intraday,Continuous,NL,ID1,QH,2021-08-20T15:30:00+02:00,2021-08-20T15:45:00+02:00,83.07,EUR,,MWh
Power,Intraday,Continuous,NL,ID1,QH,2021-08-20T15:45:00+02:00,2021-08-20T16:00:00+02:00,96.12,EUR,,MWh
Power,Intraday,Continuous,NL,ID1,QH,2021-08-20T16:00:00+02:00,2021-08-20T16:15:00+02:00,119.47,EUR,6.600,MWh
Power,Intraday,Continuous,NL,ID1,QH,2021-08-20T16:15:00+02:00,2021-08-20T16:30:00+02:00,88.68,EUR,,MWh
Power,Intraday,Continuous,NL,ID1,QH,2021-08-20T16:30:00+02:00,2021-08-20T16:45:00+02:00,92.48,EUR,,MWh
Power,Intraday,Continuous,NL,ID1,QH,2021-08-20T16:45:00+02:00,2021-08-20T17:00:00+02:00,111.78,EUR,,MWh
Power,Intraday,Continuous,NL,ID1,QH,2021-08-20T17:00:00+02:00,2021-08-20T17:15:00+02:00,77.32,EUR,,MWh
Power,Intraday,Continuous,NL,ID1,QH,2021-08-20T17:15:00+02:00,2021-08-20T17:30:00+02:00,102.66,EUR,,MWh
Power,Intraday,Continuous,NL,ID1,QH,2021-08-20T17:30:00+02:00,2021-08-20T17:45:00+02:00,107.95,EUR,,MWh
Power,Intraday,Continuous,NL,ID1,QH,2021-08-20T17:45:00+02:00,2021-08-20T18:00:00+02:00,113.95,EUR,,MWh
Power,Intraday,Continuous,NL,ID1,QH,2021-08-20T18:00:00+02:00,2021-08-20T18:15:00+02:00,98.72,EUR,,MWh
Power,Intraday,Continuous,NL,ID1,QH,2021-08-20T18:15:00+02:00,2021-08-20T18:30:00+02:00,113.47,EUR,,MWh
Power,Intraday,Continuous,NL,ID1,QH,2021-08-20T18:30:00+02:00,2021-08-20T18:45:00+02:00,115.05,EUR,,MWh
Power,Intraday,Continuous,NL,ID1,QH,2021-08-20T18:45:00+02:00,2021-08-20T19:00:00+02:00,118.83,EUR,,MWh
Power,Intraday,Continuous,NL,ID1,QH,2021-08-20T19:00:00+02:00,2021-08-20T19:15:00+02:00,115.56,EUR,,MWh
Power,Intraday,Continuous,NL,ID1,QH,2021-08-20T19:15:00+02:00,2021-08-20T19:30:00+02:00,122.81,EUR,,MWh
Power,Intraday,Continuous,NL,ID1,QH,2021-08-20T19:30:00+02:00,2021-08-20T19:45:00+02:00,127.35,EUR,,MWh
Power,Intraday,Continuous,NL,ID1,QH,2021-08-20T19:45:00+02:00,2021-08-20T20:00:00+02:00,165.28,EUR,,MWh
Power,Intraday,Continuous,NL,ID1,QH,2021-08-20T20:00:00+02:00,2021-08-20T20:15:00+02:00,154.50,EUR,,MWh
Power,Intraday,Continuous,NL,ID1,QH,2021-08-20T20:15:00+02:00,2021-08-20T20:30:00+02:00,127.49,EUR,,MWh
Power,Intraday,Continuous,NL,ID1,QH,2021-08-20T20:30:00+02:00,2021-08-20T20:45:00+02:00,125.02,EUR,,MWh
Power,Intraday,Continuous,NL,ID1,QH,2021-08-20T20:45:00+02:00,2021-08-20T21:00:00+02:00,125.71,EUR,,MWh
Power,Intraday,Continuous,NL,ID1,QH,2021-08-20T21:00:00+02:00,2021-08-20T21:15:00+02:00,135.53,EUR,,MWh
Power,Intraday,Continuous,NL,ID1,QH,2021-08-20T21:15:00+02:00,2021-08-20T21:30:00+02:00,123.26,EUR,,MWh
Power,Intraday,Continuous,NL,ID1,QH,2021-08-20T21:30:00+02:00,2021-08-20T21:45:00+02:00,122.78,EUR,,MWh
Power,Intraday,Continuous,NL,ID1,QH,2021-08-20T21:45:00+02:00,2021-08-20T22:00:00+02:00,111.43,EUR,,MWh
Power,Intraday,Continuous,NL,ID1,QH,2021-08-20T22:00:00+02:00,2021-08-20T22:15:00+02:00,128.34,EUR,,MWh
Power,Intraday,Continuous,NL,ID1,QH,2021-08-20T22:15:00+02:00,2021-08-20T22:30:00+02:00,114.84,EUR,,MWh
Power,Intraday,Continuous,NL,ID1,QH,2021-08-20T22:30:00+02:00,2021-08-20T22:45:00+02:00,113.53,EUR,,MWh
Power,Intraday,Continuous,NL,ID1,QH,2021-08-20T22:45:00+02:00,2021-08-20T23:00:00+02:00,106.47,EUR,,MWh
Power,Intraday,Continuous,NL,ID1,QH,2021-08-20T23:00:00+02:00,2021-08-20T23:15:00+02:00,122.34,EUR,,MWh
Power,Intraday,Continuous,NL,ID1,QH,2021-08-20T23:15:00+02:00,2021-08-20T23:30:00+02:00,112.05,EUR,,MWh
Power,Intraday,Continuous,NL,ID1,QH,2021-08-20T23:30:00+02:00,2021-08-20T23:45:00+02:00,102.92,EUR,,MWh
Power,Intraday,Continuous,NL,ID1,QH,2021-08-20T23:45:00+02:00,2021-08-21T00:00:00+02:00,87.67,EUR,,MWh
Power,Intraday,Continuous,NL,ID3,QH,2021-08-20T00:00:00+02:00,2021-08-20T00:15:00+02:00,105.57,EUR,16.550,MWh
Power,Intraday,Continuous,NL,ID3,QH,2021-08-20T00:15:00+02:00,2021-08-20T00:30:00+02:00,87.46,EUR,13.480,MWh
Power,Intraday,Continuous,NL,ID3,QH,2021-08-20T00:30:00+02:00,2021-08-20T00:45:00+02:00,80.86,EUR,39.380,MWh
Power,Intraday,Continuous,NL,ID3,QH,2021-08-20T00:45:00+02:00,2021-08-20T01:00:00+02:00,78.00,EUR,25.380,MWh
Power,Intraday,Continuous,NL,ID3,QH,2021-08-20T01:00:00+02:00,2021-08-20T01:15:00+02:00,95.94,EUR,11.780,MWh
Power,Intraday,Continuous,NL,ID3,QH,2021-08-20T01:15:00+02:00,2021-08-20T01:30:00+02:00,87.00,EUR,19.580,MWh
Power,Intraday,Continuous,NL,ID3,QH,2021-08-20T01:30:00+02:00,2021-08-20T01:45:00+02:00,81.40,EUR,38.430,MWh
Power,Intraday,Continuous,NL,ID3,QH,2021-08-20T01:45:00+02:00,2021-08-20T02:00:00+02:00,80.37,EUR,21.330,MWh
Power,Intraday,Continuous,NL,ID3,QH,2021-08-20T02:00:00+02:00,2021-08-20T02:15:00+02:00,81.37,EUR,26.480,MWh
Power,Intraday,Continuous,NL,ID3,QH,2021-08-20T02:15:00+02:00,2021-08-20T02:30:00+02:00,81.98,EUR,23.330,MWh
Power,Intraday,Continuous,NL,ID3,QH,2021-08-20T02:30:00+02:00,2021-08-20T02:45:00+02:00,79.30,EUR,31.080,MWh
Power,Intraday,Continuous,NL,ID3,QH,2021-08-20T02:45:00+02:00,2021-08-20T03:00:00+02:00,78.55,EUR,21.230,MWh
Power,Intraday,Continuous,NL,ID3,QH,2021-08-20T03:00:00+02:00,2021-08-20T03:15:00+02:00,80.04,EUR,51.400,MWh
Power,Intraday,Continuous,NL,ID3,QH,2021-08-20T03:15:00+02:00,2021-08-20T03:30:00+02:00,76.30,EUR,23.800,MWh
Power,Intraday,Continuous,NL,ID3,QH,2021-08-20T03:30:00+02:00,2021-08-20T03:45:00+02:00,77.60,EUR,38.550,MWh
Power,Intraday,Continuous,NL,ID3,QH,2021-08-20T03:45:00+02:00,2021-08-20T04:00:00+02:00,79.04,EUR,53.800,MWh
Power,Intraday,Continuous,NL,ID3,QH,2021-08-20T04:00:00+02:00,2021-08-20T04:15:00+02:00,74.41,EUR,25.880,MWh
Power,Intraday,Continuous,NL,ID3,QH,2021-08-20T04:15:00+02:00,2021-08-20T04:30:00+02:00,78.58,EUR,20.430,MWh
Power,Intraday,Continuous,NL,ID3,QH,2021-08-20T04:30:00+02:00,2021-08-20T04:45:00+02:00,80.58,EUR,33.880,MWh
Power,Intraday,Continuous,NL,ID3,QH,2021-08-20T04:45:00+02:00,2021-08-20T05:00:00+02:00,82.31,EUR,10.430,MWh
Power,Intraday,Continuous,NL,ID3,QH,2021-08-20T05:00:00+02:00,2021-08-20T05:15:00+02:00,77.36,EUR,21.380,MWh
Power,Intraday,Continuous,NL,ID3,QH,2021-08-20T05:15:00+02:00,2021-08-20T05:30:00+02:00,79.32,EUR,25.180,MWh
Power,Intraday,Continuous,NL,ID3,QH,2021-08-20T05:30:00+02:00,2021-08-20T05:45:00+02:00,79.62,EUR,48.500,MWh
Power,Intraday,Continuous,NL,ID3,QH,2021-08-20T05:45:00+02:00,2021-08-20T06:00:00+02:00,104.28,EUR,16.330,MWh
Power,Intraday,Continuous,NL,ID3,QH,2021-08-20T06:00:00+02:00,2021-08-20T06:15:00+02:00,78.28,EUR,7.630,MWh
Power,Intraday,Continuous,NL,ID3,QH,2021-08-20T06:15:00+02:00,2021-08-20T06:30:00+02:00,101.48,EUR,8.880,MWh
Power,Intraday,Continuous,NL,ID3,QH,2021-08-20T06:30:00+02:00,2021-08-20T06:45:00+02:00,104.17,EUR,7.480,MWh
Power,Intraday,Continuous,NL,ID3,QH,2021-08-20T06:45:00+02:00,2021-08-20T07:00:00+02:00,112.24,EUR,23.730,MWh
Power,Intraday,Continuous,NL,ID3,QH,2021-08-20T07:00:00+02:00,2021-08-20T07:15:00+02:00,101.92,EUR,8.680,MWh
Power,Intraday,Continuous,NL,ID3,QH,2021-08-20T07:15:00+02:00,2021-08-20T07:30:00+02:00,112.44,EUR,17.500,MWh
Power,Intraday,Continuous,NL,ID3,QH,2021-08-20T07:30:00+02:00,2021-08-20T07:45:00+02:00,115.49,EUR,25.030,MWh
Power,Intraday,Continuous,NL,ID3,QH,2021-08-20T07:45:00+02:00,2021-08-20T08:00:00+02:00,113.88,EUR,29.430,MWh
Power,Intraday,Continuous,NL,ID3,QH,2021-08-20T08:00:00+02:00,2021-08-20T08:15:00+02:00,141.68,EUR,9.550,MWh
Power,Intraday,Continuous,NL,ID3,QH,2021-08-20T08:15:00+02:00,2021-08-20T08:30:00+02:00,128.45,EUR,10.300,MWh
Power,Intraday,Continuous,NL,ID3,QH,2021-08-20T08:30:00+02:00,2021-08-20T08:45:00+02:00,116.83,EUR,16.780,MWh
Power,Intraday,Continuous,NL,ID3,QH,2021-08-20T08:45:00+02:00,2021-08-20T09:00:00+02:00,109.47,EUR,29.350,MWh
Power,Intraday,Continuous,NL,ID3,QH,2021-08-20T09:00:00+02:00,2021-08-20T09:15:00+02:00,133.65,EUR,55.900,MWh
Power,Intraday,Continuous,NL,ID3,QH,2021-08-20T09:15:00+02:00,2021-08-20T09:30:00+02:00,114.96,EUR,40.180,MWh
Power,Intraday,Continuous,NL,ID3,QH,2021-08-20T09:30:00+02:00,2021-08-20T09:45:00+02:00,104.98,EUR,68.870,MWh
Power,Intraday,Continuous,NL,ID3,QH,2021-08-20T09:45:00+02:00,2021-08-20T10:00:00+02:00,98.67,EUR,89.730,MWh
Power,Intraday,Continuous,NL,ID3,QH,2021-08-20T10:00:00+02:00,2021-08-20T10:15:00+02:00,122.56,EUR,82.400,MWh
Power,Intraday,Continuous,NL,ID3,QH,2021-08-20T10:15:00+02:00,2021-08-20T10:30:00+02:00,104.49,EUR,87.930,MWh
Power,Intraday,Continuous,NL,ID3,QH,2021-08-20T10:30:00+02:00,2021-08-20T10:45:00+02:00,96.23,EUR,76.500,MWh
Power,Intraday,Continuous,NL,ID3,QH,2021-08-20T10:45:00+02:00,2021-08-20T11:00:00+02:00,90.07,EUR,69.730,MWh
Power,Intraday,Continuous,NL,ID3,QH,2021-08-20T11:00:00+02:00,2021-08-20T11:15:00+02:00,114.37,EUR,84.800,MWh
Power,Intraday,Continuous,NL,ID3,QH,2021-08-20T11:15:00+02:00,2021-08-20T11:30:00+02:00,101.59,EUR,45.180,MWh
Power,Intraday,Continuous,NL,ID3,QH,2021-08-20T11:30:00+02:00,2021-08-20T11:45:00+02:00,101.82,EUR,25.030,MWh
Power,Intraday,Continuous,NL,ID3,QH,2021-08-20T11:45:00+02:00,2021-08-20T12:00:00+02:00,92.69,EUR,38.480,MWh
Power,Intraday,Continuous,NL,ID3,QH,2021-08-20T12:00:00+02:00,2021-08-20T12:15:00+02:00,113.94,EUR,26.400,MWh
Power,Intraday,Continuous,NL,ID3,QH,2021-08-20T12:15:00+02:00,2021-08-20T12:30:00+02:00,99.14,EUR,34.950,MWh
Power,Intraday,Continuous,NL,ID3,QH,2021-08-20T12:30:00+02:00,2021-08-20T12:45:00+02:00,97.07,EUR,46.530,MWh
Power,Intraday,Continuous,NL,ID3,QH,2021-08-20T12:45:00+02:00,2021-08-20T13:00:00+02:00,85.64,EUR,73.400,MWh
Power,Intraday,Continuous,NL,ID3,QH,2021-08-20T13:00:00+02:00,2021-08-20T13:15:00+02:00,97.17,EUR,25.680,MWh
Power,Intraday,Continuous,NL,ID3,QH,2021-08-20T13:15:00+02:00,2021-08-20T13:30:00+02:00,86.23,EUR,63.180,MWh
Power,Intraday,Continuous,NL,ID3,QH,2021-08-20T13:30:00+02:00,2021-08-20T13:45:00+02:00,82.62,EUR,60.530,MWh
Power,Intraday,Continuous,NL,ID3,QH,2021-08-20T13:45:00+02:00,2021-08-20T14:00:00+02:00,76.01,EUR,43.430,MWh
Power,Intraday,Continuous,NL,ID3,QH,2021-08-20T14:00:00+02:00,2021-08-20T14:15:00+02:00,84.05,EUR,8.450,MWh
Power,Intraday,Continuous,NL,ID3,QH,2021-08-20T14:15:00+02:00,2021-08-20T14:30:00+02:00,85.53,EUR,17.100,MWh
Power,Intraday,Continuous,NL,ID3,QH,2021-08-20T14:30:00+02:00,2021-08-20T14:45:00+02:00,87.30,EUR,50.250,MWh
Power,Intraday,Continuous,NL,ID3,QH,2021-08-20T14:45:00+02:00,2021-08-20T15:00:00+02:00,91.68,EUR,63.380,MWh
Power,Intraday,Continuous,NL,ID3,QH,2021-08-20T15:00:00+02:00,2021-08-20T15:15:00+02:00,81.37,EUR,76.480,MWh
Power,Intraday,Continuous,NL,ID3,QH,2021-08-20T15:15:00+02:00,2021-08-20T15:30:00+02:00,82.44,EUR,26.300,MWh
Power,Intraday,Continuous,NL,ID3,QH,2021-08-20T15:30:00+02:00,2021-08-20T15:45:00+02:00,83.07,EUR,53.330,MWh
Power,Intraday,Continuous,NL,ID3,QH,2021-08-20T15:45:00+02:00,2021-08-20T16:00:00+02:00,96.12,EUR,44.380,MWh
Power,Intraday,Continuous,NL,ID3,QH,2021-08-20T16:00:00+02:00,2021-08-20T16:15:00+02:00,82.50,EUR,84.400,MWh
Power,Intraday,Continuous,NL,ID3,QH,2021-08-20T16:15:00+02:00,2021-08-20T16:30:00+02:00,88.68,EUR,28.930,MWh
Power,Intraday,Continuous,NL,ID3,QH,2021-08-20T16:30:00+02:00,2021-08-20T16:45:00+02:00,92.48,EUR,69.080,MWh
Power,Intraday,Continuous,NL,ID3,QH,2021-08-20T16:45:00+02:00,2021-08-20T17:00:00+02:00,111.78,EUR,70.630,MWh
Power,Intraday,Continuous,NL,ID3,QH,2021-08-20T17:00:00+02:00,2021-08-20T17:15:00+02:00,77.32,EUR,20.750,MWh
Power,Intraday,Continuous,NL,ID3,QH,2021-08-20T17:15:00+02:00,2021-08-20T17:30:00+02:00,102.66,EUR,7.300,MWh
Power,Intraday,Continuous,NL,ID3,QH,2021-08-20T17:30:00+02:00,2021-08-20T17:45:00+02:00,107.95,EUR,45.280,MWh
Power,Intraday,Continuous,NL,ID3,QH,2021-08-20T17:45:00+02:00,2021-08-20T18:00:00+02:00,113.95,EUR,59.650,MWh
Power,Intraday,Continuous,NL,ID3,QH,2021-08-20T18:00:00+02:00,2021-08-20T18:15:00+02:00,98.72,EUR,27.850,MWh
Power,Intraday,Continuous,NL,ID3,QH,2021-08-20T18:15:00+02:00,2021-08-20T18:30:00+02:00,113.47,EUR,11.880,MWh
Power,Intraday,Continuous,NL,ID3,QH,2021-08-20T18:30:00+02:00,2021-08-20T18:45:00+02:00,115.05,EUR,39.900,MWh
Power,Intraday,Continuous,NL,ID3,QH,2021-08-20T18:45:00+02:00,2021-08-20T19:00:00+02:00,118.83,EUR,52.180,MWh
Power,Intraday,Continuous,NL,ID3,QH,2021-08-20T19:00:00+02:00,2021-08-20T19:15:00+02:00,115.56,EUR,99.750,MWh
Power,Intraday,Continuous,NL,ID3,QH,2021-08-20T19:15:00+02:00,2021-08-20T19:30:00+02:00,122.81,EUR,27.150,MWh
Power,Intraday,Continuous,NL,ID3,QH,2021-08-20T19:30:00+02:00,2021-08-20T19:45:00+02:00,127.35,EUR,34.100,MWh
Power,Intraday,Continuous,NL,ID3,QH,2021-08-20T19:45:00+02:00,2021-08-20T20:00:00+02:00,165.28,EUR,33.880,MWh
Power,Intraday,Continuous,NL,ID3,QH,2021-08-20T20:00:00+02:00,2021-08-20T20:15:00+02:00,154.50,EUR,8.800,MWh
Power,Intraday,Continuous,NL,ID3,QH,2021-08-20T20:15:00+02:00,2021-08-20T20:30:00+02:00,127.49,EUR,6.780,MWh
Power,Intraday,Continuous,NL,ID3,QH,2021-08-20T20:30:00+02:00,2021-08-20T20:45:00+02:00,125.02,EUR,4.280,MWh
Power,Intraday,Continuous,NL,ID3,QH,2021-08-20T20:45:00+02:00,2021-08-20T21:00:00+02:00,125.71,EUR,3.430,MWh
Power,Intraday,Continuous,NL,ID3,QH,2021-08-20T21:00:00+02:00,2021-08-20T21:15:00+02:00,135.53,EUR,2.630,MWh
Power,Intraday,Continuous,NL,ID3,QH,2021-08-20T21:15:00+02:00,2021-08-20T21:30:00+02:00,123.26,EUR,6.730,MWh
Power,Intraday,Continuous,NL,ID3,QH,2021-08-20T21:30:00+02:00,2021-08-20T21:45:00+02:00,122.78,EUR,3.630,MWh
Power,Intraday,Continuous,NL,ID3,QH,2021-08-20T21:45:00+02:00,2021-08-20T22:00:00+02:00,111.43,EUR,29.580,MWh
Power,Intraday,Continuous,NL,ID3,QH,2021-08-20T22:00:00+02:00,2021-08-20T22:15:00+02:00,128.34,EUR,6.280,MWh
Power,Intraday,Continuous,NL,ID3,QH,2021-08-20T22:15:00+02:00,2021-08-20T22:30:00+02:00,114.84,EUR,,MWh
Power,Intraday,Continuous,NL,ID3,QH,2021-08-20T22:30:00+02:00,2021-08-20T22:45:00+02:00,113.53,EUR,3.780,MWh
Power,Intraday,Continuous,NL,ID3,QH,2021-08-20T22:45:00+02:00,2021-08-20T23:00:00+02:00,106.47,EUR,44.150,MWh
Power,Intraday,Continuous,NL,ID3,QH,2021-08-20T23:00:00+02:00,2021-08-20T23:15:00+02:00,122.34,EUR,20.080,MWh
Power,Intraday,Continuous,NL,ID3,QH,2021-08-20T23:15:00+02:00,2021-08-20T23:30:00+02:00,112.05,EUR,9.350,MWh
Power,Intraday,Continuous,NL,ID3,QH,2021-08-20T23:30:00+02:00,2021-08-20T23:45:00+02:00,102.92,EUR,10.530,MWh
Power,Intraday,Continuous,NL,ID3,QH,2021-08-20T23:45:00+02:00,2021-08-21T00:00:00+02:00,87.67,EUR,27.100,MWh
Power,Intraday,Continuous,NL,IDFULL,BASE,2021-08-20T00:00:00+02:00,2021-08-21T00:00:00+02:00,101.42,EUR,19515.300,MWh
Power,Intraday,Continuous,NL,IDFULL,PEAK,2021-08-20T08:00:00+02:00,2021-08-20T20:00:00+02:00,102.90,EUR,12491.600,MWh
