Commodity,NominationModality,TradingModality,MarketArea,IndexName,TimeResolution,DeliveryStart,DeliveryEnd,IndexPrice,Currency,Volume,VolumeUnit
Power,Intraday,Continuous,NL,IDFULL,H,2021-08-27T00:00:00+02:00,2021-08-27T01:00:00+02:00,90.35,EUR,671.300,MWh
Power,Intraday,Continuous,NL,IDFULL,H,2021-08-27T01:00:00+02:00,2021-08-27T02:00:00+02:00,83.50,EUR,880.000,MWh
Power,Intraday,Continuous,NL,IDFULL,H,2021-08-27T02:00:00+02:00,2021-08-27T03:00:00+02:00,81.16,EUR,790.600,MWh
Power,Intraday,Continuous,NL,IDFULL,H,2021-08-27T03:00:00+02:00,2021-08-27T04:00:00+02:00,80.20,EUR,581.600,MWh
Power,Intraday,Continuous,NL,IDFULL,H,2021-08-27T04:00:00+02:00,2021-08-27T05:00:00+02:00,79.92,EUR,393.200,MWh
Power,Intraday,Continuous,NL,IDFULL,H,2021-08-27T05:00:00+02:00,2021-08-27T06:00:00+02:00,82.15,EUR,415.700,MWh
Power,Intraday,Continuous,NL,IDFULL,H,2021-08-27T06:00:00+02:00,2021-08-27T07:00:00+02:00,100.48,EUR,455.500,MWh
Power,Intraday,Continuous,NL,IDFULL,H,2021-08-27T07:00:00+02:00,2021-08-27T08:00:00+02:00,114.97,EUR,760.400,MWh
Power,Intraday,Continuous,NL,IDFULL,H,2021-08-27T08:00:00+02:00,2021-08-27T09:00:00+02:00,119.10,EUR,743.000,MWh
Power,Intraday,Continuous,NL,IDFULL,H,2021-08-27T09:00:00+02:00,2021-08-27T10:00:00+02:00,111.25,EUR,719.000,MWh
Power,Intraday,Continuous,NL,IDFULL,H,2021-08-27T10:00:00+02:00,2021-08-27T11:00:00+02:00,102.46,EUR,816.600,MWh
Power,Intraday,Continuous,NL,IDFULL,H,2021-08-27T11:00:00+02:00,2021-08-27T12:00:00+02:00,100.03,EUR,852.300,MWh
Power,Intraday,Continuous,NL,IDFULL,H,2021-08-27T12:00:00+02:00,2021-08-27T13:00:00+02:00,92.66,EUR,779.700,MWh
Power,Intraday,Continuous,NL,IDFULL,H,2021-08-27T13:00:00+02:00,2021-08-27T14:00:00+02:00,89.80,EUR,877.400,MWh
Power,Intraday,Continuous,NL,IDFULL,H,2021-08-27T14:00:00+02:00,2021-08-27T15:00:00+02:00,80.26,EUR,1833.800,MWh
Power,Intraday,Continuous,NL,IDFULL,H,2021-08-27T15:00:00+02:00,2021-08-27T16:00:00+02:00,81.96,EUR,1219.000,MWh
Power,Intraday,Continuous,NL,IDFULL,H,2021-08-27T16:00:00+02:00,2021-08-27T17:00:00+02:00,85.87,EUR,986.400,MWh
Power,Intraday,Continuous,NL,IDFULL,H,2021-08-27T17:00:00+02:00,2021-08-27T18:00:00+02:00,90.59,EUR,819.500,MWh
Power,Intraday,Continuous,NL,IDFULL,H,2021-08-27T18:00:00+02:00,2021-08-27T19:00:00+02:00,104.61,EUR,853.400,MWh
Power,Intraday,Continuous,NL,IDFULL,H,2021-08-27T19:00:00+02:00,2021-08-27T20:00:00+02:00,113.57,EUR,1025.700,MWh
Power,Intraday,Continuous,NL,IDFULL,H,2021-08-27T20:00:00+02:00,2021-08-27T21:00:00+02:00,115.45,EUR,1013.300,MWh
Power,Intraday,Continuous,NL,IDFULL,H,2021-08-27T21:00:00+02:00,2021-08-27T22:00:00+02:00,109.78,EUR,1173.000,MWh
Power,Intraday,Continuous,NL,IDFULL,H,2021-08-27T22:00:00+02:00,2021-08-27T23:00:00+02:00,105.61,EUR,1060.400,MWh
Power,Intraday,Continuous,NL,IDFULL,H,2021-08-27T23:00:00+02:00,2021-08-28T00:00:00+02:00,103.24,EUR,307.400,MWh
Power,Intraday,Continuous,NL,ID1,H,2021-08-27T00:00:00+02:00,2021-08-27T01:00:00+02:00,85.00,EUR,12.500,MWh
Power,Intraday,Continuous,NL,ID1,H,2021-08-27T01:00:00+02:00,2021-08-27T02:00:00+02:00,83.01,EUR,,MWh
Power,Intraday,Continuous,NL,ID1,H,2021-08-27T02:00:00+02:00,2021-08-27T03:00:00+02:00,80.24,EUR,,MWh
Power,Intraday,Continuous,NL,ID1,H,2021-08-27T03:00:00+02:00,2021-08-27T04:00:00+02:00,78.58,EUR,,MWh
Power,Intraday,Continuous,NL,ID1,H,2021-08-27T04:00:00+02:00,2021-08-27T05:00:00+02:00,78.42,EUR,,MWh
Power,Intraday,Continuous,NL,ID1,H,2021-08-27T05:00:00+02:00,2021-08-27T06:00:00+02:00,81.34,EUR,,MWh
Power,Intraday,Continuous,NL,ID1,H,2021-08-27T06:00:00+02:00,2021-08-27T07:00:00+02:00,109.67,EUR,30.000,MWh
Power,Intraday,Continuous,NL,ID1,H,2021-08-27T07:00:00+02:00,2021-08-27T08:00:00+02:00,115.53,EUR,,MWh
Power,Intraday,Continuous,NL,ID1,H,2021-08-27T08:00:00+02:00,2021-08-27T09:00:00+02:00,118.86,EUR,,MWh
Power,Intraday,Continuous,NL,ID1,H,2021-08-27T09:00:00+02:00,2021-08-27T10:00:00+02:00,108.74,EUR,,MWh
Power,Intraday,Continuous,NL,ID1,H,2021-08-27T10:00:00+02:00,2021-08-27T11:00:00+02:00,108.11,EUR,40.000,MWh
Power,Intraday,Continuous,NL,ID1,H,2021-08-27T11:00:00+02:00,2021-08-27T12:00:00+02:00,91.88,EUR,64.600,MWh
Power,Intraday,Continuous,NL,ID1,H,2021-08-27T12:00:00+02:00,2021-08-27T13:00:00+02:00,85.13,EUR,84.100,MWh
Power,Intraday,Continuous,NL,ID1,H,2021-08-27T13:00:00+02:00,2021-08-27T14:00:00+02:00,87.09,EUR,46.700,MWh
Power,Intraday,Continuous,NL,ID1,H,2021-08-27T14:00:00+02:00,2021-08-27T15:00:00+02:00,46.58,EUR,164.200,MWh
Power,Intraday,Continuous,NL,ID1,H,2021-08-27T15:00:00+02:00,2021-08-27T16:00:00+02:00,72.05,EUR,152.300,MWh
Power,Intraday,Continuous,NL,ID1,H,2021-08-27T16:00:00+02:00,2021-08-27T17:00:00+02:00,84.72,EUR,71.300,MWh
Power,Intraday,Continuous,NL,ID1,H,2021-08-27T17:00:00+02:00,2021-08-27T18:00:00+02:00,63.82,EUR,161.700,MWh
Power,Intraday,Continuous,NL,ID1,H,2021-08-27T18:00:00+02:00,2021-08-27T19:00:00+02:00,104.15,EUR,,MWh
Power,Intraday,Continuous,NL,ID1,H,2021-08-27T19:00:00+02:00,2021-08-27T20:00:00+02:00,111.93,EUR,30.500,MWh
Power,Intraday,Continuous,NL,ID1,H,2021-08-27T20:00:00+02:00,2021-08-27T21:00:00+02:00,112.27,EUR,13.800,MWh
Power,Intraday,Continuous,NL,ID1,H,2021-08-27T21:00:00+02:00,2021-08-27T22:00:00+02:00,111.28,EUR,,MWh
Power,Intraday,Continuous,NL,ID1,H,2021-08-27T22:00:00+02:00,2021-08-27T23:00:00+02:00,126.00,EUR,25.000,MWh
Power,Intraday,Continuous,NL,ID1,H,2021-08-27T23:00:00+02:00,2021-08-28T00:00:00+02:00,80.98,EUR,17.000,MWh
Power,Intraday,Continuous,NL,ID3,H,2021-08-27T00:00:00+02:00,2021-08-27T01:00:00+02:00,91.06,EUR,533.800,MWh
Power,Intraday,Continuous,NL,ID3,H,2021-08-27T01:00:00+02:00,2021-08-27T02:00:00+02:00,83.01,EUR,564.000,MWh
Power,Intraday,Continuous,NL,ID3,H,2021-08-27T02:00:00+02:00,2021-08-27T03:00:00+02:00,80.24,EUR,415.000,MWh
Power,Intraday,Continuous,NL,ID3,H,2021-08-27T03:00:00+02:00,2021-08-27T04:00:00+02:00,78.58,EUR,220.700,MWh
Power,Intraday,Continuous,NL,ID3,H,2021-08-27T04:00:00+02:00,2021-08-27T05:00:00+02:00,78.42,EUR,198.000,MWh
Power,Intraday,Continuous,NL,ID3,H,2021-08-27T05:00:00+02:00,2021-08-27T06:00:00+02:00,81.34,EUR,239.900,MWh
Power,Intraday,Continuous,NL,ID3,H,2021-08-27T06:00:00+02:00,2021-08-27T07:00:00+02:00,101.11,EUR,345.200,MWh
Power,Intraday,Continuous,NL,ID3,H,2021-08-27T07:00:00+02:00,2021-08-27T08:00:00+02:00,115.53,EUR,429.800,MWh
Power,Intraday,Continuous,NL,ID3,H,2021-08-27T08:00:00+02:00,2021-08-27T09:00:00+02:00,118.86,EUR,326.800,MWh
Power,Intraday,Continuous,NL,ID3,H,2021-08-27T09:00:00+02:00,2021-08-27T10:00:00+02:00,108.74,EUR,491.600,MWh
Power,Intraday,Continuous,NL,ID3,H,2021-08-27T10:00:00+02:00,2021-08-27T11:00:00+02:00,101.41,EUR,659.600,MWh
Power,Intraday,Continuous,NL,ID3,H,2021-08-27T11:00:00+02:00,2021-08-27T12:00:00+02:00,99.10,EUR,661.000,MWh
Power,Intraday,Continuous,NL,ID3,H,2021-08-27T12:00:00+02:00,2021-08-27T13:00:00+02:00,90.54,EUR,482.800,MWh
Power,Intraday,Continuous,NL,ID3,H,2021-08-27T13:00:00+02:00,2021-08-27T14:00:00+02:00,90.88,EUR,691.500,MWh
Power,Intraday,Continuous,NL,ID3,H,2021-08-27T14:00:00+02:00,2021-08-27T15:00:00+02:00,79.12,EUR,1254.900,MWh
Power,Intraday,Continuous,NL,ID3,H,2021-08-27T15:00:00+02:00,2021-08-27T16:00:00+02:00,81.63,EUR,953.200,MWh
Power,Intraday,Continuous,NL,ID3,H,2021-08-27T16:00:00+02:00,2021-08-27T17:00:00+02:00,86.37,EUR,631.400,MWh
Power,Intraday,Continuous,NL,ID3,H,2021-08-27T17:00:00+02:00,2021-08-27T18:00:00+02:00,88.94,EUR,589.600,MWh
Power,Intraday,Continuous,NL,ID3,H,2021-08-27T18:00:00+02:00,2021-08-27T19:00:00+02:00,104.15,EUR,607.400,MWh
Power,Intraday,Continuous,NL,ID3,H,2021-08-27T19:00:00+02:00,2021-08-27T20:00:00+02:00,112.68,EUR,802.800,MWh
Power,Intraday,Continuous,NL,ID3,H,2021-08-27T20:00:00+02:00,2021-08-27T21:00:00+02:00,115.42,EUR,606.300,MWh
Power,Intraday,Continuous,NL,ID3,H,2021-08-27T21:00:00+02:00,2021-08-27T22:00:00+02:00,111.28,EUR,621.600,MWh
Power,Intraday,Continuous,NL,ID3,H,2021-08-27T22:00:00+02:00,2021-08-27T23:00:00+02:00,108.09,EUR,554.300,MWh
Power,Intraday,Continuous,NL,ID3,H,2021-08-27T23:00:00+02:00,2021-08-28T00:00:00+02:00,106.85,EUR,176.900,MWh
Power,Intraday,Continuous,NL,IDFULL,HH,2021-08-27T00:00:00+02:00,2021-08-27T00:30:00+02:00,90.35,EUR,,MWh
Power,Intraday,Continuous,NL,IDFULL,HH,2021-08-27T00:30:00+02:00,2021-08-27T01:00:00+02:00,90.35,EUR,,MWh
Power,Intraday,Continuous,NL,IDFULL,HH,2021-08-27T01:00:00+02:00,2021-08-27T01:30:00+02:00,83.50,EUR,,MWh
Power,Intraday,Continuous,NL,IDFULL,HH,2021-08-27T01:30:00+02:00,2021-08-27T02:00:00+02:00,83.50,EUR,,MWh
Power,Intraday,Continuous,NL,IDFULL,HH,2021-08-27T02:00:00+02:00,2021-08-27T02:30:00+02:00,81.16,EUR,,MWh
Power,Intraday,Continuous,NL,IDFULL,HH,2021-08-27T02:30:00+02:00,2021-08-27T03:00:00+02:00,81.16,EUR,,MWh
Power,Intraday,Continuous,NL,IDFULL,HH,2021-08-27T03:00:00+02:00,2021-08-27T03:30:00+02:00,80.20,EUR,,MWh
Power,Intraday,Continuous,NL,IDFULL,HH,2021-08-27T03:30:00+02:00,2021-08-27T04:00:00+02:00,80.20,EUR,,MWh
Power,Intraday,Continuous,NL,IDFULL,HH,2021-08-27T04:00:00+02:00,2021-08-27T04:30:00+02:00,79.92,EUR,,MWh
Power,Intraday,Continuous,NL,IDFULL,HH,2021-08-27T04:30:00+02:00,2021-08-27T05:00:00+02:00,79.92,EUR,,MWh
Power,Intraday,Continuous,NL,IDFULL,HH,2021-08-27T05:00:00+02:00,2021-08-27T05:30:00+02:00,82.15,EUR,,MWh
Power,Intraday,Continuous,NL,IDFULL,HH,2021-08-27T05:30:00+02:00,2021-08-27T06:00:00+02:00,82.15,EUR,,MWh
Power,Intraday,Continuous,NL,IDFULL,HH,2021-08-27T06:00:00+02:00,2021-08-27T06:30:00+02:00,100.48,EUR,,MWh
Power,Intraday,Continuous,NL,IDFULL,HH,2021-08-27T06:30:00+02:00,2021-08-27T07:00:00+02:00,100.48,EUR,,MWh
Power,Intraday,Continuous,NL,IDFULL,HH,2021-08-27T07:00:00+02:00,2021-08-27T07:30:00+02:00,114.97,EUR,,MWh
Power,Intraday,Continuous,NL,IDFULL,HH,2021-08-27T07:30:00+02:00,2021-08-27T08:00:00+02:00,114.97,EUR,,MWh
Power,Intraday,Continuous,NL,IDFULL,HH,2021-08-27T08:00:00+02:00,2021-08-27T08:30:00+02:00,119.10,EUR,,MWh
Power,Intraday,Continuous,NL,IDFULL,HH,2021-08-27T08:30:00+02:00,2021-08-27T09:00:00+02:00,119.10,EUR,,MWh
Power,Intraday,Continuous,NL,IDFULL,HH,2021-08-27T09:00:00+02:00,2021-08-27T09:30:00+02:00,111.25,EUR,,MWh
Power,Intraday,Continuous,NL,IDFULL,HH,2021-08-27T09:30:00+02:00,2021-08-27T10:00:00+02:00,111.25,EUR,,MWh
Power,Intraday,Continuous,NL,IDFULL,HH,2021-08-27T10:00:00+02:00,2021-08-27T10:30:00+02:00,102.46,EUR,,MWh
Power,Intraday,Continuous,NL,IDFULL,HH,2021-08-27T10:30:00+02:00,2021-08-27T11:00:00+02:00,102.46,EUR,,MWh
Power,Intraday,Continuous,NL,IDFULL,HH,2021-08-27T11:00:00+02:00,2021-08-27T11:30:00+02:00,100.03,EUR,,MWh
Power,Intraday,Continuous,NL,IDFULL,HH,2021-08-27T11:30:00+02:00,2021-08-27T12:00:00+02:00,100.03,EUR,,MWh
Power,Intraday,Continuous,NL,IDFULL,HH,2021-08-27T12:00:00+02:00,2021-08-27T12:30:00+02:00,95.09,EUR,,MWh
Power,Intraday,Continuous,NL,IDFULL,HH,2021-08-27T12:30:00+02:00,2021-08-27T13:00:00+02:00,90.23,EUR,12.100,MWh
Power,Intraday,Continuous,NL,IDFULL,HH,2021-08-27T13:00:00+02:00,2021-08-27T13:30:00+02:00,89.80,EUR,,MWh
Power,Intraday,Continuous,NL,IDFULL,HH,2021-08-27T13:30:00+02:00,2021-08-27T14:00:00+02:00,89.80,EUR,,MWh
Power,Intraday,Continuous,NL,IDFULL,HH,2021-08-27T14:00:00+02:00,2021-08-27T14:30:00+02:00,80.26,EUR,,MWh
Power,Intraday,Continuous,NL,IDFULL,HH,2021-08-27T14:30:00+02:00,2021-08-27T15:00:00+02:00,80.26,EUR,,MWh
Power,Intraday,Continuous,NL,IDFULL,HH,2021-08-27T15:00:00+02:00,2021-08-27T15:30:00+02:00,81.96,EUR,,MWh
Power,Intraday,Continuous,NL,IDFULL,HH,2021-08-27T15:30:00+02:00,2021-08-27T16:00:00+02:00,81.96,EUR,,MWh
Power,Intraday,Continuous,NL,IDFULL,HH,2021-08-27T16:00:00+02:00,2021-08-27T16:30:00+02:00,85.87,EUR,,MWh
Power,Intraday,Continuous,NL,IDFULL,HH,2021-08-27T16:30:00+02:00,2021-08-27T17:00:00+02:00,85.87,EUR,,MWh
Power,Intraday,Continuous,NL,IDFULL,HH,2021-08-27T17:00:00+02:00,2021-08-27T17:30:00+02:00,90.59,EUR,,MWh
Power,Intraday,Continuous,NL,IDFULL,HH,2021-08-27T17:30:00+02:00,2021-08-27T18:00:00+02:00,90.59,EUR,,MWh
Power,Intraday,Continuous,NL,IDFULL,HH,2021-08-27T18:00:00+02:00,2021-08-27T18:30:00+02:00,104.61,EUR,,MWh
Power,Intraday,Continuous,NL,IDFULL,HH,2021-08-27T18:30:00+02:00,2021-08-27T19:00:00+02:00,104.61,EUR,,MWh
Power,Intraday,Continuous,NL,IDFULL,HH,2021-08-27T19:00:00+02:00,2021-08-27T19:30:00+02:00,113.57,EUR,,MWh
Power,Intraday,Continuous,NL,IDFULL,HH,2021-08-27T19:30:00+02:00,2021-08-27T20:00:00+02:00,113.57,EUR,,MWh
Power,Intraday,Continuous,NL,IDFULL,HH,2021-08-27T20:00:00+02:00,2021-08-27T20:30:00+02:00,115.45,EUR,,MWh
Power,Intraday,Continuous,NL,IDFULL,HH,2021-08-27T20:30:00+02:00,2021-08-27T21:00:00+02:00,115.45,EUR,,MWh
Power,Intraday,Continuous,NL,IDFULL,HH,2021-08-27T21:00:00+02:00,2021-08-27T21:30:00+02:00,116.06,EUR,13.750,MWh
Power,Intraday,Continuous,NL,IDFULL,HH,2021-08-27T21:30:00+02:00,2021-08-27T22:00:00+02:00,102.57,EUR,12.000,MWh
Power,Intraday,Continuous,NL,IDFULL,HH,2021-08-27T22:00:00+02:00,2021-08-27T22:30:00+02:00,117.72,EUR,,MWh
Power,Intraday,Continuous,NL,IDFULL,HH,2021-08-27T22:30:00+02:00,2021-08-27T23:00:00+02:00,93.50,EUR,5.000,MWh
Power,Intraday,Continuous,NL,IDFULL,HH,2021-08-27T23:00:00+02:00,2021-08-27T23:30:00+02:00,108.60,EUR,6.250,MWh
Power,Intraday,Continuous,NL,IDFULL,HH,2021-08-27T23:30:00+02:00,2021-08-28T00:00:00+02:00,97.88,EUR,,MWh
Power,Intraday,Continuous,NL,ID1,HH,2021-08-27T00:00:00+02:00,2021-08-27T00:30:00+02:00,90.35,EUR,,MWh
Power,Intraday,Continuous,NL,ID1,HH,2021-08-27T00:30:00+02:00,2021-08-27T01:00:00+02:00,90.35,EUR,,MWh
Power,Intraday,Continuous,NL,ID1,HH,2021-08-27T01:00:00+02:00,2021-08-27T01:30:00+02:00,83.50,EUR,,MWh
Power,Intraday,Continuous,NL,ID1,HH,2021-08-27T01:30:00+02:00,2021-08-27T02:00:00+02:00,83.50,EUR,,MWh
Power,Intraday,Continuous,NL,ID1,HH,2021-08-27T02:00:00+02:00,2021-08-27T02:30:00+02:00,81.16,EUR,,MWh
Power,Intraday,Continuous,NL,ID1,HH,2021-08-27T02:30:00+02:00,2021-08-27T03:00:00+02:00,81.16,EUR,,MWh
Power,Intraday,Continuous,NL,ID1,HH,2021-08-27T03:00:00+02:00,2021-08-27T03:30:00+02:00,80.20,EUR,,MWh
Power,Intraday,Continuous,NL,ID1,HH,2021-08-27T03:30:00+02:00,2021-08-27T04:00:00+02:00,80.20,EUR,,MWh
Power,Intraday,Continuous,NL,ID1,HH,2021-08-27T04:00:00+02:00,2021-08-27T04:30:00+02:00,79.92,EUR,,MWh
Power,Intraday,Continuous,NL,ID1,HH,2021-08-27T04:30:00+02:00,2021-08-27T05:00:00+02:00,79.92,EUR,,MWh
Power,Intraday,Continuous,NL,ID1,HH,2021-08-27T05:00:00+02:00,2021-08-27T05:30:00+02:00,82.15,EUR,,MWh
Power,Intraday,Continuous,NL,ID1,HH,2021-08-27T05:30:00+02:00,2021-08-27T06:00:00+02:00,82.15,EUR,,MWh
Power,Intraday,Continuous,NL,ID1,HH,2021-08-27T06:00:00+02:00,2021-08-27T06:30:00+02:00,100.48,EUR,,MWh
Power,Intraday,Continuous,NL,ID1,HH,2021-08-27T06:30:00+02:00,2021-08-27T07:00:00+02:00,100.48,EUR,,MWh
Power,Intraday,Continuous,NL,ID1,HH,2021-08-27T07:00:00+02:00,2021-08-27T07:30:00+02:00,114.97,EUR,,MWh
Power,Intraday,Continuous,NL,ID1,HH,2021-08-27T07:30:00+02:00,2021-08-27T08:00:00+02:00,114.97,EUR,,MWh
Power,Intraday,Continuous,NL,ID1,HH,2021-08-27T08:00:00+02:00,2021-08-27T08:30:00+02:00,119.10,EUR,,MWh
Power,Intraday,Continuous,NL,ID1,HH,2021-08-27T08:30:00+02:00,2021-08-27T09:00:00+02:00,119.10,EUR,,MWh
Power,Intraday,Continuous,NL,ID1,HH,2021-08-27T09:00:00+02:00,2021-08-27T09:30:00+02:00,111.25,EUR,,MWh
Power,Intraday,Continuous,NL,ID1,HH,2021-08-27T09:30:00+02:00,2021-08-27T10:00:00+02:00,111.25,EUR,,MWh
Power,Intraday,Continuous,NL,ID1,HH,2021-08-27T10:00:00+02:00,2021-08-27T10:30:00+02:00,102.46,EUR,,MWh
Power,Intraday,Continuous,NL,ID1,HH,2021-08-27T10:30:00+02:00,2021-08-27T11:00:00+02:00,102.46,EUR,,MWh
Power,Intraday,Continuous,NL,ID1,HH,2021-08-27T11:00:00+02:00,2021-08-27T11:30:00+02:00,100.03,EUR,,MWh
Power,Intraday,Continuous,NL,ID1,HH,2021-08-27T11:30:00+02:00,2021-08-27T12:00:00+02:00,100.03,EUR,,MWh
Power,Intraday,Continuous,NL,ID1,HH,2021-08-27T12:00:00+02:00,2021-08-27T12:30:00+02:00,95.09,EUR,,MWh
Power,Intraday,Continuous,NL,ID1,HH,2021-08-27T12:30:00+02:00,2021-08-27T13:00:00+02:00,90.23,EUR,,MWh
Power,Intraday,Continuous,NL,ID1,HH,2021-08-27T13:00:00+02:00,2021-08-27T13:30:00+02:00,89.80,EUR,,MWh
Power,Intraday,Continuous,NL,ID1,HH,2021-08-27T13:30:00+02:00,2021-08-27T14:00:00+02:00,89.80,EUR,,MWh
Power,Intraday,Continuous,NL,ID1,HH,2021-08-27T14:00:00+02:00,2021-08-27T14:30:00+02:00,80.26,EUR,,MWh
Power,Intraday,Continuous,NL,ID1,HH,2021-08-27T14:30:00+02:00,2021-08-27T15:00:00+02:00,80.26,EUR,,MWh
Power,Intraday,Continuous,NL,ID1,HH,2021-08-27T15:00:00+02:00,2021-08-27T15:30:00+02:00,81.96,EUR,,MWh
Power,Intraday,Continuous,NL,ID1,HH,2021-08-27T15:30:00+02:00,2021-08-27T16:00:00+02:00,81.96,EUR,,MWh
Power,Intraday,Continuous,NL,ID1,HH,2021-08-27T16:00:00+02:00,2021-08-27T16:30:00+02:00,85.87,EUR,,MWh
Power,Intraday,Continuous,NL,ID1,HH,2021-08-27T16:30:00+02:00,2021-08-27T17:00:00+02:00,85.87,EUR,,MWh
Power,Intraday,Continuous,NL,ID1,HH,2021-08-27T17:00:00+02:00,2021-08-27T17:30:00+02:00,90.59,EUR,,MWh
Power,Intraday,Continuous,NL,ID1,HH,2021-08-27T17:30:00+02:00,2021-08-27T18:00:00+02:00,90.59,EUR,,MWh
Power,Intraday,Continuous,NL,ID1,HH,2021-08-27T18:00:00+02:00,2021-08-27T18:30:00+02:00,104.61,EUR,,MWh
Power,Intraday,Continuous,NL,ID1,HH,2021-08-27T18:30:00+02:00,2021-08-27T19:00:00+02:00,104.61,EUR,,MWh
Power,Intraday,Continuous,NL,ID1,HH,2021-08-27T19:00:00+02:00,2021-08-27T19:30:00+02:00,113.57,EUR,,MWh
Power,Intraday,Continuous,NL,ID1,HH,2021-08-27T19:30:00+02:00,2021-08-27T20:00:00+02:00,113.57,EUR,,MWh
Power,Intraday,Continuous,NL,ID1,HH,2021-08-27T20:00:00+02:00,2021-08-27T20:30:00+02:00,115.45,EUR,,MWh
Power,Intraday,Continuous,NL,ID1,HH,2021-08-27T20:30:00+02:00,2021-08-27T21:00:00+02:00,115.45,EUR,,MWh
Power,Intraday,Continuous,NL,ID1,HH,2021-08-27T21:00:00+02:00,2021-08-27T21:30:00+02:00,116.06,EUR,,MWh
Power,Intraday,Continuous,NL,ID1,HH,2021-08-27T21:30:00+02:00,2021-08-27T22:00:00+02:00,102.72,EUR,,MWh
Power,Intraday,Continuous,NL,ID1,HH,2021-08-27T22:00:00+02:00,2021-08-27T22:30:00+02:00,117.72,EUR,,MWh
Power,Intraday,Continuous,NL,ID1,HH,2021-08-27T22:30:00+02:00,2021-08-27T23:00:00+02:00,93.50,EUR,,MWh
Power,Intraday,Continuous,NL,ID1,HH,2021-08-27T23:00:00+02:00,2021-08-27T23:30:00+02:00,108.60,EUR,,MWh
Power,Intraday,Continuous,NL,ID1,HH,2021-08-27T23:30:00+02:00,2021-08-28T00:00:00+02:00,97.88,EUR,,MWh
Power,Intraday,Continuous,NL,ID3,HH,2021-08-27T00:00:00+02:00,2021-08-27T00:30:00+02:00,90.35,EUR,,MWh
Power,Intraday,Continuous,NL,ID3,HH,2021-08-27T00:30:00+02:00,2021-08-27T01:00:00+02:00,90.35,EUR,,MWh
Power,Intraday,Continuous,NL,ID3,HH,2021-08-27T01:00:00+02:00,2021-08-27T01:30:00+02:00,83.50,EUR,,MWh
Power,Intraday,Continuous,NL,ID3,HH,2021-08-27T01:30:00+02:00,2021-08-27T02:00:00+02:00,83.50,EUR,,MWh
Power,Intraday,Continuous,NL,ID3,HH,2021-08-27T02:00:00+02:00,2021-08-27T02:30:00+02:00,81.16,EUR,,MWh
Power,Intraday,Continuous,NL,ID3,HH,2021-08-27T02:30:00+02:00,2021-08-27T03:00:00+02:00,81.16,EUR,,MWh
Power,Intraday,Continuous,NL,ID3,HH,2021-08-27T03:00:00+02:00,2021-08-27T03:30:00+02:00,80.20,EUR,,MWh
Power,Intraday,Continuous,NL,ID3,HH,2021-08-27T03:30:00+02:00,2021-08-27T04:00:00+02:00,80.20,EUR,,MWh
Power,Intraday,Continuous,NL,ID3,HH,2021-08-27T04:00:00+02:00,2021-08-27T04:30:00+02:00,79.92,EUR,,MWh
Power,Intraday,Continuous,NL,ID3,HH,2021-08-27T04:30:00+02:00,2021-08-27T05:00:00+02:00,79.92,EUR,,MWh
Power,Intraday,Continuous,NL,ID3,HH,2021-08-27T05:00:00+02:00,2021-08-27T05:30:00+02:00,82.15,EUR,,MWh
Power,Intraday,Continuous,NL,ID3,HH,2021-08-27T05:30:00+02:00,2021-08-27T06:00:00+02:00,82.15,EUR,,MWh
Power,Intraday,Continuous,NL,ID3,HH,2021-08-27T06:00:00+02:00,2021-08-27T06:30:00+02:00,100.48,EUR,,MWh
Power,Intraday,Continuous,NL,ID3,HH,2021-08-27T06:30:00+02:00,2021-08-27T07:00:00+02:00,100.48,EUR,,MWh
Power,Intraday,Continuous,NL,ID3,HH,2021-08-27T07:00:00+02:00,2021-08-27T07:30:00+02:00,114.97,EUR,,MWh
Power,Intraday,Continuous,NL,ID3,HH,2021-08-27T07:30:00+02:00,2021-08-27T08:00:00+02:00,114.97,EUR,,MWh
Power,Intraday,Continuous,NL,ID3,HH,2021-08-27T08:00:00+02:00,2021-08-27T08:30:00+02:00,119.10,EUR,,MWh
Power,Intraday,Continuous,NL,ID3,HH,2021-08-27T08:30:00+02:00,2021-08-27T09:00:00+02:00,119.10,EUR,,MWh
Power,Intraday,Continuous,NL,ID3,HH,2021-08-27T09:00:00+02:00,2021-08-27T09:30:00+02:00,111.25,EUR,,MWh
Power,Intraday,Continuous,NL,ID3,HH,2021-08-27T09:30:00+02:00,2021-08-27T10:00:00+02:00,111.25,EUR,,MWh
Power,Intraday,Continuous,NL,ID3,HH,2021-08-27T10:00:00+02:00,2021-08-27T10:30:00+02:00,102.46,EUR,,MWh
Power,Intraday,Continuous,NL,ID3,HH,2021-08-27T10:30:00+02:00,2021-08-27T11:00:00+02:00,102.46,EUR,,MWh
Power,Intraday,Continuous,NL,ID3,HH,2021-08-27T11:00:00+02:00,2021-08-27T11:30:00+02:00,100.03,EUR,,MWh
Power,Intraday,Continuous,NL,ID3,HH,2021-08-27T11:30:00+02:00,2021-08-27T12:00:00+02:00,100.03,EUR,,MWh
Power,Intraday,Continuous,NL,ID3,HH,2021-08-27T12:00:00+02:00,2021-08-27T12:30:00+02:00,95.09,EUR,,MWh
Power,Intraday,Continuous,NL,ID3,HH,2021-08-27T12:30:00+02:00,2021-08-27T13:00:00+02:00,90.23,EUR,12.100,MWh
Power,Intraday,Continuous,NL,ID3,HH,2021-08-27T13:00:00+02:00,2021-08-27T13:30:00+02:00,89.80,EUR,,MWh
Power,Intraday,Continuous,NL,ID3,HH,2021-08-27T13:30:00+02:00,2021-08-27T14:00:00+02:00,89.80,EUR,,MWh
Power,Intraday,Continuous,NL,ID3,HH,2021-08-27T14:00:00+02:00,2021-08-27T14:30:00+02:00,80.26,EUR,,MWh
Power,Intraday,Continuous,NL,ID3,HH,2021-08-27T14:30:00+02:00,2021-08-27T15:00:00+02:00,80.26,EUR,,MWh
Power,Intraday,Continuous,NL,ID3,HH,2021-08-27T15:00:00+02:00,2021-08-27T15:30:00+02:00,81.96,EUR,,MWh
Power,Intraday,Continuous,NL,ID3,HH,2021-08-27T15:30:00+02:00,2021-08-27T16:00:00+02:00,81.96,EUR,,MWh
Power,Intraday,Continuous,NL,ID3,HH,2021-08-27T16:00:00+02:00,2021-08-27T16:30:00+02:00,85.87,EUR,,MWh
Power,Intraday,Continuous,NL,ID3,HH,2021-08-27T16:30:00+02:00,2021-08-27T17:00:00+02:00,85.87,EUR,,MWh
Power,Intraday,Continuous,NL,ID3,HH,2021-08-27T17:00:00+02:00,2021-08-27T17:30:00+02:00,90.59,EUR,,MWh
Power,Intraday,Continuous,NL,ID3,HH,2021-08-27T17:30:00+02:00,2021-08-27T18:00:00+02:00,90.59,EUR,,MWh
Power,Intraday,Continuous,NL,ID3,HH,2021-08-27T18:00:00+02:00,2021-08-27T18:30:00+02:00,104.61,EUR,,MWh
Power,Intraday,Continuous,NL,ID3,HH,2021-08-27T18:30:00+02:00,2021-08-27T19:00:00+02:00,104.61,EUR,,MWh
Power,Intraday,Continuous,NL,ID3,HH,2021-08-27T19:00:00+02:00,2021-08-27T19:30:00+02:00,113.57,EUR,,MWh
Power,Intraday,Continuous,NL,ID3,HH,2021-08-27T19:30:00+02:00,2021-08-27T20:00:00+02:00,113.57,EUR,,MWh
Power,Intraday,Continuous,NL,ID3,HH,2021-08-27T20:00:00+02:00,2021-08-27T20:30:00+02:00,115.45,EUR,,MWh
Power,Intraday,Continuous,NL,ID3,HH,2021-08-27T20:30:00+02:00,2021-08-27T21:00:00+02:00,115.45,EUR,,MWh
Power,Intraday,Continuous,NL,ID3,HH,2021-08-27T21:00:00+02:00,2021-08-27T21:30:00+02:00,116.06,EUR,,MWh
Power,Intraday,Continuous,NL,ID3,HH,2021-08-27T21:30:00+02:00,2021-08-27T22:00:00+02:00,102.72,EUR,9.500,MWh
Power,Intraday,Continuous,NL,ID3,HH,2021-08-27T22:00:00+02:00,2021-08-27T22:30:00+02:00,117.72,EUR,,MWh
Power,Intraday,Continuous,NL,ID3,HH,2021-08-27T22:30:00+02:00,2021-08-27T23:00:00+02:00,93.50,EUR,,MWh
Power,Intraday,Continuous,NL,ID3,HH,2021-08-27T23:00:00+02:00,2021-08-27T23:30:00+02:00,108.60,EUR,,MWh
Power,Intraday,Continuous,NL,ID3,HH,2021-08-27T23:30:00+02:00,2021-08-28T00:00:00+02:00,97.88,EUR,,MWh
Power,Intraday,Continuous,NL,IDFULL,QH,2021-08-27T00:00:00+02:00,2021-08-27T00:15:00+02:00,100.71,EUR,36.180,MWh
Power,Intraday,Continuous,NL,IDFULL,QH,2021-08-27T00:15:00+02:00,2021-08-27T00:30:00+02:00,97.22,EUR,41.850,MWh
Power,Intraday,Continuous,NL,IDFULL,QH,2021-08-27T00:30:00+02:00,2021-08-27T00:45:00+02:00,90.53,EUR,49.750,MWh
Power,Intraday,Continuous,NL,IDFULL,QH,2021-08-27T00:45:00+02:00,2021-08-27T01:00:00+02:00,79.11,EUR,61.480,MWh
Power,Intraday,Continuous,NL,IDFULL,QH,2021-08-27T01:00:00+02:00,2021-08-27T01:15:00+02:00,98.83,EUR,46.680,MWh
Power,Intraday,Continuous,NL,IDFULL,QH,2021-08-27T01:15:00+02:00,2021-08-27T01:30:00+02:00,78.40,EUR,37.450,MWh
Power,Intraday,Continuous,NL,IDFULL,QH,2021-08-27T01:30:00+02:00,2021-08-27T01:45:00+02:00,82.29,EUR,33.600,MWh
Power,Intraday,Continuous,NL,IDFULL,QH,2021-08-27T01:45:00+02:00,2021-08-27T02:00:00+02:00,75.89,EUR,48.800,MWh
Power,Intraday,Continuous,NL,IDFULL,QH,2021-08-27T02:00:00+02:00,2021-08-27T02:15:00+02:00,91.82,EUR,14.500,MWh
Power,Intraday,Continuous,NL,IDFULL,QH,2021-08-27T02:15:00+02:00,2021-08-27T02:30:00+02:00,80.28,EUR,13.950,MWh
Power,Intraday,Continuous,NL,IDFULL,QH,2021-08-27T02:30:00+02:00,2021-08-27T02:45:00+02:00,78.03,EUR,15.730,MWh
Power,Intraday,Continuous,NL,IDFULL,QH,2021-08-27T02:45:00+02:00,2021-08-27T03:00:00+02:00,73.08,EUR,40.730,MWh
Power,Intraday,Continuous,NL,IDFULL,QH,2021-08-27T03:00:00+02:00,2021-08-27T03:15:00+02:00,82.91,EUR,20.850,MWh
Power,Intraday,Continuous,NL,IDFULL,QH,2021-08-27T03:15:00+02:00,2021-08-27T03:30:00+02:00,79.87,EUR,11.780,MWh
Power,Intraday,Continuous,NL,IDFULL,QH,2021-08-27T03:30:00+02:00,2021-08-27T03:45:00+02:00,88.99,EUR,15.480,MWh
Power,Intraday,Continuous,NL,IDFULL,QH,2021-08-27T03:45:00+02:00,2021-08-27T04:00:00+02:00,77.10,EUR,19.900,MWh
Power,Intraday,Continuous,NL,IDFULL,QH,2021-08-27T04:00:00+02:00,2021-08-27T04:15:00+02:00,71.66,EUR,12.380,MWh
Power,Intraday,Continuous,NL,IDFULL,QH,2021-08-27T04:15:00+02:00,2021-08-27T04:30:00+02:00,77.53,EUR,8.430,MWh
Power,Intraday,Continuous,NL,IDFULL,QH,2021-08-27T04:30:00+02:00,2021-08-27T04:45:00+02:00,80.57,EUR,9.500,MWh
Power,Intraday,Continuous,NL,IDFULL,QH,2021-08-27T04:45:00+02:00,2021-08-27T05:00:00+02:00,88.89,EUR,20.550,MWh
Power,Intraday,Continuous,NL,IDFULL,QH,2021-08-27T05:00:00+02:00,2021-08-27T05:15:00+02:00,71.34,EUR,24.850,MWh
Power,Intraday,Continuous,NL,IDFULL,QH,2021-08-27T05:15:00+02:00,2021-08-27T05:30:00+02:00,77.53,EUR,20.250,MWh
Power,Intraday,Continuous,NL,IDFULL,QH,2021-08-27T05:30:00+02:00,2021-08-27T05:45:00+02:00,81.55,EUR,19.980,MWh
Power,Intraday,Continuous,NL,IDFULL,QH,2021-08-27T05:45:00+02:00,2021-08-27T06:00:00+02:00,96.65,EUR,45.450,MWh
Power,Intraday,Continuous,NL,IDFULL,QH,2021-08-27T06:00:00+02:00,2021-08-27T06:15:00+02:00,78.32,EUR,54.980,MWh
Power,Intraday,Continuous,NL,IDFULL,QH,2021-08-27T06:15:00+02:00,2021-08-27T06:30:00+02:00,102.98,EUR,33.500,MWh
Power,Intraday,Continuous,NL,IDFULL,QH,2021-08-27T06:30:00+02:00,2021-08-27T06:45:00+02:00,102.07,EUR,27.400,MWh
Power,Intraday,Continuous,NL,IDFULL,QH,2021-08-27T06:45:00+02:00,2021-08-27T07:00:00+02:00,110.10,EUR,40.330,MWh
Power,Intraday,Continuous,NL,IDFULL,QH,2021-08-27T07:00:00+02:00,2021-08-27T07:15:00+02:00,106.40,EUR,49.330,MWh
Power,Intraday,Continuous,NL,IDFULL,QH,2021-08-27T07:15:00+02:00,2021-08-27T07:30:00+02:00,111.51,EUR,35.000,MWh
Power,Intraday,Continuous,NL,IDFULL,QH,2021-08-27T07:30:00+02:00,2021-08-27T07:45:00+02:00,118.69,EUR,31.380,MWh
Power,Intraday,Continuous,NL,IDFULL,QH,2021-08-27T07:45:00+02:00,2021-08-27T08:00:00+02:00,122.91,EUR,39.780,MWh
Power,Intraday,Continuous,NL,IDFULL,QH,2021-08-27T08:00:00+02:00,2021-08-27T08:15:00+02:00,131.10,EUR,39.550,MWh
Power,Intraday,Continuous,NL,IDFULL,QH,2021-08-27T08:15:00+02:00,2021-08-27T08:30:00+02:00,119.60,EUR,22.630,MWh
Power,Intraday,Continuous,NL,IDFULL,QH,2021-08-27T08:30:00+02:00,2021-08-27T08:45:00+02:00,113.44,EUR,51.400,MWh
Power,Intraday,Continuous,NL,IDFULL,QH,2021-08-27T08:45:00+02:00,2021-08-27T09:00:00+02:00,98.57,EUR,79.150,MWh
Power,Intraday,Continuous,NL,IDFULL,QH,2021-08-27T09:00:00+02:00,2021-08-27T09:15:00+02:00,131.52,EUR,74.430,MWh
Power,Intraday,Continuous,NL,IDFULL,QH,2021-08-27T09:15:00+02:00,2021-08-27T09:30:00+02:00,111.64,EUR,41.480,MWh
Power,Intraday,Continuous,NL,IDFULL,QH,2021-08-27T09:30:00+02:00,2021-08-27T09:45:00+02:00,101.57,EUR,92.830,MWh
Power,Intraday,Continuous,NL,IDFULL,QH,2021-08-27T09:45:00+02:00,2021-08-27T10:00:00+02:00,95.13,EUR,134.550,MWh
Power,Intraday,Continuous,NL,IDFULL,QH,2021-08-27T10:00:00+02:00,2021-08-27T10:15:00+02:00,111.27,EUR,68.550,MWh
Power,Intraday,Continuous,NL,IDFULL,QH,2021-08-27T10:15:00+02:00,2021-08-27T10:30:00+02:00,111.74,EUR,69.280,MWh
Power,Intraday,Continuous,NL,IDFULL,QH,2021-08-27T10:30:00+02:00,2021-08-27T10:45:00+02:00,94.57,EUR,90.530,MWh
Power,Intraday,Continuous,NL,IDFULL,QH,2021-08-27T10:45:00+02:00,2021-08-27T11:00:00+02:00,90.39,EUR,115.180,MWh
Power,Intraday,Continuous,NL,IDFULL,QH,2021-08-27T11:00:00+02:00,2021-08-27T11:15:00+02:00,108.29,EUR,55.380,MWh
Power,Intraday,Continuous,NL,IDFULL,QH,2021-08-27T11:15:00+02:00,2021-08-27T11:30:00+02:00,107.32,EUR,35.250,MWh
Power,Intraday,Continuous,NL,IDFULL,QH,2021-08-27T11:30:00+02:00,2021-08-27T11:45:00+02:00,92.36,EUR,91.320,MWh
Power,Intraday,Continuous,NL,IDFULL,QH,2021-08-27T11:45:00+02:00,2021-08-27T12:00:00+02:00,91.63,EUR,113.200,MWh
Power,Intraday,Continuous,NL,IDFULL,QH,2021-08-27T12:00:00+02:00,2021-08-27T12:15:00+02:00,103.43,EUR,57.400,MWh
Power,Intraday,Continuous,NL,IDFULL,QH,2021-08-27T12:15:00+02:00,2021-08-27T12:30:00+02:00,100.15,EUR,47.980,MWh
Power,Intraday,Continuous,NL,IDFULL,QH,2021-08-27T12:30:00+02:00,2021-08-27T12:45:00+02:00,98.18,EUR,39.230,MWh
Power,Intraday,Continuous,NL,IDFULL,QH,2021-08-27T12:45:00+02:00,2021-08-27T13:00:00+02:00,86.44,EUR,23.030,MWh
Power,Intraday,Continuous,NL,IDFULL,QH,2021-08-27T13:00:00+02:00,2021-08-27T13:15:00+02:00,104.27,EUR,11.400,MWh
Power,Intraday,Continuous,NL,IDFULL,QH,2021-08-27T13:15:00+02:00,2021-08-27T13:30:00+02:00,100.90,EUR,14.000,MWh
Power,Intraday,Continuous,NL,IDFULL,QH,2021-08-27T13:30:00+02:00,2021-08-27T13:45:00+02:00,99.18,EUR,10.630,MWh
Power,Intraday,Continuous,NL,IDFULL,QH,2021-08-27T13:45:00+02:00,2021-08-27T14:00:00+02:00,74.67,EUR,15.750,MWh
Power,Intraday,Continuous,NL,IDFULL,QH,2021-08-27T14:00:00+02:00,2021-08-27T14:15:00+02:00,86.78,EUR,11.650,MWh
Power,Intraday,Continuous,NL,IDFULL,QH,2021-08-27T14:15:00+02:00,2021-08-27T14:30:00+02:00,86.16,EUR,9.800,MWh
Power,Intraday,Continuous,NL,IDFULL,QH,2021-08-27T14:30:00+02:00,2021-08-27T14:45:00+02:00,84.29,EUR,19.030,MWh
Power,Intraday,Continuous,NL,IDFULL,QH,2021-08-27T14:45:00+02:00,2021-08-27T15:00:00+02:00,86.74,EUR,28.650,MWh
Power,Intraday,Continuous,NL,IDFULL,QH,2021-08-27T15:00:00+02:00,2021-08-27T15:15:00+02:00,72.78,EUR,38.680,MWh
Power,Intraday,Continuous,NL,IDFULL,QH,2021-08-27T15:15:00+02:00,2021-08-27T15:30:00+02:00,76.89,EUR,39.580,MWh
Power,Intraday,Continuous,NL,IDFULL,QH,2021-08-27T15:30:00+02:00,2021-08-27T15:45:00+02:00,75.91,EUR,53.700,MWh
Power,Intraday,Continuous,NL,IDFULL,QH,2021-08-27T15:45:00+02:00,2021-08-27T16:00:00+02:00,85.93,EUR,79.830,MWh
Power,Intraday,Continuous,NL,IDFULL,QH,2021-08-27T16:00:00+02:00,2021-08-27T16:15:00+02:00,63.81,EUR,73.800,MWh
Power,Intraday,Continuous,NL,IDFULL,QH,2021-08-27T16:15:00+02:00,2021-08-27T16:30:00+02:00,79.29,EUR,89.950,MWh
Power,Intraday,Continuous,NL,IDFULL,QH,2021-08-27T16:30:00+02:00,2021-08-27T16:45:00+02:00,87.94,EUR,70.880,MWh
Power,Intraday,Continuous,NL,IDFULL,QH,2021-08-27T16:45:00+02:00,2021-08-27T17:00:00+02:00,99.19,EUR,97.020,MWh
Power,Intraday,Continuous,NL,IDFULL,QH,2021-08-27T17:00:00+02:00,2021-08-27T17:15:00+02:00,70.14,EUR,167.800,MWh
Power,Intraday,Continuous,NL,IDFULL,QH,2021-08-27T17:15:00+02:00,2021-08-27T17:30:00+02:00,87.69,EUR,95.050,MWh
Power,Intraday,Continuous,NL,IDFULL,QH,2021-08-27T17:30:00+02:00,2021-08-27T17:45:00+02:00,94.59,EUR,47.700,MWh
Power,Intraday,Continuous,NL,IDFULL,QH,2021-08-27T17:45:00+02:00,2021-08-27T18:00:00+02:00,115.56,EUR,95.830,MWh
Power,Intraday,Continuous,NL,IDFULL,QH,2021-08-27T18:00:00+02:00,2021-08-27T18:15:00+02:00,90.04,EUR,78.420,MWh
Power,Intraday,Continuous,NL,IDFULL,QH,2021-08-27T18:15:00+02:00,2021-08-27T18:30:00+02:00,98.32,EUR,69.730,MWh
Power,Intraday,Continuous,NL,IDFULL,QH,2021-08-27T18:30:00+02:00,2021-08-27T18:45:00+02:00,105.73,EUR,45.180,MWh
Power,Intraday,Continuous,NL,IDFULL,QH,2021-08-27T18:45:00+02:00,2021-08-27T19:00:00+02:00,120.33,EUR,67.900,MWh
Power,Intraday,Continuous,NL,IDFULL,QH,2021-08-27T19:00:00+02:00,2021-08-27T19:15:00+02:00,101.44,EUR,86.550,MWh
Power,Intraday,Continuous,NL,IDFULL,QH,2021-08-27T19:15:00+02:00,2021-08-27T19:30:00+02:00,106.62,EUR,40.400,MWh
Power,Intraday,Continuous,NL,IDFULL,QH,2021-08-27T19:30:00+02:00,2021-08-27T19:45:00+02:00,118.10,EUR,31.830,MWh
Power,Intraday,Continuous,NL,IDFULL,QH,2021-08-27T19:45:00+02:00,2021-08-27T20:00:00+02:00,123.02,EUR,63.450,MWh
Power,Intraday,Continuous,NL,IDFULL,QH,2021-08-27T20:00:00+02:00,2021-08-27T20:15:00+02:00,119.53,EUR,39.630,MWh
Power,Intraday,Continuous,NL,IDFULL,QH,2021-08-27T20:15:00+02:00,2021-08-27T20:30:00+02:00,112.00,EUR,17.100,MWh
Power,Intraday,Continuous,NL,IDFULL,QH,2021-08-27T20:30:00+02:00,2021-08-27T20:45:00+02:00,117.07,EUR,17.100,MWh
Power,Intraday,Continuous,NL,IDFULL,QH,2021-08-27T20:45:00+02:00,2021-08-27T21:00:00+02:00,118.80,EUR,15.930,MWh
Power,Intraday,Continuous,NL,IDFULL,QH,2021-08-27T21:00:00+02:00,2021-08-27T21:15:00+02:00,135.59,EUR,36.750,MWh
Power,Intraday,Continuous,NL,IDFULL,QH,2021-08-27T21:15:00+02:00,2021-08-27T21:30:00+02:00,107.36,EUR,9.600,MWh
Power,Intraday,Continuous,NL,IDFULL,QH,2021-08-27T21:30:00+02:00,2021-08-27T21:45:00+02:00,101.72,EUR,43.550,MWh
Power,Intraday,Continuous,NL,IDFULL,QH,2021-08-27T21:45:00+02:00,2021-08-27T22:00:00+02:00,99.42,EUR,58.550,MWh
Power,Intraday,Continuous,NL,IDFULL,QH,2021-08-27T22:00:00+02:00,2021-08-27T22:15:00+02:00,117.69,EUR,17.580,MWh
Power,Intraday,Continuous,NL,IDFULL,QH,2021-08-27T22:15:00+02:00,2021-08-27T22:30:00+02:00,103.40,EUR,18.930,MWh
Power,Intraday,Continuous,NL,IDFULL,QH,2021-08-27T22:30:00+02:00,2021-08-27T22:45:00+02:00,99.55,EUR,47.080,MWh
Power,Intraday,Continuous,NL,IDFULL,QH,2021-08-27T22:45:00+02:00,2021-08-27T23:00:00+02:00,83.31,EUR,72.880,MWh
Power,Intraday,Continuous,NL,IDFULL,QH,2021-08-27T23:00:00+02:00,2021-08-27T23:15:00+02:00,160.53,EUR,,MWh
Power,Intraday,Continuous,NL,IDFULL,QH,2021-08-27T23:15:00+02:00,2021-08-27T23:30:00+02:00,91.07,EUR,3.980,MWh
Power,Intraday,Continuous,NL,IDFULL,QH,2021-08-27T23:30:00+02:00,2021-08-27T23:45:00+02:00,89.04,EUR,71.630,MWh
Power,Intraday,Continuous,NL,IDFULL,QH,2021-08-27T23:45:00+02:00,2021-08-28T00:00:00+02:00,72.32,EUR,107.300,MWh
Power,Intraday,Continuous,NL,ID1,QH,2021-08-27T00:00:00+02:00,2021-08-27T00:15:00+02:00,100.62,EUR,,MWh
Power,Intraday,Continuous,NL,ID1,QH,2021-08-27T00:15:00+02:00,2021-08-27T00:30:00+02:00,97.25,EUR,,MWh
Power,Intraday,Continuous,NL,ID1,QH,2021-08-27T00:30:00+02:00,2021-08-27T00:45:00+02:00,90.89,EUR,,MWh
Power,Intraday,Continuous,NL,ID1,QH,2021-08-27T00:45:00+02:00,2021-08-27T01:00:00+02:00,79.45,EUR,,MWh
Power,Intraday,Continuous,NL,ID1,QH,2021-08-27T01:00:00+02:00,2021-08-27T01:15:00+02:00,130.00,EUR,6.250,MWh
Power,Intraday,Continuous,NL,ID1,QH,2021-08-27T01:15:00+02:00,2021-08-27T01:30:00+02:00,78.14,EUR,,MWh
Power,Intraday,Continuous,NL,ID1,QH,2021-08-27T01:30:00+02:00,2021-08-27T01:45:00+02:00,70.00,EUR,2.500,MWh
Power,Intraday,Continuous,NL,ID1,QH,2021-08-27T01:45:00+02:00,2021-08-27T02:00:00+02:00,70.00,EUR,6.250,MWh
Power,Intraday,Continuous,NL,ID1,QH,2021-08-27T02:00:00+02:00,2021-08-27T02:15:00+02:00,95.35,EUR,,MWh
Power,Intraday,Continuous,NL,ID1,QH,2021-08-27T02:15:00+02:00,2021-08-27T02:30:00+02:00,79.55,EUR,,MWh
Power,Intraday,Continuous,NL,ID1,QH,2021-08-27T02:30:00+02:00,2021-08-27T02:45:00+02:00,75.67,EUR,,MWh
Power,Intraday,Continuous,NL,ID1,QH,2021-08-27T02:45:00+02:00,2021-08-27T03:00:00+02:00,71.01,EUR,,MWh
Power,Intraday,Continuous,NL,ID1,QH,2021-08-27T03:00:00+02:00,2021-08-27T03:15:00+02:00,83.04,EUR,,MWh
Power,Intraday,Continuous,NL,ID1,QH,2021-08-27T03:15:00+02:00,2021-08-27T03:30:00+02:00,80.87,EUR,,MWh
Power,Intraday,Continuous,NL,ID1,QH,2021-08-27T03:30:00+02:00,2021-08-27T03:45:00+02:00,91.77,EUR,,MWh
Power,Intraday,Continuous,NL,ID1,QH,2021-08-27T03:45:00+02:00,2021-08-27T04:00:00+02:00,76.68,EUR,,MWh
Power,Intraday,Continuous,NL,ID1,QH,2021-08-27T04:00:00+02:00,2021-08-27T04:15:00+02:00,69.36,EUR,,MWh
Power,Intraday,Continuous,NL,ID1,QH,2021-08-27T04:15:00+02:00,2021-08-27T04:30:00+02:00,77.53,EUR,,MWh
Power,Intraday,Continuous,NL,ID1,QH,2021-08-27T04:30:00+02:00,2021-08-27T04:45:00+02:00,80.57,EUR,,MWh
Power,Intraday,Continuous,NL,ID1,QH,2021-08-27T04:45:00+02:00,2021-08-27T05:00:00+02:00,86.06,EUR,,MWh
Power,Intraday,Continuous,NL,ID1,QH,2021-08-27T05:00:00+02:00,2021-08-27T05:15:00+02:00,72.03,EUR,,MWh
Power,Intraday,Continuous,NL,ID1,QH,2021-08-27T05:15:00+02:00,2021-08-27T05:30:00+02:00,76.64,EUR,,MWh
Power,Intraday,Continuous,NL,ID1,QH,2021-08-27T05:30:00+02:00,2021-08-27T05:45:00+02:00,81.97,EUR,,MWh
Power,Intraday,Continuous,NL,ID1,QH,2021-08-27T05:45:00+02:00,2021-08-27T06:00:00+02:00,94.01,EUR,,MWh
Power,Intraday,Continuous,NL,ID1,QH,2021-08-27T06:00:00+02:00,2021-08-27T06:15:00+02:00,82.77,EUR,,MWh
Power,Intraday,Continuous,NL,ID1,QH,2021-08-27T06:15:00+02:00,2021-08-27T06:30:00+02:00,103.02,EUR,,MWh
Power,Intraday,Continuous,NL,ID1,QH,2021-08-27T06:30:00+02:00,2021-08-27T06:45:00+02:00,103.19,EUR,,MWh
Power,Intraday,Continuous,NL,ID1,QH,2021-08-27T06:45:00+02:00,2021-08-27T07:00:00+02:00,110.16,EUR,,MWh
Power,Intraday,Continuous,NL,ID1,QH,2021-08-27T07:00:00+02:00,2021-08-27T07:15:00+02:00,105.38,EUR,,MWh
Power,Intraday,Continuous,NL,ID1,QH,2021-08-27T07:15:00+02:00,2021-08-27T07:30:00+02:00,111.87,EUR,,MWh
Power,Intraday,Continuous,NL,ID1,QH,2021-08-27T07:30:00+02:00,2021-08-27T07:45:00+02:00,117.00,EUR,,MWh
Power,Intraday,Continuous,NL,ID1,QH,2021-08-27T07:45:00+02:00,2021-08-27T08:00:00+02:00,121.85,EUR,,MWh
Power,Intraday,Continuous,NL,ID1,QH,2021-08-27T08:00:00+02:00,2021-08-27T08:15:00+02:00,132.19,EUR,,MWh
Power,Intraday,Continuous,NL,ID1,QH,2021-08-27T08:15:00+02:00,2021-08-27T08:30:00+02:00,116.02,EUR,,MWh
Power,Intraday,Continuous,NL,ID1,QH,2021-08-27T08:30:00+02:00,2021-08-27T08:45:00+02:00,111.96,EUR,,MWh
Power,Intraday,Continuous,NL,ID1,QH,2021-08-27T08:45:00+02:00,2021-08-27T09:00:00+02:00,97.41,EUR,,MWh
Power,Intraday,Continuous,NL,ID1,QH,2021-08-27T09:00:00+02:00,2021-08-27T09:15:00+02:00,131.63,EUR,,MWh
Power,Intraday,Continuous,NL,ID1,QH,2021-08-27T09:15:00+02:00,2021-08-27T09:30:00+02:00,108.57,EUR,,MWh
Power,Intraday,Continuous,NL,ID1,QH,2021-08-27T09:30:00+02:00,2021-08-27T09:45:00+02:00,97.13,EUR,,MWh
Power,Intraday,Continuous,NL,ID1,QH,2021-08-27T09:45:00+02:00,2021-08-27T10:00:00+02:00,91.54,EUR,,MWh
Power,Intraday,Continuous,NL,ID1,QH,2021-08-27T10:00:00+02:00,2021-08-27T10:15:00+02:00,110.67,EUR,,MWh
Power,Intraday,Continuous,NL,ID1,QH,2021-08-27T10:15:00+02:00,2021-08-27T10:30:00+02:00,111.77,EUR,,MWh
Power,Intraday,Continuous,NL,ID1,QH,2021-08-27T10:30:00+02:00,2021-08-27T10:45:00+02:00,86.07,EUR,7.950,MWh
Power,Intraday,Continuous,NL,ID1,QH,2021-08-27T10:45:00+02:00,2021-08-27T11:00:00+02:00,88.14,EUR,8.750,MWh
Power,Intraday,Continuous,NL,ID1,QH,2021-08-27T11:00:00+02:00,2021-08-27T11:15:00+02:00,84.39,EUR,6.000,MWh
Power,Intraday,Continuous,NL,ID1,QH,2021-08-27T11:15:00+02:00,2021-08-27T11:30:00+02:00,104.96,EUR,,MWh
Power,Intraday,Continuous,NL,ID1,QH,2021-08-27T11:30:00+02:00,2021-08-27T11:45:00+02:00,65.00,EUR,3.630,MWh
Power,Intraday,Continuous,NL,ID1,QH,2021-08-27T11:45:00+02:00,2021-08-27T12:00:00+02:00,65.00,EUR,4.730,MWh
Power,Intraday,Continuous,NL,ID1,QH,2021-08-27T12:00:00+02:00,2021-08-27T12:15:00+02:00,103.12,EUR,,MWh
Power,Intraday,Continuous,NL,ID1,QH,2021-08-27T12:15:00+02:00,2021-08-27T12:30:00+02:00,100.78,EUR,,MWh
Power,Intraday,Continuous,NL,ID1,QH,2021-08-27T12:30:00+02:00,2021-08-27T12:45:00+02:00,99.85,EUR,5.250,MWh
Power,Intraday,Continuous,NL,ID1,QH,2021-08-27T12:45:00+02:00,2021-08-27T13:00:00+02:00,99.57,EUR,5.480,MWh
Power,Intraday,Continuous,NL,ID1,QH,2021-08-27T13:00:00+02:00,2021-08-27T13:15:00+02:00,104.12,EUR,,MWh
Power,Intraday,Continuous,NL,ID1,QH,2021-08-27T13:15:00+02:00,2021-08-27T13:30:00+02:00,101.57,EUR,,MWh
Power,Intraday,Continuous,NL,ID1,QH,2021-08-27T13:30:00+02:00,2021-08-27T13:45:00+02:00,100.50,EUR,,MWh
Power,Intraday,Continuous,NL,ID1,QH,2021-08-27T13:45:00+02:00,2021-08-27T14:00:00+02:00,74.95,EUR,,MWh
Power,Intraday,Continuous,NL,ID1,QH,2021-08-27T14:00:00+02:00,2021-08-27T14:15:00+02:00,87.66,EUR,,MWh
Power,Intraday,Continuous,NL,ID1,QH,2021-08-27T14:15:00+02:00,2021-08-27T14:30:00+02:00,87.19,EUR,,MWh
Power,Intraday,Continuous,NL,ID1,QH,2021-08-27T14:30:00+02:00,2021-08-27T14:45:00+02:00,70.00,EUR,3.750,MWh
Power,Intraday,Continuous,NL,ID1,QH,2021-08-27T14:45:00+02:00,2021-08-27T15:00:00+02:00,70.00,EUR,3.750,MWh
Power,Intraday,Continuous,NL,ID1,QH,2021-08-27T15:00:00+02:00,2021-08-27T15:15:00+02:00,70.00,EUR,12.500,MWh
Power,Intraday,Continuous,NL,ID1,QH,2021-08-27T15:15:00+02:00,2021-08-27T15:30:00+02:00,70.00,EUR,12.500,MWh
Power,Intraday,Continuous,NL,ID1,QH,2021-08-27T15:30:00+02:00,2021-08-27T15:45:00+02:00,70.00,EUR,18.350,MWh
Power,Intraday,Continuous,NL,ID1,QH,2021-08-27T15:45:00+02:00,2021-08-27T16:00:00+02:00,70.15,EUR,16.900,MWh
Power,Intraday,Continuous,NL,ID1,QH,2021-08-27T16:00:00+02:00,2021-08-27T16:15:00+02:00,70.00,EUR,12.500,MWh
Power,Intraday,Continuous,NL,ID1,QH,2021-08-27T16:15:00+02:00,2021-08-27T16:30:00+02:00,70.00,EUR,20.000,MWh
Power,Intraday,Continuous,NL,ID1,QH,2021-08-27T16:30:00+02:00,2021-08-27T16:45:00+02:00,70.00,EUR,12.500,MWh
Power,Intraday,Continuous,NL,ID1,QH,2021-08-27T16:45:00+02:00,2021-08-27T17:00:00+02:00,70.00,EUR,12.500,MWh
Power,Intraday,Continuous,NL,ID1,QH,2021-08-27T17:00:00+02:00,2021-08-27T17:15:00+02:00,71.11,EUR,,MWh
Power,Intraday,Continuous,NL,ID1,QH,2021-08-27T17:15:00+02:00,2021-08-27T17:30:00+02:00,70.00,EUR,12.500,MWh
Power,Intraday,Continuous,NL,ID1,QH,2021-08-27T17:30:00+02:00,2021-08-27T17:45:00+02:00,70.00,EUR,12.500,MWh
Power,Intraday,Continuous,NL,ID1,QH,2021-08-27T17:45:00+02:00,2021-08-27T18:00:00+02:00,70.00,EUR,8.750,MWh
Power,Intraday,Continuous,NL,ID1,QH,2021-08-27T18:00:00+02:00,2021-08-27T18:15:00+02:00,70.00,EUR,5.000,MWh
Power,Intraday,Continuous,NL,ID1,QH,2021-08-27T18:15:00+02:00,2021-08-27T18:30:00+02:00,99.16,EUR,,MWh
Power,Intraday,Continuous,NL,ID1,QH,2021-08-27T18:30:00+02:00,2021-08-27T18:45:00+02:00,104.94,EUR,,MWh
Power,Intraday,Continuous,NL,ID1,QH,2021-08-27T18:45:00+02:00,2021-08-27T19:00:00+02:00,118.59,EUR,,MWh
Power,Intraday,Continuous,NL,ID1,QH,2021-08-27T19:00:00+02:00,2021-08-27T19:15:00+02:00,50.00,EUR,2.850,MWh
Power,Intraday,Continuous,NL,ID1,QH,2021-08-27T19:15:00+02:00,2021-08-27T19:30:00+02:00,104.14,EUR,,MWh
Power,Intraday,Continuous,NL,ID1,QH,2021-08-27T19:30:00+02:00,2021-08-27T19:45:00+02:00,118.92,EUR,,MWh
Power,Intraday,Continuous,NL,ID1,QH,2021-08-27T19:45:00+02:00,2021-08-27T20:00:00+02:00,122.88,EUR,,MWh
Power,Intraday,Continuous,NL,ID1,QH,2021-08-27T20:00:00+02:00,2021-08-27T20:15:00+02:00,118.95,EUR,,MWh
Power,Intraday,Continuous,NL,ID1,QH,2021-08-27T20:15:00+02:00,2021-08-27T20:30:00+02:00,111.19,EUR,,MWh
Power,Intraday,Continuous,NL,ID1,QH,2021-08-27T20:30:00+02:00,2021-08-27T20:45:00+02:00,117.19,EUR,,MWh
Power,Intraday,Continuous,NL,ID1,QH,2021-08-27T20:45:00+02:00,2021-08-27T21:00:00+02:00,111.58,EUR,,MWh
Power,Intraday,Continuous,NL,ID1,QH,2021-08-27T21:00:00+02:00,2021-08-27T21:15:00+02:00,138.06,EUR,,MWh
Power,Intraday,Continuous,NL,ID1,QH,2021-08-27T21:15:00+02:00,2021-08-27T21:30:00+02:00,107.36,EUR,,MWh
Power,Intraday,Continuous,NL,ID1,QH,2021-08-27T21:30:00+02:00,2021-08-27T21:45:00+02:00,101.45,EUR,,MWh
Power,Intraday,Continuous,NL,ID1,QH,2021-08-27T21:45:00+02:00,2021-08-27T22:00:00+02:00,102.68,EUR,,MWh
Power,Intraday,Continuous,NL,ID1,QH,2021-08-27T22:00:00+02:00,2021-08-27T22:15:00+02:00,130.70,EUR,,MWh
Power,Intraday,Continuous,NL,ID1,QH,2021-08-27T22:15:00+02:00,2021-08-27T22:30:00+02:00,103.55,EUR,,MWh
Power,Intraday,Continuous,NL,ID1,QH,2021-08-27T22:30:00+02:00,2021-08-27T22:45:00+02:00,99.37,EUR,,MWh
Power,Intraday,Continuous,NL,ID1,QH,2021-08-27T22:45:00+02:00,2021-08-27T23:00:00+02:00,83.81,EUR,,MWh
Power,Intraday,Continuous,NL,ID1,QH,2021-08-27T23:00:00+02:00,2021-08-27T23:15:00+02:00,160.53,EUR,,MWh
Power,Intraday,Continuous,NL,ID1,QH,2021-08-27T23:15:00+02:00,2021-08-27T23:30:00+02:00,91.07,EUR,,MWh
Power,Intraday,Continuous,NL,ID1,QH,2021-08-27T23:30:00+02:00,2021-08-27T23:45:00+02:00,89.45,EUR,,MWh
Power,Intraday,Continuous,NL,ID1,QH,2021-08-27T23:45:00+02:00,2021-08-28T00:00:00+02:00,71.87,EUR,,MWh
Power,Intraday,Continuous,NL,ID3,QH,2021-08-27T00:00:00+02:00,2021-08-27T00:15:00+02:00,100.62,EUR,35.200,MWh
Power,Intraday,Continuous,NL,ID3,QH,2021-08-27T00:15:00+02:00,2021-08-27T00:30:00+02:00,97.25,EUR,40.880,MWh
Power,Intraday,Continuous,NL,ID3,QH,2021-08-27T00:30:00+02:00,2021-08-27T00:45:00+02:00,90.89,EUR,47.500,MWh
Power,Intraday,Continuous,NL,ID3,QH,2021-08-27T00:45:00+02:00,2021-08-27T01:00:00+02:00,79.45,EUR,54.300,MWh
Power,Intraday,Continuous,NL,ID3,QH,2021-08-27T01:00:00+02:00,2021-08-27T01:15:00+02:00,103.05,EUR,30.900,MWh
Power,Intraday,Continuous,NL,ID3,QH,2021-08-27T01:15:00+02:00,2021-08-27T01:30:00+02:00,78.14,EUR,28.550,MWh
Power,Intraday,Continuous,NL,ID3,QH,2021-08-27T01:30:00+02:00,2021-08-27T01:45:00+02:00,80.29,EUR,23.350,MWh
Power,Intraday,Continuous,NL,ID3,QH,2021-08-27T01:45:00+02:00,2021-08-27T02:00:00+02:00,72.54,EUR,31.030,MWh
Power,Intraday,Continuous,NL,ID3,QH,2021-08-27T02:00:00+02:00,2021-08-27T02:15:00+02:00,95.35,EUR,7.230,MWh
Power,Intraday,Continuous,NL,ID3,QH,2021-08-27T02:15:00+02:00,2021-08-27T02:30:00+02:00,79.55,EUR,6.450,MWh
Power,Intraday,Continuous,NL,ID3,QH,2021-08-27T02:30:00+02:00,2021-08-27T02:45:00+02:00,75.67,EUR,7.000,MWh
Power,Intraday,Continuous,NL,ID3,QH,2021-08-27T02:45:00+02:00,2021-08-27T03:00:00+02:00,71.01,EUR,33.930,MWh
Power,Intraday,Continuous,NL,ID3,QH,2021-08-27T03:00:00+02:00,2021-08-27T03:15:00+02:00,83.04,EUR,16.880,MWh
Power,Intraday,Continuous,NL,ID3,QH,2021-08-27T03:15:00+02:00,2021-08-27T03:30:00+02:00,80.87,EUR,6.800,MWh
Power,Intraday,Continuous,NL,ID3,QH,2021-08-27T03:30:00+02:00,2021-08-27T03:45:00+02:00,91.77,EUR,11.850,MWh
Power,Intraday,Continuous,NL,ID3,QH,2021-08-27T03:45:00+02:00,2021-08-27T04:00:00+02:00,76.68,EUR,16.380,MWh
Power,Intraday,Continuous,NL,ID3,QH,2021-08-27T04:00:00+02:00,2021-08-27T04:15:00+02:00,69.36,EUR,3.780,MWh
Power,Intraday,Continuous,NL,ID3,QH,2021-08-27T04:15:00+02:00,2021-08-27T04:30:00+02:00,77.53,EUR,,MWh
Power,Intraday,Continuous,NL,ID3,QH,2021-08-27T04:30:00+02:00,2021-08-27T04:45:00+02:00,80.57,EUR,,MWh
Power,Intraday,Continuous,NL,ID3,QH,2021-08-27T04:45:00+02:00,2021-08-27T05:00:00+02:00,86.06,EUR,7.250,MWh
Power,Intraday,Continuous,NL,ID3,QH,2021-08-27T05:00:00+02:00,2021-08-27T05:15:00+02:00,72.03,EUR,14.130,MWh
Power,Intraday,Continuous,NL,ID3,QH,2021-08-27T05:15:00+02:00,2021-08-27T05:30:00+02:00,76.64,EUR,11.050,MWh
Power,Intraday,Continuous,NL,ID3,QH,2021-08-27T05:30:00+02:00,2021-08-27T05:45:00+02:00,81.97,EUR,12.050,MWh
Power,Intraday,Continuous,NL,ID3,QH,2021-08-27T05:45:00+02:00,2021-08-27T06:00:00+02:00,94.01,EUR,24.380,MWh
Power,Intraday,Continuous,NL,ID3,QH,2021-08-27T06:00:00+02:00,2021-08-27T06:15:00+02:00,82.77,EUR,21.650,MWh
Power,Intraday,Continuous,NL,ID3,QH,2021-08-27T06:15:00+02:00,2021-08-27T06:30:00+02:00,103.02,EUR,11.680,MWh
Power,Intraday,Continuous,NL,ID3,QH,2021-08-27T06:30:00+02:00,2021-08-27T06:45:00+02:00,103.19,EUR,10.480,MWh
Power,Intraday,Continuous,NL,ID3,QH,2021-08-27T06:45:00+02:00,2021-08-27T07:00:00+02:00,110.16,EUR,28.330,MWh
Power,Intraday,Continuous,NL,ID3,QH,2021-08-27T07:00:00+02:00,2021-08-27T07:15:00+02:00,105.38,EUR,32.000,MWh
Power,Intraday,Continuous,NL,ID3,QH,2021-08-27T07:15:00+02:00,2021-08-27T07:30:00+02:00,111.87,EUR,17.500,MWh
Power,Intraday,Continuous,NL,ID3,QH,2021-08-27T07:30:00+02:00,2021-08-27T07:45:00+02:00,117.00,EUR,16.880,MWh
Power,Intraday,Continuous,NL,ID3,QH,2021-08-27T07:45:00+02:00,2021-08-27T08:00:00+02:00,121.85,EUR,17.450,MWh
Power,Intraday,Continuous,NL,ID3,QH,2021-08-27T08:00:00+02:00,2021-08-27T08:15:00+02:00,132.19,EUR,16.650,MWh
Power,Intraday,Continuous,NL,ID3,QH,2021-08-27T08:15:00+02:00,2021-08-27T08:30:00+02:00,116.02,EUR,13.930,MWh
Power,Intraday,Continuous,NL,ID3,QH,2021-08-27T08:30:00+02:00,2021-08-27T08:45:00+02:00,111.96,EUR,45.600,MWh
Power,Intraday,Continuous,NL,ID3,QH,2021-08-27T08:45:00+02:00,2021-08-27T09:00:00+02:00,97.41,EUR,71.550,MWh
Power,Intraday,Continuous,NL,ID3,QH,2021-08-27T09:00:00+02:00,2021-08-27T09:15:00+02:00,131.63,EUR,53.370,MWh
Power,Intraday,Continuous,NL,ID3,QH,2021-08-27T09:15:00+02:00,2021-08-27T09:30:00+02:00,108.57,EUR,28.750,MWh
Power,Intraday,Continuous,NL,ID3,QH,2021-08-27T09:30:00+02:00,2021-08-27T09:45:00+02:00,97.13,EUR,62.000,MWh
Power,Intraday,Continuous,NL,ID3,QH,2021-08-27T09:45:00+02:00,2021-08-27T10:00:00+02:00,91.54,EUR,87.350,MWh
Power,Intraday,Continuous,NL,ID3,QH,2021-08-27T10:00:00+02:00,2021-08-27T10:15:00+02:00,110.67,EUR,57.850,MWh
Power,Intraday,Continuous,NL,ID3,QH,2021-08-27T10:15:00+02:00,2021-08-27T10:30:00+02:00,111.77,EUR,62.180,MWh
Power,Intraday,Continuous,NL,ID3,QH,2021-08-27T10:30:00+02:00,2021-08-27T10:45:00+02:00,93.65,EUR,70.550,MWh
Power,Intraday,Continuous,NL,ID3,QH,2021-08-27T10:45:00+02:00,2021-08-27T11:00:00+02:00,90.02,EUR,82.750,MWh
Power,Intraday,Continuous,NL,ID3,QH,2021-08-27T11:00:00+02:00,2021-08-27T11:15:00+02:00,107.14,EUR,39.730,MWh
Power,Intraday,Continuous,NL,ID3,QH,2021-08-27T11:15:00+02:00,2021-08-27T11:30:00+02:00,104.96,EUR,19.780,MWh
Power,Intraday,Continuous,NL,ID3,QH,2021-08-27T11:30:00+02:00,2021-08-27T11:45:00+02:00,92.18,EUR,71.000,MWh
Power,Intraday,Continuous,NL,ID3,QH,2021-08-27T11:45:00+02:00,2021-08-27T12:00:00+02:00,91.64,EUR,76.670,MWh
Power,Intraday,Continuous,NL,ID3,QH,2021-08-27T12:00:00+02:00,2021-08-27T12:15:00+02:00,103.12,EUR,32.650,MWh
Power,Intraday,Continuous,NL,ID3,QH,2021-08-27T12:15:00+02:00,2021-08-27T12:30:00+02:00,100.78,EUR,32.280,MWh
Power,Intraday,Continuous,NL,ID3,QH,2021-08-27T12:30:00+02:00,2021-08-27T12:45:00+02:00,99.28,EUR,30.830,MWh
Power,Intraday,Continuous,NL,ID3,QH,2021-08-27T12:45:00+02:00,2021-08-27T13:00:00+02:00,88.78,EUR,12.750,MWh
Power,Intraday,Continuous,NL,ID3,QH,2021-08-27T13:00:00+02:00,2021-08-27T13:15:00+02:00,104.12,EUR,8.050,MWh
Power,Intraday,Continuous,NL,ID3,QH,2021-08-27T13:15:00+02:00,2021-08-27T13:30:00+02:00,101.57,EUR,12.400,MWh
Power,Intraday,Continuous,NL,ID3,QH,2021-08-27T13:30:00+02:00,2021-08-27T13:45:00+02:00,100.50,EUR,9.650,MWh
Power,Intraday,Continuous,NL,ID3,QH,2021-08-27T13:45:00+02:00,2021-08-27T14:00:00+02:00,74.95,EUR,14.800,MWh
Power,Intraday,Continuous,NL,ID3,QH,2021-08-27T14:00:00+02:00,2021-08-27T14:15:00+02:00,87.66,EUR,8.380,MWh
Power,Intraday,Continuous,NL,ID3,QH,2021-08-27T14:15:00+02:00,2021-08-27T14:30:00+02:00,87.19,EUR,7.330,MWh
Power,Intraday,Continuous,NL,ID3,QH,2021-08-27T14:30:00+02:00,2021-08-27T14:45:00+02:00,84.72,EUR,16.850,MWh
Power,Intraday,Continuous,NL,ID3,QH,2021-08-27T14:45:00+02:00,2021-08-27T15:00:00+02:00,87.35,EUR,22.380,MWh
Power,Intraday,Continuous,NL,ID3,QH,2021-08-27T15:00:00+02:00,2021-08-27T15:15:00+02:00,71.85,EUR,26.430,MWh
Power,Intraday,Continuous,NL,ID3,QH,2021-08-27T15:15:00+02:00,2021-08-27T15:30:00+02:00,76.33,EUR,34.530,MWh
Power,Intraday,Continuous,NL,ID3,QH,2021-08-27T15:30:00+02:00,2021-08-27T15:45:00+02:00,75.28,EUR,49.600,MWh
Power,Intraday,Continuous,NL,ID3,QH,2021-08-27T15:45:00+02:00,2021-08-27T16:00:00+02:00,84.58,EUR,68.380,MWh
Power,Intraday,Continuous,NL,ID3,QH,2021-08-27T16:00:00+02:00,2021-08-27T16:15:00+02:00,64.34,EUR,44.400,MWh
Power,Intraday,Continuous,NL,ID3,QH,2021-08-27T16:15:00+02:00,2021-08-27T16:30:00+02:00,78.83,EUR,54.880,MWh
Power,Intraday,Continuous,NL,ID3,QH,2021-08-27T16:30:00+02:00,2021-08-27T16:45:00+02:00,87.43,EUR,45.180,MWh
Power,Intraday,Continuous,NL,ID3,QH,2021-08-27T16:45:00+02:00,2021-08-27T17:00:00+02:00,98.02,EUR,76.000,MWh
Power,Intraday,Continuous,NL,ID3,QH,2021-08-27T17:00:00+02:00,2021-08-27T17:15:00+02:00,71.11,EUR,111.400,MWh
Power,Intraday,Continuous,NL,ID3,QH,2021-08-27T17:15:00+02:00,2021-08-27T17:30:00+02:00,86.43,EUR,58.830,MWh
Power,Intraday,Continuous,NL,ID3,QH,2021-08-27T17:30:00+02:00,2021-08-27T17:45:00+02:00,84.54,EUR,23.700,MWh
Power,Intraday,Continuous,NL,ID3,QH,2021-08-27T17:45:00+02:00,2021-08-27T18:00:00+02:00,114.86,EUR,61.100,MWh
Power,Intraday,Continuous,NL,ID3,QH,2021-08-27T18:00:00+02:00,2021-08-27T18:15:00+02:00,91.32,EUR,54.930,MWh
Power,Intraday,Continuous,NL,ID3,QH,2021-08-27T18:15:00+02:00,2021-08-27T18:30:00+02:00,99.16,EUR,55.430,MWh
Power,Intraday,Continuous,NL,ID3,QH,2021-08-27T18:30:00+02:00,2021-08-27T18:45:00+02:00,104.94,EUR,35.680,MWh
Power,Intraday,Continuous,NL,ID3,QH,2021-08-27T18:45:00+02:00,2021-08-27T19:00:00+02:00,118.59,EUR,58.680,MWh
Power,Intraday,Continuous,NL,ID3,QH,2021-08-27T19:00:00+02:00,2021-08-27T19:15:00+02:00,99.38,EUR,61.400,MWh
Power,Intraday,Continuous,NL,ID3,QH,2021-08-27T19:15:00+02:00,2021-08-27T19:30:00+02:00,104.14,EUR,30.580,MWh
Power,Intraday,Continuous,NL,ID3,QH,2021-08-27T19:30:00+02:00,2021-08-27T19:45:00+02:00,118.92,EUR,20.380,MWh
Power,Intraday,Continuous,NL,ID3,QH,2021-08-27T19:45:00+02:00,2021-08-27T20:00:00+02:00,122.88,EUR,47.480,MWh
Power,Intraday,Continuous,NL,ID3,QH,2021-08-27T20:00:00+02:00,2021-08-27T20:15:00+02:00,118.95,EUR,19.280,MWh
Power,Intraday,Continuous,NL,ID3,QH,2021-08-27T20:15:00+02:00,2021-08-27T20:30:00+02:00,111.19,EUR,14.080,MWh
Power,Intraday,Continuous,NL,ID3,QH,2021-08-27T20:30:00+02:00,2021-08-27T20:45:00+02:00,117.19,EUR,13.900,MWh
Power,Intraday,Continuous,NL,ID3,QH,2021-08-27T20:45:00+02:00,2021-08-27T21:00:00+02:00,111.58,EUR,9.550,MWh
Power,Intraday,Continuous,NL,ID3,QH,2021-08-27T21:00:00+02:00,2021-08-27T21:15:00+02:00,138.06,EUR,31.030,MWh
Power,Intraday,Continuous,NL,ID3,QH,2021-08-27T21:15:00+02:00,2021-08-27T21:30:00+02:00,107.36,EUR,6.180,MWh
Power,Intraday,Continuous,NL,ID3,QH,2021-08-27T21:30:00+02:00,2021-08-27T21:45:00+02:00,101.45,EUR,33.780,MWh
Power,Intraday,Continuous,NL,ID3,QH,2021-08-27T21:45:00+02:00,2021-08-27T22:00:00+02:00,102.68,EUR,26.630,MWh
Power,Intraday,Continuous,NL,ID3,QH,2021-08-27T22:00:00+02:00,2021-08-27T22:15:00+02:00,130.70,EUR,4.180,MWh
Power,Intraday,Continuous,NL,ID3,QH,2021-08-27T22:15:00+02:00,2021-08-27T22:30:00+02:00,103.55,EUR,16.080,MWh
Power,Intraday,Continuous,NL,ID3,QH,2021-08-27T22:30:00+02:00,2021-08-27T22:45:00+02:00,99.37,EUR,36.730,MWh
Power,Intraday,Continuous,NL,ID3,QH,2021-08-27T22:45:00+02:00,2021-08-27T23:00:00+02:00,83.81,EUR,33.130,MWh
Power,Intraday,Continuous,NL,ID3,QH,2021-08-27T23:00:00+02:00,2021-08-27T23:15:00+02:00,160.53,EUR,,MWh
Power,Intraday,Continuous,NL,ID3,QH,2021-08-27T23:15:00+02:00,2021-08-27T23:30:00+02:00,91.07,EUR,3.980,MWh
Power,Intraday,Continuous,NL,ID3,QH,2021-08-27T23:30:00+02:00,2021-08-27T23:45:00+02:00,89.45,EUR,65.100,MWh
Power,Intraday,Continuous,NL,ID3,QH,2021-08-27T23:45:00+02:00,2021-08-28T00:00:00+02:00,71.87,EUR,70.380,MWh
Power,Intraday,Continuous,NL,IDFULL,BASE,2021-08-27T00:00:00+02:00,2021-08-28T00:00:00+02:00,96.62,EUR,20028.200,MWh
Power,Intraday,Continuous,NL,IDFULL,PEAK,2021-08-27T08:00:00+02:00,2021-08-27T20:00:00+02:00,97.68,EUR,11525.800,MWh
