Commodity,NominationModality,TradingModality,MarketArea,IndexName,TimeResolution,DeliveryStart,DeliveryEnd,IndexPrice,Currency,Volume,VolumeUnit
Power,Intraday,Continuous,NL,IDFULL,H,2021-07-28T00:00:00+02:00,2021-07-28T01:00:00+02:00,72.28,EUR,611.500,MWh
Power,Intraday,Continuous,NL,IDFULL,H,2021-07-28T01:00:00+02:00,2021-07-28T02:00:00+02:00,68.96,EUR,600.200,MWh
Power,Intraday,Continuous,NL,IDFULL,H,2021-07-28T02:00:00+02:00,2021-07-28T03:00:00+02:00,50.13,EUR,536.400,MWh
Power,Intraday,Continuous,NL,IDFULL,H,2021-07-28T03:00:00+02:00,2021-07-28T04:00:00+02:00,41.82,EUR,467.600,MWh
Power,Intraday,Continuous,NL,IDFULL,H,2021-07-28T04:00:00+02:00,2021-07-28T05:00:00+02:00,46.98,EUR,631.400,MWh
Power,Intraday,Continuous,NL,IDFULL,H,2021-07-28T05:00:00+02:00,2021-07-28T06:00:00+02:00,46.70,EUR,959.800,MWh
Power,Intraday,Continuous,NL,IDFULL,H,2021-07-28T06:00:00+02:00,2021-07-28T07:00:00+02:00,58.88,EUR,537.700,MWh
Power,Intraday,Continuous,NL,IDFULL,H,2021-07-28T07:00:00+02:00,2021-07-28T08:00:00+02:00,70.19,EUR,772.500,MWh
Power,Intraday,Continuous,NL,IDFULL,H,2021-07-28T08:00:00+02:00,2021-07-28T09:00:00+02:00,67.07,EUR,307.000,MWh
Power,Intraday,Continuous,NL,IDFULL,H,2021-07-28T09:00:00+02:00,2021-07-28T10:00:00+02:00,79.30,EUR,1383.500,MWh
Power,Intraday,Continuous,NL,IDFULL,H,2021-07-28T10:00:00+02:00,2021-07-28T11:00:00+02:00,68.46,EUR,1326.100,MWh
Power,Intraday,Continuous,NL,IDFULL,H,2021-07-28T11:00:00+02:00,2021-07-28T12:00:00+02:00,63.19,EUR,1386.000,MWh
Power,Intraday,Continuous,NL,IDFULL,H,2021-07-28T12:00:00+02:00,2021-07-28T13:00:00+02:00,59.73,EUR,1232.100,MWh
Power,Intraday,Continuous,NL,IDFULL,H,2021-07-28T13:00:00+02:00,2021-07-28T14:00:00+02:00,52.21,EUR,1214.700,MWh
Power,Intraday,Continuous,NL,IDFULL,H,2021-07-28T14:00:00+02:00,2021-07-28T15:00:00+02:00,59.66,EUR,2021.200,MWh
Power,Intraday,Continuous,NL,IDFULL,H,2021-07-28T15:00:00+02:00,2021-07-28T16:00:00+02:00,44.66,EUR,2063.600,MWh
Power,Intraday,Continuous,NL,IDFULL,H,2021-07-28T16:00:00+02:00,2021-07-28T17:00:00+02:00,54.55,EUR,1127.000,MWh
Power,Intraday,Continuous,NL,IDFULL,H,2021-07-28T17:00:00+02:00,2021-07-28T18:00:00+02:00,48.79,EUR,1036.600,MWh
Power,Intraday,Continuous,NL,IDFULL,H,2021-07-28T18:00:00+02:00,2021-07-28T19:00:00+02:00,57.92,EUR,763.900,MWh
Power,Intraday,Continuous,NL,IDFULL,H,2021-07-28T19:00:00+02:00,2021-07-28T20:00:00+02:00,57.71,EUR,273.000,MWh
Power,Intraday,Continuous,NL,IDFULL,H,2021-07-28T20:00:00+02:00,2021-07-28T21:00:00+02:00,59.41,EUR,434.400,MWh
Power,Intraday,Continuous,NL,IDFULL,H,2021-07-28T21:00:00+02:00,2021-07-28T22:00:00+02:00,59.36,EUR,386.000,MWh
Power,Intraday,Continuous,NL,IDFULL,H,2021-07-28T22:00:00+02:00,2021-07-28T23:00:00+02:00,67.70,EUR,916.900,MWh
Power,Intraday,Continuous,NL,IDFULL,H,2021-07-28T23:00:00+02:00,2021-07-29T00:00:00+02:00,57.85,EUR,1266.400,MWh
Power,Intraday,Continuous,NL,ID1,H,2021-07-28T00:00:00+02:00,2021-07-28T01:00:00+02:00,72.26,EUR,,MWh
Power,Intraday,Continuous,NL,ID1,H,2021-07-28T01:00:00+02:00,2021-07-28T02:00:00+02:00,68.60,EUR,,MWh
Power,Intraday,Continuous,NL,ID1,H,2021-07-28T02:00:00+02:00,2021-07-28T03:00:00+02:00,47.55,EUR,,MWh
Power,Intraday,Continuous,NL,ID1,H,2021-07-28T03:00:00+02:00,2021-07-28T04:00:00+02:00,14.40,EUR,50.000,MWh
Power,Intraday,Continuous,NL,ID1,H,2021-07-28T04:00:00+02:00,2021-07-28T05:00:00+02:00,30.00,EUR,19.100,MWh
Power,Intraday,Continuous,NL,ID1,H,2021-07-28T05:00:00+02:00,2021-07-28T06:00:00+02:00,35.07,EUR,52.400,MWh
Power,Intraday,Continuous,NL,ID1,H,2021-07-28T06:00:00+02:00,2021-07-28T07:00:00+02:00,39.95,EUR,10.000,MWh
Power,Intraday,Continuous,NL,ID1,H,2021-07-28T07:00:00+02:00,2021-07-28T08:00:00+02:00,66.04,EUR,73.000,MWh
Power,Intraday,Continuous,NL,ID1,H,2021-07-28T08:00:00+02:00,2021-07-28T09:00:00+02:00,77.71,EUR,114.100,MWh
Power,Intraday,Continuous,NL,ID1,H,2021-07-28T09:00:00+02:00,2021-07-28T10:00:00+02:00,81.57,EUR,333.200,MWh
Power,Intraday,Continuous,NL,ID1,H,2021-07-28T10:00:00+02:00,2021-07-28T11:00:00+02:00,57.37,EUR,190.900,MWh
Power,Intraday,Continuous,NL,ID1,H,2021-07-28T11:00:00+02:00,2021-07-28T12:00:00+02:00,48.86,EUR,176.400,MWh
Power,Intraday,Continuous,NL,ID1,H,2021-07-28T12:00:00+02:00,2021-07-28T13:00:00+02:00,40.52,EUR,102.100,MWh
Power,Intraday,Continuous,NL,ID1,H,2021-07-28T13:00:00+02:00,2021-07-28T14:00:00+02:00,37.64,EUR,177.900,MWh
Power,Intraday,Continuous,NL,ID1,H,2021-07-28T14:00:00+02:00,2021-07-28T15:00:00+02:00,110.45,EUR,188.400,MWh
Power,Intraday,Continuous,NL,ID1,H,2021-07-28T15:00:00+02:00,2021-07-28T16:00:00+02:00,-30.64,EUR,238.400,MWh
Power,Intraday,Continuous,NL,ID1,H,2021-07-28T16:00:00+02:00,2021-07-28T17:00:00+02:00,72.67,EUR,52.400,MWh
Power,Intraday,Continuous,NL,ID1,H,2021-07-28T17:00:00+02:00,2021-07-28T18:00:00+02:00,62.22,EUR,97.600,MWh
Power,Intraday,Continuous,NL,ID1,H,2021-07-28T18:00:00+02:00,2021-07-28T19:00:00+02:00,57.51,EUR,85.500,MWh
Power,Intraday,Continuous,NL,ID1,H,2021-07-28T19:00:00+02:00,2021-07-28T20:00:00+02:00,47.50,EUR,40.000,MWh
Power,Intraday,Continuous,NL,ID1,H,2021-07-28T20:00:00+02:00,2021-07-28T21:00:00+02:00,53.58,EUR,60.000,MWh
Power,Intraday,Continuous,NL,ID1,H,2021-07-28T21:00:00+02:00,2021-07-28T22:00:00+02:00,30.00,EUR,10.000,MWh
Power,Intraday,Continuous,NL,ID1,H,2021-07-28T22:00:00+02:00,2021-07-28T23:00:00+02:00,65.67,EUR,,MWh
Power,Intraday,Continuous,NL,ID1,H,2021-07-28T23:00:00+02:00,2021-07-29T00:00:00+02:00,56.11,EUR,,MWh
Power,Intraday,Continuous,NL,ID3,H,2021-07-28T00:00:00+02:00,2021-07-28T01:00:00+02:00,72.26,EUR,607.400,MWh
Power,Intraday,Continuous,NL,ID3,H,2021-07-28T01:00:00+02:00,2021-07-28T02:00:00+02:00,68.60,EUR,460.600,MWh
Power,Intraday,Continuous,NL,ID3,H,2021-07-28T02:00:00+02:00,2021-07-28T03:00:00+02:00,47.55,EUR,468.300,MWh
Power,Intraday,Continuous,NL,ID3,H,2021-07-28T03:00:00+02:00,2021-07-28T04:00:00+02:00,40.14,EUR,426.200,MWh
Power,Intraday,Continuous,NL,ID3,H,2021-07-28T04:00:00+02:00,2021-07-28T05:00:00+02:00,40.63,EUR,441.700,MWh
Power,Intraday,Continuous,NL,ID3,H,2021-07-28T05:00:00+02:00,2021-07-28T06:00:00+02:00,44.68,EUR,824.600,MWh
Power,Intraday,Continuous,NL,ID3,H,2021-07-28T06:00:00+02:00,2021-07-28T07:00:00+02:00,51.98,EUR,279.500,MWh
Power,Intraday,Continuous,NL,ID3,H,2021-07-28T07:00:00+02:00,2021-07-28T08:00:00+02:00,60.32,EUR,498.100,MWh
Power,Intraday,Continuous,NL,ID3,H,2021-07-28T08:00:00+02:00,2021-07-28T09:00:00+02:00,67.03,EUR,305.800,MWh
Power,Intraday,Continuous,NL,ID3,H,2021-07-28T09:00:00+02:00,2021-07-28T10:00:00+02:00,76.07,EUR,1036.600,MWh
Power,Intraday,Continuous,NL,ID3,H,2021-07-28T10:00:00+02:00,2021-07-28T11:00:00+02:00,61.43,EUR,796.700,MWh
Power,Intraday,Continuous,NL,ID3,H,2021-07-28T11:00:00+02:00,2021-07-28T12:00:00+02:00,59.38,EUR,916.700,MWh
Power,Intraday,Continuous,NL,ID3,H,2021-07-28T12:00:00+02:00,2021-07-28T13:00:00+02:00,55.75,EUR,750.400,MWh
Power,Intraday,Continuous,NL,ID3,H,2021-07-28T13:00:00+02:00,2021-07-28T14:00:00+02:00,50.88,EUR,985.300,MWh
Power,Intraday,Continuous,NL,ID3,H,2021-07-28T14:00:00+02:00,2021-07-28T15:00:00+02:00,62.17,EUR,1336.700,MWh
Power,Intraday,Continuous,NL,ID3,H,2021-07-28T15:00:00+02:00,2021-07-28T16:00:00+02:00,41.31,EUR,1558.500,MWh
Power,Intraday,Continuous,NL,ID3,H,2021-07-28T16:00:00+02:00,2021-07-28T17:00:00+02:00,54.68,EUR,922.100,MWh
Power,Intraday,Continuous,NL,ID3,H,2021-07-28T17:00:00+02:00,2021-07-28T18:00:00+02:00,44.59,EUR,636.200,MWh
Power,Intraday,Continuous,NL,ID3,H,2021-07-28T18:00:00+02:00,2021-07-28T19:00:00+02:00,58.00,EUR,543.700,MWh
Power,Intraday,Continuous,NL,ID3,H,2021-07-28T19:00:00+02:00,2021-07-28T20:00:00+02:00,56.79,EUR,203.900,MWh
Power,Intraday,Continuous,NL,ID3,H,2021-07-28T20:00:00+02:00,2021-07-28T21:00:00+02:00,58.75,EUR,375.000,MWh
Power,Intraday,Continuous,NL,ID3,H,2021-07-28T21:00:00+02:00,2021-07-28T22:00:00+02:00,58.65,EUR,318.000,MWh
Power,Intraday,Continuous,NL,ID3,H,2021-07-28T22:00:00+02:00,2021-07-28T23:00:00+02:00,65.67,EUR,749.900,MWh
Power,Intraday,Continuous,NL,ID3,H,2021-07-28T23:00:00+02:00,2021-07-29T00:00:00+02:00,56.11,EUR,674.300,MWh
Power,Intraday,Continuous,NL,IDFULL,HH,2021-07-28T00:00:00+02:00,2021-07-28T00:30:00+02:00,72.28,EUR,,MWh
Power,Intraday,Continuous,NL,IDFULL,HH,2021-07-28T00:30:00+02:00,2021-07-28T01:00:00+02:00,72.28,EUR,,MWh
Power,Intraday,Continuous,NL,IDFULL,HH,2021-07-28T01:00:00+02:00,2021-07-28T01:30:00+02:00,68.96,EUR,,MWh
Power,Intraday,Continuous,NL,IDFULL,HH,2021-07-28T01:30:00+02:00,2021-07-28T02:00:00+02:00,68.96,EUR,,MWh
Power,Intraday,Continuous,NL,IDFULL,HH,2021-07-28T02:00:00+02:00,2021-07-28T02:30:00+02:00,50.13,EUR,,MWh
Power,Intraday,Continuous,NL,IDFULL,HH,2021-07-28T02:30:00+02:00,2021-07-28T03:00:00+02:00,50.13,EUR,,MWh
Power,Intraday,Continuous,NL,IDFULL,HH,2021-07-28T03:00:00+02:00,2021-07-28T03:30:00+02:00,41.82,EUR,,MWh
Power,Intraday,Continuous,NL,IDFULL,HH,2021-07-28T03:30:00+02:00,2021-07-28T04:00:00+02:00,41.82,EUR,,MWh
Power,Intraday,Continuous,NL,IDFULL,HH,2021-07-28T04:00:00+02:00,2021-07-28T04:30:00+02:00,46.98,EUR,,MWh
Power,Intraday,Continuous,NL,IDFULL,HH,2021-07-28T04:30:00+02:00,2021-07-28T05:00:00+02:00,46.98,EUR,,MWh
Power,Intraday,Continuous,NL,IDFULL,HH,2021-07-28T05:00:00+02:00,2021-07-28T05:30:00+02:00,46.70,EUR,,MWh
Power,Intraday,Continuous,NL,IDFULL,HH,2021-07-28T05:30:00+02:00,2021-07-28T06:00:00+02:00,46.70,EUR,,MWh
Power,Intraday,Continuous,NL,IDFULL,HH,2021-07-28T06:00:00+02:00,2021-07-28T06:30:00+02:00,58.88,EUR,,MWh
Power,Intraday,Continuous,NL,IDFULL,HH,2021-07-28T06:30:00+02:00,2021-07-28T07:00:00+02:00,58.88,EUR,,MWh
Power,Intraday,Continuous,NL,IDFULL,HH,2021-07-28T07:00:00+02:00,2021-07-28T07:30:00+02:00,70.19,EUR,,MWh
Power,Intraday,Continuous,NL,IDFULL,HH,2021-07-28T07:30:00+02:00,2021-07-28T08:00:00+02:00,70.19,EUR,,MWh
Power,Intraday,Continuous,NL,IDFULL,HH,2021-07-28T08:00:00+02:00,2021-07-28T08:30:00+02:00,67.07,EUR,,MWh
Power,Intraday,Continuous,NL,IDFULL,HH,2021-07-28T08:30:00+02:00,2021-07-28T09:00:00+02:00,67.07,EUR,,MWh
Power,Intraday,Continuous,NL,IDFULL,HH,2021-07-28T09:00:00+02:00,2021-07-28T09:30:00+02:00,79.30,EUR,,MWh
Power,Intraday,Continuous,NL,IDFULL,HH,2021-07-28T09:30:00+02:00,2021-07-28T10:00:00+02:00,79.30,EUR,,MWh
Power,Intraday,Continuous,NL,IDFULL,HH,2021-07-28T10:00:00+02:00,2021-07-28T10:30:00+02:00,68.46,EUR,,MWh
Power,Intraday,Continuous,NL,IDFULL,HH,2021-07-28T10:30:00+02:00,2021-07-28T11:00:00+02:00,68.46,EUR,,MWh
Power,Intraday,Continuous,NL,IDFULL,HH,2021-07-28T11:00:00+02:00,2021-07-28T11:30:00+02:00,68.48,EUR,24.900,MWh
Power,Intraday,Continuous,NL,IDFULL,HH,2021-07-28T11:30:00+02:00,2021-07-28T12:00:00+02:00,64.74,EUR,5.850,MWh
Power,Intraday,Continuous,NL,IDFULL,HH,2021-07-28T12:00:00+02:00,2021-07-28T12:30:00+02:00,59.73,EUR,,MWh
Power,Intraday,Continuous,NL,IDFULL,HH,2021-07-28T12:30:00+02:00,2021-07-28T13:00:00+02:00,59.73,EUR,,MWh
Power,Intraday,Continuous,NL,IDFULL,HH,2021-07-28T13:00:00+02:00,2021-07-28T13:30:00+02:00,52.21,EUR,,MWh
Power,Intraday,Continuous,NL,IDFULL,HH,2021-07-28T13:30:00+02:00,2021-07-28T14:00:00+02:00,52.21,EUR,,MWh
Power,Intraday,Continuous,NL,IDFULL,HH,2021-07-28T14:00:00+02:00,2021-07-28T14:30:00+02:00,59.66,EUR,,MWh
Power,Intraday,Continuous,NL,IDFULL,HH,2021-07-28T14:30:00+02:00,2021-07-28T15:00:00+02:00,59.66,EUR,,MWh
Power,Intraday,Continuous,NL,IDFULL,HH,2021-07-28T15:00:00+02:00,2021-07-28T15:30:00+02:00,44.66,EUR,,MWh
Power,Intraday,Continuous,NL,IDFULL,HH,2021-07-28T15:30:00+02:00,2021-07-28T16:00:00+02:00,44.66,EUR,,MWh
Power,Intraday,Continuous,NL,IDFULL,HH,2021-07-28T16:00:00+02:00,2021-07-28T16:30:00+02:00,54.55,EUR,,MWh
Power,Intraday,Continuous,NL,IDFULL,HH,2021-07-28T16:30:00+02:00,2021-07-28T17:00:00+02:00,54.55,EUR,,MWh
Power,Intraday,Continuous,NL,IDFULL,HH,2021-07-28T17:00:00+02:00,2021-07-28T17:30:00+02:00,48.79,EUR,,MWh
Power,Intraday,Continuous,NL,IDFULL,HH,2021-07-28T17:30:00+02:00,2021-07-28T18:00:00+02:00,48.79,EUR,,MWh
Power,Intraday,Continuous,NL,IDFULL,HH,2021-07-28T18:00:00+02:00,2021-07-28T18:30:00+02:00,57.92,EUR,,MWh
Power,Intraday,Continuous,NL,IDFULL,HH,2021-07-28T18:30:00+02:00,2021-07-28T19:00:00+02:00,57.92,EUR,,MWh
Power,Intraday,Continuous,NL,IDFULL,HH,2021-07-28T19:00:00+02:00,2021-07-28T19:30:00+02:00,57.71,EUR,,MWh
Power,Intraday,Continuous,NL,IDFULL,HH,2021-07-28T19:30:00+02:00,2021-07-28T20:00:00+02:00,57.71,EUR,,MWh
Power,Intraday,Continuous,NL,IDFULL,HH,2021-07-28T20:00:00+02:00,2021-07-28T20:30:00+02:00,59.41,EUR,,MWh
Power,Intraday,Continuous,NL,IDFULL,HH,2021-07-28T20:30:00+02:00,2021-07-28T21:00:00+02:00,59.41,EUR,,MWh
Power,Intraday,Continuous,NL,IDFULL,HH,2021-07-28T21:00:00+02:00,2021-07-28T21:30:00+02:00,59.36,EUR,,MWh
Power,Intraday,Continuous,NL,IDFULL,HH,2021-07-28T21:30:00+02:00,2021-07-28T22:00:00+02:00,59.36,EUR,,MWh
Power,Intraday,Continuous,NL,IDFULL,HH,2021-07-28T22:00:00+02:00,2021-07-28T22:30:00+02:00,67.70,EUR,,MWh
Power,Intraday,Continuous,NL,IDFULL,HH,2021-07-28T22:30:00+02:00,2021-07-28T23:00:00+02:00,67.70,EUR,,MWh
Power,Intraday,Continuous,NL,IDFULL,HH,2021-07-28T23:00:00+02:00,2021-07-28T23:30:00+02:00,74.00,EUR,5.000,MWh
Power,Intraday,Continuous,NL,IDFULL,HH,2021-07-28T23:30:00+02:00,2021-07-29T00:00:00+02:00,41.70,EUR,,MWh
Power,Intraday,Continuous,NL,ID1,HH,2021-07-28T00:00:00+02:00,2021-07-28T00:30:00+02:00,72.28,EUR,,MWh
Power,Intraday,Continuous,NL,ID1,HH,2021-07-28T00:30:00+02:00,2021-07-28T01:00:00+02:00,72.28,EUR,,MWh
Power,Intraday,Continuous,NL,ID1,HH,2021-07-28T01:00:00+02:00,2021-07-28T01:30:00+02:00,68.96,EUR,,MWh
Power,Intraday,Continuous,NL,ID1,HH,2021-07-28T01:30:00+02:00,2021-07-28T02:00:00+02:00,68.96,EUR,,MWh
Power,Intraday,Continuous,NL,ID1,HH,2021-07-28T02:00:00+02:00,2021-07-28T02:30:00+02:00,50.13,EUR,,MWh
Power,Intraday,Continuous,NL,ID1,HH,2021-07-28T02:30:00+02:00,2021-07-28T03:00:00+02:00,50.13,EUR,,MWh
Power,Intraday,Continuous,NL,ID1,HH,2021-07-28T03:00:00+02:00,2021-07-28T03:30:00+02:00,41.82,EUR,,MWh
Power,Intraday,Continuous,NL,ID1,HH,2021-07-28T03:30:00+02:00,2021-07-28T04:00:00+02:00,41.82,EUR,,MWh
Power,Intraday,Continuous,NL,ID1,HH,2021-07-28T04:00:00+02:00,2021-07-28T04:30:00+02:00,46.98,EUR,,MWh
Power,Intraday,Continuous,NL,ID1,HH,2021-07-28T04:30:00+02:00,2021-07-28T05:00:00+02:00,46.98,EUR,,MWh
Power,Intraday,Continuous,NL,ID1,HH,2021-07-28T05:00:00+02:00,2021-07-28T05:30:00+02:00,46.70,EUR,,MWh
Power,Intraday,Continuous,NL,ID1,HH,2021-07-28T05:30:00+02:00,2021-07-28T06:00:00+02:00,46.70,EUR,,MWh
Power,Intraday,Continuous,NL,ID1,HH,2021-07-28T06:00:00+02:00,2021-07-28T06:30:00+02:00,58.88,EUR,,MWh
Power,Intraday,Continuous,NL,ID1,HH,2021-07-28T06:30:00+02:00,2021-07-28T07:00:00+02:00,58.88,EUR,,MWh
Power,Intraday,Continuous,NL,ID1,HH,2021-07-28T07:00:00+02:00,2021-07-28T07:30:00+02:00,70.19,EUR,,MWh
Power,Intraday,Continuous,NL,ID1,HH,2021-07-28T07:30:00+02:00,2021-07-28T08:00:00+02:00,70.19,EUR,,MWh
Power,Intraday,Continuous,NL,ID1,HH,2021-07-28T08:00:00+02:00,2021-07-28T08:30:00+02:00,67.07,EUR,,MWh
Power,Intraday,Continuous,NL,ID1,HH,2021-07-28T08:30:00+02:00,2021-07-28T09:00:00+02:00,67.07,EUR,,MWh
Power,Intraday,Continuous,NL,ID1,HH,2021-07-28T09:00:00+02:00,2021-07-28T09:30:00+02:00,79.30,EUR,,MWh
Power,Intraday,Continuous,NL,ID1,HH,2021-07-28T09:30:00+02:00,2021-07-28T10:00:00+02:00,79.30,EUR,,MWh
Power,Intraday,Continuous,NL,ID1,HH,2021-07-28T10:00:00+02:00,2021-07-28T10:30:00+02:00,68.46,EUR,,MWh
Power,Intraday,Continuous,NL,ID1,HH,2021-07-28T10:30:00+02:00,2021-07-28T11:00:00+02:00,68.46,EUR,,MWh
Power,Intraday,Continuous,NL,ID1,HH,2021-07-28T11:00:00+02:00,2021-07-28T11:30:00+02:00,77.80,EUR,,MWh
Power,Intraday,Continuous,NL,ID1,HH,2021-07-28T11:30:00+02:00,2021-07-28T12:00:00+02:00,64.74,EUR,,MWh
Power,Intraday,Continuous,NL,ID1,HH,2021-07-28T12:00:00+02:00,2021-07-28T12:30:00+02:00,59.73,EUR,,MWh
Power,Intraday,Continuous,NL,ID1,HH,2021-07-28T12:30:00+02:00,2021-07-28T13:00:00+02:00,59.73,EUR,,MWh
Power,Intraday,Continuous,NL,ID1,HH,2021-07-28T13:00:00+02:00,2021-07-28T13:30:00+02:00,52.21,EUR,,MWh
Power,Intraday,Continuous,NL,ID1,HH,2021-07-28T13:30:00+02:00,2021-07-28T14:00:00+02:00,52.21,EUR,,MWh
Power,Intraday,Continuous,NL,ID1,HH,2021-07-28T14:00:00+02:00,2021-07-28T14:30:00+02:00,59.66,EUR,,MWh
Power,Intraday,Continuous,NL,ID1,HH,2021-07-28T14:30:00+02:00,2021-07-28T15:00:00+02:00,59.66,EUR,,MWh
Power,Intraday,Continuous,NL,ID1,HH,2021-07-28T15:00:00+02:00,2021-07-28T15:30:00+02:00,44.66,EUR,,MWh
Power,Intraday,Continuous,NL,ID1,HH,2021-07-28T15:30:00+02:00,2021-07-28T16:00:00+02:00,44.66,EUR,,MWh
Power,Intraday,Continuous,NL,ID1,HH,2021-07-28T16:00:00+02:00,2021-07-28T16:30:00+02:00,54.55,EUR,,MWh
Power,Intraday,Continuous,NL,ID1,HH,2021-07-28T16:30:00+02:00,2021-07-28T17:00:00+02:00,54.55,EUR,,MWh
Power,Intraday,Continuous,NL,ID1,HH,2021-07-28T17:00:00+02:00,2021-07-28T17:30:00+02:00,48.79,EUR,,MWh
Power,Intraday,Continuous,NL,ID1,HH,2021-07-28T17:30:00+02:00,2021-07-28T18:00:00+02:00,48.79,EUR,,MWh
Power,Intraday,Continuous,NL,ID1,HH,2021-07-28T18:00:00+02:00,2021-07-28T18:30:00+02:00,57.92,EUR,,MWh
Power,Intraday,Continuous,NL,ID1,HH,2021-07-28T18:30:00+02:00,2021-07-28T19:00:00+02:00,57.92,EUR,,MWh
Power,Intraday,Continuous,NL,ID1,HH,2021-07-28T19:00:00+02:00,2021-07-28T19:30:00+02:00,57.71,EUR,,MWh
Power,Intraday,Continuous,NL,ID1,HH,2021-07-28T19:30:00+02:00,2021-07-28T20:00:00+02:00,57.71,EUR,,MWh
Power,Intraday,Continuous,NL,ID1,HH,2021-07-28T20:00:00+02:00,2021-07-28T20:30:00+02:00,59.41,EUR,,MWh
Power,Intraday,Continuous,NL,ID1,HH,2021-07-28T20:30:00+02:00,2021-07-28T21:00:00+02:00,59.41,EUR,,MWh
Power,Intraday,Continuous,NL,ID1,HH,2021-07-28T21:00:00+02:00,2021-07-28T21:30:00+02:00,59.36,EUR,,MWh
Power,Intraday,Continuous,NL,ID1,HH,2021-07-28T21:30:00+02:00,2021-07-28T22:00:00+02:00,59.36,EUR,,MWh
Power,Intraday,Continuous,NL,ID1,HH,2021-07-28T22:00:00+02:00,2021-07-28T22:30:00+02:00,67.70,EUR,,MWh
Power,Intraday,Continuous,NL,ID1,HH,2021-07-28T22:30:00+02:00,2021-07-28T23:00:00+02:00,67.70,EUR,,MWh
Power,Intraday,Continuous,NL,ID1,HH,2021-07-28T23:00:00+02:00,2021-07-28T23:30:00+02:00,74.00,EUR,,MWh
Power,Intraday,Continuous,NL,ID1,HH,2021-07-28T23:30:00+02:00,2021-07-29T00:00:00+02:00,41.70,EUR,,MWh
Power,Intraday,Continuous,NL,ID3,HH,2021-07-28T00:00:00+02:00,2021-07-28T00:30:00+02:00,72.28,EUR,,MWh
Power,Intraday,Continuous,NL,ID3,HH,2021-07-28T00:30:00+02:00,2021-07-28T01:00:00+02:00,72.28,EUR,,MWh
Power,Intraday,Continuous,NL,ID3,HH,2021-07-28T01:00:00+02:00,2021-07-28T01:30:00+02:00,68.96,EUR,,MWh
Power,Intraday,Continuous,NL,ID3,HH,2021-07-28T01:30:00+02:00,2021-07-28T02:00:00+02:00,68.96,EUR,,MWh
Power,Intraday,Continuous,NL,ID3,HH,2021-07-28T02:00:00+02:00,2021-07-28T02:30:00+02:00,50.13,EUR,,MWh
Power,Intraday,Continuous,NL,ID3,HH,2021-07-28T02:30:00+02:00,2021-07-28T03:00:00+02:00,50.13,EUR,,MWh
Power,Intraday,Continuous,NL,ID3,HH,2021-07-28T03:00:00+02:00,2021-07-28T03:30:00+02:00,41.82,EUR,,MWh
Power,Intraday,Continuous,NL,ID3,HH,2021-07-28T03:30:00+02:00,2021-07-28T04:00:00+02:00,41.82,EUR,,MWh
Power,Intraday,Continuous,NL,ID3,HH,2021-07-28T04:00:00+02:00,2021-07-28T04:30:00+02:00,46.98,EUR,,MWh
Power,Intraday,Continuous,NL,ID3,HH,2021-07-28T04:30:00+02:00,2021-07-28T05:00:00+02:00,46.98,EUR,,MWh
Power,Intraday,Continuous,NL,ID3,HH,2021-07-28T05:00:00+02:00,2021-07-28T05:30:00+02:00,46.70,EUR,,MWh
Power,Intraday,Continuous,NL,ID3,HH,2021-07-28T05:30:00+02:00,2021-07-28T06:00:00+02:00,46.70,EUR,,MWh
Power,Intraday,Continuous,NL,ID3,HH,2021-07-28T06:00:00+02:00,2021-07-28T06:30:00+02:00,58.88,EUR,,MWh
Power,Intraday,Continuous,NL,ID3,HH,2021-07-28T06:30:00+02:00,2021-07-28T07:00:00+02:00,58.88,EUR,,MWh
Power,Intraday,Continuous,NL,ID3,HH,2021-07-28T07:00:00+02:00,2021-07-28T07:30:00+02:00,70.19,EUR,,MWh
Power,Intraday,Continuous,NL,ID3,HH,2021-07-28T07:30:00+02:00,2021-07-28T08:00:00+02:00,70.19,EUR,,MWh
Power,Intraday,Continuous,NL,ID3,HH,2021-07-28T08:00:00+02:00,2021-07-28T08:30:00+02:00,67.07,EUR,,MWh
Power,Intraday,Continuous,NL,ID3,HH,2021-07-28T08:30:00+02:00,2021-07-28T09:00:00+02:00,67.07,EUR,,MWh
Power,Intraday,Continuous,NL,ID3,HH,2021-07-28T09:00:00+02:00,2021-07-28T09:30:00+02:00,79.30,EUR,,MWh
Power,Intraday,Continuous,NL,ID3,HH,2021-07-28T09:30:00+02:00,2021-07-28T10:00:00+02:00,79.30,EUR,,MWh
Power,Intraday,Continuous,NL,ID3,HH,2021-07-28T10:00:00+02:00,2021-07-28T10:30:00+02:00,68.46,EUR,,MWh
Power,Intraday,Continuous,NL,ID3,HH,2021-07-28T10:30:00+02:00,2021-07-28T11:00:00+02:00,68.46,EUR,,MWh
Power,Intraday,Continuous,NL,ID3,HH,2021-07-28T11:00:00+02:00,2021-07-28T11:30:00+02:00,77.80,EUR,5.000,MWh
Power,Intraday,Continuous,NL,ID3,HH,2021-07-28T11:30:00+02:00,2021-07-28T12:00:00+02:00,64.74,EUR,,MWh
Power,Intraday,Continuous,NL,ID3,HH,2021-07-28T12:00:00+02:00,2021-07-28T12:30:00+02:00,59.73,EUR,,MWh
Power,Intraday,Continuous,NL,ID3,HH,2021-07-28T12:30:00+02:00,2021-07-28T13:00:00+02:00,59.73,EUR,,MWh
Power,Intraday,Continuous,NL,ID3,HH,2021-07-28T13:00:00+02:00,2021-07-28T13:30:00+02:00,52.21,EUR,,MWh
Power,Intraday,Continuous,NL,ID3,HH,2021-07-28T13:30:00+02:00,2021-07-28T14:00:00+02:00,52.21,EUR,,MWh
Power,Intraday,Continuous,NL,ID3,HH,2021-07-28T14:00:00+02:00,2021-07-28T14:30:00+02:00,59.66,EUR,,MWh
Power,Intraday,Continuous,NL,ID3,HH,2021-07-28T14:30:00+02:00,2021-07-28T15:00:00+02:00,59.66,EUR,,MWh
Power,Intraday,Continuous,NL,ID3,HH,2021-07-28T15:00:00+02:00,2021-07-28T15:30:00+02:00,44.66,EUR,,MWh
Power,Intraday,Continuous,NL,ID3,HH,2021-07-28T15:30:00+02:00,2021-07-28T16:00:00+02:00,44.66,EUR,,MWh
Power,Intraday,Continuous,NL,ID3,HH,2021-07-28T16:00:00+02:00,2021-07-28T16:30:00+02:00,54.55,EUR,,MWh
Power,Intraday,Continuous,NL,ID3,HH,2021-07-28T16:30:00+02:00,2021-07-28T17:00:00+02:00,54.55,EUR,,MWh
Power,Intraday,Continuous,NL,ID3,HH,2021-07-28T17:00:00+02:00,2021-07-28T17:30:00+02:00,48.79,EUR,,MWh
Power,Intraday,Continuous,NL,ID3,HH,2021-07-28T17:30:00+02:00,2021-07-28T18:00:00+02:00,48.79,EUR,,MWh
Power,Intraday,Continuous,NL,ID3,HH,2021-07-28T18:00:00+02:00,2021-07-28T18:30:00+02:00,57.92,EUR,,MWh
Power,Intraday,Continuous,NL,ID3,HH,2021-07-28T18:30:00+02:00,2021-07-28T19:00:00+02:00,57.92,EUR,,MWh
Power,Intraday,Continuous,NL,ID3,HH,2021-07-28T19:00:00+02:00,2021-07-28T19:30:00+02:00,57.71,EUR,,MWh
Power,Intraday,Continuous,NL,ID3,HH,2021-07-28T19:30:00+02:00,2021-07-28T20:00:00+02:00,57.71,EUR,,MWh
Power,Intraday,Continuous,NL,ID3,HH,2021-07-28T20:00:00+02:00,2021-07-28T20:30:00+02:00,59.41,EUR,,MWh
Power,Intraday,Continuous,NL,ID3,HH,2021-07-28T20:30:00+02:00,2021-07-28T21:00:00+02:00,59.41,EUR,,MWh
Power,Intraday,Continuous,NL,ID3,HH,2021-07-28T21:00:00+02:00,2021-07-28T21:30:00+02:00,59.36,EUR,,MWh
Power,Intraday,Continuous,NL,ID3,HH,2021-07-28T21:30:00+02:00,2021-07-28T22:00:00+02:00,59.36,EUR,,MWh
Power,Intraday,Continuous,NL,ID3,HH,2021-07-28T22:00:00+02:00,2021-07-28T22:30:00+02:00,67.70,EUR,,MWh
Power,Intraday,Continuous,NL,ID3,HH,2021-07-28T22:30:00+02:00,2021-07-28T23:00:00+02:00,67.70,EUR,,MWh
Power,Intraday,Continuous,NL,ID3,HH,2021-07-28T23:00:00+02:00,2021-07-28T23:30:00+02:00,74.00,EUR,,MWh
Power,Intraday,Continuous,NL,ID3,HH,2021-07-28T23:30:00+02:00,2021-07-29T00:00:00+02:00,41.70,EUR,,MWh
Power,Intraday,Continuous,NL,IDFULL,QH,2021-07-28T00:00:00+02:00,2021-07-28T00:15:00+02:00,82.19,EUR,86.330,MWh
Power,Intraday,Continuous,NL,IDFULL,QH,2021-07-28T00:15:00+02:00,2021-07-28T00:30:00+02:00,77.27,EUR,55.150,MWh
Power,Intraday,Continuous,NL,IDFULL,QH,2021-07-28T00:30:00+02:00,2021-07-28T00:45:00+02:00,67.15,EUR,38.450,MWh
Power,Intraday,Continuous,NL,IDFULL,QH,2021-07-28T00:45:00+02:00,2021-07-28T01:00:00+02:00,61.21,EUR,56.930,MWh
Power,Intraday,Continuous,NL,IDFULL,QH,2021-07-28T01:00:00+02:00,2021-07-28T01:15:00+02:00,76.94,EUR,46.030,MWh
Power,Intraday,Continuous,NL,IDFULL,QH,2021-07-28T01:15:00+02:00,2021-07-28T01:30:00+02:00,70.07,EUR,22.630,MWh
Power,Intraday,Continuous,NL,IDFULL,QH,2021-07-28T01:30:00+02:00,2021-07-28T01:45:00+02:00,65.74,EUR,20.300,MWh
Power,Intraday,Continuous,NL,IDFULL,QH,2021-07-28T01:45:00+02:00,2021-07-28T02:00:00+02:00,62.00,EUR,23.830,MWh
Power,Intraday,Continuous,NL,IDFULL,QH,2021-07-28T02:00:00+02:00,2021-07-28T02:15:00+02:00,71.36,EUR,6.880,MWh
Power,Intraday,Continuous,NL,IDFULL,QH,2021-07-28T02:15:00+02:00,2021-07-28T02:30:00+02:00,43.05,EUR,,MWh
Power,Intraday,Continuous,NL,IDFULL,QH,2021-07-28T02:30:00+02:00,2021-07-28T02:45:00+02:00,43.05,EUR,,MWh
Power,Intraday,Continuous,NL,IDFULL,QH,2021-07-28T02:45:00+02:00,2021-07-28T03:00:00+02:00,43.05,EUR,,MWh
Power,Intraday,Continuous,NL,IDFULL,QH,2021-07-28T03:00:00+02:00,2021-07-28T03:15:00+02:00,41.82,EUR,,MWh
Power,Intraday,Continuous,NL,IDFULL,QH,2021-07-28T03:15:00+02:00,2021-07-28T03:30:00+02:00,41.82,EUR,,MWh
Power,Intraday,Continuous,NL,IDFULL,QH,2021-07-28T03:30:00+02:00,2021-07-28T03:45:00+02:00,41.82,EUR,,MWh
Power,Intraday,Continuous,NL,IDFULL,QH,2021-07-28T03:45:00+02:00,2021-07-28T04:00:00+02:00,41.82,EUR,,MWh
Power,Intraday,Continuous,NL,IDFULL,QH,2021-07-28T04:00:00+02:00,2021-07-28T04:15:00+02:00,46.98,EUR,,MWh
Power,Intraday,Continuous,NL,IDFULL,QH,2021-07-28T04:15:00+02:00,2021-07-28T04:30:00+02:00,46.98,EUR,,MWh
Power,Intraday,Continuous,NL,IDFULL,QH,2021-07-28T04:30:00+02:00,2021-07-28T04:45:00+02:00,46.98,EUR,,MWh
Power,Intraday,Continuous,NL,IDFULL,QH,2021-07-28T04:45:00+02:00,2021-07-28T05:00:00+02:00,46.98,EUR,,MWh
Power,Intraday,Continuous,NL,IDFULL,QH,2021-07-28T05:00:00+02:00,2021-07-28T05:15:00+02:00,34.27,EUR,,MWh
Power,Intraday,Continuous,NL,IDFULL,QH,2021-07-28T05:15:00+02:00,2021-07-28T05:30:00+02:00,34.27,EUR,,MWh
Power,Intraday,Continuous,NL,IDFULL,QH,2021-07-28T05:30:00+02:00,2021-07-28T05:45:00+02:00,34.27,EUR,,MWh
Power,Intraday,Continuous,NL,IDFULL,QH,2021-07-28T05:45:00+02:00,2021-07-28T06:00:00+02:00,83.98,EUR,2.750,MWh
Power,Intraday,Continuous,NL,IDFULL,QH,2021-07-28T06:00:00+02:00,2021-07-28T06:15:00+02:00,46.83,EUR,,MWh
Power,Intraday,Continuous,NL,IDFULL,QH,2021-07-28T06:15:00+02:00,2021-07-28T06:30:00+02:00,46.83,EUR,,MWh
Power,Intraday,Continuous,NL,IDFULL,QH,2021-07-28T06:30:00+02:00,2021-07-28T06:45:00+02:00,46.83,EUR,,MWh
Power,Intraday,Continuous,NL,IDFULL,QH,2021-07-28T06:45:00+02:00,2021-07-28T07:00:00+02:00,95.04,EUR,5.800,MWh
Power,Intraday,Continuous,NL,IDFULL,QH,2021-07-28T07:00:00+02:00,2021-07-28T07:15:00+02:00,60.31,EUR,,MWh
Power,Intraday,Continuous,NL,IDFULL,QH,2021-07-28T07:15:00+02:00,2021-07-28T07:30:00+02:00,60.31,EUR,,MWh
Power,Intraday,Continuous,NL,IDFULL,QH,2021-07-28T07:30:00+02:00,2021-07-28T07:45:00+02:00,99.83,EUR,11.200,MWh
Power,Intraday,Continuous,NL,IDFULL,QH,2021-07-28T07:45:00+02:00,2021-07-28T08:00:00+02:00,60.31,EUR,,MWh
Power,Intraday,Continuous,NL,IDFULL,QH,2021-07-28T08:00:00+02:00,2021-07-28T08:15:00+02:00,77.18,EUR,6.730,MWh
Power,Intraday,Continuous,NL,IDFULL,QH,2021-07-28T08:15:00+02:00,2021-07-28T08:30:00+02:00,66.14,EUR,,MWh
Power,Intraday,Continuous,NL,IDFULL,QH,2021-07-28T08:30:00+02:00,2021-07-28T08:45:00+02:00,66.14,EUR,,MWh
Power,Intraday,Continuous,NL,IDFULL,QH,2021-07-28T08:45:00+02:00,2021-07-28T09:00:00+02:00,58.82,EUR,3.900,MWh
Power,Intraday,Continuous,NL,IDFULL,QH,2021-07-28T09:00:00+02:00,2021-07-28T09:15:00+02:00,101.29,EUR,70.680,MWh
Power,Intraday,Continuous,NL,IDFULL,QH,2021-07-28T09:15:00+02:00,2021-07-28T09:30:00+02:00,93.63,EUR,63.700,MWh
Power,Intraday,Continuous,NL,IDFULL,QH,2021-07-28T09:30:00+02:00,2021-07-28T09:45:00+02:00,88.15,EUR,35.680,MWh
Power,Intraday,Continuous,NL,IDFULL,QH,2021-07-28T09:45:00+02:00,2021-07-28T10:00:00+02:00,63.82,EUR,10.930,MWh
Power,Intraday,Continuous,NL,IDFULL,QH,2021-07-28T10:00:00+02:00,2021-07-28T10:15:00+02:00,97.13,EUR,83.880,MWh
Power,Intraday,Continuous,NL,IDFULL,QH,2021-07-28T10:15:00+02:00,2021-07-28T10:30:00+02:00,85.04,EUR,56.400,MWh
Power,Intraday,Continuous,NL,IDFULL,QH,2021-07-28T10:30:00+02:00,2021-07-28T10:45:00+02:00,59.26,EUR,43.230,MWh
Power,Intraday,Continuous,NL,IDFULL,QH,2021-07-28T10:45:00+02:00,2021-07-28T11:00:00+02:00,51.87,EUR,38.780,MWh
Power,Intraday,Continuous,NL,IDFULL,QH,2021-07-28T11:00:00+02:00,2021-07-28T11:15:00+02:00,91.07,EUR,70.580,MWh
Power,Intraday,Continuous,NL,IDFULL,QH,2021-07-28T11:15:00+02:00,2021-07-28T11:30:00+02:00,62.56,EUR,22.530,MWh
Power,Intraday,Continuous,NL,IDFULL,QH,2021-07-28T11:30:00+02:00,2021-07-28T11:45:00+02:00,76.00,EUR,41.080,MWh
Power,Intraday,Continuous,NL,IDFULL,QH,2021-07-28T11:45:00+02:00,2021-07-28T12:00:00+02:00,55.28,EUR,43.930,MWh
Power,Intraday,Continuous,NL,IDFULL,QH,2021-07-28T12:00:00+02:00,2021-07-28T12:15:00+02:00,78.04,EUR,40.580,MWh
Power,Intraday,Continuous,NL,IDFULL,QH,2021-07-28T12:15:00+02:00,2021-07-28T12:30:00+02:00,72.80,EUR,28.150,MWh
Power,Intraday,Continuous,NL,IDFULL,QH,2021-07-28T12:30:00+02:00,2021-07-28T12:45:00+02:00,57.74,EUR,41.000,MWh
Power,Intraday,Continuous,NL,IDFULL,QH,2021-07-28T12:45:00+02:00,2021-07-28T13:00:00+02:00,54.09,EUR,41.100,MWh
Power,Intraday,Continuous,NL,IDFULL,QH,2021-07-28T13:00:00+02:00,2021-07-28T13:15:00+02:00,71.97,EUR,4.850,MWh
Power,Intraday,Continuous,NL,IDFULL,QH,2021-07-28T13:15:00+02:00,2021-07-28T13:30:00+02:00,6.19,EUR,,MWh
Power,Intraday,Continuous,NL,IDFULL,QH,2021-07-28T13:30:00+02:00,2021-07-28T13:45:00+02:00,6.19,EUR,,MWh
Power,Intraday,Continuous,NL,IDFULL,QH,2021-07-28T13:45:00+02:00,2021-07-28T14:00:00+02:00,124.49,EUR,6.300,MWh
Power,Intraday,Continuous,NL,IDFULL,QH,2021-07-28T14:00:00+02:00,2021-07-28T14:15:00+02:00,157.00,EUR,5.000,MWh
Power,Intraday,Continuous,NL,IDFULL,QH,2021-07-28T14:15:00+02:00,2021-07-28T14:30:00+02:00,8.75,EUR,,MWh
Power,Intraday,Continuous,NL,IDFULL,QH,2021-07-28T14:30:00+02:00,2021-07-28T14:45:00+02:00,64.15,EUR,5.400,MWh
Power,Intraday,Continuous,NL,IDFULL,QH,2021-07-28T14:45:00+02:00,2021-07-28T15:00:00+02:00,8.75,EUR,,MWh
Power,Intraday,Continuous,NL,IDFULL,QH,2021-07-28T15:00:00+02:00,2021-07-28T15:15:00+02:00,52.83,EUR,,MWh
Power,Intraday,Continuous,NL,IDFULL,QH,2021-07-28T15:15:00+02:00,2021-07-28T15:30:00+02:00,52.83,EUR,,MWh
Power,Intraday,Continuous,NL,IDFULL,QH,2021-07-28T15:30:00+02:00,2021-07-28T15:45:00+02:00,20.95,EUR,4.230,MWh
Power,Intraday,Continuous,NL,IDFULL,QH,2021-07-28T15:45:00+02:00,2021-07-28T16:00:00+02:00,52.03,EUR,5.030,MWh
Power,Intraday,Continuous,NL,IDFULL,QH,2021-07-28T16:00:00+02:00,2021-07-28T16:15:00+02:00,62.91,EUR,8.450,MWh
Power,Intraday,Continuous,NL,IDFULL,QH,2021-07-28T16:15:00+02:00,2021-07-28T16:30:00+02:00,43.00,EUR,5.000,MWh
Power,Intraday,Continuous,NL,IDFULL,QH,2021-07-28T16:30:00+02:00,2021-07-28T16:45:00+02:00,56.15,EUR,,MWh
Power,Intraday,Continuous,NL,IDFULL,QH,2021-07-28T16:45:00+02:00,2021-07-28T17:00:00+02:00,56.15,EUR,,MWh
Power,Intraday,Continuous,NL,IDFULL,QH,2021-07-28T17:00:00+02:00,2021-07-28T17:15:00+02:00,10.76,EUR,13.080,MWh
Power,Intraday,Continuous,NL,IDFULL,QH,2021-07-28T17:15:00+02:00,2021-07-28T17:30:00+02:00,44.85,EUR,8.550,MWh
Power,Intraday,Continuous,NL,IDFULL,QH,2021-07-28T17:30:00+02:00,2021-07-28T17:45:00+02:00,67.45,EUR,30.780,MWh
Power,Intraday,Continuous,NL,IDFULL,QH,2021-07-28T17:45:00+02:00,2021-07-28T18:00:00+02:00,83.80,EUR,40.500,MWh
Power,Intraday,Continuous,NL,IDFULL,QH,2021-07-28T18:00:00+02:00,2021-07-28T18:15:00+02:00,9.28,EUR,9.630,MWh
Power,Intraday,Continuous,NL,IDFULL,QH,2021-07-28T18:15:00+02:00,2021-07-28T18:30:00+02:00,47.34,EUR,10.950,MWh
Power,Intraday,Continuous,NL,IDFULL,QH,2021-07-28T18:30:00+02:00,2021-07-28T18:45:00+02:00,79.62,EUR,33.430,MWh
Power,Intraday,Continuous,NL,IDFULL,QH,2021-07-28T18:45:00+02:00,2021-07-28T19:00:00+02:00,88.49,EUR,33.500,MWh
Power,Intraday,Continuous,NL,IDFULL,QH,2021-07-28T19:00:00+02:00,2021-07-28T19:15:00+02:00,50.84,EUR,,MWh
Power,Intraday,Continuous,NL,IDFULL,QH,2021-07-28T19:15:00+02:00,2021-07-28T19:30:00+02:00,50.84,EUR,,MWh
Power,Intraday,Continuous,NL,IDFULL,QH,2021-07-28T19:30:00+02:00,2021-07-28T19:45:00+02:00,31.57,EUR,6.000,MWh
Power,Intraday,Continuous,NL,IDFULL,QH,2021-07-28T19:45:00+02:00,2021-07-28T20:00:00+02:00,97.60,EUR,20.300,MWh
Power,Intraday,Continuous,NL,IDFULL,QH,2021-07-28T20:00:00+02:00,2021-07-28T20:15:00+02:00,59.78,EUR,,MWh
Power,Intraday,Continuous,NL,IDFULL,QH,2021-07-28T20:15:00+02:00,2021-07-28T20:30:00+02:00,59.78,EUR,,MWh
Power,Intraday,Continuous,NL,IDFULL,QH,2021-07-28T20:30:00+02:00,2021-07-28T20:45:00+02:00,56.54,EUR,4.530,MWh
Power,Intraday,Continuous,NL,IDFULL,QH,2021-07-28T20:45:00+02:00,2021-07-28T21:00:00+02:00,61.55,EUR,21.930,MWh
Power,Intraday,Continuous,NL,IDFULL,QH,2021-07-28T21:00:00+02:00,2021-07-28T21:15:00+02:00,59.36,EUR,,MWh
Power,Intraday,Continuous,NL,IDFULL,QH,2021-07-28T21:15:00+02:00,2021-07-28T21:30:00+02:00,59.36,EUR,,MWh
Power,Intraday,Continuous,NL,IDFULL,QH,2021-07-28T21:30:00+02:00,2021-07-28T21:45:00+02:00,59.36,EUR,,MWh
Power,Intraday,Continuous,NL,IDFULL,QH,2021-07-28T21:45:00+02:00,2021-07-28T22:00:00+02:00,59.36,EUR,,MWh
Power,Intraday,Continuous,NL,IDFULL,QH,2021-07-28T22:00:00+02:00,2021-07-28T22:15:00+02:00,86.59,EUR,48.930,MWh
Power,Intraday,Continuous,NL,IDFULL,QH,2021-07-28T22:15:00+02:00,2021-07-28T22:30:00+02:00,55.35,EUR,36.900,MWh
Power,Intraday,Continuous,NL,IDFULL,QH,2021-07-28T22:30:00+02:00,2021-07-28T22:45:00+02:00,63.27,EUR,20.700,MWh
Power,Intraday,Continuous,NL,IDFULL,QH,2021-07-28T22:45:00+02:00,2021-07-28T23:00:00+02:00,51.36,EUR,63.330,MWh
Power,Intraday,Continuous,NL,IDFULL,QH,2021-07-28T23:00:00+02:00,2021-07-28T23:15:00+02:00,76.08,EUR,60.480,MWh
Power,Intraday,Continuous,NL,IDFULL,QH,2021-07-28T23:15:00+02:00,2021-07-28T23:30:00+02:00,64.47,EUR,64.350,MWh
Power,Intraday,Continuous,NL,IDFULL,QH,2021-07-28T23:30:00+02:00,2021-07-28T23:45:00+02:00,62.70,EUR,29.100,MWh
Power,Intraday,Continuous,NL,IDFULL,QH,2021-07-28T23:45:00+02:00,2021-07-29T00:00:00+02:00,37.56,EUR,37.630,MWh
Power,Intraday,Continuous,NL,ID1,QH,2021-07-28T00:00:00+02:00,2021-07-28T00:15:00+02:00,82.09,EUR,,MWh
Power,Intraday,Continuous,NL,ID1,QH,2021-07-28T00:15:00+02:00,2021-07-28T00:30:00+02:00,77.06,EUR,,MWh
Power,Intraday,Continuous,NL,ID1,QH,2021-07-28T00:30:00+02:00,2021-07-28T00:45:00+02:00,66.11,EUR,,MWh
Power,Intraday,Continuous,NL,ID1,QH,2021-07-28T00:45:00+02:00,2021-07-28T01:00:00+02:00,61.89,EUR,,MWh
Power,Intraday,Continuous,NL,ID1,QH,2021-07-28T01:00:00+02:00,2021-07-28T01:15:00+02:00,75.75,EUR,,MWh
Power,Intraday,Continuous,NL,ID1,QH,2021-07-28T01:15:00+02:00,2021-07-28T01:30:00+02:00,69.97,EUR,,MWh
Power,Intraday,Continuous,NL,ID1,QH,2021-07-28T01:30:00+02:00,2021-07-28T01:45:00+02:00,65.00,EUR,,MWh
Power,Intraday,Continuous,NL,ID1,QH,2021-07-28T01:45:00+02:00,2021-07-28T02:00:00+02:00,60.06,EUR,,MWh
Power,Intraday,Continuous,NL,ID1,QH,2021-07-28T02:00:00+02:00,2021-07-28T02:15:00+02:00,70.13,EUR,,MWh
Power,Intraday,Continuous,NL,ID1,QH,2021-07-28T02:15:00+02:00,2021-07-28T02:30:00+02:00,43.05,EUR,,MWh
Power,Intraday,Continuous,NL,ID1,QH,2021-07-28T02:30:00+02:00,2021-07-28T02:45:00+02:00,43.05,EUR,,MWh
Power,Intraday,Continuous,NL,ID1,QH,2021-07-28T02:45:00+02:00,2021-07-28T03:00:00+02:00,43.05,EUR,,MWh
Power,Intraday,Continuous,NL,ID1,QH,2021-07-28T03:00:00+02:00,2021-07-28T03:15:00+02:00,41.82,EUR,,MWh
Power,Intraday,Continuous,NL,ID1,QH,2021-07-28T03:15:00+02:00,2021-07-28T03:30:00+02:00,41.82,EUR,,MWh
Power,Intraday,Continuous,NL,ID1,QH,2021-07-28T03:30:00+02:00,2021-07-28T03:45:00+02:00,41.82,EUR,,MWh
Power,Intraday,Continuous,NL,ID1,QH,2021-07-28T03:45:00+02:00,2021-07-28T04:00:00+02:00,41.82,EUR,,MWh
Power,Intraday,Continuous,NL,ID1,QH,2021-07-28T04:00:00+02:00,2021-07-28T04:15:00+02:00,46.98,EUR,,MWh
Power,Intraday,Continuous,NL,ID1,QH,2021-07-28T04:15:00+02:00,2021-07-28T04:30:00+02:00,46.98,EUR,,MWh
Power,Intraday,Continuous,NL,ID1,QH,2021-07-28T04:30:00+02:00,2021-07-28T04:45:00+02:00,46.98,EUR,,MWh
Power,Intraday,Continuous,NL,ID1,QH,2021-07-28T04:45:00+02:00,2021-07-28T05:00:00+02:00,46.98,EUR,,MWh
Power,Intraday,Continuous,NL,ID1,QH,2021-07-28T05:00:00+02:00,2021-07-28T05:15:00+02:00,34.27,EUR,,MWh
Power,Intraday,Continuous,NL,ID1,QH,2021-07-28T05:15:00+02:00,2021-07-28T05:30:00+02:00,34.27,EUR,,MWh
Power,Intraday,Continuous,NL,ID1,QH,2021-07-28T05:30:00+02:00,2021-07-28T05:45:00+02:00,34.27,EUR,,MWh
Power,Intraday,Continuous,NL,ID1,QH,2021-07-28T05:45:00+02:00,2021-07-28T06:00:00+02:00,83.98,EUR,,MWh
Power,Intraday,Continuous,NL,ID1,QH,2021-07-28T06:00:00+02:00,2021-07-28T06:15:00+02:00,46.83,EUR,,MWh
Power,Intraday,Continuous,NL,ID1,QH,2021-07-28T06:15:00+02:00,2021-07-28T06:30:00+02:00,46.83,EUR,,MWh
Power,Intraday,Continuous,NL,ID1,QH,2021-07-28T06:30:00+02:00,2021-07-28T06:45:00+02:00,46.83,EUR,,MWh
Power,Intraday,Continuous,NL,ID1,QH,2021-07-28T06:45:00+02:00,2021-07-28T07:00:00+02:00,95.04,EUR,,MWh
Power,Intraday,Continuous,NL,ID1,QH,2021-07-28T07:00:00+02:00,2021-07-28T07:15:00+02:00,60.31,EUR,,MWh
Power,Intraday,Continuous,NL,ID1,QH,2021-07-28T07:15:00+02:00,2021-07-28T07:30:00+02:00,60.31,EUR,,MWh
Power,Intraday,Continuous,NL,ID1,QH,2021-07-28T07:30:00+02:00,2021-07-28T07:45:00+02:00,86.05,EUR,,MWh
Power,Intraday,Continuous,NL,ID1,QH,2021-07-28T07:45:00+02:00,2021-07-28T08:00:00+02:00,60.31,EUR,,MWh
Power,Intraday,Continuous,NL,ID1,QH,2021-07-28T08:00:00+02:00,2021-07-28T08:15:00+02:00,75.53,EUR,4.230,MWh
Power,Intraday,Continuous,NL,ID1,QH,2021-07-28T08:15:00+02:00,2021-07-28T08:30:00+02:00,66.14,EUR,,MWh
Power,Intraday,Continuous,NL,ID1,QH,2021-07-28T08:30:00+02:00,2021-07-28T08:45:00+02:00,66.14,EUR,,MWh
Power,Intraday,Continuous,NL,ID1,QH,2021-07-28T08:45:00+02:00,2021-07-28T09:00:00+02:00,58.82,EUR,,MWh
Power,Intraday,Continuous,NL,ID1,QH,2021-07-28T09:00:00+02:00,2021-07-28T09:15:00+02:00,100.05,EUR,,MWh
Power,Intraday,Continuous,NL,ID1,QH,2021-07-28T09:15:00+02:00,2021-07-28T09:30:00+02:00,93.30,EUR,,MWh
Power,Intraday,Continuous,NL,ID1,QH,2021-07-28T09:30:00+02:00,2021-07-28T09:45:00+02:00,88.33,EUR,,MWh
Power,Intraday,Continuous,NL,ID1,QH,2021-07-28T09:45:00+02:00,2021-07-28T10:00:00+02:00,63.82,EUR,,MWh
Power,Intraday,Continuous,NL,ID1,QH,2021-07-28T10:00:00+02:00,2021-07-28T10:15:00+02:00,97.13,EUR,,MWh
Power,Intraday,Continuous,NL,ID1,QH,2021-07-28T10:15:00+02:00,2021-07-28T10:30:00+02:00,84.59,EUR,,MWh
Power,Intraday,Continuous,NL,ID1,QH,2021-07-28T10:30:00+02:00,2021-07-28T10:45:00+02:00,24.69,EUR,12.000,MWh
Power,Intraday,Continuous,NL,ID1,QH,2021-07-28T10:45:00+02:00,2021-07-28T11:00:00+02:00,19.90,EUR,11.500,MWh
Power,Intraday,Continuous,NL,ID1,QH,2021-07-28T11:00:00+02:00,2021-07-28T11:15:00+02:00,90.21,EUR,,MWh
Power,Intraday,Continuous,NL,ID1,QH,2021-07-28T11:15:00+02:00,2021-07-28T11:30:00+02:00,73.92,EUR,,MWh
Power,Intraday,Continuous,NL,ID1,QH,2021-07-28T11:30:00+02:00,2021-07-28T11:45:00+02:00,76.00,EUR,,MWh
Power,Intraday,Continuous,NL,ID1,QH,2021-07-28T11:45:00+02:00,2021-07-28T12:00:00+02:00,55.28,EUR,,MWh
Power,Intraday,Continuous,NL,ID1,QH,2021-07-28T12:00:00+02:00,2021-07-28T12:15:00+02:00,79.70,EUR,,MWh
Power,Intraday,Continuous,NL,ID1,QH,2021-07-28T12:15:00+02:00,2021-07-28T12:30:00+02:00,75.15,EUR,,MWh
Power,Intraday,Continuous,NL,ID1,QH,2021-07-28T12:30:00+02:00,2021-07-28T12:45:00+02:00,27.46,EUR,3.950,MWh
Power,Intraday,Continuous,NL,ID1,QH,2021-07-28T12:45:00+02:00,2021-07-28T13:00:00+02:00,18.20,EUR,6.230,MWh
Power,Intraday,Continuous,NL,ID1,QH,2021-07-28T13:00:00+02:00,2021-07-28T13:15:00+02:00,71.97,EUR,,MWh
Power,Intraday,Continuous,NL,ID1,QH,2021-07-28T13:15:00+02:00,2021-07-28T13:30:00+02:00,6.19,EUR,,MWh
Power,Intraday,Continuous,NL,ID1,QH,2021-07-28T13:30:00+02:00,2021-07-28T13:45:00+02:00,6.19,EUR,,MWh
Power,Intraday,Continuous,NL,ID1,QH,2021-07-28T13:45:00+02:00,2021-07-28T14:00:00+02:00,140.95,EUR,5.250,MWh
Power,Intraday,Continuous,NL,ID1,QH,2021-07-28T14:00:00+02:00,2021-07-28T14:15:00+02:00,157.00,EUR,5.000,MWh
Power,Intraday,Continuous,NL,ID1,QH,2021-07-28T14:15:00+02:00,2021-07-28T14:30:00+02:00,8.75,EUR,,MWh
Power,Intraday,Continuous,NL,ID1,QH,2021-07-28T14:30:00+02:00,2021-07-28T14:45:00+02:00,62.00,EUR,5.000,MWh
Power,Intraday,Continuous,NL,ID1,QH,2021-07-28T14:45:00+02:00,2021-07-28T15:00:00+02:00,8.75,EUR,,MWh
Power,Intraday,Continuous,NL,ID1,QH,2021-07-28T15:00:00+02:00,2021-07-28T15:15:00+02:00,52.83,EUR,,MWh
Power,Intraday,Continuous,NL,ID1,QH,2021-07-28T15:15:00+02:00,2021-07-28T15:30:00+02:00,52.83,EUR,,MWh
Power,Intraday,Continuous,NL,ID1,QH,2021-07-28T15:30:00+02:00,2021-07-28T15:45:00+02:00,16.62,EUR,3.630,MWh
Power,Intraday,Continuous,NL,ID1,QH,2021-07-28T15:45:00+02:00,2021-07-28T16:00:00+02:00,52.39,EUR,4.330,MWh
Power,Intraday,Continuous,NL,ID1,QH,2021-07-28T16:00:00+02:00,2021-07-28T16:15:00+02:00,73.25,EUR,6.250,MWh
Power,Intraday,Continuous,NL,ID1,QH,2021-07-28T16:15:00+02:00,2021-07-28T16:30:00+02:00,43.00,EUR,5.000,MWh
Power,Intraday,Continuous,NL,ID1,QH,2021-07-28T16:30:00+02:00,2021-07-28T16:45:00+02:00,56.15,EUR,,MWh
Power,Intraday,Continuous,NL,ID1,QH,2021-07-28T16:45:00+02:00,2021-07-28T17:00:00+02:00,56.15,EUR,,MWh
Power,Intraday,Continuous,NL,ID1,QH,2021-07-28T17:00:00+02:00,2021-07-28T17:15:00+02:00,-0.21,EUR,8.800,MWh
Power,Intraday,Continuous,NL,ID1,QH,2021-07-28T17:15:00+02:00,2021-07-28T17:30:00+02:00,44.85,EUR,,MWh
Power,Intraday,Continuous,NL,ID1,QH,2021-07-28T17:30:00+02:00,2021-07-28T17:45:00+02:00,67.45,EUR,,MWh
Power,Intraday,Continuous,NL,ID1,QH,2021-07-28T17:45:00+02:00,2021-07-28T18:00:00+02:00,83.76,EUR,,MWh
Power,Intraday,Continuous,NL,ID1,QH,2021-07-28T18:00:00+02:00,2021-07-28T18:15:00+02:00,9.28,EUR,,MWh
Power,Intraday,Continuous,NL,ID1,QH,2021-07-28T18:15:00+02:00,2021-07-28T18:30:00+02:00,47.34,EUR,,MWh
Power,Intraday,Continuous,NL,ID1,QH,2021-07-28T18:30:00+02:00,2021-07-28T18:45:00+02:00,79.57,EUR,,MWh
Power,Intraday,Continuous,NL,ID1,QH,2021-07-28T18:45:00+02:00,2021-07-28T19:00:00+02:00,89.38,EUR,,MWh
Power,Intraday,Continuous,NL,ID1,QH,2021-07-28T19:00:00+02:00,2021-07-28T19:15:00+02:00,50.84,EUR,,MWh
Power,Intraday,Continuous,NL,ID1,QH,2021-07-28T19:15:00+02:00,2021-07-28T19:30:00+02:00,50.84,EUR,,MWh
Power,Intraday,Continuous,NL,ID1,QH,2021-07-28T19:30:00+02:00,2021-07-28T19:45:00+02:00,31.57,EUR,6.000,MWh
Power,Intraday,Continuous,NL,ID1,QH,2021-07-28T19:45:00+02:00,2021-07-28T20:00:00+02:00,97.35,EUR,,MWh
Power,Intraday,Continuous,NL,ID1,QH,2021-07-28T20:00:00+02:00,2021-07-28T20:15:00+02:00,59.78,EUR,,MWh
Power,Intraday,Continuous,NL,ID1,QH,2021-07-28T20:15:00+02:00,2021-07-28T20:30:00+02:00,59.78,EUR,,MWh
Power,Intraday,Continuous,NL,ID1,QH,2021-07-28T20:30:00+02:00,2021-07-28T20:45:00+02:00,56.54,EUR,,MWh
Power,Intraday,Continuous,NL,ID1,QH,2021-07-28T20:45:00+02:00,2021-07-28T21:00:00+02:00,61.55,EUR,,MWh
Power,Intraday,Continuous,NL,ID1,QH,2021-07-28T21:00:00+02:00,2021-07-28T21:15:00+02:00,59.36,EUR,,MWh
Power,Intraday,Continuous,NL,ID1,QH,2021-07-28T21:15:00+02:00,2021-07-28T21:30:00+02:00,59.36,EUR,,MWh
Power,Intraday,Continuous,NL,ID1,QH,2021-07-28T21:30:00+02:00,2021-07-28T21:45:00+02:00,59.36,EUR,,MWh
Power,Intraday,Continuous,NL,ID1,QH,2021-07-28T21:45:00+02:00,2021-07-28T22:00:00+02:00,59.36,EUR,,MWh
Power,Intraday,Continuous,NL,ID1,QH,2021-07-28T22:00:00+02:00,2021-07-28T22:15:00+02:00,86.46,EUR,,MWh
Power,Intraday,Continuous,NL,ID1,QH,2021-07-28T22:15:00+02:00,2021-07-28T22:30:00+02:00,53.30,EUR,,MWh
Power,Intraday,Continuous,NL,ID1,QH,2021-07-28T22:30:00+02:00,2021-07-28T22:45:00+02:00,62.10,EUR,,MWh
Power,Intraday,Continuous,NL,ID1,QH,2021-07-28T22:45:00+02:00,2021-07-28T23:00:00+02:00,48.91,EUR,,MWh
Power,Intraday,Continuous,NL,ID1,QH,2021-07-28T23:00:00+02:00,2021-07-28T23:15:00+02:00,76.11,EUR,,MWh
Power,Intraday,Continuous,NL,ID1,QH,2021-07-28T23:15:00+02:00,2021-07-28T23:30:00+02:00,64.06,EUR,,MWh
Power,Intraday,Continuous,NL,ID1,QH,2021-07-28T23:30:00+02:00,2021-07-28T23:45:00+02:00,62.59,EUR,,MWh
Power,Intraday,Continuous,NL,ID1,QH,2021-07-28T23:45:00+02:00,2021-07-29T00:00:00+02:00,24.88,EUR,,MWh
Power,Intraday,Continuous,NL,ID3,QH,2021-07-28T00:00:00+02:00,2021-07-28T00:15:00+02:00,82.09,EUR,84.530,MWh
Power,Intraday,Continuous,NL,ID3,QH,2021-07-28T00:15:00+02:00,2021-07-28T00:30:00+02:00,77.06,EUR,52.750,MWh
Power,Intraday,Continuous,NL,ID3,QH,2021-07-28T00:30:00+02:00,2021-07-28T00:45:00+02:00,66.11,EUR,24.830,MWh
Power,Intraday,Continuous,NL,ID3,QH,2021-07-28T00:45:00+02:00,2021-07-28T01:00:00+02:00,61.89,EUR,35.200,MWh
Power,Intraday,Continuous,NL,ID3,QH,2021-07-28T01:00:00+02:00,2021-07-28T01:15:00+02:00,75.75,EUR,38.630,MWh
Power,Intraday,Continuous,NL,ID3,QH,2021-07-28T01:15:00+02:00,2021-07-28T01:30:00+02:00,69.97,EUR,15.680,MWh
Power,Intraday,Continuous,NL,ID3,QH,2021-07-28T01:30:00+02:00,2021-07-28T01:45:00+02:00,65.00,EUR,3.500,MWh
Power,Intraday,Continuous,NL,ID3,QH,2021-07-28T01:45:00+02:00,2021-07-28T02:00:00+02:00,60.06,EUR,5.100,MWh
Power,Intraday,Continuous,NL,ID3,QH,2021-07-28T02:00:00+02:00,2021-07-28T02:15:00+02:00,70.13,EUR,6.100,MWh
Power,Intraday,Continuous,NL,ID3,QH,2021-07-28T02:15:00+02:00,2021-07-28T02:30:00+02:00,43.05,EUR,,MWh
Power,Intraday,Continuous,NL,ID3,QH,2021-07-28T02:30:00+02:00,2021-07-28T02:45:00+02:00,43.05,EUR,,MWh
Power,Intraday,Continuous,NL,ID3,QH,2021-07-28T02:45:00+02:00,2021-07-28T03:00:00+02:00,43.05,EUR,,MWh
Power,Intraday,Continuous,NL,ID3,QH,2021-07-28T03:00:00+02:00,2021-07-28T03:15:00+02:00,41.82,EUR,,MWh
Power,Intraday,Continuous,NL,ID3,QH,2021-07-28T03:15:00+02:00,2021-07-28T03:30:00+02:00,41.82,EUR,,MWh
Power,Intraday,Continuous,NL,ID3,QH,2021-07-28T03:30:00+02:00,2021-07-28T03:45:00+02:00,41.82,EUR,,MWh
Power,Intraday,Continuous,NL,ID3,QH,2021-07-28T03:45:00+02:00,2021-07-28T04:00:00+02:00,41.82,EUR,,MWh
Power,Intraday,Continuous,NL,ID3,QH,2021-07-28T04:00:00+02:00,2021-07-28T04:15:00+02:00,46.98,EUR,,MWh
Power,Intraday,Continuous,NL,ID3,QH,2021-07-28T04:15:00+02:00,2021-07-28T04:30:00+02:00,46.98,EUR,,MWh
Power,Intraday,Continuous,NL,ID3,QH,2021-07-28T04:30:00+02:00,2021-07-28T04:45:00+02:00,46.98,EUR,,MWh
Power,Intraday,Continuous,NL,ID3,QH,2021-07-28T04:45:00+02:00,2021-07-28T05:00:00+02:00,46.98,EUR,,MWh
Power,Intraday,Continuous,NL,ID3,QH,2021-07-28T05:00:00+02:00,2021-07-28T05:15:00+02:00,34.27,EUR,,MWh
Power,Intraday,Continuous,NL,ID3,QH,2021-07-28T05:15:00+02:00,2021-07-28T05:30:00+02:00,34.27,EUR,,MWh
Power,Intraday,Continuous,NL,ID3,QH,2021-07-28T05:30:00+02:00,2021-07-28T05:45:00+02:00,34.27,EUR,,MWh
Power,Intraday,Continuous,NL,ID3,QH,2021-07-28T05:45:00+02:00,2021-07-28T06:00:00+02:00,83.98,EUR,,MWh
Power,Intraday,Continuous,NL,ID3,QH,2021-07-28T06:00:00+02:00,2021-07-28T06:15:00+02:00,46.83,EUR,,MWh
Power,Intraday,Continuous,NL,ID3,QH,2021-07-28T06:15:00+02:00,2021-07-28T06:30:00+02:00,46.83,EUR,,MWh
Power,Intraday,Continuous,NL,ID3,QH,2021-07-28T06:30:00+02:00,2021-07-28T06:45:00+02:00,46.83,EUR,,MWh
Power,Intraday,Continuous,NL,ID3,QH,2021-07-28T06:45:00+02:00,2021-07-28T07:00:00+02:00,95.04,EUR,,MWh
Power,Intraday,Continuous,NL,ID3,QH,2021-07-28T07:00:00+02:00,2021-07-28T07:15:00+02:00,60.31,EUR,,MWh
Power,Intraday,Continuous,NL,ID3,QH,2021-07-28T07:15:00+02:00,2021-07-28T07:30:00+02:00,60.31,EUR,,MWh
Power,Intraday,Continuous,NL,ID3,QH,2021-07-28T07:30:00+02:00,2021-07-28T07:45:00+02:00,86.05,EUR,4.450,MWh
Power,Intraday,Continuous,NL,ID3,QH,2021-07-28T07:45:00+02:00,2021-07-28T08:00:00+02:00,60.31,EUR,,MWh
Power,Intraday,Continuous,NL,ID3,QH,2021-07-28T08:00:00+02:00,2021-07-28T08:15:00+02:00,77.18,EUR,6.730,MWh
Power,Intraday,Continuous,NL,ID3,QH,2021-07-28T08:15:00+02:00,2021-07-28T08:30:00+02:00,66.14,EUR,,MWh
Power,Intraday,Continuous,NL,ID3,QH,2021-07-28T08:30:00+02:00,2021-07-28T08:45:00+02:00,66.14,EUR,,MWh
Power,Intraday,Continuous,NL,ID3,QH,2021-07-28T08:45:00+02:00,2021-07-28T09:00:00+02:00,58.82,EUR,3.900,MWh
Power,Intraday,Continuous,NL,ID3,QH,2021-07-28T09:00:00+02:00,2021-07-28T09:15:00+02:00,100.05,EUR,64.300,MWh
Power,Intraday,Continuous,NL,ID3,QH,2021-07-28T09:15:00+02:00,2021-07-28T09:30:00+02:00,93.30,EUR,58.850,MWh
Power,Intraday,Continuous,NL,ID3,QH,2021-07-28T09:30:00+02:00,2021-07-28T09:45:00+02:00,88.33,EUR,28.950,MWh
Power,Intraday,Continuous,NL,ID3,QH,2021-07-28T09:45:00+02:00,2021-07-28T10:00:00+02:00,63.82,EUR,,MWh
Power,Intraday,Continuous,NL,ID3,QH,2021-07-28T10:00:00+02:00,2021-07-28T10:15:00+02:00,97.13,EUR,72.400,MWh
Power,Intraday,Continuous,NL,ID3,QH,2021-07-28T10:15:00+02:00,2021-07-28T10:30:00+02:00,84.59,EUR,49.680,MWh
Power,Intraday,Continuous,NL,ID3,QH,2021-07-28T10:30:00+02:00,2021-07-28T10:45:00+02:00,24.93,EUR,12.050,MWh
Power,Intraday,Continuous,NL,ID3,QH,2021-07-28T10:45:00+02:00,2021-07-28T11:00:00+02:00,19.90,EUR,11.500,MWh
Power,Intraday,Continuous,NL,ID3,QH,2021-07-28T11:00:00+02:00,2021-07-28T11:15:00+02:00,90.21,EUR,39.350,MWh
Power,Intraday,Continuous,NL,ID3,QH,2021-07-28T11:15:00+02:00,2021-07-28T11:30:00+02:00,73.92,EUR,5.050,MWh
Power,Intraday,Continuous,NL,ID3,QH,2021-07-28T11:30:00+02:00,2021-07-28T11:45:00+02:00,76.00,EUR,,MWh
Power,Intraday,Continuous,NL,ID3,QH,2021-07-28T11:45:00+02:00,2021-07-28T12:00:00+02:00,55.28,EUR,,MWh
Power,Intraday,Continuous,NL,ID3,QH,2021-07-28T12:00:00+02:00,2021-07-28T12:15:00+02:00,79.70,EUR,19.250,MWh
Power,Intraday,Continuous,NL,ID3,QH,2021-07-28T12:15:00+02:00,2021-07-28T12:30:00+02:00,75.15,EUR,18.330,MWh
Power,Intraday,Continuous,NL,ID3,QH,2021-07-28T12:30:00+02:00,2021-07-28T12:45:00+02:00,56.24,EUR,19.000,MWh
Power,Intraday,Continuous,NL,ID3,QH,2021-07-28T12:45:00+02:00,2021-07-28T13:00:00+02:00,50.92,EUR,23.530,MWh
Power,Intraday,Continuous,NL,ID3,QH,2021-07-28T13:00:00+02:00,2021-07-28T13:15:00+02:00,71.97,EUR,4.850,MWh
Power,Intraday,Continuous,NL,ID3,QH,2021-07-28T13:15:00+02:00,2021-07-28T13:30:00+02:00,6.19,EUR,,MWh
Power,Intraday,Continuous,NL,ID3,QH,2021-07-28T13:30:00+02:00,2021-07-28T13:45:00+02:00,6.19,EUR,,MWh
Power,Intraday,Continuous,NL,ID3,QH,2021-07-28T13:45:00+02:00,2021-07-28T14:00:00+02:00,140.95,EUR,5.250,MWh
Power,Intraday,Continuous,NL,ID3,QH,2021-07-28T14:00:00+02:00,2021-07-28T14:15:00+02:00,157.00,EUR,5.000,MWh
Power,Intraday,Continuous,NL,ID3,QH,2021-07-28T14:15:00+02:00,2021-07-28T14:30:00+02:00,8.75,EUR,,MWh
Power,Intraday,Continuous,NL,ID3,QH,2021-07-28T14:30:00+02:00,2021-07-28T14:45:00+02:00,64.15,EUR,5.400,MWh
Power,Intraday,Continuous,NL,ID3,QH,2021-07-28T14:45:00+02:00,2021-07-28T15:00:00+02:00,8.75,EUR,,MWh
Power,Intraday,Continuous,NL,ID3,QH,2021-07-28T15:00:00+02:00,2021-07-28T15:15:00+02:00,52.83,EUR,,MWh
Power,Intraday,Continuous,NL,ID3,QH,2021-07-28T15:15:00+02:00,2021-07-28T15:30:00+02:00,52.83,EUR,,MWh
Power,Intraday,Continuous,NL,ID3,QH,2021-07-28T15:30:00+02:00,2021-07-28T15:45:00+02:00,17.63,EUR,3.750,MWh
Power,Intraday,Continuous,NL,ID3,QH,2021-07-28T15:45:00+02:00,2021-07-28T16:00:00+02:00,52.25,EUR,4.550,MWh
Power,Intraday,Continuous,NL,ID3,QH,2021-07-28T16:00:00+02:00,2021-07-28T16:15:00+02:00,62.91,EUR,8.450,MWh
Power,Intraday,Continuous,NL,ID3,QH,2021-07-28T16:15:00+02:00,2021-07-28T16:30:00+02:00,43.00,EUR,5.000,MWh
Power,Intraday,Continuous,NL,ID3,QH,2021-07-28T16:30:00+02:00,2021-07-28T16:45:00+02:00,56.15,EUR,,MWh
Power,Intraday,Continuous,NL,ID3,QH,2021-07-28T16:45:00+02:00,2021-07-28T17:00:00+02:00,56.15,EUR,,MWh
Power,Intraday,Continuous,NL,ID3,QH,2021-07-28T17:00:00+02:00,2021-07-28T17:15:00+02:00,10.76,EUR,13.080,MWh
Power,Intraday,Continuous,NL,ID3,QH,2021-07-28T17:15:00+02:00,2021-07-28T17:30:00+02:00,44.85,EUR,8.550,MWh
Power,Intraday,Continuous,NL,ID3,QH,2021-07-28T17:30:00+02:00,2021-07-28T17:45:00+02:00,67.45,EUR,30.780,MWh
Power,Intraday,Continuous,NL,ID3,QH,2021-07-28T17:45:00+02:00,2021-07-28T18:00:00+02:00,83.76,EUR,37.580,MWh
Power,Intraday,Continuous,NL,ID3,QH,2021-07-28T18:00:00+02:00,2021-07-28T18:15:00+02:00,9.28,EUR,9.630,MWh
Power,Intraday,Continuous,NL,ID3,QH,2021-07-28T18:15:00+02:00,2021-07-28T18:30:00+02:00,47.34,EUR,10.950,MWh
Power,Intraday,Continuous,NL,ID3,QH,2021-07-28T18:30:00+02:00,2021-07-28T18:45:00+02:00,79.57,EUR,31.880,MWh
Power,Intraday,Continuous,NL,ID3,QH,2021-07-28T18:45:00+02:00,2021-07-28T19:00:00+02:00,89.38,EUR,28.250,MWh
Power,Intraday,Continuous,NL,ID3,QH,2021-07-28T19:00:00+02:00,2021-07-28T19:15:00+02:00,50.84,EUR,,MWh
Power,Intraday,Continuous,NL,ID3,QH,2021-07-28T19:15:00+02:00,2021-07-28T19:30:00+02:00,50.84,EUR,,MWh
Power,Intraday,Continuous,NL,ID3,QH,2021-07-28T19:30:00+02:00,2021-07-28T19:45:00+02:00,31.57,EUR,6.000,MWh
Power,Intraday,Continuous,NL,ID3,QH,2021-07-28T19:45:00+02:00,2021-07-28T20:00:00+02:00,97.35,EUR,14.850,MWh
Power,Intraday,Continuous,NL,ID3,QH,2021-07-28T20:00:00+02:00,2021-07-28T20:15:00+02:00,59.78,EUR,,MWh
Power,Intraday,Continuous,NL,ID3,QH,2021-07-28T20:15:00+02:00,2021-07-28T20:30:00+02:00,59.78,EUR,,MWh
Power,Intraday,Continuous,NL,ID3,QH,2021-07-28T20:30:00+02:00,2021-07-28T20:45:00+02:00,56.54,EUR,4.530,MWh
Power,Intraday,Continuous,NL,ID3,QH,2021-07-28T20:45:00+02:00,2021-07-28T21:00:00+02:00,61.55,EUR,21.930,MWh
Power,Intraday,Continuous,NL,ID3,QH,2021-07-28T21:00:00+02:00,2021-07-28T21:15:00+02:00,59.36,EUR,,MWh
Power,Intraday,Continuous,NL,ID3,QH,2021-07-28T21:15:00+02:00,2021-07-28T21:30:00+02:00,59.36,EUR,,MWh
Power,Intraday,Continuous,NL,ID3,QH,2021-07-28T21:30:00+02:00,2021-07-28T21:45:00+02:00,59.36,EUR,,MWh
Power,Intraday,Continuous,NL,ID3,QH,2021-07-28T21:45:00+02:00,2021-07-28T22:00:00+02:00,59.36,EUR,,MWh
Power,Intraday,Continuous,NL,ID3,QH,2021-07-28T22:00:00+02:00,2021-07-28T22:15:00+02:00,86.46,EUR,42.050,MWh
Power,Intraday,Continuous,NL,ID3,QH,2021-07-28T22:15:00+02:00,2021-07-28T22:30:00+02:00,53.30,EUR,32.830,MWh
Power,Intraday,Continuous,NL,ID3,QH,2021-07-28T22:30:00+02:00,2021-07-28T22:45:00+02:00,62.10,EUR,17.500,MWh
Power,Intraday,Continuous,NL,ID3,QH,2021-07-28T22:45:00+02:00,2021-07-28T23:00:00+02:00,48.91,EUR,50.650,MWh
Power,Intraday,Continuous,NL,ID3,QH,2021-07-28T23:00:00+02:00,2021-07-28T23:15:00+02:00,76.11,EUR,39.000,MWh
Power,Intraday,Continuous,NL,ID3,QH,2021-07-28T23:15:00+02:00,2021-07-28T23:30:00+02:00,64.06,EUR,49.980,MWh
Power,Intraday,Continuous,NL,ID3,QH,2021-07-28T23:30:00+02:00,2021-07-28T23:45:00+02:00,62.59,EUR,17.050,MWh
Power,Intraday,Continuous,NL,ID3,QH,2021-07-28T23:45:00+02:00,2021-07-29T00:00:00+02:00,24.88,EUR,8.250,MWh
Power,Intraday,Continuous,NL,IDFULL,BASE,2021-07-28T00:00:00+02:00,2021-07-29T00:00:00+02:00,58.90,EUR,22255.500,MWh
Power,Intraday,Continuous,NL,IDFULL,PEAK,2021-07-28T08:00:00+02:00,2021-07-28T20:00:00+02:00,59.44,EUR,14134.700,MWh
