Commodity,NominationModality,TradingModality,MarketArea,IndexName,TimeResolution,DeliveryStart,DeliveryEnd,IndexPrice,Currency,Volume,VolumeUnit
Power,Intraday,Continuous,NL,IDFULL,H,2021-05-27T00:00:00+02:00,2021-05-27T01:00:00+02:00,56.43,EUR,231.100,MWh
Power,Intraday,Continuous,NL,IDFULL,H,2021-05-27T01:00:00+02:00,2021-05-27T02:00:00+02:00,55.08,EUR,161.500,MWh
Power,Intraday,Continuous,NL,IDFULL,H,2021-05-27T02:00:00+02:00,2021-05-27T03:00:00+02:00,61.11,EUR,30.400,MWh
Power,Intraday,Continuous,NL,IDFULL,H,2021-05-27T03:00:00+02:00,2021-05-27T04:00:00+02:00,60.29,EUR,789.400,MWh
Power,Intraday,Continuous,NL,IDFULL,H,2021-05-27T04:00:00+02:00,2021-05-27T05:00:00+02:00,55.16,EUR,372.800,MWh
Power,Intraday,Continuous,NL,IDFULL,H,2021-05-27T05:00:00+02:00,2021-05-27T06:00:00+02:00,53.29,EUR,669.000,MWh
Power,Intraday,Continuous,NL,IDFULL,H,2021-05-27T06:00:00+02:00,2021-05-27T07:00:00+02:00,73.70,EUR,394.000,MWh
Power,Intraday,Continuous,NL,IDFULL,H,2021-05-27T07:00:00+02:00,2021-05-27T08:00:00+02:00,76.16,EUR,755.200,MWh
Power,Intraday,Continuous,NL,IDFULL,H,2021-05-27T08:00:00+02:00,2021-05-27T09:00:00+02:00,78.87,EUR,1094.000,MWh
Power,Intraday,Continuous,NL,IDFULL,H,2021-05-27T09:00:00+02:00,2021-05-27T10:00:00+02:00,77.99,EUR,936.000,MWh
Power,Intraday,Continuous,NL,IDFULL,H,2021-05-27T10:00:00+02:00,2021-05-27T11:00:00+02:00,72.73,EUR,1706.400,MWh
Power,Intraday,Continuous,NL,IDFULL,H,2021-05-27T11:00:00+02:00,2021-05-27T12:00:00+02:00,82.21,EUR,1229.300,MWh
Power,Intraday,Continuous,NL,IDFULL,H,2021-05-27T12:00:00+02:00,2021-05-27T13:00:00+02:00,84.60,EUR,1608.500,MWh
Power,Intraday,Continuous,NL,IDFULL,H,2021-05-27T13:00:00+02:00,2021-05-27T14:00:00+02:00,70.79,EUR,1958.900,MWh
Power,Intraday,Continuous,NL,IDFULL,H,2021-05-27T14:00:00+02:00,2021-05-27T15:00:00+02:00,63.37,EUR,1623.000,MWh
Power,Intraday,Continuous,NL,IDFULL,H,2021-05-27T15:00:00+02:00,2021-05-27T16:00:00+02:00,67.85,EUR,1176.500,MWh
Power,Intraday,Continuous,NL,IDFULL,H,2021-05-27T16:00:00+02:00,2021-05-27T17:00:00+02:00,67.13,EUR,1464.300,MWh
Power,Intraday,Continuous,NL,IDFULL,H,2021-05-27T17:00:00+02:00,2021-05-27T18:00:00+02:00,71.43,EUR,1458.900,MWh
Power,Intraday,Continuous,NL,IDFULL,H,2021-05-27T18:00:00+02:00,2021-05-27T19:00:00+02:00,81.00,EUR,1201.900,MWh
Power,Intraday,Continuous,NL,IDFULL,H,2021-05-27T19:00:00+02:00,2021-05-27T20:00:00+02:00,83.67,EUR,1093.700,MWh
Power,Intraday,Continuous,NL,IDFULL,H,2021-05-27T20:00:00+02:00,2021-05-27T21:00:00+02:00,83.56,EUR,1184.200,MWh
Power,Intraday,Continuous,NL,IDFULL,H,2021-05-27T21:00:00+02:00,2021-05-27T22:00:00+02:00,81.66,EUR,795.500,MWh
Power,Intraday,Continuous,NL,IDFULL,H,2021-05-27T22:00:00+02:00,2021-05-27T23:00:00+02:00,80.90,EUR,667.600,MWh
Power,Intraday,Continuous,NL,IDFULL,H,2021-05-27T23:00:00+02:00,2021-05-28T00:00:00+02:00,75.18,EUR,1091.300,MWh
Power,Intraday,Continuous,NL,ID1,H,2021-05-27T00:00:00+02:00,2021-05-27T01:00:00+02:00,43.93,EUR,40.600,MWh
Power,Intraday,Continuous,NL,ID1,H,2021-05-27T01:00:00+02:00,2021-05-27T02:00:00+02:00,54.98,EUR,,MWh
Power,Intraday,Continuous,NL,ID1,H,2021-05-27T02:00:00+02:00,2021-05-27T03:00:00+02:00,62.01,EUR,,MWh
Power,Intraday,Continuous,NL,ID1,H,2021-05-27T03:00:00+02:00,2021-05-27T04:00:00+02:00,60.64,EUR,,MWh
Power,Intraday,Continuous,NL,ID1,H,2021-05-27T04:00:00+02:00,2021-05-27T05:00:00+02:00,56.46,EUR,,MWh
Power,Intraday,Continuous,NL,ID1,H,2021-05-27T05:00:00+02:00,2021-05-27T06:00:00+02:00,47.96,EUR,78.000,MWh
Power,Intraday,Continuous,NL,ID1,H,2021-05-27T06:00:00+02:00,2021-05-27T07:00:00+02:00,164.40,EUR,20.000,MWh
Power,Intraday,Continuous,NL,ID1,H,2021-05-27T07:00:00+02:00,2021-05-27T08:00:00+02:00,140.76,EUR,55.100,MWh
Power,Intraday,Continuous,NL,ID1,H,2021-05-27T08:00:00+02:00,2021-05-27T09:00:00+02:00,85.94,EUR,94.900,MWh
Power,Intraday,Continuous,NL,ID1,H,2021-05-27T09:00:00+02:00,2021-05-27T10:00:00+02:00,105.49,EUR,121.300,MWh
Power,Intraday,Continuous,NL,ID1,H,2021-05-27T10:00:00+02:00,2021-05-27T11:00:00+02:00,53.78,EUR,383.500,MWh
Power,Intraday,Continuous,NL,ID1,H,2021-05-27T11:00:00+02:00,2021-05-27T12:00:00+02:00,108.07,EUR,201.800,MWh
Power,Intraday,Continuous,NL,ID1,H,2021-05-27T12:00:00+02:00,2021-05-27T13:00:00+02:00,151.05,EUR,174.700,MWh
Power,Intraday,Continuous,NL,ID1,H,2021-05-27T13:00:00+02:00,2021-05-27T14:00:00+02:00,65.46,EUR,166.400,MWh
Power,Intraday,Continuous,NL,ID1,H,2021-05-27T14:00:00+02:00,2021-05-27T15:00:00+02:00,56.12,EUR,101.000,MWh
Power,Intraday,Continuous,NL,ID1,H,2021-05-27T15:00:00+02:00,2021-05-27T16:00:00+02:00,87.15,EUR,261.900,MWh
Power,Intraday,Continuous,NL,ID1,H,2021-05-27T16:00:00+02:00,2021-05-27T17:00:00+02:00,117.01,EUR,117.300,MWh
Power,Intraday,Continuous,NL,ID1,H,2021-05-27T17:00:00+02:00,2021-05-27T18:00:00+02:00,76.65,EUR,95.000,MWh
Power,Intraday,Continuous,NL,ID1,H,2021-05-27T18:00:00+02:00,2021-05-27T19:00:00+02:00,71.01,EUR,31.000,MWh
Power,Intraday,Continuous,NL,ID1,H,2021-05-27T19:00:00+02:00,2021-05-27T20:00:00+02:00,85.61,EUR,37.700,MWh
Power,Intraday,Continuous,NL,ID1,H,2021-05-27T20:00:00+02:00,2021-05-27T21:00:00+02:00,66.63,EUR,80.000,MWh
Power,Intraday,Continuous,NL,ID1,H,2021-05-27T21:00:00+02:00,2021-05-27T22:00:00+02:00,78.31,EUR,14.700,MWh
Power,Intraday,Continuous,NL,ID1,H,2021-05-27T22:00:00+02:00,2021-05-27T23:00:00+02:00,81.66,EUR,,MWh
Power,Intraday,Continuous,NL,ID1,H,2021-05-27T23:00:00+02:00,2021-05-28T00:00:00+02:00,75.15,EUR,,MWh
Power,Intraday,Continuous,NL,ID3,H,2021-05-27T00:00:00+02:00,2021-05-27T01:00:00+02:00,56.41,EUR,228.300,MWh
Power,Intraday,Continuous,NL,ID3,H,2021-05-27T01:00:00+02:00,2021-05-27T02:00:00+02:00,54.98,EUR,159.200,MWh
Power,Intraday,Continuous,NL,ID3,H,2021-05-27T02:00:00+02:00,2021-05-27T03:00:00+02:00,62.01,EUR,24.100,MWh
Power,Intraday,Continuous,NL,ID3,H,2021-05-27T03:00:00+02:00,2021-05-27T04:00:00+02:00,60.64,EUR,578.500,MWh
Power,Intraday,Continuous,NL,ID3,H,2021-05-27T04:00:00+02:00,2021-05-27T05:00:00+02:00,56.46,EUR,254.400,MWh
Power,Intraday,Continuous,NL,ID3,H,2021-05-27T05:00:00+02:00,2021-05-27T06:00:00+02:00,49.29,EUR,452.000,MWh
Power,Intraday,Continuous,NL,ID3,H,2021-05-27T06:00:00+02:00,2021-05-27T07:00:00+02:00,73.08,EUR,255.400,MWh
Power,Intraday,Continuous,NL,ID3,H,2021-05-27T07:00:00+02:00,2021-05-27T08:00:00+02:00,75.82,EUR,718.900,MWh
Power,Intraday,Continuous,NL,ID3,H,2021-05-27T08:00:00+02:00,2021-05-27T09:00:00+02:00,75.13,EUR,766.500,MWh
Power,Intraday,Continuous,NL,ID3,H,2021-05-27T09:00:00+02:00,2021-05-27T10:00:00+02:00,80.36,EUR,789.700,MWh
Power,Intraday,Continuous,NL,ID3,H,2021-05-27T10:00:00+02:00,2021-05-27T11:00:00+02:00,72.65,EUR,1506.400,MWh
Power,Intraday,Continuous,NL,ID3,H,2021-05-27T11:00:00+02:00,2021-05-27T12:00:00+02:00,84.69,EUR,1017.100,MWh
Power,Intraday,Continuous,NL,ID3,H,2021-05-27T12:00:00+02:00,2021-05-27T13:00:00+02:00,86.05,EUR,1476.300,MWh
Power,Intraday,Continuous,NL,ID3,H,2021-05-27T13:00:00+02:00,2021-05-27T14:00:00+02:00,71.93,EUR,1728.800,MWh
Power,Intraday,Continuous,NL,ID3,H,2021-05-27T14:00:00+02:00,2021-05-27T15:00:00+02:00,63.81,EUR,1407.000,MWh
Power,Intraday,Continuous,NL,ID3,H,2021-05-27T15:00:00+02:00,2021-05-27T16:00:00+02:00,69.47,EUR,866.400,MWh
Power,Intraday,Continuous,NL,ID3,H,2021-05-27T16:00:00+02:00,2021-05-27T17:00:00+02:00,67.56,EUR,1366.400,MWh
Power,Intraday,Continuous,NL,ID3,H,2021-05-27T17:00:00+02:00,2021-05-27T18:00:00+02:00,71.91,EUR,1250.500,MWh
Power,Intraday,Continuous,NL,ID3,H,2021-05-27T18:00:00+02:00,2021-05-27T19:00:00+02:00,82.33,EUR,849.000,MWh
Power,Intraday,Continuous,NL,ID3,H,2021-05-27T19:00:00+02:00,2021-05-27T20:00:00+02:00,85.54,EUR,659.600,MWh
Power,Intraday,Continuous,NL,ID3,H,2021-05-27T20:00:00+02:00,2021-05-27T21:00:00+02:00,83.51,EUR,772.100,MWh
Power,Intraday,Continuous,NL,ID3,H,2021-05-27T21:00:00+02:00,2021-05-27T22:00:00+02:00,81.42,EUR,393.600,MWh
Power,Intraday,Continuous,NL,ID3,H,2021-05-27T22:00:00+02:00,2021-05-27T23:00:00+02:00,81.66,EUR,320.700,MWh
Power,Intraday,Continuous,NL,ID3,H,2021-05-27T23:00:00+02:00,2021-05-28T00:00:00+02:00,75.15,EUR,520.900,MWh
Power,Intraday,Continuous,NL,IDFULL,HH,2021-05-27T00:00:00+02:00,2021-05-27T00:30:00+02:00,56.43,EUR,,MWh
Power,Intraday,Continuous,NL,IDFULL,HH,2021-05-27T00:30:00+02:00,2021-05-27T01:00:00+02:00,56.43,EUR,,MWh
Power,Intraday,Continuous,NL,IDFULL,HH,2021-05-27T01:00:00+02:00,2021-05-27T01:30:00+02:00,55.08,EUR,,MWh
Power,Intraday,Continuous,NL,IDFULL,HH,2021-05-27T01:30:00+02:00,2021-05-27T02:00:00+02:00,55.08,EUR,,MWh
Power,Intraday,Continuous,NL,IDFULL,HH,2021-05-27T02:00:00+02:00,2021-05-27T02:30:00+02:00,61.11,EUR,,MWh
Power,Intraday,Continuous,NL,IDFULL,HH,2021-05-27T02:30:00+02:00,2021-05-27T03:00:00+02:00,61.11,EUR,,MWh
Power,Intraday,Continuous,NL,IDFULL,HH,2021-05-27T03:00:00+02:00,2021-05-27T03:30:00+02:00,60.29,EUR,,MWh
Power,Intraday,Continuous,NL,IDFULL,HH,2021-05-27T03:30:00+02:00,2021-05-27T04:00:00+02:00,60.29,EUR,,MWh
Power,Intraday,Continuous,NL,IDFULL,HH,2021-05-27T04:00:00+02:00,2021-05-27T04:30:00+02:00,55.16,EUR,,MWh
Power,Intraday,Continuous,NL,IDFULL,HH,2021-05-27T04:30:00+02:00,2021-05-27T05:00:00+02:00,55.16,EUR,,MWh
Power,Intraday,Continuous,NL,IDFULL,HH,2021-05-27T05:00:00+02:00,2021-05-27T05:30:00+02:00,53.29,EUR,,MWh
Power,Intraday,Continuous,NL,IDFULL,HH,2021-05-27T05:30:00+02:00,2021-05-27T06:00:00+02:00,53.29,EUR,,MWh
Power,Intraday,Continuous,NL,IDFULL,HH,2021-05-27T06:00:00+02:00,2021-05-27T06:30:00+02:00,73.70,EUR,,MWh
Power,Intraday,Continuous,NL,IDFULL,HH,2021-05-27T06:30:00+02:00,2021-05-27T07:00:00+02:00,73.70,EUR,,MWh
Power,Intraday,Continuous,NL,IDFULL,HH,2021-05-27T07:00:00+02:00,2021-05-27T07:30:00+02:00,76.16,EUR,,MWh
Power,Intraday,Continuous,NL,IDFULL,HH,2021-05-27T07:30:00+02:00,2021-05-27T08:00:00+02:00,76.16,EUR,,MWh
Power,Intraday,Continuous,NL,IDFULL,HH,2021-05-27T08:00:00+02:00,2021-05-27T08:30:00+02:00,78.87,EUR,,MWh
Power,Intraday,Continuous,NL,IDFULL,HH,2021-05-27T08:30:00+02:00,2021-05-27T09:00:00+02:00,78.87,EUR,,MWh
Power,Intraday,Continuous,NL,IDFULL,HH,2021-05-27T09:00:00+02:00,2021-05-27T09:30:00+02:00,77.99,EUR,,MWh
Power,Intraday,Continuous,NL,IDFULL,HH,2021-05-27T09:30:00+02:00,2021-05-27T10:00:00+02:00,77.99,EUR,,MWh
Power,Intraday,Continuous,NL,IDFULL,HH,2021-05-27T10:00:00+02:00,2021-05-27T10:30:00+02:00,72.73,EUR,,MWh
Power,Intraday,Continuous,NL,IDFULL,HH,2021-05-27T10:30:00+02:00,2021-05-27T11:00:00+02:00,72.73,EUR,,MWh
Power,Intraday,Continuous,NL,IDFULL,HH,2021-05-27T11:00:00+02:00,2021-05-27T11:30:00+02:00,82.21,EUR,,MWh
Power,Intraday,Continuous,NL,IDFULL,HH,2021-05-27T11:30:00+02:00,2021-05-27T12:00:00+02:00,82.21,EUR,,MWh
Power,Intraday,Continuous,NL,IDFULL,HH,2021-05-27T12:00:00+02:00,2021-05-27T12:30:00+02:00,84.60,EUR,,MWh
Power,Intraday,Continuous,NL,IDFULL,HH,2021-05-27T12:30:00+02:00,2021-05-27T13:00:00+02:00,84.60,EUR,,MWh
Power,Intraday,Continuous,NL,IDFULL,HH,2021-05-27T13:00:00+02:00,2021-05-27T13:30:00+02:00,70.79,EUR,,MWh
Power,Intraday,Continuous,NL,IDFULL,HH,2021-05-27T13:30:00+02:00,2021-05-27T14:00:00+02:00,70.79,EUR,,MWh
Power,Intraday,Continuous,NL,IDFULL,HH,2021-05-27T14:00:00+02:00,2021-05-27T14:30:00+02:00,63.37,EUR,,MWh
Power,Intraday,Continuous,NL,IDFULL,HH,2021-05-27T14:30:00+02:00,2021-05-27T15:00:00+02:00,63.37,EUR,,MWh
Power,Intraday,Continuous,NL,IDFULL,HH,2021-05-27T15:00:00+02:00,2021-05-27T15:30:00+02:00,67.85,EUR,,MWh
Power,Intraday,Continuous,NL,IDFULL,HH,2021-05-27T15:30:00+02:00,2021-05-27T16:00:00+02:00,67.85,EUR,,MWh
Power,Intraday,Continuous,NL,IDFULL,HH,2021-05-27T16:00:00+02:00,2021-05-27T16:30:00+02:00,67.13,EUR,,MWh
Power,Intraday,Continuous,NL,IDFULL,HH,2021-05-27T16:30:00+02:00,2021-05-27T17:00:00+02:00,67.13,EUR,,MWh
Power,Intraday,Continuous,NL,IDFULL,HH,2021-05-27T17:00:00+02:00,2021-05-27T17:30:00+02:00,71.43,EUR,,MWh
Power,Intraday,Continuous,NL,IDFULL,HH,2021-05-27T17:30:00+02:00,2021-05-27T18:00:00+02:00,71.43,EUR,,MWh
Power,Intraday,Continuous,NL,IDFULL,HH,2021-05-27T18:00:00+02:00,2021-05-27T18:30:00+02:00,81.00,EUR,,MWh
Power,Intraday,Continuous,NL,IDFULL,HH,2021-05-27T18:30:00+02:00,2021-05-27T19:00:00+02:00,81.00,EUR,,MWh
Power,Intraday,Continuous,NL,IDFULL,HH,2021-05-27T19:00:00+02:00,2021-05-27T19:30:00+02:00,83.67,EUR,,MWh
Power,Intraday,Continuous,NL,IDFULL,HH,2021-05-27T19:30:00+02:00,2021-05-27T20:00:00+02:00,83.67,EUR,,MWh
Power,Intraday,Continuous,NL,IDFULL,HH,2021-05-27T20:00:00+02:00,2021-05-27T20:30:00+02:00,83.56,EUR,,MWh
Power,Intraday,Continuous,NL,IDFULL,HH,2021-05-27T20:30:00+02:00,2021-05-27T21:00:00+02:00,83.56,EUR,,MWh
Power,Intraday,Continuous,NL,IDFULL,HH,2021-05-27T21:00:00+02:00,2021-05-27T21:30:00+02:00,81.66,EUR,,MWh
Power,Intraday,Continuous,NL,IDFULL,HH,2021-05-27T21:30:00+02:00,2021-05-27T22:00:00+02:00,81.66,EUR,,MWh
Power,Intraday,Continuous,NL,IDFULL,HH,2021-05-27T22:00:00+02:00,2021-05-27T22:30:00+02:00,80.90,EUR,,MWh
Power,Intraday,Continuous,NL,IDFULL,HH,2021-05-27T22:30:00+02:00,2021-05-27T23:00:00+02:00,80.90,EUR,,MWh
Power,Intraday,Continuous,NL,IDFULL,HH,2021-05-27T23:00:00+02:00,2021-05-27T23:30:00+02:00,75.18,EUR,,MWh
Power,Intraday,Continuous,NL,IDFULL,HH,2021-05-27T23:30:00+02:00,2021-05-28T00:00:00+02:00,75.18,EUR,,MWh
Power,Intraday,Continuous,NL,ID1,HH,2021-05-27T00:00:00+02:00,2021-05-27T00:30:00+02:00,56.43,EUR,,MWh
Power,Intraday,Continuous,NL,ID1,HH,2021-05-27T00:30:00+02:00,2021-05-27T01:00:00+02:00,56.43,EUR,,MWh
Power,Intraday,Continuous,NL,ID1,HH,2021-05-27T01:00:00+02:00,2021-05-27T01:30:00+02:00,55.08,EUR,,MWh
Power,Intraday,Continuous,NL,ID1,HH,2021-05-27T01:30:00+02:00,2021-05-27T02:00:00+02:00,55.08,EUR,,MWh
Power,Intraday,Continuous,NL,ID1,HH,2021-05-27T02:00:00+02:00,2021-05-27T02:30:00+02:00,61.11,EUR,,MWh
Power,Intraday,Continuous,NL,ID1,HH,2021-05-27T02:30:00+02:00,2021-05-27T03:00:00+02:00,61.11,EUR,,MWh
Power,Intraday,Continuous,NL,ID1,HH,2021-05-27T03:00:00+02:00,2021-05-27T03:30:00+02:00,60.29,EUR,,MWh
Power,Intraday,Continuous,NL,ID1,HH,2021-05-27T03:30:00+02:00,2021-05-27T04:00:00+02:00,60.29,EUR,,MWh
Power,Intraday,Continuous,NL,ID1,HH,2021-05-27T04:00:00+02:00,2021-05-27T04:30:00+02:00,55.16,EUR,,MWh
Power,Intraday,Continuous,NL,ID1,HH,2021-05-27T04:30:00+02:00,2021-05-27T05:00:00+02:00,55.16,EUR,,MWh
Power,Intraday,Continuous,NL,ID1,HH,2021-05-27T05:00:00+02:00,2021-05-27T05:30:00+02:00,53.29,EUR,,MWh
Power,Intraday,Continuous,NL,ID1,HH,2021-05-27T05:30:00+02:00,2021-05-27T06:00:00+02:00,53.29,EUR,,MWh
Power,Intraday,Continuous,NL,ID1,HH,2021-05-27T06:00:00+02:00,2021-05-27T06:30:00+02:00,73.70,EUR,,MWh
Power,Intraday,Continuous,NL,ID1,HH,2021-05-27T06:30:00+02:00,2021-05-27T07:00:00+02:00,73.70,EUR,,MWh
Power,Intraday,Continuous,NL,ID1,HH,2021-05-27T07:00:00+02:00,2021-05-27T07:30:00+02:00,76.16,EUR,,MWh
Power,Intraday,Continuous,NL,ID1,HH,2021-05-27T07:30:00+02:00,2021-05-27T08:00:00+02:00,76.16,EUR,,MWh
Power,Intraday,Continuous,NL,ID1,HH,2021-05-27T08:00:00+02:00,2021-05-27T08:30:00+02:00,78.87,EUR,,MWh
Power,Intraday,Continuous,NL,ID1,HH,2021-05-27T08:30:00+02:00,2021-05-27T09:00:00+02:00,78.87,EUR,,MWh
Power,Intraday,Continuous,NL,ID1,HH,2021-05-27T09:00:00+02:00,2021-05-27T09:30:00+02:00,77.99,EUR,,MWh
Power,Intraday,Continuous,NL,ID1,HH,2021-05-27T09:30:00+02:00,2021-05-27T10:00:00+02:00,77.99,EUR,,MWh
Power,Intraday,Continuous,NL,ID1,HH,2021-05-27T10:00:00+02:00,2021-05-27T10:30:00+02:00,72.73,EUR,,MWh
Power,Intraday,Continuous,NL,ID1,HH,2021-05-27T10:30:00+02:00,2021-05-27T11:00:00+02:00,72.73,EUR,,MWh
Power,Intraday,Continuous,NL,ID1,HH,2021-05-27T11:00:00+02:00,2021-05-27T11:30:00+02:00,82.21,EUR,,MWh
Power,Intraday,Continuous,NL,ID1,HH,2021-05-27T11:30:00+02:00,2021-05-27T12:00:00+02:00,82.21,EUR,,MWh
Power,Intraday,Continuous,NL,ID1,HH,2021-05-27T12:00:00+02:00,2021-05-27T12:30:00+02:00,84.60,EUR,,MWh
Power,Intraday,Continuous,NL,ID1,HH,2021-05-27T12:30:00+02:00,2021-05-27T13:00:00+02:00,84.60,EUR,,MWh
Power,Intraday,Continuous,NL,ID1,HH,2021-05-27T13:00:00+02:00,2021-05-27T13:30:00+02:00,70.79,EUR,,MWh
Power,Intraday,Continuous,NL,ID1,HH,2021-05-27T13:30:00+02:00,2021-05-27T14:00:00+02:00,70.79,EUR,,MWh
Power,Intraday,Continuous,NL,ID1,HH,2021-05-27T14:00:00+02:00,2021-05-27T14:30:00+02:00,63.37,EUR,,MWh
Power,Intraday,Continuous,NL,ID1,HH,2021-05-27T14:30:00+02:00,2021-05-27T15:00:00+02:00,63.37,EUR,,MWh
Power,Intraday,Continuous,NL,ID1,HH,2021-05-27T15:00:00+02:00,2021-05-27T15:30:00+02:00,67.85,EUR,,MWh
Power,Intraday,Continuous,NL,ID1,HH,2021-05-27T15:30:00+02:00,2021-05-27T16:00:00+02:00,67.85,EUR,,MWh
Power,Intraday,Continuous,NL,ID1,HH,2021-05-27T16:00:00+02:00,2021-05-27T16:30:00+02:00,67.13,EUR,,MWh
Power,Intraday,Continuous,NL,ID1,HH,2021-05-27T16:30:00+02:00,2021-05-27T17:00:00+02:00,67.13,EUR,,MWh
Power,Intraday,Continuous,NL,ID1,HH,2021-05-27T17:00:00+02:00,2021-05-27T17:30:00+02:00,71.43,EUR,,MWh
Power,Intraday,Continuous,NL,ID1,HH,2021-05-27T17:30:00+02:00,2021-05-27T18:00:00+02:00,71.43,EUR,,MWh
Power,Intraday,Continuous,NL,ID1,HH,2021-05-27T18:00:00+02:00,2021-05-27T18:30:00+02:00,81.00,EUR,,MWh
Power,Intraday,Continuous,NL,ID1,HH,2021-05-27T18:30:00+02:00,2021-05-27T19:00:00+02:00,81.00,EUR,,MWh
Power,Intraday,Continuous,NL,ID1,HH,2021-05-27T19:00:00+02:00,2021-05-27T19:30:00+02:00,83.67,EUR,,MWh
Power,Intraday,Continuous,NL,ID1,HH,2021-05-27T19:30:00+02:00,2021-05-27T20:00:00+02:00,83.67,EUR,,MWh
Power,Intraday,Continuous,NL,ID1,HH,2021-05-27T20:00:00+02:00,2021-05-27T20:30:00+02:00,83.56,EUR,,MWh
Power,Intraday,Continuous,NL,ID1,HH,2021-05-27T20:30:00+02:00,2021-05-27T21:00:00+02:00,83.56,EUR,,MWh
Power,Intraday,Continuous,NL,ID1,HH,2021-05-27T21:00:00+02:00,2021-05-27T21:30:00+02:00,81.66,EUR,,MWh
Power,Intraday,Continuous,NL,ID1,HH,2021-05-27T21:30:00+02:00,2021-05-27T22:00:00+02:00,81.66,EUR,,MWh
Power,Intraday,Continuous,NL,ID1,HH,2021-05-27T22:00:00+02:00,2021-05-27T22:30:00+02:00,80.90,EUR,,MWh
Power,Intraday,Continuous,NL,ID1,HH,2021-05-27T22:30:00+02:00,2021-05-27T23:00:00+02:00,80.90,EUR,,MWh
Power,Intraday,Continuous,NL,ID1,HH,2021-05-27T23:00:00+02:00,2021-05-27T23:30:00+02:00,75.18,EUR,,MWh
Power,Intraday,Continuous,NL,ID1,HH,2021-05-27T23:30:00+02:00,2021-05-28T00:00:00+02:00,75.18,EUR,,MWh
Power,Intraday,Continuous,NL,ID3,HH,2021-05-27T00:00:00+02:00,2021-05-27T00:30:00+02:00,56.43,EUR,,MWh
Power,Intraday,Continuous,NL,ID3,HH,2021-05-27T00:30:00+02:00,2021-05-27T01:00:00+02:00,56.43,EUR,,MWh
Power,Intraday,Continuous,NL,ID3,HH,2021-05-27T01:00:00+02:00,2021-05-27T01:30:00+02:00,55.08,EUR,,MWh
Power,Intraday,Continuous,NL,ID3,HH,2021-05-27T01:30:00+02:00,2021-05-27T02:00:00+02:00,55.08,EUR,,MWh
Power,Intraday,Continuous,NL,ID3,HH,2021-05-27T02:00:00+02:00,2021-05-27T02:30:00+02:00,61.11,EUR,,MWh
Power,Intraday,Continuous,NL,ID3,HH,2021-05-27T02:30:00+02:00,2021-05-27T03:00:00+02:00,61.11,EUR,,MWh
Power,Intraday,Continuous,NL,ID3,HH,2021-05-27T03:00:00+02:00,2021-05-27T03:30:00+02:00,60.29,EUR,,MWh
Power,Intraday,Continuous,NL,ID3,HH,2021-05-27T03:30:00+02:00,2021-05-27T04:00:00+02:00,60.29,EUR,,MWh
Power,Intraday,Continuous,NL,ID3,HH,2021-05-27T04:00:00+02:00,2021-05-27T04:30:00+02:00,55.16,EUR,,MWh
Power,Intraday,Continuous,NL,ID3,HH,2021-05-27T04:30:00+02:00,2021-05-27T05:00:00+02:00,55.16,EUR,,MWh
Power,Intraday,Continuous,NL,ID3,HH,2021-05-27T05:00:00+02:00,2021-05-27T05:30:00+02:00,53.29,EUR,,MWh
Power,Intraday,Continuous,NL,ID3,HH,2021-05-27T05:30:00+02:00,2021-05-27T06:00:00+02:00,53.29,EUR,,MWh
Power,Intraday,Continuous,NL,ID3,HH,2021-05-27T06:00:00+02:00,2021-05-27T06:30:00+02:00,73.70,EUR,,MWh
Power,Intraday,Continuous,NL,ID3,HH,2021-05-27T06:30:00+02:00,2021-05-27T07:00:00+02:00,73.70,EUR,,MWh
Power,Intraday,Continuous,NL,ID3,HH,2021-05-27T07:00:00+02:00,2021-05-27T07:30:00+02:00,76.16,EUR,,MWh
Power,Intraday,Continuous,NL,ID3,HH,2021-05-27T07:30:00+02:00,2021-05-27T08:00:00+02:00,76.16,EUR,,MWh
Power,Intraday,Continuous,NL,ID3,HH,2021-05-27T08:00:00+02:00,2021-05-27T08:30:00+02:00,78.87,EUR,,MWh
Power,Intraday,Continuous,NL,ID3,HH,2021-05-27T08:30:00+02:00,2021-05-27T09:00:00+02:00,78.87,EUR,,MWh
Power,Intraday,Continuous,NL,ID3,HH,2021-05-27T09:00:00+02:00,2021-05-27T09:30:00+02:00,77.99,EUR,,MWh
Power,Intraday,Continuous,NL,ID3,HH,2021-05-27T09:30:00+02:00,2021-05-27T10:00:00+02:00,77.99,EUR,,MWh
Power,Intraday,Continuous,NL,ID3,HH,2021-05-27T10:00:00+02:00,2021-05-27T10:30:00+02:00,72.73,EUR,,MWh
Power,Intraday,Continuous,NL,ID3,HH,2021-05-27T10:30:00+02:00,2021-05-27T11:00:00+02:00,72.73,EUR,,MWh
Power,Intraday,Continuous,NL,ID3,HH,2021-05-27T11:00:00+02:00,2021-05-27T11:30:00+02:00,82.21,EUR,,MWh
Power,Intraday,Continuous,NL,ID3,HH,2021-05-27T11:30:00+02:00,2021-05-27T12:00:00+02:00,82.21,EUR,,MWh
Power,Intraday,Continuous,NL,ID3,HH,2021-05-27T12:00:00+02:00,2021-05-27T12:30:00+02:00,84.60,EUR,,MWh
Power,Intraday,Continuous,NL,ID3,HH,2021-05-27T12:30:00+02:00,2021-05-27T13:00:00+02:00,84.60,EUR,,MWh
Power,Intraday,Continuous,NL,ID3,HH,2021-05-27T13:00:00+02:00,2021-05-27T13:30:00+02:00,70.79,EUR,,MWh
Power,Intraday,Continuous,NL,ID3,HH,2021-05-27T13:30:00+02:00,2021-05-27T14:00:00+02:00,70.79,EUR,,MWh
Power,Intraday,Continuous,NL,ID3,HH,2021-05-27T14:00:00+02:00,2021-05-27T14:30:00+02:00,63.37,EUR,,MWh
Power,Intraday,Continuous,NL,ID3,HH,2021-05-27T14:30:00+02:00,2021-05-27T15:00:00+02:00,63.37,EUR,,MWh
Power,Intraday,Continuous,NL,ID3,HH,2021-05-27T15:00:00+02:00,2021-05-27T15:30:00+02:00,67.85,EUR,,MWh
Power,Intraday,Continuous,NL,ID3,HH,2021-05-27T15:30:00+02:00,2021-05-27T16:00:00+02:00,67.85,EUR,,MWh
Power,Intraday,Continuous,NL,ID3,HH,2021-05-27T16:00:00+02:00,2021-05-27T16:30:00+02:00,67.13,EUR,,MWh
Power,Intraday,Continuous,NL,ID3,HH,2021-05-27T16:30:00+02:00,2021-05-27T17:00:00+02:00,67.13,EUR,,MWh
Power,Intraday,Continuous,NL,ID3,HH,2021-05-27T17:00:00+02:00,2021-05-27T17:30:00+02:00,71.43,EUR,,MWh
Power,Intraday,Continuous,NL,ID3,HH,2021-05-27T17:30:00+02:00,2021-05-27T18:00:00+02:00,71.43,EUR,,MWh
Power,Intraday,Continuous,NL,ID3,HH,2021-05-27T18:00:00+02:00,2021-05-27T18:30:00+02:00,81.00,EUR,,MWh
Power,Intraday,Continuous,NL,ID3,HH,2021-05-27T18:30:00+02:00,2021-05-27T19:00:00+02:00,81.00,EUR,,MWh
Power,Intraday,Continuous,NL,ID3,HH,2021-05-27T19:00:00+02:00,2021-05-27T19:30:00+02:00,83.67,EUR,,MWh
Power,Intraday,Continuous,NL,ID3,HH,2021-05-27T19:30:00+02:00,2021-05-27T20:00:00+02:00,83.67,EUR,,MWh
Power,Intraday,Continuous,NL,ID3,HH,2021-05-27T20:00:00+02:00,2021-05-27T20:30:00+02:00,83.56,EUR,,MWh
Power,Intraday,Continuous,NL,ID3,HH,2021-05-27T20:30:00+02:00,2021-05-27T21:00:00+02:00,83.56,EUR,,MWh
Power,Intraday,Continuous,NL,ID3,HH,2021-05-27T21:00:00+02:00,2021-05-27T21:30:00+02:00,81.66,EUR,,MWh
Power,Intraday,Continuous,NL,ID3,HH,2021-05-27T21:30:00+02:00,2021-05-27T22:00:00+02:00,81.66,EUR,,MWh
Power,Intraday,Continuous,NL,ID3,HH,2021-05-27T22:00:00+02:00,2021-05-27T22:30:00+02:00,80.90,EUR,,MWh
Power,Intraday,Continuous,NL,ID3,HH,2021-05-27T22:30:00+02:00,2021-05-27T23:00:00+02:00,80.90,EUR,,MWh
Power,Intraday,Continuous,NL,ID3,HH,2021-05-27T23:00:00+02:00,2021-05-27T23:30:00+02:00,75.18,EUR,,MWh
Power,Intraday,Continuous,NL,ID3,HH,2021-05-27T23:30:00+02:00,2021-05-28T00:00:00+02:00,75.18,EUR,,MWh
Power,Intraday,Continuous,NL,IDFULL,QH,2021-05-27T00:00:00+02:00,2021-05-27T00:15:00+02:00,56.43,EUR,,MWh
Power,Intraday,Continuous,NL,IDFULL,QH,2021-05-27T00:15:00+02:00,2021-05-27T00:30:00+02:00,56.43,EUR,,MWh
Power,Intraday,Continuous,NL,IDFULL,QH,2021-05-27T00:30:00+02:00,2021-05-27T00:45:00+02:00,56.43,EUR,,MWh
Power,Intraday,Continuous,NL,IDFULL,QH,2021-05-27T00:45:00+02:00,2021-05-27T01:00:00+02:00,56.43,EUR,,MWh
Power,Intraday,Continuous,NL,IDFULL,QH,2021-05-27T01:00:00+02:00,2021-05-27T01:15:00+02:00,55.08,EUR,,MWh
Power,Intraday,Continuous,NL,IDFULL,QH,2021-05-27T01:15:00+02:00,2021-05-27T01:30:00+02:00,55.08,EUR,,MWh
Power,Intraday,Continuous,NL,IDFULL,QH,2021-05-27T01:30:00+02:00,2021-05-27T01:45:00+02:00,55.08,EUR,,MWh
Power,Intraday,Continuous,NL,IDFULL,QH,2021-05-27T01:45:00+02:00,2021-05-27T02:00:00+02:00,55.08,EUR,,MWh
Power,Intraday,Continuous,NL,IDFULL,QH,2021-05-27T02:00:00+02:00,2021-05-27T02:15:00+02:00,61.11,EUR,,MWh
Power,Intraday,Continuous,NL,IDFULL,QH,2021-05-27T02:15:00+02:00,2021-05-27T02:30:00+02:00,61.11,EUR,,MWh
Power,Intraday,Continuous,NL,IDFULL,QH,2021-05-27T02:30:00+02:00,2021-05-27T02:45:00+02:00,61.11,EUR,,MWh
Power,Intraday,Continuous,NL,IDFULL,QH,2021-05-27T02:45:00+02:00,2021-05-27T03:00:00+02:00,61.11,EUR,,MWh
Power,Intraday,Continuous,NL,IDFULL,QH,2021-05-27T03:00:00+02:00,2021-05-27T03:15:00+02:00,60.29,EUR,,MWh
Power,Intraday,Continuous,NL,IDFULL,QH,2021-05-27T03:15:00+02:00,2021-05-27T03:30:00+02:00,60.29,EUR,,MWh
Power,Intraday,Continuous,NL,IDFULL,QH,2021-05-27T03:30:00+02:00,2021-05-27T03:45:00+02:00,60.29,EUR,,MWh
Power,Intraday,Continuous,NL,IDFULL,QH,2021-05-27T03:45:00+02:00,2021-05-27T04:00:00+02:00,60.29,EUR,,MWh
Power,Intraday,Continuous,NL,IDFULL,QH,2021-05-27T04:00:00+02:00,2021-05-27T04:15:00+02:00,39.50,EUR,4.730,MWh
Power,Intraday,Continuous,NL,IDFULL,QH,2021-05-27T04:15:00+02:00,2021-05-27T04:30:00+02:00,48.04,EUR,11.980,MWh
Power,Intraday,Continuous,NL,IDFULL,QH,2021-05-27T04:30:00+02:00,2021-05-27T04:45:00+02:00,53.50,EUR,13.200,MWh
Power,Intraday,Continuous,NL,IDFULL,QH,2021-05-27T04:45:00+02:00,2021-05-27T05:00:00+02:00,79.60,EUR,,MWh
Power,Intraday,Continuous,NL,IDFULL,QH,2021-05-27T05:00:00+02:00,2021-05-27T05:15:00+02:00,53.29,EUR,,MWh
Power,Intraday,Continuous,NL,IDFULL,QH,2021-05-27T05:15:00+02:00,2021-05-27T05:30:00+02:00,53.29,EUR,,MWh
Power,Intraday,Continuous,NL,IDFULL,QH,2021-05-27T05:30:00+02:00,2021-05-27T05:45:00+02:00,53.29,EUR,,MWh
Power,Intraday,Continuous,NL,IDFULL,QH,2021-05-27T05:45:00+02:00,2021-05-27T06:00:00+02:00,53.29,EUR,,MWh
Power,Intraday,Continuous,NL,IDFULL,QH,2021-05-27T06:00:00+02:00,2021-05-27T06:15:00+02:00,73.17,EUR,,MWh
Power,Intraday,Continuous,NL,IDFULL,QH,2021-05-27T06:15:00+02:00,2021-05-27T06:30:00+02:00,75.28,EUR,2.500,MWh
Power,Intraday,Continuous,NL,IDFULL,QH,2021-05-27T06:30:00+02:00,2021-05-27T06:45:00+02:00,73.17,EUR,,MWh
Power,Intraday,Continuous,NL,IDFULL,QH,2021-05-27T06:45:00+02:00,2021-05-27T07:00:00+02:00,73.17,EUR,,MWh
Power,Intraday,Continuous,NL,IDFULL,QH,2021-05-27T07:00:00+02:00,2021-05-27T07:15:00+02:00,66.87,EUR,7.680,MWh
Power,Intraday,Continuous,NL,IDFULL,QH,2021-05-27T07:15:00+02:00,2021-05-27T07:30:00+02:00,79.26,EUR,,MWh
Power,Intraday,Continuous,NL,IDFULL,QH,2021-05-27T07:30:00+02:00,2021-05-27T07:45:00+02:00,79.26,EUR,,MWh
Power,Intraday,Continuous,NL,IDFULL,QH,2021-05-27T07:45:00+02:00,2021-05-27T08:00:00+02:00,79.26,EUR,,MWh
Power,Intraday,Continuous,NL,IDFULL,QH,2021-05-27T08:00:00+02:00,2021-05-27T08:15:00+02:00,32.56,EUR,,MWh
Power,Intraday,Continuous,NL,IDFULL,QH,2021-05-27T08:15:00+02:00,2021-05-27T08:30:00+02:00,86.45,EUR,3.200,MWh
Power,Intraday,Continuous,NL,IDFULL,QH,2021-05-27T08:30:00+02:00,2021-05-27T08:45:00+02:00,86.45,EUR,13.330,MWh
Power,Intraday,Continuous,NL,IDFULL,QH,2021-05-27T08:45:00+02:00,2021-05-27T09:00:00+02:00,110.02,EUR,19.500,MWh
Power,Intraday,Continuous,NL,IDFULL,QH,2021-05-27T09:00:00+02:00,2021-05-27T09:15:00+02:00,86.36,EUR,,MWh
Power,Intraday,Continuous,NL,IDFULL,QH,2021-05-27T09:15:00+02:00,2021-05-27T09:30:00+02:00,86.36,EUR,,MWh
Power,Intraday,Continuous,NL,IDFULL,QH,2021-05-27T09:30:00+02:00,2021-05-27T09:45:00+02:00,84.77,EUR,12.550,MWh
Power,Intraday,Continuous,NL,IDFULL,QH,2021-05-27T09:45:00+02:00,2021-05-27T10:00:00+02:00,54.48,EUR,20.580,MWh
Power,Intraday,Continuous,NL,IDFULL,QH,2021-05-27T10:00:00+02:00,2021-05-27T10:15:00+02:00,81.07,EUR,8.680,MWh
Power,Intraday,Continuous,NL,IDFULL,QH,2021-05-27T10:15:00+02:00,2021-05-27T10:30:00+02:00,80.18,EUR,16.330,MWh
Power,Intraday,Continuous,NL,IDFULL,QH,2021-05-27T10:30:00+02:00,2021-05-27T10:45:00+02:00,87.76,EUR,29.600,MWh
Power,Intraday,Continuous,NL,IDFULL,QH,2021-05-27T10:45:00+02:00,2021-05-27T11:00:00+02:00,74.04,EUR,35.000,MWh
Power,Intraday,Continuous,NL,IDFULL,QH,2021-05-27T11:00:00+02:00,2021-05-27T11:15:00+02:00,83.51,EUR,22.130,MWh
Power,Intraday,Continuous,NL,IDFULL,QH,2021-05-27T11:15:00+02:00,2021-05-27T11:30:00+02:00,89.47,EUR,,MWh
Power,Intraday,Continuous,NL,IDFULL,QH,2021-05-27T11:30:00+02:00,2021-05-27T11:45:00+02:00,79.40,EUR,6.830,MWh
Power,Intraday,Continuous,NL,IDFULL,QH,2021-05-27T11:45:00+02:00,2021-05-27T12:00:00+02:00,76.46,EUR,10.130,MWh
Power,Intraday,Continuous,NL,IDFULL,QH,2021-05-27T12:00:00+02:00,2021-05-27T12:15:00+02:00,84.93,EUR,10.530,MWh
Power,Intraday,Continuous,NL,IDFULL,QH,2021-05-27T12:15:00+02:00,2021-05-27T12:30:00+02:00,77.85,EUR,7.600,MWh
Power,Intraday,Continuous,NL,IDFULL,QH,2021-05-27T12:30:00+02:00,2021-05-27T12:45:00+02:00,78.84,EUR,14.380,MWh
Power,Intraday,Continuous,NL,IDFULL,QH,2021-05-27T12:45:00+02:00,2021-05-27T13:00:00+02:00,76.64,EUR,11.350,MWh
Power,Intraday,Continuous,NL,IDFULL,QH,2021-05-27T13:00:00+02:00,2021-05-27T13:15:00+02:00,73.84,EUR,15.580,MWh
Power,Intraday,Continuous,NL,IDFULL,QH,2021-05-27T13:15:00+02:00,2021-05-27T13:30:00+02:00,68.84,EUR,7.100,MWh
Power,Intraday,Continuous,NL,IDFULL,QH,2021-05-27T13:30:00+02:00,2021-05-27T13:45:00+02:00,63.69,EUR,10.850,MWh
Power,Intraday,Continuous,NL,IDFULL,QH,2021-05-27T13:45:00+02:00,2021-05-27T14:00:00+02:00,67.41,EUR,17.080,MWh
Power,Intraday,Continuous,NL,IDFULL,QH,2021-05-27T14:00:00+02:00,2021-05-27T14:15:00+02:00,67.02,EUR,29.130,MWh
Power,Intraday,Continuous,NL,IDFULL,QH,2021-05-27T14:15:00+02:00,2021-05-27T14:30:00+02:00,61.82,EUR,26.430,MWh
Power,Intraday,Continuous,NL,IDFULL,QH,2021-05-27T14:30:00+02:00,2021-05-27T14:45:00+02:00,68.94,EUR,31.230,MWh
Power,Intraday,Continuous,NL,IDFULL,QH,2021-05-27T14:45:00+02:00,2021-05-27T15:00:00+02:00,64.96,EUR,37.930,MWh
Power,Intraday,Continuous,NL,IDFULL,QH,2021-05-27T15:00:00+02:00,2021-05-27T15:15:00+02:00,64.01,EUR,25.630,MWh
Power,Intraday,Continuous,NL,IDFULL,QH,2021-05-27T15:15:00+02:00,2021-05-27T15:30:00+02:00,67.46,EUR,29.830,MWh
Power,Intraday,Continuous,NL,IDFULL,QH,2021-05-27T15:30:00+02:00,2021-05-27T15:45:00+02:00,65.24,EUR,79.080,MWh
Power,Intraday,Continuous,NL,IDFULL,QH,2021-05-27T15:45:00+02:00,2021-05-27T16:00:00+02:00,73.80,EUR,88.980,MWh
Power,Intraday,Continuous,NL,IDFULL,QH,2021-05-27T16:00:00+02:00,2021-05-27T16:15:00+02:00,49.17,EUR,60.500,MWh
Power,Intraday,Continuous,NL,IDFULL,QH,2021-05-27T16:15:00+02:00,2021-05-27T16:30:00+02:00,60.33,EUR,56.230,MWh
Power,Intraday,Continuous,NL,IDFULL,QH,2021-05-27T16:30:00+02:00,2021-05-27T16:45:00+02:00,70.41,EUR,126.580,MWh
Power,Intraday,Continuous,NL,IDFULL,QH,2021-05-27T16:45:00+02:00,2021-05-27T17:00:00+02:00,79.37,EUR,115.300,MWh
Power,Intraday,Continuous,NL,IDFULL,QH,2021-05-27T17:00:00+02:00,2021-05-27T17:15:00+02:00,53.83,EUR,79.080,MWh
Power,Intraday,Continuous,NL,IDFULL,QH,2021-05-27T17:15:00+02:00,2021-05-27T17:30:00+02:00,68.00,EUR,82.680,MWh
Power,Intraday,Continuous,NL,IDFULL,QH,2021-05-27T17:30:00+02:00,2021-05-27T17:45:00+02:00,81.96,EUR,101.650,MWh
Power,Intraday,Continuous,NL,IDFULL,QH,2021-05-27T17:45:00+02:00,2021-05-27T18:00:00+02:00,85.86,EUR,153.030,MWh
Power,Intraday,Continuous,NL,IDFULL,QH,2021-05-27T18:00:00+02:00,2021-05-27T18:15:00+02:00,66.64,EUR,62.080,MWh
Power,Intraday,Continuous,NL,IDFULL,QH,2021-05-27T18:15:00+02:00,2021-05-27T18:30:00+02:00,76.74,EUR,76.750,MWh
Power,Intraday,Continuous,NL,IDFULL,QH,2021-05-27T18:30:00+02:00,2021-05-27T18:45:00+02:00,88.57,EUR,78.680,MWh
Power,Intraday,Continuous,NL,IDFULL,QH,2021-05-27T18:45:00+02:00,2021-05-27T19:00:00+02:00,100.45,EUR,121.300,MWh
Power,Intraday,Continuous,NL,IDFULL,QH,2021-05-27T19:00:00+02:00,2021-05-27T19:15:00+02:00,73.24,EUR,59.180,MWh
Power,Intraday,Continuous,NL,IDFULL,QH,2021-05-27T19:15:00+02:00,2021-05-27T19:30:00+02:00,87.87,EUR,63.700,MWh
Power,Intraday,Continuous,NL,IDFULL,QH,2021-05-27T19:30:00+02:00,2021-05-27T19:45:00+02:00,89.08,EUR,92.680,MWh
Power,Intraday,Continuous,NL,IDFULL,QH,2021-05-27T19:45:00+02:00,2021-05-27T20:00:00+02:00,93.97,EUR,117.130,MWh
Power,Intraday,Continuous,NL,IDFULL,QH,2021-05-27T20:00:00+02:00,2021-05-27T20:15:00+02:00,82.34,EUR,25.450,MWh
Power,Intraday,Continuous,NL,IDFULL,QH,2021-05-27T20:15:00+02:00,2021-05-27T20:30:00+02:00,77.41,EUR,17.580,MWh
Power,Intraday,Continuous,NL,IDFULL,QH,2021-05-27T20:30:00+02:00,2021-05-27T20:45:00+02:00,82.91,EUR,13.880,MWh
Power,Intraday,Continuous,NL,IDFULL,QH,2021-05-27T20:45:00+02:00,2021-05-27T21:00:00+02:00,84.52,EUR,18.380,MWh
Power,Intraday,Continuous,NL,IDFULL,QH,2021-05-27T21:00:00+02:00,2021-05-27T21:15:00+02:00,90.60,EUR,20.450,MWh
Power,Intraday,Continuous,NL,IDFULL,QH,2021-05-27T21:15:00+02:00,2021-05-27T21:30:00+02:00,87.22,EUR,10.750,MWh
Power,Intraday,Continuous,NL,IDFULL,QH,2021-05-27T21:30:00+02:00,2021-05-27T21:45:00+02:00,83.77,EUR,10.350,MWh
Power,Intraday,Continuous,NL,IDFULL,QH,2021-05-27T21:45:00+02:00,2021-05-27T22:00:00+02:00,73.81,EUR,19.480,MWh
Power,Intraday,Continuous,NL,IDFULL,QH,2021-05-27T22:00:00+02:00,2021-05-27T22:15:00+02:00,93.49,EUR,50.450,MWh
Power,Intraday,Continuous,NL,IDFULL,QH,2021-05-27T22:15:00+02:00,2021-05-27T22:30:00+02:00,83.25,EUR,25.150,MWh
Power,Intraday,Continuous,NL,IDFULL,QH,2021-05-27T22:30:00+02:00,2021-05-27T22:45:00+02:00,79.74,EUR,40.200,MWh
Power,Intraday,Continuous,NL,IDFULL,QH,2021-05-27T22:45:00+02:00,2021-05-27T23:00:00+02:00,72.38,EUR,51.450,MWh
Power,Intraday,Continuous,NL,IDFULL,QH,2021-05-27T23:00:00+02:00,2021-05-27T23:15:00+02:00,89.35,EUR,63.600,MWh
Power,Intraday,Continuous,NL,IDFULL,QH,2021-05-27T23:15:00+02:00,2021-05-27T23:30:00+02:00,84.78,EUR,36.080,MWh
Power,Intraday,Continuous,NL,IDFULL,QH,2021-05-27T23:30:00+02:00,2021-05-27T23:45:00+02:00,77.50,EUR,36.000,MWh
Power,Intraday,Continuous,NL,IDFULL,QH,2021-05-27T23:45:00+02:00,2021-05-28T00:00:00+02:00,59.89,EUR,57.680,MWh
Power,Intraday,Continuous,NL,ID1,QH,2021-05-27T00:00:00+02:00,2021-05-27T00:15:00+02:00,56.43,EUR,,MWh
Power,Intraday,Continuous,NL,ID1,QH,2021-05-27T00:15:00+02:00,2021-05-27T00:30:00+02:00,56.43,EUR,,MWh
Power,Intraday,Continuous,NL,ID1,QH,2021-05-27T00:30:00+02:00,2021-05-27T00:45:00+02:00,56.43,EUR,,MWh
Power,Intraday,Continuous,NL,ID1,QH,2021-05-27T00:45:00+02:00,2021-05-27T01:00:00+02:00,56.43,EUR,,MWh
Power,Intraday,Continuous,NL,ID1,QH,2021-05-27T01:00:00+02:00,2021-05-27T01:15:00+02:00,55.08,EUR,,MWh
Power,Intraday,Continuous,NL,ID1,QH,2021-05-27T01:15:00+02:00,2021-05-27T01:30:00+02:00,55.08,EUR,,MWh
Power,Intraday,Continuous,NL,ID1,QH,2021-05-27T01:30:00+02:00,2021-05-27T01:45:00+02:00,55.08,EUR,,MWh
Power,Intraday,Continuous,NL,ID1,QH,2021-05-27T01:45:00+02:00,2021-05-27T02:00:00+02:00,55.08,EUR,,MWh
Power,Intraday,Continuous,NL,ID1,QH,2021-05-27T02:00:00+02:00,2021-05-27T02:15:00+02:00,61.11,EUR,,MWh
Power,Intraday,Continuous,NL,ID1,QH,2021-05-27T02:15:00+02:00,2021-05-27T02:30:00+02:00,61.11,EUR,,MWh
Power,Intraday,Continuous,NL,ID1,QH,2021-05-27T02:30:00+02:00,2021-05-27T02:45:00+02:00,61.11,EUR,,MWh
Power,Intraday,Continuous,NL,ID1,QH,2021-05-27T02:45:00+02:00,2021-05-27T03:00:00+02:00,61.11,EUR,,MWh
Power,Intraday,Continuous,NL,ID1,QH,2021-05-27T03:00:00+02:00,2021-05-27T03:15:00+02:00,60.29,EUR,,MWh
Power,Intraday,Continuous,NL,ID1,QH,2021-05-27T03:15:00+02:00,2021-05-27T03:30:00+02:00,60.29,EUR,,MWh
Power,Intraday,Continuous,NL,ID1,QH,2021-05-27T03:30:00+02:00,2021-05-27T03:45:00+02:00,60.29,EUR,,MWh
Power,Intraday,Continuous,NL,ID1,QH,2021-05-27T03:45:00+02:00,2021-05-27T04:00:00+02:00,60.29,EUR,,MWh
Power,Intraday,Continuous,NL,ID1,QH,2021-05-27T04:00:00+02:00,2021-05-27T04:15:00+02:00,39.50,EUR,,MWh
Power,Intraday,Continuous,NL,ID1,QH,2021-05-27T04:15:00+02:00,2021-05-27T04:30:00+02:00,47.23,EUR,,MWh
Power,Intraday,Continuous,NL,ID1,QH,2021-05-27T04:30:00+02:00,2021-05-27T04:45:00+02:00,52.98,EUR,,MWh
Power,Intraday,Continuous,NL,ID1,QH,2021-05-27T04:45:00+02:00,2021-05-27T05:00:00+02:00,79.60,EUR,,MWh
Power,Intraday,Continuous,NL,ID1,QH,2021-05-27T05:00:00+02:00,2021-05-27T05:15:00+02:00,53.29,EUR,,MWh
Power,Intraday,Continuous,NL,ID1,QH,2021-05-27T05:15:00+02:00,2021-05-27T05:30:00+02:00,53.29,EUR,,MWh
Power,Intraday,Continuous,NL,ID1,QH,2021-05-27T05:30:00+02:00,2021-05-27T05:45:00+02:00,53.29,EUR,,MWh
Power,Intraday,Continuous,NL,ID1,QH,2021-05-27T05:45:00+02:00,2021-05-27T06:00:00+02:00,53.29,EUR,,MWh
Power,Intraday,Continuous,NL,ID1,QH,2021-05-27T06:00:00+02:00,2021-05-27T06:15:00+02:00,73.17,EUR,,MWh
Power,Intraday,Continuous,NL,ID1,QH,2021-05-27T06:15:00+02:00,2021-05-27T06:30:00+02:00,75.28,EUR,2.500,MWh
Power,Intraday,Continuous,NL,ID1,QH,2021-05-27T06:30:00+02:00,2021-05-27T06:45:00+02:00,73.17,EUR,,MWh
Power,Intraday,Continuous,NL,ID1,QH,2021-05-27T06:45:00+02:00,2021-05-27T07:00:00+02:00,73.17,EUR,,MWh
Power,Intraday,Continuous,NL,ID1,QH,2021-05-27T07:00:00+02:00,2021-05-27T07:15:00+02:00,66.87,EUR,7.680,MWh
Power,Intraday,Continuous,NL,ID1,QH,2021-05-27T07:15:00+02:00,2021-05-27T07:30:00+02:00,79.26,EUR,,MWh
Power,Intraday,Continuous,NL,ID1,QH,2021-05-27T07:30:00+02:00,2021-05-27T07:45:00+02:00,79.26,EUR,,MWh
Power,Intraday,Continuous,NL,ID1,QH,2021-05-27T07:45:00+02:00,2021-05-27T08:00:00+02:00,79.26,EUR,,MWh
Power,Intraday,Continuous,NL,ID1,QH,2021-05-27T08:00:00+02:00,2021-05-27T08:15:00+02:00,32.56,EUR,,MWh
Power,Intraday,Continuous,NL,ID1,QH,2021-05-27T08:15:00+02:00,2021-05-27T08:30:00+02:00,86.45,EUR,3.200,MWh
Power,Intraday,Continuous,NL,ID1,QH,2021-05-27T08:30:00+02:00,2021-05-27T08:45:00+02:00,86.45,EUR,13.330,MWh
Power,Intraday,Continuous,NL,ID1,QH,2021-05-27T08:45:00+02:00,2021-05-27T09:00:00+02:00,110.02,EUR,19.500,MWh
Power,Intraday,Continuous,NL,ID1,QH,2021-05-27T09:00:00+02:00,2021-05-27T09:15:00+02:00,86.36,EUR,,MWh
Power,Intraday,Continuous,NL,ID1,QH,2021-05-27T09:15:00+02:00,2021-05-27T09:30:00+02:00,86.36,EUR,,MWh
Power,Intraday,Continuous,NL,ID1,QH,2021-05-27T09:30:00+02:00,2021-05-27T09:45:00+02:00,84.77,EUR,12.550,MWh
Power,Intraday,Continuous,NL,ID1,QH,2021-05-27T09:45:00+02:00,2021-05-27T10:00:00+02:00,54.48,EUR,20.580,MWh
Power,Intraday,Continuous,NL,ID1,QH,2021-05-27T10:00:00+02:00,2021-05-27T10:15:00+02:00,76.74,EUR,4.300,MWh
Power,Intraday,Continuous,NL,ID1,QH,2021-05-27T10:15:00+02:00,2021-05-27T10:30:00+02:00,79.13,EUR,10.000,MWh
Power,Intraday,Continuous,NL,ID1,QH,2021-05-27T10:30:00+02:00,2021-05-27T10:45:00+02:00,89.19,EUR,24.980,MWh
Power,Intraday,Continuous,NL,ID1,QH,2021-05-27T10:45:00+02:00,2021-05-27T11:00:00+02:00,73.16,EUR,26.950,MWh
Power,Intraday,Continuous,NL,ID1,QH,2021-05-27T11:00:00+02:00,2021-05-27T11:15:00+02:00,83.51,EUR,,MWh
Power,Intraday,Continuous,NL,ID1,QH,2021-05-27T11:15:00+02:00,2021-05-27T11:30:00+02:00,89.47,EUR,,MWh
Power,Intraday,Continuous,NL,ID1,QH,2021-05-27T11:30:00+02:00,2021-05-27T11:45:00+02:00,79.40,EUR,,MWh
Power,Intraday,Continuous,NL,ID1,QH,2021-05-27T11:45:00+02:00,2021-05-27T12:00:00+02:00,76.46,EUR,,MWh
Power,Intraday,Continuous,NL,ID1,QH,2021-05-27T12:00:00+02:00,2021-05-27T12:15:00+02:00,90.17,EUR,5.530,MWh
Power,Intraday,Continuous,NL,ID1,QH,2021-05-27T12:15:00+02:00,2021-05-27T12:30:00+02:00,77.85,EUR,,MWh
Power,Intraday,Continuous,NL,ID1,QH,2021-05-27T12:30:00+02:00,2021-05-27T12:45:00+02:00,78.84,EUR,,MWh
Power,Intraday,Continuous,NL,ID1,QH,2021-05-27T12:45:00+02:00,2021-05-27T13:00:00+02:00,76.64,EUR,,MWh
Power,Intraday,Continuous,NL,ID1,QH,2021-05-27T13:00:00+02:00,2021-05-27T13:15:00+02:00,74.56,EUR,,MWh
Power,Intraday,Continuous,NL,ID1,QH,2021-05-27T13:15:00+02:00,2021-05-27T13:30:00+02:00,68.22,EUR,,MWh
Power,Intraday,Continuous,NL,ID1,QH,2021-05-27T13:30:00+02:00,2021-05-27T13:45:00+02:00,63.81,EUR,,MWh
Power,Intraday,Continuous,NL,ID1,QH,2021-05-27T13:45:00+02:00,2021-05-27T14:00:00+02:00,75.32,EUR,4.250,MWh
Power,Intraday,Continuous,NL,ID1,QH,2021-05-27T14:00:00+02:00,2021-05-27T14:15:00+02:00,67.65,EUR,,MWh
Power,Intraday,Continuous,NL,ID1,QH,2021-05-27T14:15:00+02:00,2021-05-27T14:30:00+02:00,60.77,EUR,2.630,MWh
Power,Intraday,Continuous,NL,ID1,QH,2021-05-27T14:30:00+02:00,2021-05-27T14:45:00+02:00,86.35,EUR,7.100,MWh
Power,Intraday,Continuous,NL,ID1,QH,2021-05-27T14:45:00+02:00,2021-05-27T15:00:00+02:00,84.30,EUR,6.480,MWh
Power,Intraday,Continuous,NL,ID1,QH,2021-05-27T15:00:00+02:00,2021-05-27T15:15:00+02:00,89.71,EUR,2.650,MWh
Power,Intraday,Continuous,NL,ID1,QH,2021-05-27T15:15:00+02:00,2021-05-27T15:30:00+02:00,97.37,EUR,2.500,MWh
Power,Intraday,Continuous,NL,ID1,QH,2021-05-27T15:30:00+02:00,2021-05-27T15:45:00+02:00,89.06,EUR,5.500,MWh
Power,Intraday,Continuous,NL,ID1,QH,2021-05-27T15:45:00+02:00,2021-05-27T16:00:00+02:00,159.64,EUR,5.280,MWh
Power,Intraday,Continuous,NL,ID1,QH,2021-05-27T16:00:00+02:00,2021-05-27T16:15:00+02:00,49.73,EUR,,MWh
Power,Intraday,Continuous,NL,ID1,QH,2021-05-27T16:15:00+02:00,2021-05-27T16:30:00+02:00,60.26,EUR,,MWh
Power,Intraday,Continuous,NL,ID1,QH,2021-05-27T16:30:00+02:00,2021-05-27T16:45:00+02:00,70.98,EUR,,MWh
Power,Intraday,Continuous,NL,ID1,QH,2021-05-27T16:45:00+02:00,2021-05-27T17:00:00+02:00,79.71,EUR,,MWh
Power,Intraday,Continuous,NL,ID1,QH,2021-05-27T17:00:00+02:00,2021-05-27T17:15:00+02:00,55.17,EUR,,MWh
Power,Intraday,Continuous,NL,ID1,QH,2021-05-27T17:15:00+02:00,2021-05-27T17:30:00+02:00,71.02,EUR,,MWh
Power,Intraday,Continuous,NL,ID1,QH,2021-05-27T17:30:00+02:00,2021-05-27T17:45:00+02:00,82.34,EUR,,MWh
Power,Intraday,Continuous,NL,ID1,QH,2021-05-27T17:45:00+02:00,2021-05-27T18:00:00+02:00,88.27,EUR,,MWh
Power,Intraday,Continuous,NL,ID1,QH,2021-05-27T18:00:00+02:00,2021-05-27T18:15:00+02:00,67.42,EUR,,MWh
Power,Intraday,Continuous,NL,ID1,QH,2021-05-27T18:15:00+02:00,2021-05-27T18:30:00+02:00,78.65,EUR,,MWh
Power,Intraday,Continuous,NL,ID1,QH,2021-05-27T18:30:00+02:00,2021-05-27T18:45:00+02:00,90.31,EUR,,MWh
Power,Intraday,Continuous,NL,ID1,QH,2021-05-27T18:45:00+02:00,2021-05-27T19:00:00+02:00,101.45,EUR,,MWh
Power,Intraday,Continuous,NL,ID1,QH,2021-05-27T19:00:00+02:00,2021-05-27T19:15:00+02:00,76.99,EUR,,MWh
Power,Intraday,Continuous,NL,ID1,QH,2021-05-27T19:15:00+02:00,2021-05-27T19:30:00+02:00,91.55,EUR,,MWh
Power,Intraday,Continuous,NL,ID1,QH,2021-05-27T19:30:00+02:00,2021-05-27T19:45:00+02:00,89.46,EUR,,MWh
Power,Intraday,Continuous,NL,ID1,QH,2021-05-27T19:45:00+02:00,2021-05-27T20:00:00+02:00,93.73,EUR,,MWh
Power,Intraday,Continuous,NL,ID1,QH,2021-05-27T20:00:00+02:00,2021-05-27T20:15:00+02:00,81.45,EUR,,MWh
Power,Intraday,Continuous,NL,ID1,QH,2021-05-27T20:15:00+02:00,2021-05-27T20:30:00+02:00,50.00,EUR,2.750,MWh
Power,Intraday,Continuous,NL,ID1,QH,2021-05-27T20:30:00+02:00,2021-05-27T20:45:00+02:00,77.59,EUR,,MWh
Power,Intraday,Continuous,NL,ID1,QH,2021-05-27T20:45:00+02:00,2021-05-27T21:00:00+02:00,81.26,EUR,,MWh
Power,Intraday,Continuous,NL,ID1,QH,2021-05-27T21:00:00+02:00,2021-05-27T21:15:00+02:00,91.80,EUR,,MWh
Power,Intraday,Continuous,NL,ID1,QH,2021-05-27T21:15:00+02:00,2021-05-27T21:30:00+02:00,88.33,EUR,,MWh
Power,Intraday,Continuous,NL,ID1,QH,2021-05-27T21:30:00+02:00,2021-05-27T21:45:00+02:00,85.11,EUR,,MWh
Power,Intraday,Continuous,NL,ID1,QH,2021-05-27T21:45:00+02:00,2021-05-27T22:00:00+02:00,77.13,EUR,,MWh
Power,Intraday,Continuous,NL,ID1,QH,2021-05-27T22:00:00+02:00,2021-05-27T22:15:00+02:00,94.38,EUR,,MWh
Power,Intraday,Continuous,NL,ID1,QH,2021-05-27T22:15:00+02:00,2021-05-27T22:30:00+02:00,85.16,EUR,,MWh
Power,Intraday,Continuous,NL,ID1,QH,2021-05-27T22:30:00+02:00,2021-05-27T22:45:00+02:00,81.33,EUR,,MWh
Power,Intraday,Continuous,NL,ID1,QH,2021-05-27T22:45:00+02:00,2021-05-27T23:00:00+02:00,75.49,EUR,,MWh
Power,Intraday,Continuous,NL,ID1,QH,2021-05-27T23:00:00+02:00,2021-05-27T23:15:00+02:00,89.50,EUR,,MWh
Power,Intraday,Continuous,NL,ID1,QH,2021-05-27T23:15:00+02:00,2021-05-27T23:30:00+02:00,85.82,EUR,,MWh
Power,Intraday,Continuous,NL,ID1,QH,2021-05-27T23:30:00+02:00,2021-05-27T23:45:00+02:00,89.71,EUR,2.550,MWh
Power,Intraday,Continuous,NL,ID1,QH,2021-05-27T23:45:00+02:00,2021-05-28T00:00:00+02:00,89.71,EUR,2.600,MWh
Power,Intraday,Continuous,NL,ID3,QH,2021-05-27T00:00:00+02:00,2021-05-27T00:15:00+02:00,56.43,EUR,,MWh
Power,Intraday,Continuous,NL,ID3,QH,2021-05-27T00:15:00+02:00,2021-05-27T00:30:00+02:00,56.43,EUR,,MWh
Power,Intraday,Continuous,NL,ID3,QH,2021-05-27T00:30:00+02:00,2021-05-27T00:45:00+02:00,56.43,EUR,,MWh
Power,Intraday,Continuous,NL,ID3,QH,2021-05-27T00:45:00+02:00,2021-05-27T01:00:00+02:00,56.43,EUR,,MWh
Power,Intraday,Continuous,NL,ID3,QH,2021-05-27T01:00:00+02:00,2021-05-27T01:15:00+02:00,55.08,EUR,,MWh
Power,Intraday,Continuous,NL,ID3,QH,2021-05-27T01:15:00+02:00,2021-05-27T01:30:00+02:00,55.08,EUR,,MWh
Power,Intraday,Continuous,NL,ID3,QH,2021-05-27T01:30:00+02:00,2021-05-27T01:45:00+02:00,55.08,EUR,,MWh
Power,Intraday,Continuous,NL,ID3,QH,2021-05-27T01:45:00+02:00,2021-05-27T02:00:00+02:00,55.08,EUR,,MWh
Power,Intraday,Continuous,NL,ID3,QH,2021-05-27T02:00:00+02:00,2021-05-27T02:15:00+02:00,61.11,EUR,,MWh
Power,Intraday,Continuous,NL,ID3,QH,2021-05-27T02:15:00+02:00,2021-05-27T02:30:00+02:00,61.11,EUR,,MWh
Power,Intraday,Continuous,NL,ID3,QH,2021-05-27T02:30:00+02:00,2021-05-27T02:45:00+02:00,61.11,EUR,,MWh
Power,Intraday,Continuous,NL,ID3,QH,2021-05-27T02:45:00+02:00,2021-05-27T03:00:00+02:00,61.11,EUR,,MWh
Power,Intraday,Continuous,NL,ID3,QH,2021-05-27T03:00:00+02:00,2021-05-27T03:15:00+02:00,60.29,EUR,,MWh
Power,Intraday,Continuous,NL,ID3,QH,2021-05-27T03:15:00+02:00,2021-05-27T03:30:00+02:00,60.29,EUR,,MWh
Power,Intraday,Continuous,NL,ID3,QH,2021-05-27T03:30:00+02:00,2021-05-27T03:45:00+02:00,60.29,EUR,,MWh
Power,Intraday,Continuous,NL,ID3,QH,2021-05-27T03:45:00+02:00,2021-05-27T04:00:00+02:00,60.29,EUR,,MWh
Power,Intraday,Continuous,NL,ID3,QH,2021-05-27T04:00:00+02:00,2021-05-27T04:15:00+02:00,39.50,EUR,,MWh
Power,Intraday,Continuous,NL,ID3,QH,2021-05-27T04:15:00+02:00,2021-05-27T04:30:00+02:00,47.23,EUR,10.550,MWh
Power,Intraday,Continuous,NL,ID3,QH,2021-05-27T04:30:00+02:00,2021-05-27T04:45:00+02:00,52.98,EUR,11.950,MWh
Power,Intraday,Continuous,NL,ID3,QH,2021-05-27T04:45:00+02:00,2021-05-27T05:00:00+02:00,79.60,EUR,,MWh
Power,Intraday,Continuous,NL,ID3,QH,2021-05-27T05:00:00+02:00,2021-05-27T05:15:00+02:00,53.29,EUR,,MWh
Power,Intraday,Continuous,NL,ID3,QH,2021-05-27T05:15:00+02:00,2021-05-27T05:30:00+02:00,53.29,EUR,,MWh
Power,Intraday,Continuous,NL,ID3,QH,2021-05-27T05:30:00+02:00,2021-05-27T05:45:00+02:00,53.29,EUR,,MWh
Power,Intraday,Continuous,NL,ID3,QH,2021-05-27T05:45:00+02:00,2021-05-27T06:00:00+02:00,53.29,EUR,,MWh
Power,Intraday,Continuous,NL,ID3,QH,2021-05-27T06:00:00+02:00,2021-05-27T06:15:00+02:00,73.17,EUR,,MWh
Power,Intraday,Continuous,NL,ID3,QH,2021-05-27T06:15:00+02:00,2021-05-27T06:30:00+02:00,75.28,EUR,2.500,MWh
Power,Intraday,Continuous,NL,ID3,QH,2021-05-27T06:30:00+02:00,2021-05-27T06:45:00+02:00,73.17,EUR,,MWh
Power,Intraday,Continuous,NL,ID3,QH,2021-05-27T06:45:00+02:00,2021-05-27T07:00:00+02:00,73.17,EUR,,MWh
Power,Intraday,Continuous,NL,ID3,QH,2021-05-27T07:00:00+02:00,2021-05-27T07:15:00+02:00,66.87,EUR,7.680,MWh
Power,Intraday,Continuous,NL,ID3,QH,2021-05-27T07:15:00+02:00,2021-05-27T07:30:00+02:00,79.26,EUR,,MWh
Power,Intraday,Continuous,NL,ID3,QH,2021-05-27T07:30:00+02:00,2021-05-27T07:45:00+02:00,79.26,EUR,,MWh
Power,Intraday,Continuous,NL,ID3,QH,2021-05-27T07:45:00+02:00,2021-05-27T08:00:00+02:00,79.26,EUR,,MWh
Power,Intraday,Continuous,NL,ID3,QH,2021-05-27T08:00:00+02:00,2021-05-27T08:15:00+02:00,32.56,EUR,,MWh
Power,Intraday,Continuous,NL,ID3,QH,2021-05-27T08:15:00+02:00,2021-05-27T08:30:00+02:00,86.45,EUR,3.200,MWh
Power,Intraday,Continuous,NL,ID3,QH,2021-05-27T08:30:00+02:00,2021-05-27T08:45:00+02:00,86.45,EUR,13.330,MWh
Power,Intraday,Continuous,NL,ID3,QH,2021-05-27T08:45:00+02:00,2021-05-27T09:00:00+02:00,110.02,EUR,19.500,MWh
Power,Intraday,Continuous,NL,ID3,QH,2021-05-27T09:00:00+02:00,2021-05-27T09:15:00+02:00,86.36,EUR,,MWh
Power,Intraday,Continuous,NL,ID3,QH,2021-05-27T09:15:00+02:00,2021-05-27T09:30:00+02:00,86.36,EUR,,MWh
Power,Intraday,Continuous,NL,ID3,QH,2021-05-27T09:30:00+02:00,2021-05-27T09:45:00+02:00,84.77,EUR,12.550,MWh
Power,Intraday,Continuous,NL,ID3,QH,2021-05-27T09:45:00+02:00,2021-05-27T10:00:00+02:00,54.48,EUR,20.580,MWh
Power,Intraday,Continuous,NL,ID3,QH,2021-05-27T10:00:00+02:00,2021-05-27T10:15:00+02:00,81.07,EUR,8.680,MWh
Power,Intraday,Continuous,NL,ID3,QH,2021-05-27T10:15:00+02:00,2021-05-27T10:30:00+02:00,80.18,EUR,16.330,MWh
Power,Intraday,Continuous,NL,ID3,QH,2021-05-27T10:30:00+02:00,2021-05-27T10:45:00+02:00,87.76,EUR,29.600,MWh
Power,Intraday,Continuous,NL,ID3,QH,2021-05-27T10:45:00+02:00,2021-05-27T11:00:00+02:00,74.04,EUR,35.000,MWh
Power,Intraday,Continuous,NL,ID3,QH,2021-05-27T11:00:00+02:00,2021-05-27T11:15:00+02:00,83.51,EUR,22.130,MWh
Power,Intraday,Continuous,NL,ID3,QH,2021-05-27T11:15:00+02:00,2021-05-27T11:30:00+02:00,89.47,EUR,,MWh
Power,Intraday,Continuous,NL,ID3,QH,2021-05-27T11:30:00+02:00,2021-05-27T11:45:00+02:00,79.40,EUR,6.830,MWh
Power,Intraday,Continuous,NL,ID3,QH,2021-05-27T11:45:00+02:00,2021-05-27T12:00:00+02:00,76.46,EUR,10.130,MWh
Power,Intraday,Continuous,NL,ID3,QH,2021-05-27T12:00:00+02:00,2021-05-27T12:15:00+02:00,84.93,EUR,10.530,MWh
Power,Intraday,Continuous,NL,ID3,QH,2021-05-27T12:15:00+02:00,2021-05-27T12:30:00+02:00,77.85,EUR,7.600,MWh
Power,Intraday,Continuous,NL,ID3,QH,2021-05-27T12:30:00+02:00,2021-05-27T12:45:00+02:00,78.84,EUR,14.380,MWh
Power,Intraday,Continuous,NL,ID3,QH,2021-05-27T12:45:00+02:00,2021-05-27T13:00:00+02:00,76.64,EUR,11.350,MWh
Power,Intraday,Continuous,NL,ID3,QH,2021-05-27T13:00:00+02:00,2021-05-27T13:15:00+02:00,74.56,EUR,14.600,MWh
Power,Intraday,Continuous,NL,ID3,QH,2021-05-27T13:15:00+02:00,2021-05-27T13:30:00+02:00,68.22,EUR,6.130,MWh
Power,Intraday,Continuous,NL,ID3,QH,2021-05-27T13:30:00+02:00,2021-05-27T13:45:00+02:00,63.81,EUR,9.150,MWh
Power,Intraday,Continuous,NL,ID3,QH,2021-05-27T13:45:00+02:00,2021-05-27T14:00:00+02:00,68.86,EUR,12.830,MWh
Power,Intraday,Continuous,NL,ID3,QH,2021-05-27T14:00:00+02:00,2021-05-27T14:15:00+02:00,67.65,EUR,25.530,MWh
Power,Intraday,Continuous,NL,ID3,QH,2021-05-27T14:15:00+02:00,2021-05-27T14:30:00+02:00,61.85,EUR,25.130,MWh
Power,Intraday,Continuous,NL,ID3,QH,2021-05-27T14:30:00+02:00,2021-05-27T14:45:00+02:00,69.59,EUR,27.380,MWh
Power,Intraday,Continuous,NL,ID3,QH,2021-05-27T14:45:00+02:00,2021-05-27T15:00:00+02:00,66.28,EUR,28.580,MWh
Power,Intraday,Continuous,NL,ID3,QH,2021-05-27T15:00:00+02:00,2021-05-27T15:15:00+02:00,64.22,EUR,21.780,MWh
Power,Intraday,Continuous,NL,ID3,QH,2021-05-27T15:15:00+02:00,2021-05-27T15:30:00+02:00,68.04,EUR,25.980,MWh
Power,Intraday,Continuous,NL,ID3,QH,2021-05-27T15:30:00+02:00,2021-05-27T15:45:00+02:00,65.45,EUR,74.050,MWh
Power,Intraday,Continuous,NL,ID3,QH,2021-05-27T15:45:00+02:00,2021-05-27T16:00:00+02:00,74.83,EUR,80.780,MWh
Power,Intraday,Continuous,NL,ID3,QH,2021-05-27T16:00:00+02:00,2021-05-27T16:15:00+02:00,49.73,EUR,52.780,MWh
Power,Intraday,Continuous,NL,ID3,QH,2021-05-27T16:15:00+02:00,2021-05-27T16:30:00+02:00,60.26,EUR,50.480,MWh
Power,Intraday,Continuous,NL,ID3,QH,2021-05-27T16:30:00+02:00,2021-05-27T16:45:00+02:00,70.98,EUR,118.600,MWh
Power,Intraday,Continuous,NL,ID3,QH,2021-05-27T16:45:00+02:00,2021-05-27T17:00:00+02:00,79.71,EUR,109.600,MWh
Power,Intraday,Continuous,NL,ID3,QH,2021-05-27T17:00:00+02:00,2021-05-27T17:15:00+02:00,55.17,EUR,60.250,MWh
Power,Intraday,Continuous,NL,ID3,QH,2021-05-27T17:15:00+02:00,2021-05-27T17:30:00+02:00,71.02,EUR,56.750,MWh
Power,Intraday,Continuous,NL,ID3,QH,2021-05-27T17:30:00+02:00,2021-05-27T17:45:00+02:00,82.34,EUR,93.230,MWh
Power,Intraday,Continuous,NL,ID3,QH,2021-05-27T17:45:00+02:00,2021-05-27T18:00:00+02:00,88.27,EUR,129.050,MWh
Power,Intraday,Continuous,NL,ID3,QH,2021-05-27T18:00:00+02:00,2021-05-27T18:15:00+02:00,67.42,EUR,42.930,MWh
Power,Intraday,Continuous,NL,ID3,QH,2021-05-27T18:15:00+02:00,2021-05-27T18:30:00+02:00,78.65,EUR,56.130,MWh
Power,Intraday,Continuous,NL,ID3,QH,2021-05-27T18:30:00+02:00,2021-05-27T18:45:00+02:00,90.31,EUR,61.330,MWh
Power,Intraday,Continuous,NL,ID3,QH,2021-05-27T18:45:00+02:00,2021-05-27T19:00:00+02:00,101.45,EUR,86.480,MWh
Power,Intraday,Continuous,NL,ID3,QH,2021-05-27T19:00:00+02:00,2021-05-27T19:15:00+02:00,76.99,EUR,29.000,MWh
Power,Intraday,Continuous,NL,ID3,QH,2021-05-27T19:15:00+02:00,2021-05-27T19:30:00+02:00,91.55,EUR,48.200,MWh
Power,Intraday,Continuous,NL,ID3,QH,2021-05-27T19:30:00+02:00,2021-05-27T19:45:00+02:00,89.46,EUR,75.180,MWh
Power,Intraday,Continuous,NL,ID3,QH,2021-05-27T19:45:00+02:00,2021-05-27T20:00:00+02:00,93.73,EUR,90.070,MWh
Power,Intraday,Continuous,NL,ID3,QH,2021-05-27T20:00:00+02:00,2021-05-27T20:15:00+02:00,81.45,EUR,12.380,MWh
Power,Intraday,Continuous,NL,ID3,QH,2021-05-27T20:15:00+02:00,2021-05-27T20:30:00+02:00,72.10,EUR,8.950,MWh
Power,Intraday,Continuous,NL,ID3,QH,2021-05-27T20:30:00+02:00,2021-05-27T20:45:00+02:00,77.59,EUR,2.980,MWh
Power,Intraday,Continuous,NL,ID3,QH,2021-05-27T20:45:00+02:00,2021-05-27T21:00:00+02:00,81.26,EUR,3.480,MWh
Power,Intraday,Continuous,NL,ID3,QH,2021-05-27T21:00:00+02:00,2021-05-27T21:15:00+02:00,91.80,EUR,14.550,MWh
Power,Intraday,Continuous,NL,ID3,QH,2021-05-27T21:15:00+02:00,2021-05-27T21:30:00+02:00,88.33,EUR,4.750,MWh
Power,Intraday,Continuous,NL,ID3,QH,2021-05-27T21:30:00+02:00,2021-05-27T21:45:00+02:00,85.11,EUR,4.900,MWh
Power,Intraday,Continuous,NL,ID3,QH,2021-05-27T21:45:00+02:00,2021-05-27T22:00:00+02:00,77.13,EUR,6.350,MWh
Power,Intraday,Continuous,NL,ID3,QH,2021-05-27T22:00:00+02:00,2021-05-27T22:15:00+02:00,94.38,EUR,38.180,MWh
Power,Intraday,Continuous,NL,ID3,QH,2021-05-27T22:15:00+02:00,2021-05-27T22:30:00+02:00,85.16,EUR,10.900,MWh
Power,Intraday,Continuous,NL,ID3,QH,2021-05-27T22:30:00+02:00,2021-05-27T22:45:00+02:00,81.33,EUR,26.650,MWh
Power,Intraday,Continuous,NL,ID3,QH,2021-05-27T22:45:00+02:00,2021-05-27T23:00:00+02:00,75.49,EUR,28.800,MWh
Power,Intraday,Continuous,NL,ID3,QH,2021-05-27T23:00:00+02:00,2021-05-27T23:15:00+02:00,89.50,EUR,43.700,MWh
Power,Intraday,Continuous,NL,ID3,QH,2021-05-27T23:15:00+02:00,2021-05-27T23:30:00+02:00,85.82,EUR,22.600,MWh
Power,Intraday,Continuous,NL,ID3,QH,2021-05-27T23:30:00+02:00,2021-05-27T23:45:00+02:00,79.57,EUR,25.500,MWh
Power,Intraday,Continuous,NL,ID3,QH,2021-05-27T23:45:00+02:00,2021-05-28T00:00:00+02:00,60.17,EUR,25.900,MWh
Power,Intraday,Continuous,NL,IDFULL,BASE,2021-05-27T00:00:00+02:00,2021-05-28T00:00:00+02:00,71.42,EUR,23693.400,MWh
Power,Intraday,Continuous,NL,IDFULL,PEAK,2021-05-27T08:00:00+02:00,2021-05-27T20:00:00+02:00,75.14,EUR,16551.400,MWh
