Commodity,NominationModality,TradingModality,MarketArea,IndexName,TimeResolution,DeliveryStart,DeliveryEnd,IndexPrice,Currency,Volume,VolumeUnit
Power,Intraday,Continuous,NL,IDFULL,H,2021-11-20T00:00:00+01:00,2021-11-20T01:00:00+01:00,138.89,EUR,107.400,MWh
Power,Intraday,Continuous,NL,IDFULL,H,2021-11-20T01:00:00+01:00,2021-11-20T02:00:00+01:00,154.41,EUR,103.300,MWh
Power,Intraday,Continuous,NL,IDFULL,H,2021-11-20T02:00:00+01:00,2021-11-20T03:00:00+01:00,154.17,EUR,191.100,MWh
Power,Intraday,Continuous,NL,IDFULL,H,2021-11-20T03:00:00+01:00,2021-11-20T04:00:00+01:00,169.04,EUR,135.000,MWh
Power,Intraday,Continuous,NL,IDFULL,H,2021-11-20T04:00:00+01:00,2021-11-20T05:00:00+01:00,155.84,EUR,102.500,MWh
Power,Intraday,Continuous,NL,IDFULL,H,2021-11-20T05:00:00+01:00,2021-11-20T06:00:00+01:00,118.35,EUR,181.000,MWh
Power,Intraday,Continuous,NL,IDFULL,H,2021-11-20T06:00:00+01:00,2021-11-20T07:00:00+01:00,122.81,EUR,229.500,MWh
Power,Intraday,Continuous,NL,IDFULL,H,2021-11-20T07:00:00+01:00,2021-11-20T08:00:00+01:00,152.31,EUR,507.500,MWh
Power,Intraday,Continuous,NL,IDFULL,H,2021-11-20T08:00:00+01:00,2021-11-20T09:00:00+01:00,153.42,EUR,427.900,MWh
Power,Intraday,Continuous,NL,IDFULL,H,2021-11-20T09:00:00+01:00,2021-11-20T10:00:00+01:00,181.99,EUR,489.300,MWh
Power,Intraday,Continuous,NL,IDFULL,H,2021-11-20T10:00:00+01:00,2021-11-20T11:00:00+01:00,182.92,EUR,535.700,MWh
Power,Intraday,Continuous,NL,IDFULL,H,2021-11-20T11:00:00+01:00,2021-11-20T12:00:00+01:00,212.99,EUR,656.400,MWh
Power,Intraday,Continuous,NL,IDFULL,H,2021-11-20T12:00:00+01:00,2021-11-20T13:00:00+01:00,239.95,EUR,585.100,MWh
Power,Intraday,Continuous,NL,IDFULL,H,2021-11-20T13:00:00+01:00,2021-11-20T14:00:00+01:00,223.37,EUR,867.000,MWh
Power,Intraday,Continuous,NL,IDFULL,H,2021-11-20T14:00:00+01:00,2021-11-20T15:00:00+01:00,210.22,EUR,821.900,MWh
Power,Intraday,Continuous,NL,IDFULL,H,2021-11-20T15:00:00+01:00,2021-11-20T16:00:00+01:00,218.12,EUR,701.700,MWh
Power,Intraday,Continuous,NL,IDFULL,H,2021-11-20T16:00:00+01:00,2021-11-20T17:00:00+01:00,227.40,EUR,589.100,MWh
Power,Intraday,Continuous,NL,IDFULL,H,2021-11-20T17:00:00+01:00,2021-11-20T18:00:00+01:00,225.90,EUR,386.800,MWh
Power,Intraday,Continuous,NL,IDFULL,H,2021-11-20T18:00:00+01:00,2021-11-20T19:00:00+01:00,177.57,EUR,326.400,MWh
Power,Intraday,Continuous,NL,IDFULL,H,2021-11-20T19:00:00+01:00,2021-11-20T20:00:00+01:00,177.97,EUR,158.900,MWh
Power,Intraday,Continuous,NL,IDFULL,H,2021-11-20T20:00:00+01:00,2021-11-20T21:00:00+01:00,130.93,EUR,428.000,MWh
Power,Intraday,Continuous,NL,IDFULL,H,2021-11-20T21:00:00+01:00,2021-11-20T22:00:00+01:00,127.86,EUR,283.500,MWh
Power,Intraday,Continuous,NL,IDFULL,H,2021-11-20T22:00:00+01:00,2021-11-20T23:00:00+01:00,160.37,EUR,510.600,MWh
Power,Intraday,Continuous,NL,IDFULL,H,2021-11-20T23:00:00+01:00,2021-11-21T00:00:00+01:00,137.29,EUR,149.300,MWh
Power,Intraday,Continuous,NL,ID1,H,2021-11-20T00:00:00+01:00,2021-11-20T01:00:00+01:00,136.56,EUR,54.700,MWh
Power,Intraday,Continuous,NL,ID1,H,2021-11-20T01:00:00+01:00,2021-11-20T02:00:00+01:00,142.36,EUR,26.500,MWh
Power,Intraday,Continuous,NL,ID1,H,2021-11-20T02:00:00+01:00,2021-11-20T03:00:00+01:00,139.27,EUR,65.200,MWh
Power,Intraday,Continuous,NL,ID1,H,2021-11-20T03:00:00+01:00,2021-11-20T04:00:00+01:00,137.60,EUR,30.000,MWh
Power,Intraday,Continuous,NL,ID1,H,2021-11-20T04:00:00+01:00,2021-11-20T05:00:00+01:00,156.51,EUR,,MWh
Power,Intraday,Continuous,NL,ID1,H,2021-11-20T05:00:00+01:00,2021-11-20T06:00:00+01:00,142.08,EUR,,MWh
Power,Intraday,Continuous,NL,ID1,H,2021-11-20T06:00:00+01:00,2021-11-20T07:00:00+01:00,140.52,EUR,,MWh
Power,Intraday,Continuous,NL,ID1,H,2021-11-20T07:00:00+01:00,2021-11-20T08:00:00+01:00,169.28,EUR,,MWh
Power,Intraday,Continuous,NL,ID1,H,2021-11-20T08:00:00+01:00,2021-11-20T09:00:00+01:00,166.22,EUR,,MWh
Power,Intraday,Continuous,NL,ID1,H,2021-11-20T09:00:00+01:00,2021-11-20T10:00:00+01:00,194.90,EUR,93.900,MWh
Power,Intraday,Continuous,NL,ID1,H,2021-11-20T10:00:00+01:00,2021-11-20T11:00:00+01:00,250.18,EUR,97.500,MWh
Power,Intraday,Continuous,NL,ID1,H,2021-11-20T11:00:00+01:00,2021-11-20T12:00:00+01:00,242.29,EUR,89.200,MWh
Power,Intraday,Continuous,NL,ID1,H,2021-11-20T12:00:00+01:00,2021-11-20T13:00:00+01:00,291.30,EUR,40.800,MWh
Power,Intraday,Continuous,NL,ID1,H,2021-11-20T13:00:00+01:00,2021-11-20T14:00:00+01:00,228.15,EUR,,MWh
Power,Intraday,Continuous,NL,ID1,H,2021-11-20T14:00:00+01:00,2021-11-20T15:00:00+01:00,222.99,EUR,59.900,MWh
Power,Intraday,Continuous,NL,ID1,H,2021-11-20T15:00:00+01:00,2021-11-20T16:00:00+01:00,245.37,EUR,48.800,MWh
Power,Intraday,Continuous,NL,ID1,H,2021-11-20T16:00:00+01:00,2021-11-20T17:00:00+01:00,234.00,EUR,,MWh
Power,Intraday,Continuous,NL,ID1,H,2021-11-20T17:00:00+01:00,2021-11-20T18:00:00+01:00,205.57,EUR,37.400,MWh
Power,Intraday,Continuous,NL,ID1,H,2021-11-20T18:00:00+01:00,2021-11-20T19:00:00+01:00,158.91,EUR,136.800,MWh
Power,Intraday,Continuous,NL,ID1,H,2021-11-20T19:00:00+01:00,2021-11-20T20:00:00+01:00,161.78,EUR,,MWh
Power,Intraday,Continuous,NL,ID1,H,2021-11-20T20:00:00+01:00,2021-11-20T21:00:00+01:00,126.28,EUR,10.000,MWh
Power,Intraday,Continuous,NL,ID1,H,2021-11-20T21:00:00+01:00,2021-11-20T22:00:00+01:00,145.63,EUR,,MWh
Power,Intraday,Continuous,NL,ID1,H,2021-11-20T22:00:00+01:00,2021-11-20T23:00:00+01:00,260.40,EUR,33.000,MWh
Power,Intraday,Continuous,NL,ID1,H,2021-11-20T23:00:00+01:00,2021-11-21T00:00:00+01:00,140.66,EUR,,MWh
Power,Intraday,Continuous,NL,ID3,H,2021-11-20T00:00:00+01:00,2021-11-20T01:00:00+01:00,138.94,EUR,107.300,MWh
Power,Intraday,Continuous,NL,ID3,H,2021-11-20T01:00:00+01:00,2021-11-20T02:00:00+01:00,154.44,EUR,103.200,MWh
Power,Intraday,Continuous,NL,ID3,H,2021-11-20T02:00:00+01:00,2021-11-20T03:00:00+01:00,152.53,EUR,179.600,MWh
Power,Intraday,Continuous,NL,ID3,H,2021-11-20T03:00:00+01:00,2021-11-20T04:00:00+01:00,168.06,EUR,123.500,MWh
Power,Intraday,Continuous,NL,ID3,H,2021-11-20T04:00:00+01:00,2021-11-20T05:00:00+01:00,156.51,EUR,85.400,MWh
Power,Intraday,Continuous,NL,ID3,H,2021-11-20T05:00:00+01:00,2021-11-20T06:00:00+01:00,142.08,EUR,25.700,MWh
Power,Intraday,Continuous,NL,ID3,H,2021-11-20T06:00:00+01:00,2021-11-20T07:00:00+01:00,140.52,EUR,72.400,MWh
Power,Intraday,Continuous,NL,ID3,H,2021-11-20T07:00:00+01:00,2021-11-20T08:00:00+01:00,169.28,EUR,268.600,MWh
Power,Intraday,Continuous,NL,ID3,H,2021-11-20T08:00:00+01:00,2021-11-20T09:00:00+01:00,166.22,EUR,148.800,MWh
Power,Intraday,Continuous,NL,ID3,H,2021-11-20T09:00:00+01:00,2021-11-20T10:00:00+01:00,179.91,EUR,355.200,MWh
Power,Intraday,Continuous,NL,ID3,H,2021-11-20T10:00:00+01:00,2021-11-20T11:00:00+01:00,188.46,EUR,415.000,MWh
Power,Intraday,Continuous,NL,ID3,H,2021-11-20T11:00:00+01:00,2021-11-20T12:00:00+01:00,226.09,EUR,494.400,MWh
Power,Intraday,Continuous,NL,ID3,H,2021-11-20T12:00:00+01:00,2021-11-20T13:00:00+01:00,252.58,EUR,486.900,MWh
Power,Intraday,Continuous,NL,ID3,H,2021-11-20T13:00:00+01:00,2021-11-20T14:00:00+01:00,228.15,EUR,744.800,MWh
Power,Intraday,Continuous,NL,ID3,H,2021-11-20T14:00:00+01:00,2021-11-20T15:00:00+01:00,216.32,EUR,611.400,MWh
Power,Intraday,Continuous,NL,ID3,H,2021-11-20T15:00:00+01:00,2021-11-20T16:00:00+01:00,215.24,EUR,458.900,MWh
Power,Intraday,Continuous,NL,ID3,H,2021-11-20T16:00:00+01:00,2021-11-20T17:00:00+01:00,234.00,EUR,448.500,MWh
Power,Intraday,Continuous,NL,ID3,H,2021-11-20T17:00:00+01:00,2021-11-20T18:00:00+01:00,229.55,EUR,190.800,MWh
Power,Intraday,Continuous,NL,ID3,H,2021-11-20T18:00:00+01:00,2021-11-20T19:00:00+01:00,176.90,EUR,254.300,MWh
Power,Intraday,Continuous,NL,ID3,H,2021-11-20T19:00:00+01:00,2021-11-20T20:00:00+01:00,161.78,EUR,107.500,MWh
Power,Intraday,Continuous,NL,ID3,H,2021-11-20T20:00:00+01:00,2021-11-20T21:00:00+01:00,139.21,EUR,275.800,MWh
Power,Intraday,Continuous,NL,ID3,H,2021-11-20T21:00:00+01:00,2021-11-20T22:00:00+01:00,145.63,EUR,62.800,MWh
Power,Intraday,Continuous,NL,ID3,H,2021-11-20T22:00:00+01:00,2021-11-20T23:00:00+01:00,184.08,EUR,192.200,MWh
Power,Intraday,Continuous,NL,ID3,H,2021-11-20T23:00:00+01:00,2021-11-21T00:00:00+01:00,140.66,EUR,130.600,MWh
Power,Intraday,Continuous,NL,IDFULL,HH,2021-11-20T00:00:00+01:00,2021-11-20T00:30:00+01:00,138.89,EUR,,MWh
Power,Intraday,Continuous,NL,IDFULL,HH,2021-11-20T00:30:00+01:00,2021-11-20T01:00:00+01:00,138.89,EUR,,MWh
Power,Intraday,Continuous,NL,IDFULL,HH,2021-11-20T01:00:00+01:00,2021-11-20T01:30:00+01:00,154.41,EUR,,MWh
Power,Intraday,Continuous,NL,IDFULL,HH,2021-11-20T01:30:00+01:00,2021-11-20T02:00:00+01:00,154.41,EUR,,MWh
Power,Intraday,Continuous,NL,IDFULL,HH,2021-11-20T02:00:00+01:00,2021-11-20T02:30:00+01:00,154.17,EUR,,MWh
Power,Intraday,Continuous,NL,IDFULL,HH,2021-11-20T02:30:00+01:00,2021-11-20T03:00:00+01:00,154.17,EUR,,MWh
Power,Intraday,Continuous,NL,IDFULL,HH,2021-11-20T03:00:00+01:00,2021-11-20T03:30:00+01:00,169.04,EUR,,MWh
Power,Intraday,Continuous,NL,IDFULL,HH,2021-11-20T03:30:00+01:00,2021-11-20T04:00:00+01:00,169.04,EUR,,MWh
Power,Intraday,Continuous,NL,IDFULL,HH,2021-11-20T04:00:00+01:00,2021-11-20T04:30:00+01:00,155.84,EUR,,MWh
Power,Intraday,Continuous,NL,IDFULL,HH,2021-11-20T04:30:00+01:00,2021-11-20T05:00:00+01:00,155.84,EUR,,MWh
Power,Intraday,Continuous,NL,IDFULL,HH,2021-11-20T05:00:00+01:00,2021-11-20T05:30:00+01:00,118.35,EUR,,MWh
Power,Intraday,Continuous,NL,IDFULL,HH,2021-11-20T05:30:00+01:00,2021-11-20T06:00:00+01:00,118.35,EUR,,MWh
Power,Intraday,Continuous,NL,IDFULL,HH,2021-11-20T06:00:00+01:00,2021-11-20T06:30:00+01:00,122.81,EUR,,MWh
Power,Intraday,Continuous,NL,IDFULL,HH,2021-11-20T06:30:00+01:00,2021-11-20T07:00:00+01:00,122.81,EUR,,MWh
Power,Intraday,Continuous,NL,IDFULL,HH,2021-11-20T07:00:00+01:00,2021-11-20T07:30:00+01:00,152.31,EUR,,MWh
Power,Intraday,Continuous,NL,IDFULL,HH,2021-11-20T07:30:00+01:00,2021-11-20T08:00:00+01:00,152.31,EUR,,MWh
Power,Intraday,Continuous,NL,IDFULL,HH,2021-11-20T08:00:00+01:00,2021-11-20T08:30:00+01:00,153.42,EUR,,MWh
Power,Intraday,Continuous,NL,IDFULL,HH,2021-11-20T08:30:00+01:00,2021-11-20T09:00:00+01:00,153.42,EUR,,MWh
Power,Intraday,Continuous,NL,IDFULL,HH,2021-11-20T09:00:00+01:00,2021-11-20T09:30:00+01:00,181.99,EUR,,MWh
Power,Intraday,Continuous,NL,IDFULL,HH,2021-11-20T09:30:00+01:00,2021-11-20T10:00:00+01:00,181.99,EUR,,MWh
Power,Intraday,Continuous,NL,IDFULL,HH,2021-11-20T10:00:00+01:00,2021-11-20T10:30:00+01:00,182.92,EUR,,MWh
Power,Intraday,Continuous,NL,IDFULL,HH,2021-11-20T10:30:00+01:00,2021-11-20T11:00:00+01:00,182.92,EUR,,MWh
Power,Intraday,Continuous,NL,IDFULL,HH,2021-11-20T11:00:00+01:00,2021-11-20T11:30:00+01:00,212.99,EUR,,MWh
Power,Intraday,Continuous,NL,IDFULL,HH,2021-11-20T11:30:00+01:00,2021-11-20T12:00:00+01:00,212.99,EUR,,MWh
Power,Intraday,Continuous,NL,IDFULL,HH,2021-11-20T12:00:00+01:00,2021-11-20T12:30:00+01:00,239.95,EUR,,MWh
Power,Intraday,Continuous,NL,IDFULL,HH,2021-11-20T12:30:00+01:00,2021-11-20T13:00:00+01:00,239.95,EUR,,MWh
Power,Intraday,Continuous,NL,IDFULL,HH,2021-11-20T13:00:00+01:00,2021-11-20T13:30:00+01:00,223.37,EUR,,MWh
Power,Intraday,Continuous,NL,IDFULL,HH,2021-11-20T13:30:00+01:00,2021-11-20T14:00:00+01:00,223.37,EUR,,MWh
Power,Intraday,Continuous,NL,IDFULL,HH,2021-11-20T14:00:00+01:00,2021-11-20T14:30:00+01:00,210.22,EUR,,MWh
Power,Intraday,Continuous,NL,IDFULL,HH,2021-11-20T14:30:00+01:00,2021-11-20T15:00:00+01:00,210.22,EUR,,MWh
Power,Intraday,Continuous,NL,IDFULL,HH,2021-11-20T15:00:00+01:00,2021-11-20T15:30:00+01:00,218.12,EUR,,MWh
Power,Intraday,Continuous,NL,IDFULL,HH,2021-11-20T15:30:00+01:00,2021-11-20T16:00:00+01:00,218.12,EUR,,MWh
Power,Intraday,Continuous,NL,IDFULL,HH,2021-11-20T16:00:00+01:00,2021-11-20T16:30:00+01:00,227.40,EUR,,MWh
Power,Intraday,Continuous,NL,IDFULL,HH,2021-11-20T16:30:00+01:00,2021-11-20T17:00:00+01:00,227.40,EUR,,MWh
Power,Intraday,Continuous,NL,IDFULL,HH,2021-11-20T17:00:00+01:00,2021-11-20T17:30:00+01:00,225.90,EUR,,MWh
Power,Intraday,Continuous,NL,IDFULL,HH,2021-11-20T17:30:00+01:00,2021-11-20T18:00:00+01:00,225.90,EUR,,MWh
Power,Intraday,Continuous,NL,IDFULL,HH,2021-11-20T18:00:00+01:00,2021-11-20T18:30:00+01:00,177.57,EUR,,MWh
Power,Intraday,Continuous,NL,IDFULL,HH,2021-11-20T18:30:00+01:00,2021-11-20T19:00:00+01:00,177.57,EUR,,MWh
Power,Intraday,Continuous,NL,IDFULL,HH,2021-11-20T19:00:00+01:00,2021-11-20T19:30:00+01:00,177.97,EUR,,MWh
Power,Intraday,Continuous,NL,IDFULL,HH,2021-11-20T19:30:00+01:00,2021-11-20T20:00:00+01:00,177.97,EUR,,MWh
Power,Intraday,Continuous,NL,IDFULL,HH,2021-11-20T20:00:00+01:00,2021-11-20T20:30:00+01:00,130.93,EUR,,MWh
Power,Intraday,Continuous,NL,IDFULL,HH,2021-11-20T20:30:00+01:00,2021-11-20T21:00:00+01:00,130.93,EUR,,MWh
Power,Intraday,Continuous,NL,IDFULL,HH,2021-11-20T21:00:00+01:00,2021-11-20T21:30:00+01:00,127.86,EUR,,MWh
Power,Intraday,Continuous,NL,IDFULL,HH,2021-11-20T21:30:00+01:00,2021-11-20T22:00:00+01:00,127.86,EUR,,MWh
Power,Intraday,Continuous,NL,IDFULL,HH,2021-11-20T22:00:00+01:00,2021-11-20T22:30:00+01:00,160.37,EUR,,MWh
Power,Intraday,Continuous,NL,IDFULL,HH,2021-11-20T22:30:00+01:00,2021-11-20T23:00:00+01:00,160.37,EUR,,MWh
Power,Intraday,Continuous,NL,IDFULL,HH,2021-11-20T23:00:00+01:00,2021-11-20T23:30:00+01:00,137.29,EUR,,MWh
Power,Intraday,Continuous,NL,IDFULL,HH,2021-11-20T23:30:00+01:00,2021-11-21T00:00:00+01:00,137.29,EUR,,MWh
Power,Intraday,Continuous,NL,ID1,HH,2021-11-20T00:00:00+01:00,2021-11-20T00:30:00+01:00,138.89,EUR,,MWh
Power,Intraday,Continuous,NL,ID1,HH,2021-11-20T00:30:00+01:00,2021-11-20T01:00:00+01:00,138.89,EUR,,MWh
Power,Intraday,Continuous,NL,ID1,HH,2021-11-20T01:00:00+01:00,2021-11-20T01:30:00+01:00,154.41,EUR,,MWh
Power,Intraday,Continuous,NL,ID1,HH,2021-11-20T01:30:00+01:00,2021-11-20T02:00:00+01:00,154.41,EUR,,MWh
Power,Intraday,Continuous,NL,ID1,HH,2021-11-20T02:00:00+01:00,2021-11-20T02:30:00+01:00,154.17,EUR,,MWh
Power,Intraday,Continuous,NL,ID1,HH,2021-11-20T02:30:00+01:00,2021-11-20T03:00:00+01:00,154.17,EUR,,MWh
Power,Intraday,Continuous,NL,ID1,HH,2021-11-20T03:00:00+01:00,2021-11-20T03:30:00+01:00,169.04,EUR,,MWh
Power,Intraday,Continuous,NL,ID1,HH,2021-11-20T03:30:00+01:00,2021-11-20T04:00:00+01:00,169.04,EUR,,MWh
Power,Intraday,Continuous,NL,ID1,HH,2021-11-20T04:00:00+01:00,2021-11-20T04:30:00+01:00,155.84,EUR,,MWh
Power,Intraday,Continuous,NL,ID1,HH,2021-11-20T04:30:00+01:00,2021-11-20T05:00:00+01:00,155.84,EUR,,MWh
Power,Intraday,Continuous,NL,ID1,HH,2021-11-20T05:00:00+01:00,2021-11-20T05:30:00+01:00,118.35,EUR,,MWh
Power,Intraday,Continuous,NL,ID1,HH,2021-11-20T05:30:00+01:00,2021-11-20T06:00:00+01:00,118.35,EUR,,MWh
Power,Intraday,Continuous,NL,ID1,HH,2021-11-20T06:00:00+01:00,2021-11-20T06:30:00+01:00,122.81,EUR,,MWh
Power,Intraday,Continuous,NL,ID1,HH,2021-11-20T06:30:00+01:00,2021-11-20T07:00:00+01:00,122.81,EUR,,MWh
Power,Intraday,Continuous,NL,ID1,HH,2021-11-20T07:00:00+01:00,2021-11-20T07:30:00+01:00,152.31,EUR,,MWh
Power,Intraday,Continuous,NL,ID1,HH,2021-11-20T07:30:00+01:00,2021-11-20T08:00:00+01:00,152.31,EUR,,MWh
Power,Intraday,Continuous,NL,ID1,HH,2021-11-20T08:00:00+01:00,2021-11-20T08:30:00+01:00,153.42,EUR,,MWh
Power,Intraday,Continuous,NL,ID1,HH,2021-11-20T08:30:00+01:00,2021-11-20T09:00:00+01:00,153.42,EUR,,MWh
Power,Intraday,Continuous,NL,ID1,HH,2021-11-20T09:00:00+01:00,2021-11-20T09:30:00+01:00,181.99,EUR,,MWh
Power,Intraday,Continuous,NL,ID1,HH,2021-11-20T09:30:00+01:00,2021-11-20T10:00:00+01:00,181.99,EUR,,MWh
Power,Intraday,Continuous,NL,ID1,HH,2021-11-20T10:00:00+01:00,2021-11-20T10:30:00+01:00,182.92,EUR,,MWh
Power,Intraday,Continuous,NL,ID1,HH,2021-11-20T10:30:00+01:00,2021-11-20T11:00:00+01:00,182.92,EUR,,MWh
Power,Intraday,Continuous,NL,ID1,HH,2021-11-20T11:00:00+01:00,2021-11-20T11:30:00+01:00,212.99,EUR,,MWh
Power,Intraday,Continuous,NL,ID1,HH,2021-11-20T11:30:00+01:00,2021-11-20T12:00:00+01:00,212.99,EUR,,MWh
Power,Intraday,Continuous,NL,ID1,HH,2021-11-20T12:00:00+01:00,2021-11-20T12:30:00+01:00,239.95,EUR,,MWh
Power,Intraday,Continuous,NL,ID1,HH,2021-11-20T12:30:00+01:00,2021-11-20T13:00:00+01:00,239.95,EUR,,MWh
Power,Intraday,Continuous,NL,ID1,HH,2021-11-20T13:00:00+01:00,2021-11-20T13:30:00+01:00,223.37,EUR,,MWh
Power,Intraday,Continuous,NL,ID1,HH,2021-11-20T13:30:00+01:00,2021-11-20T14:00:00+01:00,223.37,EUR,,MWh
Power,Intraday,Continuous,NL,ID1,HH,2021-11-20T14:00:00+01:00,2021-11-20T14:30:00+01:00,210.22,EUR,,MWh
Power,Intraday,Continuous,NL,ID1,HH,2021-11-20T14:30:00+01:00,2021-11-20T15:00:00+01:00,210.22,EUR,,MWh
Power,Intraday,Continuous,NL,ID1,HH,2021-11-20T15:00:00+01:00,2021-11-20T15:30:00+01:00,218.12,EUR,,MWh
Power,Intraday,Continuous,NL,ID1,HH,2021-11-20T15:30:00+01:00,2021-11-20T16:00:00+01:00,218.12,EUR,,MWh
Power,Intraday,Continuous,NL,ID1,HH,2021-11-20T16:00:00+01:00,2021-11-20T16:30:00+01:00,227.40,EUR,,MWh
Power,Intraday,Continuous,NL,ID1,HH,2021-11-20T16:30:00+01:00,2021-11-20T17:00:00+01:00,227.40,EUR,,MWh
Power,Intraday,Continuous,NL,ID1,HH,2021-11-20T17:00:00+01:00,2021-11-20T17:30:00+01:00,225.90,EUR,,MWh
Power,Intraday,Continuous,NL,ID1,HH,2021-11-20T17:30:00+01:00,2021-11-20T18:00:00+01:00,225.90,EUR,,MWh
Power,Intraday,Continuous,NL,ID1,HH,2021-11-20T18:00:00+01:00,2021-11-20T18:30:00+01:00,177.57,EUR,,MWh
Power,Intraday,Continuous,NL,ID1,HH,2021-11-20T18:30:00+01:00,2021-11-20T19:00:00+01:00,177.57,EUR,,MWh
Power,Intraday,Continuous,NL,ID1,HH,2021-11-20T19:00:00+01:00,2021-11-20T19:30:00+01:00,177.97,EUR,,MWh
Power,Intraday,Continuous,NL,ID1,HH,2021-11-20T19:30:00+01:00,2021-11-20T20:00:00+01:00,177.97,EUR,,MWh
Power,Intraday,Continuous,NL,ID1,HH,2021-11-20T20:00:00+01:00,2021-11-20T20:30:00+01:00,130.93,EUR,,MWh
Power,Intraday,Continuous,NL,ID1,HH,2021-11-20T20:30:00+01:00,2021-11-20T21:00:00+01:00,130.93,EUR,,MWh
Power,Intraday,Continuous,NL,ID1,HH,2021-11-20T21:00:00+01:00,2021-11-20T21:30:00+01:00,127.86,EUR,,MWh
Power,Intraday,Continuous,NL,ID1,HH,2021-11-20T21:30:00+01:00,2021-11-20T22:00:00+01:00,127.86,EUR,,MWh
Power,Intraday,Continuous,NL,ID1,HH,2021-11-20T22:00:00+01:00,2021-11-20T22:30:00+01:00,160.37,EUR,,MWh
Power,Intraday,Continuous,NL,ID1,HH,2021-11-20T22:30:00+01:00,2021-11-20T23:00:00+01:00,160.37,EUR,,MWh
Power,Intraday,Continuous,NL,ID1,HH,2021-11-20T23:00:00+01:00,2021-11-20T23:30:00+01:00,137.29,EUR,,MWh
Power,Intraday,Continuous,NL,ID1,HH,2021-11-20T23:30:00+01:00,2021-11-21T00:00:00+01:00,137.29,EUR,,MWh
Power,Intraday,Continuous,NL,ID3,HH,2021-11-20T00:00:00+01:00,2021-11-20T00:30:00+01:00,138.89,EUR,,MWh
Power,Intraday,Continuous,NL,ID3,HH,2021-11-20T00:30:00+01:00,2021-11-20T01:00:00+01:00,138.89,EUR,,MWh
Power,Intraday,Continuous,NL,ID3,HH,2021-11-20T01:00:00+01:00,2021-11-20T01:30:00+01:00,154.41,EUR,,MWh
Power,Intraday,Continuous,NL,ID3,HH,2021-11-20T01:30:00+01:00,2021-11-20T02:00:00+01:00,154.41,EUR,,MWh
Power,Intraday,Continuous,NL,ID3,HH,2021-11-20T02:00:00+01:00,2021-11-20T02:30:00+01:00,154.17,EUR,,MWh
Power,Intraday,Continuous,NL,ID3,HH,2021-11-20T02:30:00+01:00,2021-11-20T03:00:00+01:00,154.17,EUR,,MWh
Power,Intraday,Continuous,NL,ID3,HH,2021-11-20T03:00:00+01:00,2021-11-20T03:30:00+01:00,169.04,EUR,,MWh
Power,Intraday,Continuous,NL,ID3,HH,2021-11-20T03:30:00+01:00,2021-11-20T04:00:00+01:00,169.04,EUR,,MWh
Power,Intraday,Continuous,NL,ID3,HH,2021-11-20T04:00:00+01:00,2021-11-20T04:30:00+01:00,155.84,EUR,,MWh
Power,Intraday,Continuous,NL,ID3,HH,2021-11-20T04:30:00+01:00,2021-11-20T05:00:00+01:00,155.84,EUR,,MWh
Power,Intraday,Continuous,NL,ID3,HH,2021-11-20T05:00:00+01:00,2021-11-20T05:30:00+01:00,118.35,EUR,,MWh
Power,Intraday,Continuous,NL,ID3,HH,2021-11-20T05:30:00+01:00,2021-11-20T06:00:00+01:00,118.35,EUR,,MWh
Power,Intraday,Continuous,NL,ID3,HH,2021-11-20T06:00:00+01:00,2021-11-20T06:30:00+01:00,122.81,EUR,,MWh
Power,Intraday,Continuous,NL,ID3,HH,2021-11-20T06:30:00+01:00,2021-11-20T07:00:00+01:00,122.81,EUR,,MWh
Power,Intraday,Continuous,NL,ID3,HH,2021-11-20T07:00:00+01:00,2021-11-20T07:30:00+01:00,152.31,EUR,,MWh
Power,Intraday,Continuous,NL,ID3,HH,2021-11-20T07:30:00+01:00,2021-11-20T08:00:00+01:00,152.31,EUR,,MWh
Power,Intraday,Continuous,NL,ID3,HH,2021-11-20T08:00:00+01:00,2021-11-20T08:30:00+01:00,153.42,EUR,,MWh
Power,Intraday,Continuous,NL,ID3,HH,2021-11-20T08:30:00+01:00,2021-11-20T09:00:00+01:00,153.42,EUR,,MWh
Power,Intraday,Continuous,NL,ID3,HH,2021-11-20T09:00:00+01:00,2021-11-20T09:30:00+01:00,181.99,EUR,,MWh
Power,Intraday,Continuous,NL,ID3,HH,2021-11-20T09:30:00+01:00,2021-11-20T10:00:00+01:00,181.99,EUR,,MWh
Power,Intraday,Continuous,NL,ID3,HH,2021-11-20T10:00:00+01:00,2021-11-20T10:30:00+01:00,182.92,EUR,,MWh
Power,Intraday,Continuous,NL,ID3,HH,2021-11-20T10:30:00+01:00,2021-11-20T11:00:00+01:00,182.92,EUR,,MWh
Power,Intraday,Continuous,NL,ID3,HH,2021-11-20T11:00:00+01:00,2021-11-20T11:30:00+01:00,212.99,EUR,,MWh
Power,Intraday,Continuous,NL,ID3,HH,2021-11-20T11:30:00+01:00,2021-11-20T12:00:00+01:00,212.99,EUR,,MWh
Power,Intraday,Continuous,NL,ID3,HH,2021-11-20T12:00:00+01:00,2021-11-20T12:30:00+01:00,239.95,EUR,,MWh
Power,Intraday,Continuous,NL,ID3,HH,2021-11-20T12:30:00+01:00,2021-11-20T13:00:00+01:00,239.95,EUR,,MWh
Power,Intraday,Continuous,NL,ID3,HH,2021-11-20T13:00:00+01:00,2021-11-20T13:30:00+01:00,223.37,EUR,,MWh
Power,Intraday,Continuous,NL,ID3,HH,2021-11-20T13:30:00+01:00,2021-11-20T14:00:00+01:00,223.37,EUR,,MWh
Power,Intraday,Continuous,NL,ID3,HH,2021-11-20T14:00:00+01:00,2021-11-20T14:30:00+01:00,210.22,EUR,,MWh
Power,Intraday,Continuous,NL,ID3,HH,2021-11-20T14:30:00+01:00,2021-11-20T15:00:00+01:00,210.22,EUR,,MWh
Power,Intraday,Continuous,NL,ID3,HH,2021-11-20T15:00:00+01:00,2021-11-20T15:30:00+01:00,218.12,EUR,,MWh
Power,Intraday,Continuous,NL,ID3,HH,2021-11-20T15:30:00+01:00,2021-11-20T16:00:00+01:00,218.12,EUR,,MWh
Power,Intraday,Continuous,NL,ID3,HH,2021-11-20T16:00:00+01:00,2021-11-20T16:30:00+01:00,227.40,EUR,,MWh
Power,Intraday,Continuous,NL,ID3,HH,2021-11-20T16:30:00+01:00,2021-11-20T17:00:00+01:00,227.40,EUR,,MWh
Power,Intraday,Continuous,NL,ID3,HH,2021-11-20T17:00:00+01:00,2021-11-20T17:30:00+01:00,225.90,EUR,,MWh
Power,Intraday,Continuous,NL,ID3,HH,2021-11-20T17:30:00+01:00,2021-11-20T18:00:00+01:00,225.90,EUR,,MWh
Power,Intraday,Continuous,NL,ID3,HH,2021-11-20T18:00:00+01:00,2021-11-20T18:30:00+01:00,177.57,EUR,,MWh
Power,Intraday,Continuous,NL,ID3,HH,2021-11-20T18:30:00+01:00,2021-11-20T19:00:00+01:00,177.57,EUR,,MWh
Power,Intraday,Continuous,NL,ID3,HH,2021-11-20T19:00:00+01:00,2021-11-20T19:30:00+01:00,177.97,EUR,,MWh
Power,Intraday,Continuous,NL,ID3,HH,2021-11-20T19:30:00+01:00,2021-11-20T20:00:00+01:00,177.97,EUR,,MWh
Power,Intraday,Continuous,NL,ID3,HH,2021-11-20T20:00:00+01:00,2021-11-20T20:30:00+01:00,130.93,EUR,,MWh
Power,Intraday,Continuous,NL,ID3,HH,2021-11-20T20:30:00+01:00,2021-11-20T21:00:00+01:00,130.93,EUR,,MWh
Power,Intraday,Continuous,NL,ID3,HH,2021-11-20T21:00:00+01:00,2021-11-20T21:30:00+01:00,127.86,EUR,,MWh
Power,Intraday,Continuous,NL,ID3,HH,2021-11-20T21:30:00+01:00,2021-11-20T22:00:00+01:00,127.86,EUR,,MWh
Power,Intraday,Continuous,NL,ID3,HH,2021-11-20T22:00:00+01:00,2021-11-20T22:30:00+01:00,160.37,EUR,,MWh
Power,Intraday,Continuous,NL,ID3,HH,2021-11-20T22:30:00+01:00,2021-11-20T23:00:00+01:00,160.37,EUR,,MWh
Power,Intraday,Continuous,NL,ID3,HH,2021-11-20T23:00:00+01:00,2021-11-20T23:30:00+01:00,137.29,EUR,,MWh
Power,Intraday,Continuous,NL,ID3,HH,2021-11-20T23:30:00+01:00,2021-11-21T00:00:00+01:00,137.29,EUR,,MWh
Power,Intraday,Continuous,NL,IDFULL,QH,2021-11-20T00:00:00+01:00,2021-11-20T00:15:00+01:00,138.89,EUR,,MWh
Power,Intraday,Continuous,NL,IDFULL,QH,2021-11-20T00:15:00+01:00,2021-11-20T00:30:00+01:00,138.89,EUR,,MWh
Power,Intraday,Continuous,NL,IDFULL,QH,2021-11-20T00:30:00+01:00,2021-11-20T00:45:00+01:00,138.89,EUR,,MWh
Power,Intraday,Continuous,NL,IDFULL,QH,2021-11-20T00:45:00+01:00,2021-11-20T01:00:00+01:00,138.89,EUR,,MWh
Power,Intraday,Continuous,NL,IDFULL,QH,2021-11-20T01:00:00+01:00,2021-11-20T01:15:00+01:00,154.41,EUR,,MWh
Power,Intraday,Continuous,NL,IDFULL,QH,2021-11-20T01:15:00+01:00,2021-11-20T01:30:00+01:00,154.41,EUR,,MWh
Power,Intraday,Continuous,NL,IDFULL,QH,2021-11-20T01:30:00+01:00,2021-11-20T01:45:00+01:00,154.41,EUR,,MWh
Power,Intraday,Continuous,NL,IDFULL,QH,2021-11-20T01:45:00+01:00,2021-11-20T02:00:00+01:00,154.41,EUR,,MWh
Power,Intraday,Continuous,NL,IDFULL,QH,2021-11-20T02:00:00+01:00,2021-11-20T02:15:00+01:00,154.17,EUR,,MWh
Power,Intraday,Continuous,NL,IDFULL,QH,2021-11-20T02:15:00+01:00,2021-11-20T02:30:00+01:00,154.17,EUR,,MWh
Power,Intraday,Continuous,NL,IDFULL,QH,2021-11-20T02:30:00+01:00,2021-11-20T02:45:00+01:00,154.17,EUR,,MWh
Power,Intraday,Continuous,NL,IDFULL,QH,2021-11-20T02:45:00+01:00,2021-11-20T03:00:00+01:00,154.17,EUR,,MWh
Power,Intraday,Continuous,NL,IDFULL,QH,2021-11-20T03:00:00+01:00,2021-11-20T03:15:00+01:00,169.04,EUR,,MWh
Power,Intraday,Continuous,NL,IDFULL,QH,2021-11-20T03:15:00+01:00,2021-11-20T03:30:00+01:00,169.04,EUR,,MWh
Power,Intraday,Continuous,NL,IDFULL,QH,2021-11-20T03:30:00+01:00,2021-11-20T03:45:00+01:00,169.04,EUR,,MWh
Power,Intraday,Continuous,NL,IDFULL,QH,2021-11-20T03:45:00+01:00,2021-11-20T04:00:00+01:00,169.04,EUR,,MWh
Power,Intraday,Continuous,NL,IDFULL,QH,2021-11-20T04:00:00+01:00,2021-11-20T04:15:00+01:00,155.84,EUR,,MWh
Power,Intraday,Continuous,NL,IDFULL,QH,2021-11-20T04:15:00+01:00,2021-11-20T04:30:00+01:00,155.84,EUR,,MWh
Power,Intraday,Continuous,NL,IDFULL,QH,2021-11-20T04:30:00+01:00,2021-11-20T04:45:00+01:00,155.84,EUR,,MWh
Power,Intraday,Continuous,NL,IDFULL,QH,2021-11-20T04:45:00+01:00,2021-11-20T05:00:00+01:00,155.84,EUR,,MWh
Power,Intraday,Continuous,NL,IDFULL,QH,2021-11-20T05:00:00+01:00,2021-11-20T05:15:00+01:00,99.60,EUR,2.650,MWh
Power,Intraday,Continuous,NL,IDFULL,QH,2021-11-20T05:15:00+01:00,2021-11-20T05:30:00+01:00,100.91,EUR,4.080,MWh
Power,Intraday,Continuous,NL,IDFULL,QH,2021-11-20T05:30:00+01:00,2021-11-20T05:45:00+01:00,136.45,EUR,,MWh
Power,Intraday,Continuous,NL,IDFULL,QH,2021-11-20T05:45:00+01:00,2021-11-20T06:00:00+01:00,136.45,EUR,,MWh
Power,Intraday,Continuous,NL,IDFULL,QH,2021-11-20T06:00:00+01:00,2021-11-20T06:15:00+01:00,126.48,EUR,7.230,MWh
Power,Intraday,Continuous,NL,IDFULL,QH,2021-11-20T06:15:00+01:00,2021-11-20T06:30:00+01:00,146.04,EUR,8.530,MWh
Power,Intraday,Continuous,NL,IDFULL,QH,2021-11-20T06:30:00+01:00,2021-11-20T06:45:00+01:00,79.53,EUR,,MWh
Power,Intraday,Continuous,NL,IDFULL,QH,2021-11-20T06:45:00+01:00,2021-11-20T07:00:00+01:00,139.19,EUR,4.330,MWh
Power,Intraday,Continuous,NL,IDFULL,QH,2021-11-20T07:00:00+01:00,2021-11-20T07:15:00+01:00,152.31,EUR,,MWh
Power,Intraday,Continuous,NL,IDFULL,QH,2021-11-20T07:15:00+01:00,2021-11-20T07:30:00+01:00,152.31,EUR,,MWh
Power,Intraday,Continuous,NL,IDFULL,QH,2021-11-20T07:30:00+01:00,2021-11-20T07:45:00+01:00,152.31,EUR,,MWh
Power,Intraday,Continuous,NL,IDFULL,QH,2021-11-20T07:45:00+01:00,2021-11-20T08:00:00+01:00,152.31,EUR,,MWh
Power,Intraday,Continuous,NL,IDFULL,QH,2021-11-20T08:00:00+01:00,2021-11-20T08:15:00+01:00,166.86,EUR,14.880,MWh
Power,Intraday,Continuous,NL,IDFULL,QH,2021-11-20T08:15:00+01:00,2021-11-20T08:30:00+01:00,113.12,EUR,15.050,MWh
Power,Intraday,Continuous,NL,IDFULL,QH,2021-11-20T08:30:00+01:00,2021-11-20T08:45:00+01:00,168.53,EUR,24.480,MWh
Power,Intraday,Continuous,NL,IDFULL,QH,2021-11-20T08:45:00+01:00,2021-11-20T09:00:00+01:00,157.88,EUR,8.530,MWh
Power,Intraday,Continuous,NL,IDFULL,QH,2021-11-20T09:00:00+01:00,2021-11-20T09:15:00+01:00,171.62,EUR,26.750,MWh
Power,Intraday,Continuous,NL,IDFULL,QH,2021-11-20T09:15:00+01:00,2021-11-20T09:30:00+01:00,169.91,EUR,31.350,MWh
Power,Intraday,Continuous,NL,IDFULL,QH,2021-11-20T09:30:00+01:00,2021-11-20T09:45:00+01:00,157.87,EUR,39.850,MWh
Power,Intraday,Continuous,NL,IDFULL,QH,2021-11-20T09:45:00+01:00,2021-11-20T10:00:00+01:00,138.13,EUR,32.830,MWh
Power,Intraday,Continuous,NL,IDFULL,QH,2021-11-20T10:00:00+01:00,2021-11-20T10:15:00+01:00,166.42,EUR,7.100,MWh
Power,Intraday,Continuous,NL,IDFULL,QH,2021-11-20T10:15:00+01:00,2021-11-20T10:30:00+01:00,162.21,EUR,7.030,MWh
Power,Intraday,Continuous,NL,IDFULL,QH,2021-11-20T10:30:00+01:00,2021-11-20T10:45:00+01:00,163.30,EUR,13.050,MWh
Power,Intraday,Continuous,NL,IDFULL,QH,2021-11-20T10:45:00+01:00,2021-11-20T11:00:00+01:00,187.39,EUR,17.150,MWh
Power,Intraday,Continuous,NL,IDFULL,QH,2021-11-20T11:00:00+01:00,2021-11-20T11:15:00+01:00,190.99,EUR,,MWh
Power,Intraday,Continuous,NL,IDFULL,QH,2021-11-20T11:15:00+01:00,2021-11-20T11:30:00+01:00,190.99,EUR,,MWh
Power,Intraday,Continuous,NL,IDFULL,QH,2021-11-20T11:30:00+01:00,2021-11-20T11:45:00+01:00,190.99,EUR,,MWh
Power,Intraday,Continuous,NL,IDFULL,QH,2021-11-20T11:45:00+01:00,2021-11-20T12:00:00+01:00,279.00,EUR,5.000,MWh
Power,Intraday,Continuous,NL,IDFULL,QH,2021-11-20T12:00:00+01:00,2021-11-20T12:15:00+01:00,239.95,EUR,,MWh
Power,Intraday,Continuous,NL,IDFULL,QH,2021-11-20T12:15:00+01:00,2021-11-20T12:30:00+01:00,239.95,EUR,,MWh
Power,Intraday,Continuous,NL,IDFULL,QH,2021-11-20T12:30:00+01:00,2021-11-20T12:45:00+01:00,239.95,EUR,,MWh
Power,Intraday,Continuous,NL,IDFULL,QH,2021-11-20T12:45:00+01:00,2021-11-20T13:00:00+01:00,239.95,EUR,,MWh
Power,Intraday,Continuous,NL,IDFULL,QH,2021-11-20T13:00:00+01:00,2021-11-20T13:15:00+01:00,223.37,EUR,,MWh
Power,Intraday,Continuous,NL,IDFULL,QH,2021-11-20T13:15:00+01:00,2021-11-20T13:30:00+01:00,223.37,EUR,,MWh
Power,Intraday,Continuous,NL,IDFULL,QH,2021-11-20T13:30:00+01:00,2021-11-20T13:45:00+01:00,223.37,EUR,,MWh
Power,Intraday,Continuous,NL,IDFULL,QH,2021-11-20T13:45:00+01:00,2021-11-20T14:00:00+01:00,223.37,EUR,,MWh
Power,Intraday,Continuous,NL,IDFULL,QH,2021-11-20T14:00:00+01:00,2021-11-20T14:15:00+01:00,210.22,EUR,,MWh
Power,Intraday,Continuous,NL,IDFULL,QH,2021-11-20T14:15:00+01:00,2021-11-20T14:30:00+01:00,210.22,EUR,,MWh
Power,Intraday,Continuous,NL,IDFULL,QH,2021-11-20T14:30:00+01:00,2021-11-20T14:45:00+01:00,210.22,EUR,,MWh
Power,Intraday,Continuous,NL,IDFULL,QH,2021-11-20T14:45:00+01:00,2021-11-20T15:00:00+01:00,210.22,EUR,,MWh
Power,Intraday,Continuous,NL,IDFULL,QH,2021-11-20T15:00:00+01:00,2021-11-20T15:15:00+01:00,218.12,EUR,,MWh
Power,Intraday,Continuous,NL,IDFULL,QH,2021-11-20T15:15:00+01:00,2021-11-20T15:30:00+01:00,218.12,EUR,,MWh
Power,Intraday,Continuous,NL,IDFULL,QH,2021-11-20T15:30:00+01:00,2021-11-20T15:45:00+01:00,218.12,EUR,,MWh
Power,Intraday,Continuous,NL,IDFULL,QH,2021-11-20T15:45:00+01:00,2021-11-20T16:00:00+01:00,218.12,EUR,,MWh
Power,Intraday,Continuous,NL,IDFULL,QH,2021-11-20T16:00:00+01:00,2021-11-20T16:15:00+01:00,266.31,EUR,5.030,MWh
Power,Intraday,Continuous,NL,IDFULL,QH,2021-11-20T16:15:00+01:00,2021-11-20T16:30:00+01:00,214.43,EUR,,MWh
Power,Intraday,Continuous,NL,IDFULL,QH,2021-11-20T16:30:00+01:00,2021-11-20T16:45:00+01:00,214.43,EUR,,MWh
Power,Intraday,Continuous,NL,IDFULL,QH,2021-11-20T16:45:00+01:00,2021-11-20T17:00:00+01:00,214.43,EUR,,MWh
Power,Intraday,Continuous,NL,IDFULL,QH,2021-11-20T17:00:00+01:00,2021-11-20T17:15:00+01:00,229.68,EUR,7.450,MWh
Power,Intraday,Continuous,NL,IDFULL,QH,2021-11-20T17:15:00+01:00,2021-11-20T17:30:00+01:00,224.64,EUR,,MWh
Power,Intraday,Continuous,NL,IDFULL,QH,2021-11-20T17:30:00+01:00,2021-11-20T17:45:00+01:00,224.64,EUR,,MWh
Power,Intraday,Continuous,NL,IDFULL,QH,2021-11-20T17:45:00+01:00,2021-11-20T18:00:00+01:00,224.64,EUR,,MWh
Power,Intraday,Continuous,NL,IDFULL,QH,2021-11-20T18:00:00+01:00,2021-11-20T18:15:00+01:00,250.00,EUR,2.500,MWh
Power,Intraday,Continuous,NL,IDFULL,QH,2021-11-20T18:15:00+01:00,2021-11-20T18:30:00+01:00,153.43,EUR,,MWh
Power,Intraday,Continuous,NL,IDFULL,QH,2021-11-20T18:30:00+01:00,2021-11-20T18:45:00+01:00,153.43,EUR,,MWh
Power,Intraday,Continuous,NL,IDFULL,QH,2021-11-20T18:45:00+01:00,2021-11-20T19:00:00+01:00,153.43,EUR,,MWh
Power,Intraday,Continuous,NL,IDFULL,QH,2021-11-20T19:00:00+01:00,2021-11-20T19:15:00+01:00,213.41,EUR,10.000,MWh
Power,Intraday,Continuous,NL,IDFULL,QH,2021-11-20T19:15:00+01:00,2021-11-20T19:30:00+01:00,166.16,EUR,,MWh
Power,Intraday,Continuous,NL,IDFULL,QH,2021-11-20T19:30:00+01:00,2021-11-20T19:45:00+01:00,166.16,EUR,,MWh
Power,Intraday,Continuous,NL,IDFULL,QH,2021-11-20T19:45:00+01:00,2021-11-20T20:00:00+01:00,166.16,EUR,,MWh
Power,Intraday,Continuous,NL,IDFULL,QH,2021-11-20T20:00:00+01:00,2021-11-20T20:15:00+01:00,154.16,EUR,39.750,MWh
Power,Intraday,Continuous,NL,IDFULL,QH,2021-11-20T20:15:00+01:00,2021-11-20T20:30:00+01:00,120.95,EUR,26.330,MWh
Power,Intraday,Continuous,NL,IDFULL,QH,2021-11-20T20:30:00+01:00,2021-11-20T20:45:00+01:00,108.64,EUR,27.550,MWh
Power,Intraday,Continuous,NL,IDFULL,QH,2021-11-20T20:45:00+01:00,2021-11-20T21:00:00+01:00,84.41,EUR,37.600,MWh
Power,Intraday,Continuous,NL,IDFULL,QH,2021-11-20T21:00:00+01:00,2021-11-20T21:15:00+01:00,151.93,EUR,5.700,MWh
Power,Intraday,Continuous,NL,IDFULL,QH,2021-11-20T21:15:00+01:00,2021-11-20T21:30:00+01:00,134.28,EUR,,MWh
Power,Intraday,Continuous,NL,IDFULL,QH,2021-11-20T21:30:00+01:00,2021-11-20T21:45:00+01:00,134.28,EUR,,MWh
Power,Intraday,Continuous,NL,IDFULL,QH,2021-11-20T21:45:00+01:00,2021-11-20T22:00:00+01:00,90.96,EUR,4.200,MWh
Power,Intraday,Continuous,NL,IDFULL,QH,2021-11-20T22:00:00+01:00,2021-11-20T22:15:00+01:00,155.40,EUR,7.300,MWh
Power,Intraday,Continuous,NL,IDFULL,QH,2021-11-20T22:15:00+01:00,2021-11-20T22:30:00+01:00,123.02,EUR,6.800,MWh
Power,Intraday,Continuous,NL,IDFULL,QH,2021-11-20T22:30:00+01:00,2021-11-20T22:45:00+01:00,139.34,EUR,9.500,MWh
Power,Intraday,Continuous,NL,IDFULL,QH,2021-11-20T22:45:00+01:00,2021-11-20T23:00:00+01:00,145.93,EUR,12.030,MWh
Power,Intraday,Continuous,NL,IDFULL,QH,2021-11-20T23:00:00+01:00,2021-11-20T23:15:00+01:00,137.29,EUR,,MWh
Power,Intraday,Continuous,NL,IDFULL,QH,2021-11-20T23:15:00+01:00,2021-11-20T23:30:00+01:00,137.29,EUR,,MWh
Power,Intraday,Continuous,NL,IDFULL,QH,2021-11-20T23:30:00+01:00,2021-11-20T23:45:00+01:00,137.29,EUR,,MWh
Power,Intraday,Continuous,NL,IDFULL,QH,2021-11-20T23:45:00+01:00,2021-11-21T00:00:00+01:00,137.29,EUR,,MWh
Power,Intraday,Continuous,NL,ID1,QH,2021-11-20T00:00:00+01:00,2021-11-20T00:15:00+01:00,138.89,EUR,,MWh
Power,Intraday,Continuous,NL,ID1,QH,2021-11-20T00:15:00+01:00,2021-11-20T00:30:00+01:00,138.89,EUR,,MWh
Power,Intraday,Continuous,NL,ID1,QH,2021-11-20T00:30:00+01:00,2021-11-20T00:45:00+01:00,138.89,EUR,,MWh
Power,Intraday,Continuous,NL,ID1,QH,2021-11-20T00:45:00+01:00,2021-11-20T01:00:00+01:00,138.89,EUR,,MWh
Power,Intraday,Continuous,NL,ID1,QH,2021-11-20T01:00:00+01:00,2021-11-20T01:15:00+01:00,154.41,EUR,,MWh
Power,Intraday,Continuous,NL,ID1,QH,2021-11-20T01:15:00+01:00,2021-11-20T01:30:00+01:00,154.41,EUR,,MWh
Power,Intraday,Continuous,NL,ID1,QH,2021-11-20T01:30:00+01:00,2021-11-20T01:45:00+01:00,154.41,EUR,,MWh
Power,Intraday,Continuous,NL,ID1,QH,2021-11-20T01:45:00+01:00,2021-11-20T02:00:00+01:00,154.41,EUR,,MWh
Power,Intraday,Continuous,NL,ID1,QH,2021-11-20T02:00:00+01:00,2021-11-20T02:15:00+01:00,154.17,EUR,,MWh
Power,Intraday,Continuous,NL,ID1,QH,2021-11-20T02:15:00+01:00,2021-11-20T02:30:00+01:00,154.17,EUR,,MWh
Power,Intraday,Continuous,NL,ID1,QH,2021-11-20T02:30:00+01:00,2021-11-20T02:45:00+01:00,154.17,EUR,,MWh
Power,Intraday,Continuous,NL,ID1,QH,2021-11-20T02:45:00+01:00,2021-11-20T03:00:00+01:00,154.17,EUR,,MWh
Power,Intraday,Continuous,NL,ID1,QH,2021-11-20T03:00:00+01:00,2021-11-20T03:15:00+01:00,169.04,EUR,,MWh
Power,Intraday,Continuous,NL,ID1,QH,2021-11-20T03:15:00+01:00,2021-11-20T03:30:00+01:00,169.04,EUR,,MWh
Power,Intraday,Continuous,NL,ID1,QH,2021-11-20T03:30:00+01:00,2021-11-20T03:45:00+01:00,169.04,EUR,,MWh
Power,Intraday,Continuous,NL,ID1,QH,2021-11-20T03:45:00+01:00,2021-11-20T04:00:00+01:00,169.04,EUR,,MWh
Power,Intraday,Continuous,NL,ID1,QH,2021-11-20T04:00:00+01:00,2021-11-20T04:15:00+01:00,155.84,EUR,,MWh
Power,Intraday,Continuous,NL,ID1,QH,2021-11-20T04:15:00+01:00,2021-11-20T04:30:00+01:00,155.84,EUR,,MWh
Power,Intraday,Continuous,NL,ID1,QH,2021-11-20T04:30:00+01:00,2021-11-20T04:45:00+01:00,155.84,EUR,,MWh
Power,Intraday,Continuous,NL,ID1,QH,2021-11-20T04:45:00+01:00,2021-11-20T05:00:00+01:00,155.84,EUR,,MWh
Power,Intraday,Continuous,NL,ID1,QH,2021-11-20T05:00:00+01:00,2021-11-20T05:15:00+01:00,99.60,EUR,,MWh
Power,Intraday,Continuous,NL,ID1,QH,2021-11-20T05:15:00+01:00,2021-11-20T05:30:00+01:00,100.91,EUR,,MWh
Power,Intraday,Continuous,NL,ID1,QH,2021-11-20T05:30:00+01:00,2021-11-20T05:45:00+01:00,136.45,EUR,,MWh
Power,Intraday,Continuous,NL,ID1,QH,2021-11-20T05:45:00+01:00,2021-11-20T06:00:00+01:00,136.45,EUR,,MWh
Power,Intraday,Continuous,NL,ID1,QH,2021-11-20T06:00:00+01:00,2021-11-20T06:15:00+01:00,126.48,EUR,,MWh
Power,Intraday,Continuous,NL,ID1,QH,2021-11-20T06:15:00+01:00,2021-11-20T06:30:00+01:00,146.04,EUR,,MWh
Power,Intraday,Continuous,NL,ID1,QH,2021-11-20T06:30:00+01:00,2021-11-20T06:45:00+01:00,79.53,EUR,,MWh
Power,Intraday,Continuous,NL,ID1,QH,2021-11-20T06:45:00+01:00,2021-11-20T07:00:00+01:00,139.19,EUR,,MWh
Power,Intraday,Continuous,NL,ID1,QH,2021-11-20T07:00:00+01:00,2021-11-20T07:15:00+01:00,152.31,EUR,,MWh
Power,Intraday,Continuous,NL,ID1,QH,2021-11-20T07:15:00+01:00,2021-11-20T07:30:00+01:00,152.31,EUR,,MWh
Power,Intraday,Continuous,NL,ID1,QH,2021-11-20T07:30:00+01:00,2021-11-20T07:45:00+01:00,152.31,EUR,,MWh
Power,Intraday,Continuous,NL,ID1,QH,2021-11-20T07:45:00+01:00,2021-11-20T08:00:00+01:00,152.31,EUR,,MWh
Power,Intraday,Continuous,NL,ID1,QH,2021-11-20T08:00:00+01:00,2021-11-20T08:15:00+01:00,169.95,EUR,,MWh
Power,Intraday,Continuous,NL,ID1,QH,2021-11-20T08:15:00+01:00,2021-11-20T08:30:00+01:00,111.02,EUR,,MWh
Power,Intraday,Continuous,NL,ID1,QH,2021-11-20T08:30:00+01:00,2021-11-20T08:45:00+01:00,169.96,EUR,16.550,MWh
Power,Intraday,Continuous,NL,ID1,QH,2021-11-20T08:45:00+01:00,2021-11-20T09:00:00+01:00,159.16,EUR,,MWh
Power,Intraday,Continuous,NL,ID1,QH,2021-11-20T09:00:00+01:00,2021-11-20T09:15:00+01:00,171.62,EUR,,MWh
Power,Intraday,Continuous,NL,ID1,QH,2021-11-20T09:15:00+01:00,2021-11-20T09:30:00+01:00,169.77,EUR,3.750,MWh
Power,Intraday,Continuous,NL,ID1,QH,2021-11-20T09:30:00+01:00,2021-11-20T09:45:00+01:00,157.87,EUR,,MWh
Power,Intraday,Continuous,NL,ID1,QH,2021-11-20T09:45:00+01:00,2021-11-20T10:00:00+01:00,138.13,EUR,,MWh
Power,Intraday,Continuous,NL,ID1,QH,2021-11-20T10:00:00+01:00,2021-11-20T10:15:00+01:00,168.40,EUR,,MWh
Power,Intraday,Continuous,NL,ID1,QH,2021-11-20T10:15:00+01:00,2021-11-20T10:30:00+01:00,164.39,EUR,,MWh
Power,Intraday,Continuous,NL,ID1,QH,2021-11-20T10:30:00+01:00,2021-11-20T10:45:00+01:00,170.20,EUR,,MWh
Power,Intraday,Continuous,NL,ID1,QH,2021-11-20T10:45:00+01:00,2021-11-20T11:00:00+01:00,279.00,EUR,4.380,MWh
Power,Intraday,Continuous,NL,ID1,QH,2021-11-20T11:00:00+01:00,2021-11-20T11:15:00+01:00,190.99,EUR,,MWh
Power,Intraday,Continuous,NL,ID1,QH,2021-11-20T11:15:00+01:00,2021-11-20T11:30:00+01:00,190.99,EUR,,MWh
Power,Intraday,Continuous,NL,ID1,QH,2021-11-20T11:30:00+01:00,2021-11-20T11:45:00+01:00,190.99,EUR,,MWh
Power,Intraday,Continuous,NL,ID1,QH,2021-11-20T11:45:00+01:00,2021-11-20T12:00:00+01:00,279.00,EUR,5.000,MWh
Power,Intraday,Continuous,NL,ID1,QH,2021-11-20T12:00:00+01:00,2021-11-20T12:15:00+01:00,239.95,EUR,,MWh
Power,Intraday,Continuous,NL,ID1,QH,2021-11-20T12:15:00+01:00,2021-11-20T12:30:00+01:00,239.95,EUR,,MWh
Power,Intraday,Continuous,NL,ID1,QH,2021-11-20T12:30:00+01:00,2021-11-20T12:45:00+01:00,239.95,EUR,,MWh
Power,Intraday,Continuous,NL,ID1,QH,2021-11-20T12:45:00+01:00,2021-11-20T13:00:00+01:00,239.95,EUR,,MWh
Power,Intraday,Continuous,NL,ID1,QH,2021-11-20T13:00:00+01:00,2021-11-20T13:15:00+01:00,223.37,EUR,,MWh
Power,Intraday,Continuous,NL,ID1,QH,2021-11-20T13:15:00+01:00,2021-11-20T13:30:00+01:00,223.37,EUR,,MWh
Power,Intraday,Continuous,NL,ID1,QH,2021-11-20T13:30:00+01:00,2021-11-20T13:45:00+01:00,223.37,EUR,,MWh
Power,Intraday,Continuous,NL,ID1,QH,2021-11-20T13:45:00+01:00,2021-11-20T14:00:00+01:00,223.37,EUR,,MWh
Power,Intraday,Continuous,NL,ID1,QH,2021-11-20T14:00:00+01:00,2021-11-20T14:15:00+01:00,210.22,EUR,,MWh
Power,Intraday,Continuous,NL,ID1,QH,2021-11-20T14:15:00+01:00,2021-11-20T14:30:00+01:00,210.22,EUR,,MWh
Power,Intraday,Continuous,NL,ID1,QH,2021-11-20T14:30:00+01:00,2021-11-20T14:45:00+01:00,210.22,EUR,,MWh
Power,Intraday,Continuous,NL,ID1,QH,2021-11-20T14:45:00+01:00,2021-11-20T15:00:00+01:00,210.22,EUR,,MWh
Power,Intraday,Continuous,NL,ID1,QH,2021-11-20T15:00:00+01:00,2021-11-20T15:15:00+01:00,218.12,EUR,,MWh
Power,Intraday,Continuous,NL,ID1,QH,2021-11-20T15:15:00+01:00,2021-11-20T15:30:00+01:00,218.12,EUR,,MWh
Power,Intraday,Continuous,NL,ID1,QH,2021-11-20T15:30:00+01:00,2021-11-20T15:45:00+01:00,218.12,EUR,,MWh
Power,Intraday,Continuous,NL,ID1,QH,2021-11-20T15:45:00+01:00,2021-11-20T16:00:00+01:00,218.12,EUR,,MWh
Power,Intraday,Continuous,NL,ID1,QH,2021-11-20T16:00:00+01:00,2021-11-20T16:15:00+01:00,267.06,EUR,4.750,MWh
Power,Intraday,Continuous,NL,ID1,QH,2021-11-20T16:15:00+01:00,2021-11-20T16:30:00+01:00,214.43,EUR,,MWh
Power,Intraday,Continuous,NL,ID1,QH,2021-11-20T16:30:00+01:00,2021-11-20T16:45:00+01:00,214.43,EUR,,MWh
Power,Intraday,Continuous,NL,ID1,QH,2021-11-20T16:45:00+01:00,2021-11-20T17:00:00+01:00,214.43,EUR,,MWh
Power,Intraday,Continuous,NL,ID1,QH,2021-11-20T17:00:00+01:00,2021-11-20T17:15:00+01:00,229.68,EUR,,MWh
Power,Intraday,Continuous,NL,ID1,QH,2021-11-20T17:15:00+01:00,2021-11-20T17:30:00+01:00,224.64,EUR,,MWh
Power,Intraday,Continuous,NL,ID1,QH,2021-11-20T17:30:00+01:00,2021-11-20T17:45:00+01:00,224.64,EUR,,MWh
Power,Intraday,Continuous,NL,ID1,QH,2021-11-20T17:45:00+01:00,2021-11-20T18:00:00+01:00,224.64,EUR,,MWh
Power,Intraday,Continuous,NL,ID1,QH,2021-11-20T18:00:00+01:00,2021-11-20T18:15:00+01:00,250.00,EUR,,MWh
Power,Intraday,Continuous,NL,ID1,QH,2021-11-20T18:15:00+01:00,2021-11-20T18:30:00+01:00,153.43,EUR,,MWh
Power,Intraday,Continuous,NL,ID1,QH,2021-11-20T18:30:00+01:00,2021-11-20T18:45:00+01:00,153.43,EUR,,MWh
Power,Intraday,Continuous,NL,ID1,QH,2021-11-20T18:45:00+01:00,2021-11-20T19:00:00+01:00,153.43,EUR,,MWh
Power,Intraday,Continuous,NL,ID1,QH,2021-11-20T19:00:00+01:00,2021-11-20T19:15:00+01:00,213.41,EUR,,MWh
Power,Intraday,Continuous,NL,ID1,QH,2021-11-20T19:15:00+01:00,2021-11-20T19:30:00+01:00,166.16,EUR,,MWh
Power,Intraday,Continuous,NL,ID1,QH,2021-11-20T19:30:00+01:00,2021-11-20T19:45:00+01:00,166.16,EUR,,MWh
Power,Intraday,Continuous,NL,ID1,QH,2021-11-20T19:45:00+01:00,2021-11-20T20:00:00+01:00,166.16,EUR,,MWh
Power,Intraday,Continuous,NL,ID1,QH,2021-11-20T20:00:00+01:00,2021-11-20T20:15:00+01:00,175.00,EUR,7.230,MWh
Power,Intraday,Continuous,NL,ID1,QH,2021-11-20T20:15:00+01:00,2021-11-20T20:30:00+01:00,152.76,EUR,,MWh
Power,Intraday,Continuous,NL,ID1,QH,2021-11-20T20:30:00+01:00,2021-11-20T20:45:00+01:00,148.39,EUR,,MWh
Power,Intraday,Continuous,NL,ID1,QH,2021-11-20T20:45:00+01:00,2021-11-20T21:00:00+01:00,92.84,EUR,,MWh
Power,Intraday,Continuous,NL,ID1,QH,2021-11-20T21:00:00+01:00,2021-11-20T21:15:00+01:00,151.22,EUR,,MWh
Power,Intraday,Continuous,NL,ID1,QH,2021-11-20T21:15:00+01:00,2021-11-20T21:30:00+01:00,134.28,EUR,,MWh
Power,Intraday,Continuous,NL,ID1,QH,2021-11-20T21:30:00+01:00,2021-11-20T21:45:00+01:00,134.28,EUR,,MWh
Power,Intraday,Continuous,NL,ID1,QH,2021-11-20T21:45:00+01:00,2021-11-20T22:00:00+01:00,90.96,EUR,,MWh
Power,Intraday,Continuous,NL,ID1,QH,2021-11-20T22:00:00+01:00,2021-11-20T22:15:00+01:00,155.40,EUR,,MWh
Power,Intraday,Continuous,NL,ID1,QH,2021-11-20T22:15:00+01:00,2021-11-20T22:30:00+01:00,123.02,EUR,,MWh
Power,Intraday,Continuous,NL,ID1,QH,2021-11-20T22:30:00+01:00,2021-11-20T22:45:00+01:00,250.00,EUR,,MWh
Power,Intraday,Continuous,NL,ID1,QH,2021-11-20T22:45:00+01:00,2021-11-20T23:00:00+01:00,240.00,EUR,,MWh
Power,Intraday,Continuous,NL,ID1,QH,2021-11-20T23:00:00+01:00,2021-11-20T23:15:00+01:00,137.29,EUR,,MWh
Power,Intraday,Continuous,NL,ID1,QH,2021-11-20T23:15:00+01:00,2021-11-20T23:30:00+01:00,137.29,EUR,,MWh
Power,Intraday,Continuous,NL,ID1,QH,2021-11-20T23:30:00+01:00,2021-11-20T23:45:00+01:00,137.29,EUR,,MWh
Power,Intraday,Continuous,NL,ID1,QH,2021-11-20T23:45:00+01:00,2021-11-21T00:00:00+01:00,137.29,EUR,,MWh
Power,Intraday,Continuous,NL,ID3,QH,2021-11-20T00:00:00+01:00,2021-11-20T00:15:00+01:00,138.89,EUR,,MWh
Power,Intraday,Continuous,NL,ID3,QH,2021-11-20T00:15:00+01:00,2021-11-20T00:30:00+01:00,138.89,EUR,,MWh
Power,Intraday,Continuous,NL,ID3,QH,2021-11-20T00:30:00+01:00,2021-11-20T00:45:00+01:00,138.89,EUR,,MWh
Power,Intraday,Continuous,NL,ID3,QH,2021-11-20T00:45:00+01:00,2021-11-20T01:00:00+01:00,138.89,EUR,,MWh
Power,Intraday,Continuous,NL,ID3,QH,2021-11-20T01:00:00+01:00,2021-11-20T01:15:00+01:00,154.41,EUR,,MWh
Power,Intraday,Continuous,NL,ID3,QH,2021-11-20T01:15:00+01:00,2021-11-20T01:30:00+01:00,154.41,EUR,,MWh
Power,Intraday,Continuous,NL,ID3,QH,2021-11-20T01:30:00+01:00,2021-11-20T01:45:00+01:00,154.41,EUR,,MWh
Power,Intraday,Continuous,NL,ID3,QH,2021-11-20T01:45:00+01:00,2021-11-20T02:00:00+01:00,154.41,EUR,,MWh
Power,Intraday,Continuous,NL,ID3,QH,2021-11-20T02:00:00+01:00,2021-11-20T02:15:00+01:00,154.17,EUR,,MWh
Power,Intraday,Continuous,NL,ID3,QH,2021-11-20T02:15:00+01:00,2021-11-20T02:30:00+01:00,154.17,EUR,,MWh
Power,Intraday,Continuous,NL,ID3,QH,2021-11-20T02:30:00+01:00,2021-11-20T02:45:00+01:00,154.17,EUR,,MWh
Power,Intraday,Continuous,NL,ID3,QH,2021-11-20T02:45:00+01:00,2021-11-20T03:00:00+01:00,154.17,EUR,,MWh
Power,Intraday,Continuous,NL,ID3,QH,2021-11-20T03:00:00+01:00,2021-11-20T03:15:00+01:00,169.04,EUR,,MWh
Power,Intraday,Continuous,NL,ID3,QH,2021-11-20T03:15:00+01:00,2021-11-20T03:30:00+01:00,169.04,EUR,,MWh
Power,Intraday,Continuous,NL,ID3,QH,2021-11-20T03:30:00+01:00,2021-11-20T03:45:00+01:00,169.04,EUR,,MWh
Power,Intraday,Continuous,NL,ID3,QH,2021-11-20T03:45:00+01:00,2021-11-20T04:00:00+01:00,169.04,EUR,,MWh
Power,Intraday,Continuous,NL,ID3,QH,2021-11-20T04:00:00+01:00,2021-11-20T04:15:00+01:00,155.84,EUR,,MWh
Power,Intraday,Continuous,NL,ID3,QH,2021-11-20T04:15:00+01:00,2021-11-20T04:30:00+01:00,155.84,EUR,,MWh
Power,Intraday,Continuous,NL,ID3,QH,2021-11-20T04:30:00+01:00,2021-11-20T04:45:00+01:00,155.84,EUR,,MWh
Power,Intraday,Continuous,NL,ID3,QH,2021-11-20T04:45:00+01:00,2021-11-20T05:00:00+01:00,155.84,EUR,,MWh
Power,Intraday,Continuous,NL,ID3,QH,2021-11-20T05:00:00+01:00,2021-11-20T05:15:00+01:00,99.60,EUR,,MWh
Power,Intraday,Continuous,NL,ID3,QH,2021-11-20T05:15:00+01:00,2021-11-20T05:30:00+01:00,100.91,EUR,,MWh
Power,Intraday,Continuous,NL,ID3,QH,2021-11-20T05:30:00+01:00,2021-11-20T05:45:00+01:00,136.45,EUR,,MWh
Power,Intraday,Continuous,NL,ID3,QH,2021-11-20T05:45:00+01:00,2021-11-20T06:00:00+01:00,136.45,EUR,,MWh
Power,Intraday,Continuous,NL,ID3,QH,2021-11-20T06:00:00+01:00,2021-11-20T06:15:00+01:00,126.48,EUR,7.230,MWh
Power,Intraday,Continuous,NL,ID3,QH,2021-11-20T06:15:00+01:00,2021-11-20T06:30:00+01:00,146.04,EUR,8.530,MWh
Power,Intraday,Continuous,NL,ID3,QH,2021-11-20T06:30:00+01:00,2021-11-20T06:45:00+01:00,79.53,EUR,,MWh
Power,Intraday,Continuous,NL,ID3,QH,2021-11-20T06:45:00+01:00,2021-11-20T07:00:00+01:00,139.19,EUR,4.330,MWh
Power,Intraday,Continuous,NL,ID3,QH,2021-11-20T07:00:00+01:00,2021-11-20T07:15:00+01:00,152.31,EUR,,MWh
Power,Intraday,Continuous,NL,ID3,QH,2021-11-20T07:15:00+01:00,2021-11-20T07:30:00+01:00,152.31,EUR,,MWh
Power,Intraday,Continuous,NL,ID3,QH,2021-11-20T07:30:00+01:00,2021-11-20T07:45:00+01:00,152.31,EUR,,MWh
Power,Intraday,Continuous,NL,ID3,QH,2021-11-20T07:45:00+01:00,2021-11-20T08:00:00+01:00,152.31,EUR,,MWh
Power,Intraday,Continuous,NL,ID3,QH,2021-11-20T08:00:00+01:00,2021-11-20T08:15:00+01:00,169.95,EUR,13.630,MWh
Power,Intraday,Continuous,NL,ID3,QH,2021-11-20T08:15:00+01:00,2021-11-20T08:30:00+01:00,111.02,EUR,13.800,MWh
Power,Intraday,Continuous,NL,ID3,QH,2021-11-20T08:30:00+01:00,2021-11-20T08:45:00+01:00,169.97,EUR,23.230,MWh
Power,Intraday,Continuous,NL,ID3,QH,2021-11-20T08:45:00+01:00,2021-11-20T09:00:00+01:00,159.16,EUR,7.450,MWh
Power,Intraday,Continuous,NL,ID3,QH,2021-11-20T09:00:00+01:00,2021-11-20T09:15:00+01:00,171.62,EUR,26.750,MWh
Power,Intraday,Continuous,NL,ID3,QH,2021-11-20T09:15:00+01:00,2021-11-20T09:30:00+01:00,169.91,EUR,31.350,MWh
Power,Intraday,Continuous,NL,ID3,QH,2021-11-20T09:30:00+01:00,2021-11-20T09:45:00+01:00,157.87,EUR,39.850,MWh
Power,Intraday,Continuous,NL,ID3,QH,2021-11-20T09:45:00+01:00,2021-11-20T10:00:00+01:00,138.13,EUR,32.830,MWh
Power,Intraday,Continuous,NL,ID3,QH,2021-11-20T10:00:00+01:00,2021-11-20T10:15:00+01:00,168.40,EUR,5.580,MWh
Power,Intraday,Continuous,NL,ID3,QH,2021-11-20T10:15:00+01:00,2021-11-20T10:30:00+01:00,164.39,EUR,5.500,MWh
Power,Intraday,Continuous,NL,ID3,QH,2021-11-20T10:30:00+01:00,2021-11-20T10:45:00+01:00,170.20,EUR,8.700,MWh
Power,Intraday,Continuous,NL,ID3,QH,2021-11-20T10:45:00+01:00,2021-11-20T11:00:00+01:00,210.60,EUR,11.700,MWh
Power,Intraday,Continuous,NL,ID3,QH,2021-11-20T11:00:00+01:00,2021-11-20T11:15:00+01:00,190.99,EUR,,MWh
Power,Intraday,Continuous,NL,ID3,QH,2021-11-20T11:15:00+01:00,2021-11-20T11:30:00+01:00,190.99,EUR,,MWh
Power,Intraday,Continuous,NL,ID3,QH,2021-11-20T11:30:00+01:00,2021-11-20T11:45:00+01:00,190.99,EUR,,MWh
Power,Intraday,Continuous,NL,ID3,QH,2021-11-20T11:45:00+01:00,2021-11-20T12:00:00+01:00,279.00,EUR,5.000,MWh
Power,Intraday,Continuous,NL,ID3,QH,2021-11-20T12:00:00+01:00,2021-11-20T12:15:00+01:00,239.95,EUR,,MWh
Power,Intraday,Continuous,NL,ID3,QH,2021-11-20T12:15:00+01:00,2021-11-20T12:30:00+01:00,239.95,EUR,,MWh
Power,Intraday,Continuous,NL,ID3,QH,2021-11-20T12:30:00+01:00,2021-11-20T12:45:00+01:00,239.95,EUR,,MWh
Power,Intraday,Continuous,NL,ID3,QH,2021-11-20T12:45:00+01:00,2021-11-20T13:00:00+01:00,239.95,EUR,,MWh
Power,Intraday,Continuous,NL,ID3,QH,2021-11-20T13:00:00+01:00,2021-11-20T13:15:00+01:00,223.37,EUR,,MWh
Power,Intraday,Continuous,NL,ID3,QH,2021-11-20T13:15:00+01:00,2021-11-20T13:30:00+01:00,223.37,EUR,,MWh
Power,Intraday,Continuous,NL,ID3,QH,2021-11-20T13:30:00+01:00,2021-11-20T13:45:00+01:00,223.37,EUR,,MWh
Power,Intraday,Continuous,NL,ID3,QH,2021-11-20T13:45:00+01:00,2021-11-20T14:00:00+01:00,223.37,EUR,,MWh
Power,Intraday,Continuous,NL,ID3,QH,2021-11-20T14:00:00+01:00,2021-11-20T14:15:00+01:00,210.22,EUR,,MWh
Power,Intraday,Continuous,NL,ID3,QH,2021-11-20T14:15:00+01:00,2021-11-20T14:30:00+01:00,210.22,EUR,,MWh
Power,Intraday,Continuous,NL,ID3,QH,2021-11-20T14:30:00+01:00,2021-11-20T14:45:00+01:00,210.22,EUR,,MWh
Power,Intraday,Continuous,NL,ID3,QH,2021-11-20T14:45:00+01:00,2021-11-20T15:00:00+01:00,210.22,EUR,,MWh
Power,Intraday,Continuous,NL,ID3,QH,2021-11-20T15:00:00+01:00,2021-11-20T15:15:00+01:00,218.12,EUR,,MWh
Power,Intraday,Continuous,NL,ID3,QH,2021-11-20T15:15:00+01:00,2021-11-20T15:30:00+01:00,218.12,EUR,,MWh
Power,Intraday,Continuous,NL,ID3,QH,2021-11-20T15:30:00+01:00,2021-11-20T15:45:00+01:00,218.12,EUR,,MWh
Power,Intraday,Continuous,NL,ID3,QH,2021-11-20T15:45:00+01:00,2021-11-20T16:00:00+01:00,218.12,EUR,,MWh
Power,Intraday,Continuous,NL,ID3,QH,2021-11-20T16:00:00+01:00,2021-11-20T16:15:00+01:00,266.31,EUR,5.030,MWh
Power,Intraday,Continuous,NL,ID3,QH,2021-11-20T16:15:00+01:00,2021-11-20T16:30:00+01:00,214.43,EUR,,MWh
Power,Intraday,Continuous,NL,ID3,QH,2021-11-20T16:30:00+01:00,2021-11-20T16:45:00+01:00,214.43,EUR,,MWh
Power,Intraday,Continuous,NL,ID3,QH,2021-11-20T16:45:00+01:00,2021-11-20T17:00:00+01:00,214.43,EUR,,MWh
Power,Intraday,Continuous,NL,ID3,QH,2021-11-20T17:00:00+01:00,2021-11-20T17:15:00+01:00,229.68,EUR,7.450,MWh
Power,Intraday,Continuous,NL,ID3,QH,2021-11-20T17:15:00+01:00,2021-11-20T17:30:00+01:00,224.64,EUR,,MWh
Power,Intraday,Continuous,NL,ID3,QH,2021-11-20T17:30:00+01:00,2021-11-20T17:45:00+01:00,224.64,EUR,,MWh
Power,Intraday,Continuous,NL,ID3,QH,2021-11-20T17:45:00+01:00,2021-11-20T18:00:00+01:00,224.64,EUR,,MWh
Power,Intraday,Continuous,NL,ID3,QH,2021-11-20T18:00:00+01:00,2021-11-20T18:15:00+01:00,250.00,EUR,2.500,MWh
Power,Intraday,Continuous,NL,ID3,QH,2021-11-20T18:15:00+01:00,2021-11-20T18:30:00+01:00,153.43,EUR,,MWh
Power,Intraday,Continuous,NL,ID3,QH,2021-11-20T18:30:00+01:00,2021-11-20T18:45:00+01:00,153.43,EUR,,MWh
Power,Intraday,Continuous,NL,ID3,QH,2021-11-20T18:45:00+01:00,2021-11-20T19:00:00+01:00,153.43,EUR,,MWh
Power,Intraday,Continuous,NL,ID3,QH,2021-11-20T19:00:00+01:00,2021-11-20T19:15:00+01:00,213.41,EUR,10.000,MWh
Power,Intraday,Continuous,NL,ID3,QH,2021-11-20T19:15:00+01:00,2021-11-20T19:30:00+01:00,166.16,EUR,,MWh
Power,Intraday,Continuous,NL,ID3,QH,2021-11-20T19:30:00+01:00,2021-11-20T19:45:00+01:00,166.16,EUR,,MWh
Power,Intraday,Continuous,NL,ID3,QH,2021-11-20T19:45:00+01:00,2021-11-20T20:00:00+01:00,166.16,EUR,,MWh
Power,Intraday,Continuous,NL,ID3,QH,2021-11-20T20:00:00+01:00,2021-11-20T20:15:00+01:00,170.12,EUR,17.430,MWh
Power,Intraday,Continuous,NL,ID3,QH,2021-11-20T20:15:00+01:00,2021-11-20T20:30:00+01:00,152.76,EUR,5.100,MWh
Power,Intraday,Continuous,NL,ID3,QH,2021-11-20T20:30:00+01:00,2021-11-20T20:45:00+01:00,148.39,EUR,5.230,MWh
Power,Intraday,Continuous,NL,ID3,QH,2021-11-20T20:45:00+01:00,2021-11-20T21:00:00+01:00,92.84,EUR,7.400,MWh
Power,Intraday,Continuous,NL,ID3,QH,2021-11-20T21:00:00+01:00,2021-11-20T21:15:00+01:00,151.22,EUR,4.280,MWh
Power,Intraday,Continuous,NL,ID3,QH,2021-11-20T21:15:00+01:00,2021-11-20T21:30:00+01:00,134.28,EUR,,MWh
Power,Intraday,Continuous,NL,ID3,QH,2021-11-20T21:30:00+01:00,2021-11-20T21:45:00+01:00,134.28,EUR,,MWh
Power,Intraday,Continuous,NL,ID3,QH,2021-11-20T21:45:00+01:00,2021-11-20T22:00:00+01:00,90.96,EUR,,MWh
Power,Intraday,Continuous,NL,ID3,QH,2021-11-20T22:00:00+01:00,2021-11-20T22:15:00+01:00,155.40,EUR,,MWh
Power,Intraday,Continuous,NL,ID3,QH,2021-11-20T22:15:00+01:00,2021-11-20T22:30:00+01:00,123.02,EUR,,MWh
Power,Intraday,Continuous,NL,ID3,QH,2021-11-20T22:30:00+01:00,2021-11-20T22:45:00+01:00,250.00,EUR,2.500,MWh
Power,Intraday,Continuous,NL,ID3,QH,2021-11-20T22:45:00+01:00,2021-11-20T23:00:00+01:00,240.00,EUR,5.000,MWh
Power,Intraday,Continuous,NL,ID3,QH,2021-11-20T23:00:00+01:00,2021-11-20T23:15:00+01:00,137.29,EUR,,MWh
Power,Intraday,Continuous,NL,ID3,QH,2021-11-20T23:15:00+01:00,2021-11-20T23:30:00+01:00,137.29,EUR,,MWh
Power,Intraday,Continuous,NL,ID3,QH,2021-11-20T23:30:00+01:00,2021-11-20T23:45:00+01:00,137.29,EUR,,MWh
Power,Intraday,Continuous,NL,ID3,QH,2021-11-20T23:45:00+01:00,2021-11-21T00:00:00+01:00,137.29,EUR,,MWh
Power,Intraday,Continuous,NL,IDFULL,BASE,2021-11-20T00:00:00+01:00,2021-11-21T00:00:00+01:00,173.09,EUR,9474.900,MWh
Power,Intraday,Continuous,NL,IDFULL,PEAK,2021-11-20T08:00:00+01:00,2021-11-20T20:00:00+01:00,202.65,EUR,6546.200,MWh
