Commodity,NominationModality,TradingModality,MarketArea,IndexName,TimeResolution,DeliveryStart,DeliveryEnd,IndexPrice,Currency,Volume,VolumeUnit
Power,Intraday,Continuous,NL,IDFULL,H,2021-02-02T00:00:00+01:00,2021-02-02T01:00:00+01:00,43.55,EUR,195.100,MWh
Power,Intraday,Continuous,NL,IDFULL,H,2021-02-02T01:00:00+01:00,2021-02-02T02:00:00+01:00,41.83,EUR,202.200,MWh
Power,Intraday,Continuous,NL,IDFULL,H,2021-02-02T02:00:00+01:00,2021-02-02T03:00:00+01:00,41.29,EUR,314.600,MWh
Power,Intraday,Continuous,NL,IDFULL,H,2021-02-02T03:00:00+01:00,2021-02-02T04:00:00+01:00,41.09,EUR,466.900,MWh
Power,Intraday,Continuous,NL,IDFULL,H,2021-02-02T04:00:00+01:00,2021-02-02T05:00:00+01:00,42.83,EUR,421.100,MWh
Power,Intraday,Continuous,NL,IDFULL,H,2021-02-02T05:00:00+01:00,2021-02-02T06:00:00+01:00,39.46,EUR,133.000,MWh
Power,Intraday,Continuous,NL,IDFULL,H,2021-02-02T06:00:00+01:00,2021-02-02T07:00:00+01:00,48.56,EUR,273.100,MWh
Power,Intraday,Continuous,NL,IDFULL,H,2021-02-02T07:00:00+01:00,2021-02-02T08:00:00+01:00,48.24,EUR,284.300,MWh
Power,Intraday,Continuous,NL,IDFULL,H,2021-02-02T08:00:00+01:00,2021-02-02T09:00:00+01:00,45.50,EUR,306.300,MWh
Power,Intraday,Continuous,NL,IDFULL,H,2021-02-02T09:00:00+01:00,2021-02-02T10:00:00+01:00,56.61,EUR,120.400,MWh
Power,Intraday,Continuous,NL,IDFULL,H,2021-02-02T10:00:00+01:00,2021-02-02T11:00:00+01:00,64.41,EUR,415.100,MWh
Power,Intraday,Continuous,NL,IDFULL,H,2021-02-02T11:00:00+01:00,2021-02-02T12:00:00+01:00,60.12,EUR,354.300,MWh
Power,Intraday,Continuous,NL,IDFULL,H,2021-02-02T12:00:00+01:00,2021-02-02T13:00:00+01:00,58.91,EUR,843.500,MWh
Power,Intraday,Continuous,NL,IDFULL,H,2021-02-02T13:00:00+01:00,2021-02-02T14:00:00+01:00,56.12,EUR,1091.500,MWh
Power,Intraday,Continuous,NL,IDFULL,H,2021-02-02T14:00:00+01:00,2021-02-02T15:00:00+01:00,58.79,EUR,378.900,MWh
Power,Intraday,Continuous,NL,IDFULL,H,2021-02-02T15:00:00+01:00,2021-02-02T16:00:00+01:00,59.69,EUR,892.100,MWh
Power,Intraday,Continuous,NL,IDFULL,H,2021-02-02T16:00:00+01:00,2021-02-02T17:00:00+01:00,54.89,EUR,946.400,MWh
Power,Intraday,Continuous,NL,IDFULL,H,2021-02-02T17:00:00+01:00,2021-02-02T18:00:00+01:00,62.08,EUR,790.100,MWh
Power,Intraday,Continuous,NL,IDFULL,H,2021-02-02T18:00:00+01:00,2021-02-02T19:00:00+01:00,59.14,EUR,715.100,MWh
Power,Intraday,Continuous,NL,IDFULL,H,2021-02-02T19:00:00+01:00,2021-02-02T20:00:00+01:00,57.13,EUR,678.000,MWh
Power,Intraday,Continuous,NL,IDFULL,H,2021-02-02T20:00:00+01:00,2021-02-02T21:00:00+01:00,50.51,EUR,595.000,MWh
Power,Intraday,Continuous,NL,IDFULL,H,2021-02-02T21:00:00+01:00,2021-02-02T22:00:00+01:00,48.93,EUR,869.500,MWh
Power,Intraday,Continuous,NL,IDFULL,H,2021-02-02T22:00:00+01:00,2021-02-02T23:00:00+01:00,46.63,EUR,496.500,MWh
Power,Intraday,Continuous,NL,IDFULL,H,2021-02-02T23:00:00+01:00,2021-02-03T00:00:00+01:00,41.18,EUR,662.300,MWh
Power,Intraday,Continuous,NL,ID1,H,2021-02-02T00:00:00+01:00,2021-02-02T01:00:00+01:00,43.44,EUR,,MWh
Power,Intraday,Continuous,NL,ID1,H,2021-02-02T01:00:00+01:00,2021-02-02T02:00:00+01:00,37.19,EUR,25.600,MWh
Power,Intraday,Continuous,NL,ID1,H,2021-02-02T02:00:00+01:00,2021-02-02T03:00:00+01:00,35.78,EUR,21.000,MWh
Power,Intraday,Continuous,NL,ID1,H,2021-02-02T03:00:00+01:00,2021-02-02T04:00:00+01:00,40.76,EUR,,MWh
Power,Intraday,Continuous,NL,ID1,H,2021-02-02T04:00:00+01:00,2021-02-02T05:00:00+01:00,42.92,EUR,,MWh
Power,Intraday,Continuous,NL,ID1,H,2021-02-02T05:00:00+01:00,2021-02-02T06:00:00+01:00,35.00,EUR,11.200,MWh
Power,Intraday,Continuous,NL,ID1,H,2021-02-02T06:00:00+01:00,2021-02-02T07:00:00+01:00,45.92,EUR,,MWh
Power,Intraday,Continuous,NL,ID1,H,2021-02-02T07:00:00+01:00,2021-02-02T08:00:00+01:00,51.54,EUR,39.000,MWh
Power,Intraday,Continuous,NL,ID1,H,2021-02-02T08:00:00+01:00,2021-02-02T09:00:00+01:00,43.47,EUR,262.000,MWh
Power,Intraday,Continuous,NL,ID1,H,2021-02-02T09:00:00+01:00,2021-02-02T10:00:00+01:00,51.37,EUR,28.000,MWh
Power,Intraday,Continuous,NL,ID1,H,2021-02-02T10:00:00+01:00,2021-02-02T11:00:00+01:00,67.83,EUR,57.600,MWh
Power,Intraday,Continuous,NL,ID1,H,2021-02-02T11:00:00+01:00,2021-02-02T12:00:00+01:00,68.68,EUR,85.100,MWh
Power,Intraday,Continuous,NL,ID1,H,2021-02-02T12:00:00+01:00,2021-02-02T13:00:00+01:00,55.33,EUR,131.700,MWh
Power,Intraday,Continuous,NL,ID1,H,2021-02-02T13:00:00+01:00,2021-02-02T14:00:00+01:00,48.26,EUR,234.400,MWh
Power,Intraday,Continuous,NL,ID1,H,2021-02-02T14:00:00+01:00,2021-02-02T15:00:00+01:00,73.36,EUR,81.000,MWh
Power,Intraday,Continuous,NL,ID1,H,2021-02-02T15:00:00+01:00,2021-02-02T16:00:00+01:00,79.41,EUR,157.000,MWh
Power,Intraday,Continuous,NL,ID1,H,2021-02-02T16:00:00+01:00,2021-02-02T17:00:00+01:00,47.84,EUR,64.700,MWh
Power,Intraday,Continuous,NL,ID1,H,2021-02-02T17:00:00+01:00,2021-02-02T18:00:00+01:00,59.88,EUR,35.200,MWh
Power,Intraday,Continuous,NL,ID1,H,2021-02-02T18:00:00+01:00,2021-02-02T19:00:00+01:00,44.38,EUR,19.900,MWh
Power,Intraday,Continuous,NL,ID1,H,2021-02-02T19:00:00+01:00,2021-02-02T20:00:00+01:00,56.25,EUR,,MWh
Power,Intraday,Continuous,NL,ID1,H,2021-02-02T20:00:00+01:00,2021-02-02T21:00:00+01:00,50.11,EUR,,MWh
Power,Intraday,Continuous,NL,ID1,H,2021-02-02T21:00:00+01:00,2021-02-02T22:00:00+01:00,71.00,EUR,30.000,MWh
Power,Intraday,Continuous,NL,ID1,H,2021-02-02T22:00:00+01:00,2021-02-02T23:00:00+01:00,55.00,EUR,30.000,MWh
Power,Intraday,Continuous,NL,ID1,H,2021-02-02T23:00:00+01:00,2021-02-03T00:00:00+01:00,41.95,EUR,,MWh
Power,Intraday,Continuous,NL,ID3,H,2021-02-02T00:00:00+01:00,2021-02-02T01:00:00+01:00,43.44,EUR,186.500,MWh
Power,Intraday,Continuous,NL,ID3,H,2021-02-02T01:00:00+01:00,2021-02-02T02:00:00+01:00,41.62,EUR,189.700,MWh
Power,Intraday,Continuous,NL,ID3,H,2021-02-02T02:00:00+01:00,2021-02-02T03:00:00+01:00,40.79,EUR,220.700,MWh
Power,Intraday,Continuous,NL,ID3,H,2021-02-02T03:00:00+01:00,2021-02-02T04:00:00+01:00,40.76,EUR,327.100,MWh
Power,Intraday,Continuous,NL,ID3,H,2021-02-02T04:00:00+01:00,2021-02-02T05:00:00+01:00,42.92,EUR,261.200,MWh
Power,Intraday,Continuous,NL,ID3,H,2021-02-02T05:00:00+01:00,2021-02-02T06:00:00+01:00,36.75,EUR,98.500,MWh
Power,Intraday,Continuous,NL,ID3,H,2021-02-02T06:00:00+01:00,2021-02-02T07:00:00+01:00,45.92,EUR,179.400,MWh
Power,Intraday,Continuous,NL,ID3,H,2021-02-02T07:00:00+01:00,2021-02-02T08:00:00+01:00,50.84,EUR,168.700,MWh
Power,Intraday,Continuous,NL,ID3,H,2021-02-02T08:00:00+01:00,2021-02-02T09:00:00+01:00,45.34,EUR,303.000,MWh
Power,Intraday,Continuous,NL,ID3,H,2021-02-02T09:00:00+01:00,2021-02-02T10:00:00+01:00,56.39,EUR,109.500,MWh
Power,Intraday,Continuous,NL,ID3,H,2021-02-02T10:00:00+01:00,2021-02-02T11:00:00+01:00,64.58,EUR,398.800,MWh
Power,Intraday,Continuous,NL,ID3,H,2021-02-02T11:00:00+01:00,2021-02-02T12:00:00+01:00,61.06,EUR,320.800,MWh
Power,Intraday,Continuous,NL,ID3,H,2021-02-02T12:00:00+01:00,2021-02-02T13:00:00+01:00,59.14,EUR,814.700,MWh
Power,Intraday,Continuous,NL,ID3,H,2021-02-02T13:00:00+01:00,2021-02-02T14:00:00+01:00,56.45,EUR,947.700,MWh
Power,Intraday,Continuous,NL,ID3,H,2021-02-02T14:00:00+01:00,2021-02-02T15:00:00+01:00,61.05,EUR,277.400,MWh
Power,Intraday,Continuous,NL,ID3,H,2021-02-02T15:00:00+01:00,2021-02-02T16:00:00+01:00,61.02,EUR,779.800,MWh
Power,Intraday,Continuous,NL,ID3,H,2021-02-02T16:00:00+01:00,2021-02-02T17:00:00+01:00,55.92,EUR,767.100,MWh
Power,Intraday,Continuous,NL,ID3,H,2021-02-02T17:00:00+01:00,2021-02-02T18:00:00+01:00,63.18,EUR,665.300,MWh
Power,Intraday,Continuous,NL,ID3,H,2021-02-02T18:00:00+01:00,2021-02-02T19:00:00+01:00,59.27,EUR,473.400,MWh
Power,Intraday,Continuous,NL,ID3,H,2021-02-02T19:00:00+01:00,2021-02-02T20:00:00+01:00,56.25,EUR,403.500,MWh
Power,Intraday,Continuous,NL,ID3,H,2021-02-02T20:00:00+01:00,2021-02-02T21:00:00+01:00,50.11,EUR,354.300,MWh
Power,Intraday,Continuous,NL,ID3,H,2021-02-02T21:00:00+01:00,2021-02-02T22:00:00+01:00,49.86,EUR,440.100,MWh
Power,Intraday,Continuous,NL,ID3,H,2021-02-02T22:00:00+01:00,2021-02-02T23:00:00+01:00,46.67,EUR,237.100,MWh
Power,Intraday,Continuous,NL,ID3,H,2021-02-02T23:00:00+01:00,2021-02-03T00:00:00+01:00,41.95,EUR,307.500,MWh
Power,Intraday,Continuous,NL,IDFULL,HH,2021-02-02T00:00:00+01:00,2021-02-02T00:30:00+01:00,43.55,EUR,,MWh
Power,Intraday,Continuous,NL,IDFULL,HH,2021-02-02T00:30:00+01:00,2021-02-02T01:00:00+01:00,43.55,EUR,,MWh
Power,Intraday,Continuous,NL,IDFULL,HH,2021-02-02T01:00:00+01:00,2021-02-02T01:30:00+01:00,41.83,EUR,,MWh
Power,Intraday,Continuous,NL,IDFULL,HH,2021-02-02T01:30:00+01:00,2021-02-02T02:00:00+01:00,41.83,EUR,,MWh
Power,Intraday,Continuous,NL,IDFULL,HH,2021-02-02T02:00:00+01:00,2021-02-02T02:30:00+01:00,41.29,EUR,,MWh
Power,Intraday,Continuous,NL,IDFULL,HH,2021-02-02T02:30:00+01:00,2021-02-02T03:00:00+01:00,41.29,EUR,,MWh
Power,Intraday,Continuous,NL,IDFULL,HH,2021-02-02T03:00:00+01:00,2021-02-02T03:30:00+01:00,41.09,EUR,,MWh
Power,Intraday,Continuous,NL,IDFULL,HH,2021-02-02T03:30:00+01:00,2021-02-02T04:00:00+01:00,41.09,EUR,,MWh
Power,Intraday,Continuous,NL,IDFULL,HH,2021-02-02T04:00:00+01:00,2021-02-02T04:30:00+01:00,42.83,EUR,,MWh
Power,Intraday,Continuous,NL,IDFULL,HH,2021-02-02T04:30:00+01:00,2021-02-02T05:00:00+01:00,42.83,EUR,,MWh
Power,Intraday,Continuous,NL,IDFULL,HH,2021-02-02T05:00:00+01:00,2021-02-02T05:30:00+01:00,39.46,EUR,,MWh
Power,Intraday,Continuous,NL,IDFULL,HH,2021-02-02T05:30:00+01:00,2021-02-02T06:00:00+01:00,39.46,EUR,,MWh
Power,Intraday,Continuous,NL,IDFULL,HH,2021-02-02T06:00:00+01:00,2021-02-02T06:30:00+01:00,48.56,EUR,,MWh
Power,Intraday,Continuous,NL,IDFULL,HH,2021-02-02T06:30:00+01:00,2021-02-02T07:00:00+01:00,48.56,EUR,,MWh
Power,Intraday,Continuous,NL,IDFULL,HH,2021-02-02T07:00:00+01:00,2021-02-02T07:30:00+01:00,48.24,EUR,,MWh
Power,Intraday,Continuous,NL,IDFULL,HH,2021-02-02T07:30:00+01:00,2021-02-02T08:00:00+01:00,48.24,EUR,,MWh
Power,Intraday,Continuous,NL,IDFULL,HH,2021-02-02T08:00:00+01:00,2021-02-02T08:30:00+01:00,45.50,EUR,,MWh
Power,Intraday,Continuous,NL,IDFULL,HH,2021-02-02T08:30:00+01:00,2021-02-02T09:00:00+01:00,45.50,EUR,,MWh
Power,Intraday,Continuous,NL,IDFULL,HH,2021-02-02T09:00:00+01:00,2021-02-02T09:30:00+01:00,56.61,EUR,,MWh
Power,Intraday,Continuous,NL,IDFULL,HH,2021-02-02T09:30:00+01:00,2021-02-02T10:00:00+01:00,56.61,EUR,,MWh
Power,Intraday,Continuous,NL,IDFULL,HH,2021-02-02T10:00:00+01:00,2021-02-02T10:30:00+01:00,64.41,EUR,,MWh
Power,Intraday,Continuous,NL,IDFULL,HH,2021-02-02T10:30:00+01:00,2021-02-02T11:00:00+01:00,64.41,EUR,,MWh
Power,Intraday,Continuous,NL,IDFULL,HH,2021-02-02T11:00:00+01:00,2021-02-02T11:30:00+01:00,60.12,EUR,,MWh
Power,Intraday,Continuous,NL,IDFULL,HH,2021-02-02T11:30:00+01:00,2021-02-02T12:00:00+01:00,60.12,EUR,,MWh
Power,Intraday,Continuous,NL,IDFULL,HH,2021-02-02T12:00:00+01:00,2021-02-02T12:30:00+01:00,58.91,EUR,,MWh
Power,Intraday,Continuous,NL,IDFULL,HH,2021-02-02T12:30:00+01:00,2021-02-02T13:00:00+01:00,58.91,EUR,,MWh
Power,Intraday,Continuous,NL,IDFULL,HH,2021-02-02T13:00:00+01:00,2021-02-02T13:30:00+01:00,56.12,EUR,,MWh
Power,Intraday,Continuous,NL,IDFULL,HH,2021-02-02T13:30:00+01:00,2021-02-02T14:00:00+01:00,56.12,EUR,,MWh
Power,Intraday,Continuous,NL,IDFULL,HH,2021-02-02T14:00:00+01:00,2021-02-02T14:30:00+01:00,58.79,EUR,,MWh
Power,Intraday,Continuous,NL,IDFULL,HH,2021-02-02T14:30:00+01:00,2021-02-02T15:00:00+01:00,58.79,EUR,,MWh
Power,Intraday,Continuous,NL,IDFULL,HH,2021-02-02T15:00:00+01:00,2021-02-02T15:30:00+01:00,59.69,EUR,,MWh
Power,Intraday,Continuous,NL,IDFULL,HH,2021-02-02T15:30:00+01:00,2021-02-02T16:00:00+01:00,59.69,EUR,,MWh
Power,Intraday,Continuous,NL,IDFULL,HH,2021-02-02T16:00:00+01:00,2021-02-02T16:30:00+01:00,54.89,EUR,,MWh
Power,Intraday,Continuous,NL,IDFULL,HH,2021-02-02T16:30:00+01:00,2021-02-02T17:00:00+01:00,54.89,EUR,,MWh
Power,Intraday,Continuous,NL,IDFULL,HH,2021-02-02T17:00:00+01:00,2021-02-02T17:30:00+01:00,62.08,EUR,,MWh
Power,Intraday,Continuous,NL,IDFULL,HH,2021-02-02T17:30:00+01:00,2021-02-02T18:00:00+01:00,62.08,EUR,,MWh
Power,Intraday,Continuous,NL,IDFULL,HH,2021-02-02T18:00:00+01:00,2021-02-02T18:30:00+01:00,59.14,EUR,,MWh
Power,Intraday,Continuous,NL,IDFULL,HH,2021-02-02T18:30:00+01:00,2021-02-02T19:00:00+01:00,59.14,EUR,,MWh
Power,Intraday,Continuous,NL,IDFULL,HH,2021-02-02T19:00:00+01:00,2021-02-02T19:30:00+01:00,57.13,EUR,,MWh
Power,Intraday,Continuous,NL,IDFULL,HH,2021-02-02T19:30:00+01:00,2021-02-02T20:00:00+01:00,57.13,EUR,,MWh
Power,Intraday,Continuous,NL,IDFULL,HH,2021-02-02T20:00:00+01:00,2021-02-02T20:30:00+01:00,50.51,EUR,,MWh
Power,Intraday,Continuous,NL,IDFULL,HH,2021-02-02T20:30:00+01:00,2021-02-02T21:00:00+01:00,50.51,EUR,,MWh
Power,Intraday,Continuous,NL,IDFULL,HH,2021-02-02T21:00:00+01:00,2021-02-02T21:30:00+01:00,48.93,EUR,,MWh
Power,Intraday,Continuous,NL,IDFULL,HH,2021-02-02T21:30:00+01:00,2021-02-02T22:00:00+01:00,48.93,EUR,,MWh
Power,Intraday,Continuous,NL,IDFULL,HH,2021-02-02T22:00:00+01:00,2021-02-02T22:30:00+01:00,46.63,EUR,,MWh
Power,Intraday,Continuous,NL,IDFULL,HH,2021-02-02T22:30:00+01:00,2021-02-02T23:00:00+01:00,46.63,EUR,,MWh
Power,Intraday,Continuous,NL,IDFULL,HH,2021-02-02T23:00:00+01:00,2021-02-02T23:30:00+01:00,41.18,EUR,,MWh
Power,Intraday,Continuous,NL,IDFULL,HH,2021-02-02T23:30:00+01:00,2021-02-03T00:00:00+01:00,41.18,EUR,,MWh
Power,Intraday,Continuous,NL,ID1,HH,2021-02-02T00:00:00+01:00,2021-02-02T00:30:00+01:00,43.55,EUR,,MWh
Power,Intraday,Continuous,NL,ID1,HH,2021-02-02T00:30:00+01:00,2021-02-02T01:00:00+01:00,43.55,EUR,,MWh
Power,Intraday,Continuous,NL,ID1,HH,2021-02-02T01:00:00+01:00,2021-02-02T01:30:00+01:00,41.83,EUR,,MWh
Power,Intraday,Continuous,NL,ID1,HH,2021-02-02T01:30:00+01:00,2021-02-02T02:00:00+01:00,41.83,EUR,,MWh
Power,Intraday,Continuous,NL,ID1,HH,2021-02-02T02:00:00+01:00,2021-02-02T02:30:00+01:00,41.29,EUR,,MWh
Power,Intraday,Continuous,NL,ID1,HH,2021-02-02T02:30:00+01:00,2021-02-02T03:00:00+01:00,41.29,EUR,,MWh
Power,Intraday,Continuous,NL,ID1,HH,2021-02-02T03:00:00+01:00,2021-02-02T03:30:00+01:00,41.09,EUR,,MWh
Power,Intraday,Continuous,NL,ID1,HH,2021-02-02T03:30:00+01:00,2021-02-02T04:00:00+01:00,41.09,EUR,,MWh
Power,Intraday,Continuous,NL,ID1,HH,2021-02-02T04:00:00+01:00,2021-02-02T04:30:00+01:00,42.83,EUR,,MWh
Power,Intraday,Continuous,NL,ID1,HH,2021-02-02T04:30:00+01:00,2021-02-02T05:00:00+01:00,42.83,EUR,,MWh
Power,Intraday,Continuous,NL,ID1,HH,2021-02-02T05:00:00+01:00,2021-02-02T05:30:00+01:00,39.46,EUR,,MWh
Power,Intraday,Continuous,NL,ID1,HH,2021-02-02T05:30:00+01:00,2021-02-02T06:00:00+01:00,39.46,EUR,,MWh
Power,Intraday,Continuous,NL,ID1,HH,2021-02-02T06:00:00+01:00,2021-02-02T06:30:00+01:00,48.56,EUR,,MWh
Power,Intraday,Continuous,NL,ID1,HH,2021-02-02T06:30:00+01:00,2021-02-02T07:00:00+01:00,48.56,EUR,,MWh
Power,Intraday,Continuous,NL,ID1,HH,2021-02-02T07:00:00+01:00,2021-02-02T07:30:00+01:00,48.24,EUR,,MWh
Power,Intraday,Continuous,NL,ID1,HH,2021-02-02T07:30:00+01:00,2021-02-02T08:00:00+01:00,48.24,EUR,,MWh
Power,Intraday,Continuous,NL,ID1,HH,2021-02-02T08:00:00+01:00,2021-02-02T08:30:00+01:00,45.50,EUR,,MWh
Power,Intraday,Continuous,NL,ID1,HH,2021-02-02T08:30:00+01:00,2021-02-02T09:00:00+01:00,45.50,EUR,,MWh
Power,Intraday,Continuous,NL,ID1,HH,2021-02-02T09:00:00+01:00,2021-02-02T09:30:00+01:00,56.61,EUR,,MWh
Power,Intraday,Continuous,NL,ID1,HH,2021-02-02T09:30:00+01:00,2021-02-02T10:00:00+01:00,56.61,EUR,,MWh
Power,Intraday,Continuous,NL,ID1,HH,2021-02-02T10:00:00+01:00,2021-02-02T10:30:00+01:00,64.41,EUR,,MWh
Power,Intraday,Continuous,NL,ID1,HH,2021-02-02T10:30:00+01:00,2021-02-02T11:00:00+01:00,64.41,EUR,,MWh
Power,Intraday,Continuous,NL,ID1,HH,2021-02-02T11:00:00+01:00,2021-02-02T11:30:00+01:00,60.12,EUR,,MWh
Power,Intraday,Continuous,NL,ID1,HH,2021-02-02T11:30:00+01:00,2021-02-02T12:00:00+01:00,60.12,EUR,,MWh
Power,Intraday,Continuous,NL,ID1,HH,2021-02-02T12:00:00+01:00,2021-02-02T12:30:00+01:00,58.91,EUR,,MWh
Power,Intraday,Continuous,NL,ID1,HH,2021-02-02T12:30:00+01:00,2021-02-02T13:00:00+01:00,58.91,EUR,,MWh
Power,Intraday,Continuous,NL,ID1,HH,2021-02-02T13:00:00+01:00,2021-02-02T13:30:00+01:00,56.12,EUR,,MWh
Power,Intraday,Continuous,NL,ID1,HH,2021-02-02T13:30:00+01:00,2021-02-02T14:00:00+01:00,56.12,EUR,,MWh
Power,Intraday,Continuous,NL,ID1,HH,2021-02-02T14:00:00+01:00,2021-02-02T14:30:00+01:00,58.79,EUR,,MWh
Power,Intraday,Continuous,NL,ID1,HH,2021-02-02T14:30:00+01:00,2021-02-02T15:00:00+01:00,58.79,EUR,,MWh
Power,Intraday,Continuous,NL,ID1,HH,2021-02-02T15:00:00+01:00,2021-02-02T15:30:00+01:00,59.69,EUR,,MWh
Power,Intraday,Continuous,NL,ID1,HH,2021-02-02T15:30:00+01:00,2021-02-02T16:00:00+01:00,59.69,EUR,,MWh
Power,Intraday,Continuous,NL,ID1,HH,2021-02-02T16:00:00+01:00,2021-02-02T16:30:00+01:00,54.89,EUR,,MWh
Power,Intraday,Continuous,NL,ID1,HH,2021-02-02T16:30:00+01:00,2021-02-02T17:00:00+01:00,54.89,EUR,,MWh
Power,Intraday,Continuous,NL,ID1,HH,2021-02-02T17:00:00+01:00,2021-02-02T17:30:00+01:00,62.08,EUR,,MWh
Power,Intraday,Continuous,NL,ID1,HH,2021-02-02T17:30:00+01:00,2021-02-02T18:00:00+01:00,62.08,EUR,,MWh
Power,Intraday,Continuous,NL,ID1,HH,2021-02-02T18:00:00+01:00,2021-02-02T18:30:00+01:00,59.14,EUR,,MWh
Power,Intraday,Continuous,NL,ID1,HH,2021-02-02T18:30:00+01:00,2021-02-02T19:00:00+01:00,59.14,EUR,,MWh
Power,Intraday,Continuous,NL,ID1,HH,2021-02-02T19:00:00+01:00,2021-02-02T19:30:00+01:00,57.13,EUR,,MWh
Power,Intraday,Continuous,NL,ID1,HH,2021-02-02T19:30:00+01:00,2021-02-02T20:00:00+01:00,57.13,EUR,,MWh
Power,Intraday,Continuous,NL,ID1,HH,2021-02-02T20:00:00+01:00,2021-02-02T20:30:00+01:00,50.51,EUR,,MWh
Power,Intraday,Continuous,NL,ID1,HH,2021-02-02T20:30:00+01:00,2021-02-02T21:00:00+01:00,50.51,EUR,,MWh
Power,Intraday,Continuous,NL,ID1,HH,2021-02-02T21:00:00+01:00,2021-02-02T21:30:00+01:00,48.93,EUR,,MWh
Power,Intraday,Continuous,NL,ID1,HH,2021-02-02T21:30:00+01:00,2021-02-02T22:00:00+01:00,48.93,EUR,,MWh
Power,Intraday,Continuous,NL,ID1,HH,2021-02-02T22:00:00+01:00,2021-02-02T22:30:00+01:00,46.63,EUR,,MWh
Power,Intraday,Continuous,NL,ID1,HH,2021-02-02T22:30:00+01:00,2021-02-02T23:00:00+01:00,46.63,EUR,,MWh
Power,Intraday,Continuous,NL,ID1,HH,2021-02-02T23:00:00+01:00,2021-02-02T23:30:00+01:00,41.18,EUR,,MWh
Power,Intraday,Continuous,NL,ID1,HH,2021-02-02T23:30:00+01:00,2021-02-03T00:00:00+01:00,41.18,EUR,,MWh
Power,Intraday,Continuous,NL,ID3,HH,2021-02-02T00:00:00+01:00,2021-02-02T00:30:00+01:00,43.55,EUR,,MWh
Power,Intraday,Continuous,NL,ID3,HH,2021-02-02T00:30:00+01:00,2021-02-02T01:00:00+01:00,43.55,EUR,,MWh
Power,Intraday,Continuous,NL,ID3,HH,2021-02-02T01:00:00+01:00,2021-02-02T01:30:00+01:00,41.83,EUR,,MWh
Power,Intraday,Continuous,NL,ID3,HH,2021-02-02T01:30:00+01:00,2021-02-02T02:00:00+01:00,41.83,EUR,,MWh
Power,Intraday,Continuous,NL,ID3,HH,2021-02-02T02:00:00+01:00,2021-02-02T02:30:00+01:00,41.29,EUR,,MWh
Power,Intraday,Continuous,NL,ID3,HH,2021-02-02T02:30:00+01:00,2021-02-02T03:00:00+01:00,41.29,EUR,,MWh
Power,Intraday,Continuous,NL,ID3,HH,2021-02-02T03:00:00+01:00,2021-02-02T03:30:00+01:00,41.09,EUR,,MWh
Power,Intraday,Continuous,NL,ID3,HH,2021-02-02T03:30:00+01:00,2021-02-02T04:00:00+01:00,41.09,EUR,,MWh
Power,Intraday,Continuous,NL,ID3,HH,2021-02-02T04:00:00+01:00,2021-02-02T04:30:00+01:00,42.83,EUR,,MWh
Power,Intraday,Continuous,NL,ID3,HH,2021-02-02T04:30:00+01:00,2021-02-02T05:00:00+01:00,42.83,EUR,,MWh
Power,Intraday,Continuous,NL,ID3,HH,2021-02-02T05:00:00+01:00,2021-02-02T05:30:00+01:00,39.46,EUR,,MWh
Power,Intraday,Continuous,NL,ID3,HH,2021-02-02T05:30:00+01:00,2021-02-02T06:00:00+01:00,39.46,EUR,,MWh
Power,Intraday,Continuous,NL,ID3,HH,2021-02-02T06:00:00+01:00,2021-02-02T06:30:00+01:00,48.56,EUR,,MWh
Power,Intraday,Continuous,NL,ID3,HH,2021-02-02T06:30:00+01:00,2021-02-02T07:00:00+01:00,48.56,EUR,,MWh
Power,Intraday,Continuous,NL,ID3,HH,2021-02-02T07:00:00+01:00,2021-02-02T07:30:00+01:00,48.24,EUR,,MWh
Power,Intraday,Continuous,NL,ID3,HH,2021-02-02T07:30:00+01:00,2021-02-02T08:00:00+01:00,48.24,EUR,,MWh
Power,Intraday,Continuous,NL,ID3,HH,2021-02-02T08:00:00+01:00,2021-02-02T08:30:00+01:00,45.50,EUR,,MWh
Power,Intraday,Continuous,NL,ID3,HH,2021-02-02T08:30:00+01:00,2021-02-02T09:00:00+01:00,45.50,EUR,,MWh
Power,Intraday,Continuous,NL,ID3,HH,2021-02-02T09:00:00+01:00,2021-02-02T09:30:00+01:00,56.61,EUR,,MWh
Power,Intraday,Continuous,NL,ID3,HH,2021-02-02T09:30:00+01:00,2021-02-02T10:00:00+01:00,56.61,EUR,,MWh
Power,Intraday,Continuous,NL,ID3,HH,2021-02-02T10:00:00+01:00,2021-02-02T10:30:00+01:00,64.41,EUR,,MWh
Power,Intraday,Continuous,NL,ID3,HH,2021-02-02T10:30:00+01:00,2021-02-02T11:00:00+01:00,64.41,EUR,,MWh
Power,Intraday,Continuous,NL,ID3,HH,2021-02-02T11:00:00+01:00,2021-02-02T11:30:00+01:00,60.12,EUR,,MWh
Power,Intraday,Continuous,NL,ID3,HH,2021-02-02T11:30:00+01:00,2021-02-02T12:00:00+01:00,60.12,EUR,,MWh
Power,Intraday,Continuous,NL,ID3,HH,2021-02-02T12:00:00+01:00,2021-02-02T12:30:00+01:00,58.91,EUR,,MWh
Power,Intraday,Continuous,NL,ID3,HH,2021-02-02T12:30:00+01:00,2021-02-02T13:00:00+01:00,58.91,EUR,,MWh
Power,Intraday,Continuous,NL,ID3,HH,2021-02-02T13:00:00+01:00,2021-02-02T13:30:00+01:00,56.12,EUR,,MWh
Power,Intraday,Continuous,NL,ID3,HH,2021-02-02T13:30:00+01:00,2021-02-02T14:00:00+01:00,56.12,EUR,,MWh
Power,Intraday,Continuous,NL,ID3,HH,2021-02-02T14:00:00+01:00,2021-02-02T14:30:00+01:00,58.79,EUR,,MWh
Power,Intraday,Continuous,NL,ID3,HH,2021-02-02T14:30:00+01:00,2021-02-02T15:00:00+01:00,58.79,EUR,,MWh
Power,Intraday,Continuous,NL,ID3,HH,2021-02-02T15:00:00+01:00,2021-02-02T15:30:00+01:00,59.69,EUR,,MWh
Power,Intraday,Continuous,NL,ID3,HH,2021-02-02T15:30:00+01:00,2021-02-02T16:00:00+01:00,59.69,EUR,,MWh
Power,Intraday,Continuous,NL,ID3,HH,2021-02-02T16:00:00+01:00,2021-02-02T16:30:00+01:00,54.89,EUR,,MWh
Power,Intraday,Continuous,NL,ID3,HH,2021-02-02T16:30:00+01:00,2021-02-02T17:00:00+01:00,54.89,EUR,,MWh
Power,Intraday,Continuous,NL,ID3,HH,2021-02-02T17:00:00+01:00,2021-02-02T17:30:00+01:00,62.08,EUR,,MWh
Power,Intraday,Continuous,NL,ID3,HH,2021-02-02T17:30:00+01:00,2021-02-02T18:00:00+01:00,62.08,EUR,,MWh
Power,Intraday,Continuous,NL,ID3,HH,2021-02-02T18:00:00+01:00,2021-02-02T18:30:00+01:00,59.14,EUR,,MWh
Power,Intraday,Continuous,NL,ID3,HH,2021-02-02T18:30:00+01:00,2021-02-02T19:00:00+01:00,59.14,EUR,,MWh
Power,Intraday,Continuous,NL,ID3,HH,2021-02-02T19:00:00+01:00,2021-02-02T19:30:00+01:00,57.13,EUR,,MWh
Power,Intraday,Continuous,NL,ID3,HH,2021-02-02T19:30:00+01:00,2021-02-02T20:00:00+01:00,57.13,EUR,,MWh
Power,Intraday,Continuous,NL,ID3,HH,2021-02-02T20:00:00+01:00,2021-02-02T20:30:00+01:00,50.51,EUR,,MWh
Power,Intraday,Continuous,NL,ID3,HH,2021-02-02T20:30:00+01:00,2021-02-02T21:00:00+01:00,50.51,EUR,,MWh
Power,Intraday,Continuous,NL,ID3,HH,2021-02-02T21:00:00+01:00,2021-02-02T21:30:00+01:00,48.93,EUR,,MWh
Power,Intraday,Continuous,NL,ID3,HH,2021-02-02T21:30:00+01:00,2021-02-02T22:00:00+01:00,48.93,EUR,,MWh
Power,Intraday,Continuous,NL,ID3,HH,2021-02-02T22:00:00+01:00,2021-02-02T22:30:00+01:00,46.63,EUR,,MWh
Power,Intraday,Continuous,NL,ID3,HH,2021-02-02T22:30:00+01:00,2021-02-02T23:00:00+01:00,46.63,EUR,,MWh
Power,Intraday,Continuous,NL,ID3,HH,2021-02-02T23:00:00+01:00,2021-02-02T23:30:00+01:00,41.18,EUR,,MWh
Power,Intraday,Continuous,NL,ID3,HH,2021-02-02T23:30:00+01:00,2021-02-03T00:00:00+01:00,41.18,EUR,,MWh
Power,Intraday,Continuous,NL,IDFULL,QH,2021-02-02T00:00:00+01:00,2021-02-02T00:15:00+01:00,54.16,EUR,17.100,MWh
Power,Intraday,Continuous,NL,IDFULL,QH,2021-02-02T00:15:00+01:00,2021-02-02T00:30:00+01:00,42.67,EUR,5.650,MWh
Power,Intraday,Continuous,NL,IDFULL,QH,2021-02-02T00:30:00+01:00,2021-02-02T00:45:00+01:00,40.43,EUR,7.450,MWh
Power,Intraday,Continuous,NL,IDFULL,QH,2021-02-02T00:45:00+01:00,2021-02-02T01:00:00+01:00,36.35,EUR,7.300,MWh
Power,Intraday,Continuous,NL,IDFULL,QH,2021-02-02T01:00:00+01:00,2021-02-02T01:15:00+01:00,40.29,EUR,8.800,MWh
Power,Intraday,Continuous,NL,IDFULL,QH,2021-02-02T01:15:00+01:00,2021-02-02T01:30:00+01:00,46.58,EUR,3.850,MWh
Power,Intraday,Continuous,NL,IDFULL,QH,2021-02-02T01:30:00+01:00,2021-02-02T01:45:00+01:00,42.94,EUR,,MWh
Power,Intraday,Continuous,NL,IDFULL,QH,2021-02-02T01:45:00+01:00,2021-02-02T02:00:00+01:00,37.51,EUR,7.730,MWh
Power,Intraday,Continuous,NL,IDFULL,QH,2021-02-02T02:00:00+01:00,2021-02-02T02:15:00+01:00,46.07,EUR,3.630,MWh
Power,Intraday,Continuous,NL,IDFULL,QH,2021-02-02T02:15:00+01:00,2021-02-02T02:30:00+01:00,41.15,EUR,8.680,MWh
Power,Intraday,Continuous,NL,IDFULL,QH,2021-02-02T02:30:00+01:00,2021-02-02T02:45:00+01:00,40.72,EUR,10.250,MWh
Power,Intraday,Continuous,NL,IDFULL,QH,2021-02-02T02:45:00+01:00,2021-02-02T03:00:00+01:00,39.05,EUR,15.400,MWh
Power,Intraday,Continuous,NL,IDFULL,QH,2021-02-02T03:00:00+01:00,2021-02-02T03:15:00+01:00,41.09,EUR,,MWh
Power,Intraday,Continuous,NL,IDFULL,QH,2021-02-02T03:15:00+01:00,2021-02-02T03:30:00+01:00,41.09,EUR,,MWh
Power,Intraday,Continuous,NL,IDFULL,QH,2021-02-02T03:30:00+01:00,2021-02-02T03:45:00+01:00,41.09,EUR,,MWh
Power,Intraday,Continuous,NL,IDFULL,QH,2021-02-02T03:45:00+01:00,2021-02-02T04:00:00+01:00,41.09,EUR,,MWh
Power,Intraday,Continuous,NL,IDFULL,QH,2021-02-02T04:00:00+01:00,2021-02-02T04:15:00+01:00,40.33,EUR,2.500,MWh
Power,Intraday,Continuous,NL,IDFULL,QH,2021-02-02T04:15:00+01:00,2021-02-02T04:30:00+01:00,43.66,EUR,,MWh
Power,Intraday,Continuous,NL,IDFULL,QH,2021-02-02T04:30:00+01:00,2021-02-02T04:45:00+01:00,43.66,EUR,,MWh
Power,Intraday,Continuous,NL,IDFULL,QH,2021-02-02T04:45:00+01:00,2021-02-02T05:00:00+01:00,43.66,EUR,,MWh
Power,Intraday,Continuous,NL,IDFULL,QH,2021-02-02T05:00:00+01:00,2021-02-02T05:15:00+01:00,31.47,EUR,7.100,MWh
Power,Intraday,Continuous,NL,IDFULL,QH,2021-02-02T05:15:00+01:00,2021-02-02T05:30:00+01:00,29.42,EUR,,MWh
Power,Intraday,Continuous,NL,IDFULL,QH,2021-02-02T05:30:00+01:00,2021-02-02T05:45:00+01:00,43.23,EUR,13.300,MWh
Power,Intraday,Continuous,NL,IDFULL,QH,2021-02-02T05:45:00+01:00,2021-02-02T06:00:00+01:00,53.72,EUR,48.850,MWh
Power,Intraday,Continuous,NL,IDFULL,QH,2021-02-02T06:00:00+01:00,2021-02-02T06:15:00+01:00,31.66,EUR,51.500,MWh
Power,Intraday,Continuous,NL,IDFULL,QH,2021-02-02T06:15:00+01:00,2021-02-02T06:30:00+01:00,45.68,EUR,7.800,MWh
Power,Intraday,Continuous,NL,IDFULL,QH,2021-02-02T06:30:00+01:00,2021-02-02T06:45:00+01:00,67.92,EUR,4.230,MWh
Power,Intraday,Continuous,NL,IDFULL,QH,2021-02-02T06:45:00+01:00,2021-02-02T07:00:00+01:00,69.42,EUR,24.230,MWh
Power,Intraday,Continuous,NL,IDFULL,QH,2021-02-02T07:00:00+01:00,2021-02-02T07:15:00+01:00,36.10,EUR,3.800,MWh
Power,Intraday,Continuous,NL,IDFULL,QH,2021-02-02T07:15:00+01:00,2021-02-02T07:30:00+01:00,31.17,EUR,,MWh
Power,Intraday,Continuous,NL,IDFULL,QH,2021-02-02T07:30:00+01:00,2021-02-02T07:45:00+01:00,50.13,EUR,6.250,MWh
Power,Intraday,Continuous,NL,IDFULL,QH,2021-02-02T07:45:00+01:00,2021-02-02T08:00:00+01:00,75.56,EUR,98.900,MWh
Power,Intraday,Continuous,NL,IDFULL,QH,2021-02-02T08:00:00+01:00,2021-02-02T08:15:00+01:00,22.78,EUR,,MWh
Power,Intraday,Continuous,NL,IDFULL,QH,2021-02-02T08:15:00+01:00,2021-02-02T08:30:00+01:00,22.78,EUR,,MWh
Power,Intraday,Continuous,NL,IDFULL,QH,2021-02-02T08:30:00+01:00,2021-02-02T08:45:00+01:00,62.96,EUR,21.280,MWh
Power,Intraday,Continuous,NL,IDFULL,QH,2021-02-02T08:45:00+01:00,2021-02-02T09:00:00+01:00,73.49,EUR,42.830,MWh
Power,Intraday,Continuous,NL,IDFULL,QH,2021-02-02T09:00:00+01:00,2021-02-02T09:15:00+01:00,52.79,EUR,,MWh
Power,Intraday,Continuous,NL,IDFULL,QH,2021-02-02T09:15:00+01:00,2021-02-02T09:30:00+01:00,52.79,EUR,,MWh
Power,Intraday,Continuous,NL,IDFULL,QH,2021-02-02T09:30:00+01:00,2021-02-02T09:45:00+01:00,55.00,EUR,4.500,MWh
Power,Intraday,Continuous,NL,IDFULL,QH,2021-02-02T09:45:00+01:00,2021-02-02T10:00:00+01:00,65.87,EUR,21.700,MWh
Power,Intraday,Continuous,NL,IDFULL,QH,2021-02-02T10:00:00+01:00,2021-02-02T10:15:00+01:00,65.32,EUR,24.500,MWh
Power,Intraday,Continuous,NL,IDFULL,QH,2021-02-02T10:15:00+01:00,2021-02-02T10:30:00+01:00,65.26,EUR,18.530,MWh
Power,Intraday,Continuous,NL,IDFULL,QH,2021-02-02T10:30:00+01:00,2021-02-02T10:45:00+01:00,62.27,EUR,11.850,MWh
Power,Intraday,Continuous,NL,IDFULL,QH,2021-02-02T10:45:00+01:00,2021-02-02T11:00:00+01:00,62.59,EUR,23.150,MWh
Power,Intraday,Continuous,NL,IDFULL,QH,2021-02-02T11:00:00+01:00,2021-02-02T11:15:00+01:00,61.42,EUR,6.380,MWh
Power,Intraday,Continuous,NL,IDFULL,QH,2021-02-02T11:15:00+01:00,2021-02-02T11:30:00+01:00,63.51,EUR,25.400,MWh
Power,Intraday,Continuous,NL,IDFULL,QH,2021-02-02T11:30:00+01:00,2021-02-02T11:45:00+01:00,61.96,EUR,39.180,MWh
Power,Intraday,Continuous,NL,IDFULL,QH,2021-02-02T11:45:00+01:00,2021-02-02T12:00:00+01:00,59.50,EUR,34.700,MWh
Power,Intraday,Continuous,NL,IDFULL,QH,2021-02-02T12:00:00+01:00,2021-02-02T12:15:00+01:00,65.34,EUR,63.750,MWh
Power,Intraday,Continuous,NL,IDFULL,QH,2021-02-02T12:15:00+01:00,2021-02-02T12:30:00+01:00,62.56,EUR,34.850,MWh
Power,Intraday,Continuous,NL,IDFULL,QH,2021-02-02T12:30:00+01:00,2021-02-02T12:45:00+01:00,56.98,EUR,51.950,MWh
Power,Intraday,Continuous,NL,IDFULL,QH,2021-02-02T12:45:00+01:00,2021-02-02T13:00:00+01:00,52.99,EUR,58.680,MWh
Power,Intraday,Continuous,NL,IDFULL,QH,2021-02-02T13:00:00+01:00,2021-02-02T13:15:00+01:00,65.12,EUR,28.700,MWh
Power,Intraday,Continuous,NL,IDFULL,QH,2021-02-02T13:15:00+01:00,2021-02-02T13:30:00+01:00,61.68,EUR,20.800,MWh
Power,Intraday,Continuous,NL,IDFULL,QH,2021-02-02T13:30:00+01:00,2021-02-02T13:45:00+01:00,59.65,EUR,23.950,MWh
Power,Intraday,Continuous,NL,IDFULL,QH,2021-02-02T13:45:00+01:00,2021-02-02T14:00:00+01:00,53.29,EUR,32.650,MWh
Power,Intraday,Continuous,NL,IDFULL,QH,2021-02-02T14:00:00+01:00,2021-02-02T14:15:00+01:00,72.65,EUR,2.930,MWh
Power,Intraday,Continuous,NL,IDFULL,QH,2021-02-02T14:15:00+01:00,2021-02-02T14:30:00+01:00,66.07,EUR,21.550,MWh
Power,Intraday,Continuous,NL,IDFULL,QH,2021-02-02T14:30:00+01:00,2021-02-02T14:45:00+01:00,64.75,EUR,27.830,MWh
Power,Intraday,Continuous,NL,IDFULL,QH,2021-02-02T14:45:00+01:00,2021-02-02T15:00:00+01:00,60.51,EUR,48.100,MWh
Power,Intraday,Continuous,NL,IDFULL,QH,2021-02-02T15:00:00+01:00,2021-02-02T15:15:00+01:00,59.10,EUR,33.650,MWh
Power,Intraday,Continuous,NL,IDFULL,QH,2021-02-02T15:15:00+01:00,2021-02-02T15:30:00+01:00,56.80,EUR,13.300,MWh
Power,Intraday,Continuous,NL,IDFULL,QH,2021-02-02T15:30:00+01:00,2021-02-02T15:45:00+01:00,60.49,EUR,46.880,MWh
Power,Intraday,Continuous,NL,IDFULL,QH,2021-02-02T15:45:00+01:00,2021-02-02T16:00:00+01:00,52.88,EUR,82.730,MWh
Power,Intraday,Continuous,NL,IDFULL,QH,2021-02-02T16:00:00+01:00,2021-02-02T16:15:00+01:00,50.21,EUR,77.380,MWh
Power,Intraday,Continuous,NL,IDFULL,QH,2021-02-02T16:15:00+01:00,2021-02-02T16:30:00+01:00,57.19,EUR,20.000,MWh
Power,Intraday,Continuous,NL,IDFULL,QH,2021-02-02T16:30:00+01:00,2021-02-02T16:45:00+01:00,59.23,EUR,41.250,MWh
Power,Intraday,Continuous,NL,IDFULL,QH,2021-02-02T16:45:00+01:00,2021-02-02T17:00:00+01:00,60.59,EUR,53.700,MWh
Power,Intraday,Continuous,NL,IDFULL,QH,2021-02-02T17:00:00+01:00,2021-02-02T17:15:00+01:00,48.28,EUR,84.750,MWh
Power,Intraday,Continuous,NL,IDFULL,QH,2021-02-02T17:15:00+01:00,2021-02-02T17:30:00+01:00,56.61,EUR,22.780,MWh
Power,Intraday,Continuous,NL,IDFULL,QH,2021-02-02T17:30:00+01:00,2021-02-02T17:45:00+01:00,68.84,EUR,43.830,MWh
Power,Intraday,Continuous,NL,IDFULL,QH,2021-02-02T17:45:00+01:00,2021-02-02T18:00:00+01:00,68.02,EUR,62.180,MWh
Power,Intraday,Continuous,NL,IDFULL,QH,2021-02-02T18:00:00+01:00,2021-02-02T18:15:00+01:00,59.12,EUR,33.030,MWh
Power,Intraday,Continuous,NL,IDFULL,QH,2021-02-02T18:15:00+01:00,2021-02-02T18:30:00+01:00,56.39,EUR,34.780,MWh
Power,Intraday,Continuous,NL,IDFULL,QH,2021-02-02T18:30:00+01:00,2021-02-02T18:45:00+01:00,60.04,EUR,38.350,MWh
Power,Intraday,Continuous,NL,IDFULL,QH,2021-02-02T18:45:00+01:00,2021-02-02T19:00:00+01:00,52.10,EUR,43.430,MWh
Power,Intraday,Continuous,NL,IDFULL,QH,2021-02-02T19:00:00+01:00,2021-02-02T19:15:00+01:00,65.96,EUR,42.430,MWh
Power,Intraday,Continuous,NL,IDFULL,QH,2021-02-02T19:15:00+01:00,2021-02-02T19:30:00+01:00,58.29,EUR,20.300,MWh
Power,Intraday,Continuous,NL,IDFULL,QH,2021-02-02T19:30:00+01:00,2021-02-02T19:45:00+01:00,54.00,EUR,41.250,MWh
Power,Intraday,Continuous,NL,IDFULL,QH,2021-02-02T19:45:00+01:00,2021-02-02T20:00:00+01:00,43.55,EUR,50.130,MWh
Power,Intraday,Continuous,NL,IDFULL,QH,2021-02-02T20:00:00+01:00,2021-02-02T20:15:00+01:00,58.65,EUR,31.350,MWh
Power,Intraday,Continuous,NL,IDFULL,QH,2021-02-02T20:15:00+01:00,2021-02-02T20:30:00+01:00,52.96,EUR,11.280,MWh
Power,Intraday,Continuous,NL,IDFULL,QH,2021-02-02T20:30:00+01:00,2021-02-02T20:45:00+01:00,49.53,EUR,20.730,MWh
Power,Intraday,Continuous,NL,IDFULL,QH,2021-02-02T20:45:00+01:00,2021-02-02T21:00:00+01:00,47.70,EUR,24.000,MWh
Power,Intraday,Continuous,NL,IDFULL,QH,2021-02-02T21:00:00+01:00,2021-02-02T21:15:00+01:00,52.68,EUR,11.780,MWh
Power,Intraday,Continuous,NL,IDFULL,QH,2021-02-02T21:15:00+01:00,2021-02-02T21:30:00+01:00,52.82,EUR,17.800,MWh
Power,Intraday,Continuous,NL,IDFULL,QH,2021-02-02T21:30:00+01:00,2021-02-02T21:45:00+01:00,50.16,EUR,12.830,MWh
Power,Intraday,Continuous,NL,IDFULL,QH,2021-02-02T21:45:00+01:00,2021-02-02T22:00:00+01:00,40.30,EUR,37.100,MWh
Power,Intraday,Continuous,NL,IDFULL,QH,2021-02-02T22:00:00+01:00,2021-02-02T22:15:00+01:00,57.95,EUR,22.300,MWh
Power,Intraday,Continuous,NL,IDFULL,QH,2021-02-02T22:15:00+01:00,2021-02-02T22:30:00+01:00,43.87,EUR,14.300,MWh
Power,Intraday,Continuous,NL,IDFULL,QH,2021-02-02T22:30:00+01:00,2021-02-02T22:45:00+01:00,47.47,EUR,,MWh
Power,Intraday,Continuous,NL,IDFULL,QH,2021-02-02T22:45:00+01:00,2021-02-02T23:00:00+01:00,37.23,EUR,16.750,MWh
Power,Intraday,Continuous,NL,IDFULL,QH,2021-02-02T23:00:00+01:00,2021-02-02T23:15:00+01:00,52.79,EUR,11.980,MWh
Power,Intraday,Continuous,NL,IDFULL,QH,2021-02-02T23:15:00+01:00,2021-02-02T23:30:00+01:00,39.95,EUR,13.100,MWh
Power,Intraday,Continuous,NL,IDFULL,QH,2021-02-02T23:30:00+01:00,2021-02-02T23:45:00+01:00,38.22,EUR,4.980,MWh
Power,Intraday,Continuous,NL,IDFULL,QH,2021-02-02T23:45:00+01:00,2021-02-03T00:00:00+01:00,34.11,EUR,26.150,MWh
Power,Intraday,Continuous,NL,ID1,QH,2021-02-02T00:00:00+01:00,2021-02-02T00:15:00+01:00,53.54,EUR,,MWh
Power,Intraday,Continuous,NL,ID1,QH,2021-02-02T00:15:00+01:00,2021-02-02T00:30:00+01:00,42.67,EUR,,MWh
Power,Intraday,Continuous,NL,ID1,QH,2021-02-02T00:30:00+01:00,2021-02-02T00:45:00+01:00,40.43,EUR,,MWh
Power,Intraday,Continuous,NL,ID1,QH,2021-02-02T00:45:00+01:00,2021-02-02T01:00:00+01:00,36.27,EUR,,MWh
Power,Intraday,Continuous,NL,ID1,QH,2021-02-02T01:00:00+01:00,2021-02-02T01:15:00+01:00,40.28,EUR,,MWh
Power,Intraday,Continuous,NL,ID1,QH,2021-02-02T01:15:00+01:00,2021-02-02T01:30:00+01:00,46.58,EUR,,MWh
Power,Intraday,Continuous,NL,ID1,QH,2021-02-02T01:30:00+01:00,2021-02-02T01:45:00+01:00,42.94,EUR,,MWh
Power,Intraday,Continuous,NL,ID1,QH,2021-02-02T01:45:00+01:00,2021-02-02T02:00:00+01:00,37.48,EUR,,MWh
Power,Intraday,Continuous,NL,ID1,QH,2021-02-02T02:00:00+01:00,2021-02-02T02:15:00+01:00,46.07,EUR,,MWh
Power,Intraday,Continuous,NL,ID1,QH,2021-02-02T02:15:00+01:00,2021-02-02T02:30:00+01:00,39.86,EUR,,MWh
Power,Intraday,Continuous,NL,ID1,QH,2021-02-02T02:30:00+01:00,2021-02-02T02:45:00+01:00,40.41,EUR,,MWh
Power,Intraday,Continuous,NL,ID1,QH,2021-02-02T02:45:00+01:00,2021-02-02T03:00:00+01:00,38.71,EUR,,MWh
Power,Intraday,Continuous,NL,ID1,QH,2021-02-02T03:00:00+01:00,2021-02-02T03:15:00+01:00,41.09,EUR,,MWh
Power,Intraday,Continuous,NL,ID1,QH,2021-02-02T03:15:00+01:00,2021-02-02T03:30:00+01:00,41.09,EUR,,MWh
Power,Intraday,Continuous,NL,ID1,QH,2021-02-02T03:30:00+01:00,2021-02-02T03:45:00+01:00,41.09,EUR,,MWh
Power,Intraday,Continuous,NL,ID1,QH,2021-02-02T03:45:00+01:00,2021-02-02T04:00:00+01:00,41.09,EUR,,MWh
Power,Intraday,Continuous,NL,ID1,QH,2021-02-02T04:00:00+01:00,2021-02-02T04:15:00+01:00,40.33,EUR,,MWh
Power,Intraday,Continuous,NL,ID1,QH,2021-02-02T04:15:00+01:00,2021-02-02T04:30:00+01:00,43.66,EUR,,MWh
Power,Intraday,Continuous,NL,ID1,QH,2021-02-02T04:30:00+01:00,2021-02-02T04:45:00+01:00,43.66,EUR,,MWh
Power,Intraday,Continuous,NL,ID1,QH,2021-02-02T04:45:00+01:00,2021-02-02T05:00:00+01:00,43.66,EUR,,MWh
Power,Intraday,Continuous,NL,ID1,QH,2021-02-02T05:00:00+01:00,2021-02-02T05:15:00+01:00,30.93,EUR,,MWh
Power,Intraday,Continuous,NL,ID1,QH,2021-02-02T05:15:00+01:00,2021-02-02T05:30:00+01:00,29.42,EUR,,MWh
Power,Intraday,Continuous,NL,ID1,QH,2021-02-02T05:30:00+01:00,2021-02-02T05:45:00+01:00,42.96,EUR,,MWh
Power,Intraday,Continuous,NL,ID1,QH,2021-02-02T05:45:00+01:00,2021-02-02T06:00:00+01:00,54.60,EUR,,MWh
Power,Intraday,Continuous,NL,ID1,QH,2021-02-02T06:00:00+01:00,2021-02-02T06:15:00+01:00,31.34,EUR,,MWh
Power,Intraday,Continuous,NL,ID1,QH,2021-02-02T06:15:00+01:00,2021-02-02T06:30:00+01:00,50.00,EUR,3.750,MWh
Power,Intraday,Continuous,NL,ID1,QH,2021-02-02T06:30:00+01:00,2021-02-02T06:45:00+01:00,67.92,EUR,,MWh
Power,Intraday,Continuous,NL,ID1,QH,2021-02-02T06:45:00+01:00,2021-02-02T07:00:00+01:00,56.74,EUR,,MWh
Power,Intraday,Continuous,NL,ID1,QH,2021-02-02T07:00:00+01:00,2021-02-02T07:15:00+01:00,36.10,EUR,,MWh
Power,Intraday,Continuous,NL,ID1,QH,2021-02-02T07:15:00+01:00,2021-02-02T07:30:00+01:00,31.17,EUR,,MWh
Power,Intraday,Continuous,NL,ID1,QH,2021-02-02T07:30:00+01:00,2021-02-02T07:45:00+01:00,59.75,EUR,,MWh
Power,Intraday,Continuous,NL,ID1,QH,2021-02-02T07:45:00+01:00,2021-02-02T08:00:00+01:00,68.32,EUR,,MWh
Power,Intraday,Continuous,NL,ID1,QH,2021-02-02T08:00:00+01:00,2021-02-02T08:15:00+01:00,22.78,EUR,,MWh
Power,Intraday,Continuous,NL,ID1,QH,2021-02-02T08:15:00+01:00,2021-02-02T08:30:00+01:00,22.78,EUR,,MWh
Power,Intraday,Continuous,NL,ID1,QH,2021-02-02T08:30:00+01:00,2021-02-02T08:45:00+01:00,62.27,EUR,,MWh
Power,Intraday,Continuous,NL,ID1,QH,2021-02-02T08:45:00+01:00,2021-02-02T09:00:00+01:00,64.28,EUR,7.100,MWh
Power,Intraday,Continuous,NL,ID1,QH,2021-02-02T09:00:00+01:00,2021-02-02T09:15:00+01:00,52.79,EUR,,MWh
Power,Intraday,Continuous,NL,ID1,QH,2021-02-02T09:15:00+01:00,2021-02-02T09:30:00+01:00,52.79,EUR,,MWh
Power,Intraday,Continuous,NL,ID1,QH,2021-02-02T09:30:00+01:00,2021-02-02T09:45:00+01:00,55.00,EUR,4.500,MWh
Power,Intraday,Continuous,NL,ID1,QH,2021-02-02T09:45:00+01:00,2021-02-02T10:00:00+01:00,71.21,EUR,7.080,MWh
Power,Intraday,Continuous,NL,ID1,QH,2021-02-02T10:00:00+01:00,2021-02-02T10:15:00+01:00,64.79,EUR,,MWh
Power,Intraday,Continuous,NL,ID1,QH,2021-02-02T10:15:00+01:00,2021-02-02T10:30:00+01:00,65.26,EUR,,MWh
Power,Intraday,Continuous,NL,ID1,QH,2021-02-02T10:30:00+01:00,2021-02-02T10:45:00+01:00,62.27,EUR,,MWh
Power,Intraday,Continuous,NL,ID1,QH,2021-02-02T10:45:00+01:00,2021-02-02T11:00:00+01:00,62.59,EUR,,MWh
Power,Intraday,Continuous,NL,ID1,QH,2021-02-02T11:00:00+01:00,2021-02-02T11:15:00+01:00,61.42,EUR,,MWh
Power,Intraday,Continuous,NL,ID1,QH,2021-02-02T11:15:00+01:00,2021-02-02T11:30:00+01:00,63.51,EUR,,MWh
Power,Intraday,Continuous,NL,ID1,QH,2021-02-02T11:30:00+01:00,2021-02-02T11:45:00+01:00,61.96,EUR,,MWh
Power,Intraday,Continuous,NL,ID1,QH,2021-02-02T11:45:00+01:00,2021-02-02T12:00:00+01:00,59.50,EUR,,MWh
Power,Intraday,Continuous,NL,ID1,QH,2021-02-02T12:00:00+01:00,2021-02-02T12:15:00+01:00,65.35,EUR,,MWh
Power,Intraday,Continuous,NL,ID1,QH,2021-02-02T12:15:00+01:00,2021-02-02T12:30:00+01:00,62.56,EUR,,MWh
Power,Intraday,Continuous,NL,ID1,QH,2021-02-02T12:30:00+01:00,2021-02-02T12:45:00+01:00,52.00,EUR,9.400,MWh
Power,Intraday,Continuous,NL,ID1,QH,2021-02-02T12:45:00+01:00,2021-02-02T13:00:00+01:00,33.12,EUR,7.150,MWh
Power,Intraday,Continuous,NL,ID1,QH,2021-02-02T13:00:00+01:00,2021-02-02T13:15:00+01:00,65.17,EUR,,MWh
Power,Intraday,Continuous,NL,ID1,QH,2021-02-02T13:15:00+01:00,2021-02-02T13:30:00+01:00,61.53,EUR,,MWh
Power,Intraday,Continuous,NL,ID1,QH,2021-02-02T13:30:00+01:00,2021-02-02T13:45:00+01:00,60.26,EUR,7.500,MWh
Power,Intraday,Continuous,NL,ID1,QH,2021-02-02T13:45:00+01:00,2021-02-02T14:00:00+01:00,60.42,EUR,11.330,MWh
Power,Intraday,Continuous,NL,ID1,QH,2021-02-02T14:00:00+01:00,2021-02-02T14:15:00+01:00,72.65,EUR,,MWh
Power,Intraday,Continuous,NL,ID1,QH,2021-02-02T14:15:00+01:00,2021-02-02T14:30:00+01:00,66.27,EUR,,MWh
Power,Intraday,Continuous,NL,ID1,QH,2021-02-02T14:30:00+01:00,2021-02-02T14:45:00+01:00,66.40,EUR,,MWh
Power,Intraday,Continuous,NL,ID1,QH,2021-02-02T14:45:00+01:00,2021-02-02T15:00:00+01:00,62.97,EUR,,MWh
Power,Intraday,Continuous,NL,ID1,QH,2021-02-02T15:00:00+01:00,2021-02-02T15:15:00+01:00,62.00,EUR,2.680,MWh
Power,Intraday,Continuous,NL,ID1,QH,2021-02-02T15:15:00+01:00,2021-02-02T15:30:00+01:00,58.29,EUR,,MWh
Power,Intraday,Continuous,NL,ID1,QH,2021-02-02T15:30:00+01:00,2021-02-02T15:45:00+01:00,62.09,EUR,,MWh
Power,Intraday,Continuous,NL,ID1,QH,2021-02-02T15:45:00+01:00,2021-02-02T16:00:00+01:00,54.36,EUR,,MWh
Power,Intraday,Continuous,NL,ID1,QH,2021-02-02T16:00:00+01:00,2021-02-02T16:15:00+01:00,32.06,EUR,6.750,MWh
Power,Intraday,Continuous,NL,ID1,QH,2021-02-02T16:15:00+01:00,2021-02-02T16:30:00+01:00,58.69,EUR,7.280,MWh
Power,Intraday,Continuous,NL,ID1,QH,2021-02-02T16:30:00+01:00,2021-02-02T16:45:00+01:00,60.71,EUR,,MWh
Power,Intraday,Continuous,NL,ID1,QH,2021-02-02T16:45:00+01:00,2021-02-02T17:00:00+01:00,64.24,EUR,,MWh
Power,Intraday,Continuous,NL,ID1,QH,2021-02-02T17:00:00+01:00,2021-02-02T17:15:00+01:00,49.65,EUR,,MWh
Power,Intraday,Continuous,NL,ID1,QH,2021-02-02T17:15:00+01:00,2021-02-02T17:30:00+01:00,57.41,EUR,5.930,MWh
Power,Intraday,Continuous,NL,ID1,QH,2021-02-02T17:30:00+01:00,2021-02-02T17:45:00+01:00,59.41,EUR,5.000,MWh
Power,Intraday,Continuous,NL,ID1,QH,2021-02-02T17:45:00+01:00,2021-02-02T18:00:00+01:00,58.00,EUR,6.250,MWh
Power,Intraday,Continuous,NL,ID1,QH,2021-02-02T18:00:00+01:00,2021-02-02T18:15:00+01:00,47.12,EUR,11.500,MWh
Power,Intraday,Continuous,NL,ID1,QH,2021-02-02T18:15:00+01:00,2021-02-02T18:30:00+01:00,58.39,EUR,11.900,MWh
Power,Intraday,Continuous,NL,ID1,QH,2021-02-02T18:30:00+01:00,2021-02-02T18:45:00+01:00,58.18,EUR,10.250,MWh
Power,Intraday,Continuous,NL,ID1,QH,2021-02-02T18:45:00+01:00,2021-02-02T19:00:00+01:00,52.11,EUR,,MWh
Power,Intraday,Continuous,NL,ID1,QH,2021-02-02T19:00:00+01:00,2021-02-02T19:15:00+01:00,65.34,EUR,,MWh
Power,Intraday,Continuous,NL,ID1,QH,2021-02-02T19:15:00+01:00,2021-02-02T19:30:00+01:00,56.53,EUR,,MWh
Power,Intraday,Continuous,NL,ID1,QH,2021-02-02T19:30:00+01:00,2021-02-02T19:45:00+01:00,50.19,EUR,,MWh
Power,Intraday,Continuous,NL,ID1,QH,2021-02-02T19:45:00+01:00,2021-02-02T20:00:00+01:00,44.99,EUR,,MWh
Power,Intraday,Continuous,NL,ID1,QH,2021-02-02T20:00:00+01:00,2021-02-02T20:15:00+01:00,56.84,EUR,,MWh
Power,Intraday,Continuous,NL,ID1,QH,2021-02-02T20:15:00+01:00,2021-02-02T20:30:00+01:00,52.96,EUR,,MWh
Power,Intraday,Continuous,NL,ID1,QH,2021-02-02T20:30:00+01:00,2021-02-02T20:45:00+01:00,49.99,EUR,,MWh
Power,Intraday,Continuous,NL,ID1,QH,2021-02-02T20:45:00+01:00,2021-02-02T21:00:00+01:00,51.63,EUR,,MWh
Power,Intraday,Continuous,NL,ID1,QH,2021-02-02T21:00:00+01:00,2021-02-02T21:15:00+01:00,57.90,EUR,3.750,MWh
Power,Intraday,Continuous,NL,ID1,QH,2021-02-02T21:15:00+01:00,2021-02-02T21:30:00+01:00,60.00,EUR,3.750,MWh
Power,Intraday,Continuous,NL,ID1,QH,2021-02-02T21:30:00+01:00,2021-02-02T21:45:00+01:00,60.00,EUR,2.500,MWh
Power,Intraday,Continuous,NL,ID1,QH,2021-02-02T21:45:00+01:00,2021-02-02T22:00:00+01:00,40.44,EUR,,MWh
Power,Intraday,Continuous,NL,ID1,QH,2021-02-02T22:00:00+01:00,2021-02-02T22:15:00+01:00,60.08,EUR,,MWh
Power,Intraday,Continuous,NL,ID1,QH,2021-02-02T22:15:00+01:00,2021-02-02T22:30:00+01:00,43.87,EUR,,MWh
Power,Intraday,Continuous,NL,ID1,QH,2021-02-02T22:30:00+01:00,2021-02-02T22:45:00+01:00,47.47,EUR,,MWh
Power,Intraday,Continuous,NL,ID1,QH,2021-02-02T22:45:00+01:00,2021-02-02T23:00:00+01:00,35.08,EUR,,MWh
Power,Intraday,Continuous,NL,ID1,QH,2021-02-02T23:00:00+01:00,2021-02-02T23:15:00+01:00,52.79,EUR,,MWh
Power,Intraday,Continuous,NL,ID1,QH,2021-02-02T23:15:00+01:00,2021-02-02T23:30:00+01:00,37.89,EUR,,MWh
Power,Intraday,Continuous,NL,ID1,QH,2021-02-02T23:30:00+01:00,2021-02-02T23:45:00+01:00,38.70,EUR,,MWh
Power,Intraday,Continuous,NL,ID1,QH,2021-02-02T23:45:00+01:00,2021-02-03T00:00:00+01:00,34.41,EUR,,MWh
Power,Intraday,Continuous,NL,ID3,QH,2021-02-02T00:00:00+01:00,2021-02-02T00:15:00+01:00,53.54,EUR,12.100,MWh
Power,Intraday,Continuous,NL,ID3,QH,2021-02-02T00:15:00+01:00,2021-02-02T00:30:00+01:00,42.67,EUR,5.650,MWh
Power,Intraday,Continuous,NL,ID3,QH,2021-02-02T00:30:00+01:00,2021-02-02T00:45:00+01:00,40.43,EUR,7.450,MWh
Power,Intraday,Continuous,NL,ID3,QH,2021-02-02T00:45:00+01:00,2021-02-02T01:00:00+01:00,36.27,EUR,6.100,MWh
Power,Intraday,Continuous,NL,ID3,QH,2021-02-02T01:00:00+01:00,2021-02-02T01:15:00+01:00,40.28,EUR,8.750,MWh
Power,Intraday,Continuous,NL,ID3,QH,2021-02-02T01:15:00+01:00,2021-02-02T01:30:00+01:00,46.58,EUR,,MWh
Power,Intraday,Continuous,NL,ID3,QH,2021-02-02T01:30:00+01:00,2021-02-02T01:45:00+01:00,42.94,EUR,,MWh
Power,Intraday,Continuous,NL,ID3,QH,2021-02-02T01:45:00+01:00,2021-02-02T02:00:00+01:00,37.48,EUR,7.680,MWh
Power,Intraday,Continuous,NL,ID3,QH,2021-02-02T02:00:00+01:00,2021-02-02T02:15:00+01:00,46.07,EUR,,MWh
Power,Intraday,Continuous,NL,ID3,QH,2021-02-02T02:15:00+01:00,2021-02-02T02:30:00+01:00,39.86,EUR,5.580,MWh
Power,Intraday,Continuous,NL,ID3,QH,2021-02-02T02:30:00+01:00,2021-02-02T02:45:00+01:00,40.41,EUR,8.650,MWh
Power,Intraday,Continuous,NL,ID3,QH,2021-02-02T02:45:00+01:00,2021-02-02T03:00:00+01:00,38.71,EUR,13.700,MWh
Power,Intraday,Continuous,NL,ID3,QH,2021-02-02T03:00:00+01:00,2021-02-02T03:15:00+01:00,41.09,EUR,,MWh
Power,Intraday,Continuous,NL,ID3,QH,2021-02-02T03:15:00+01:00,2021-02-02T03:30:00+01:00,41.09,EUR,,MWh
Power,Intraday,Continuous,NL,ID3,QH,2021-02-02T03:30:00+01:00,2021-02-02T03:45:00+01:00,41.09,EUR,,MWh
Power,Intraday,Continuous,NL,ID3,QH,2021-02-02T03:45:00+01:00,2021-02-02T04:00:00+01:00,41.09,EUR,,MWh
Power,Intraday,Continuous,NL,ID3,QH,2021-02-02T04:00:00+01:00,2021-02-02T04:15:00+01:00,40.33,EUR,,MWh
Power,Intraday,Continuous,NL,ID3,QH,2021-02-02T04:15:00+01:00,2021-02-02T04:30:00+01:00,43.66,EUR,,MWh
Power,Intraday,Continuous,NL,ID3,QH,2021-02-02T04:30:00+01:00,2021-02-02T04:45:00+01:00,43.66,EUR,,MWh
Power,Intraday,Continuous,NL,ID3,QH,2021-02-02T04:45:00+01:00,2021-02-02T05:00:00+01:00,43.66,EUR,,MWh
Power,Intraday,Continuous,NL,ID3,QH,2021-02-02T05:00:00+01:00,2021-02-02T05:15:00+01:00,30.93,EUR,6.880,MWh
Power,Intraday,Continuous,NL,ID3,QH,2021-02-02T05:15:00+01:00,2021-02-02T05:30:00+01:00,29.42,EUR,,MWh
Power,Intraday,Continuous,NL,ID3,QH,2021-02-02T05:30:00+01:00,2021-02-02T05:45:00+01:00,42.96,EUR,12.130,MWh
Power,Intraday,Continuous,NL,ID3,QH,2021-02-02T05:45:00+01:00,2021-02-02T06:00:00+01:00,54.60,EUR,22.280,MWh
Power,Intraday,Continuous,NL,ID3,QH,2021-02-02T06:00:00+01:00,2021-02-02T06:15:00+01:00,31.34,EUR,22.580,MWh
Power,Intraday,Continuous,NL,ID3,QH,2021-02-02T06:15:00+01:00,2021-02-02T06:30:00+01:00,50.00,EUR,3.750,MWh
Power,Intraday,Continuous,NL,ID3,QH,2021-02-02T06:30:00+01:00,2021-02-02T06:45:00+01:00,67.92,EUR,,MWh
Power,Intraday,Continuous,NL,ID3,QH,2021-02-02T06:45:00+01:00,2021-02-02T07:00:00+01:00,56.74,EUR,11.480,MWh
Power,Intraday,Continuous,NL,ID3,QH,2021-02-02T07:00:00+01:00,2021-02-02T07:15:00+01:00,36.10,EUR,,MWh
Power,Intraday,Continuous,NL,ID3,QH,2021-02-02T07:15:00+01:00,2021-02-02T07:30:00+01:00,31.17,EUR,,MWh
Power,Intraday,Continuous,NL,ID3,QH,2021-02-02T07:30:00+01:00,2021-02-02T07:45:00+01:00,59.75,EUR,4.380,MWh
Power,Intraday,Continuous,NL,ID3,QH,2021-02-02T07:45:00+01:00,2021-02-02T08:00:00+01:00,68.32,EUR,47.530,MWh
Power,Intraday,Continuous,NL,ID3,QH,2021-02-02T08:00:00+01:00,2021-02-02T08:15:00+01:00,22.78,EUR,,MWh
Power,Intraday,Continuous,NL,ID3,QH,2021-02-02T08:15:00+01:00,2021-02-02T08:30:00+01:00,22.78,EUR,,MWh
Power,Intraday,Continuous,NL,ID3,QH,2021-02-02T08:30:00+01:00,2021-02-02T08:45:00+01:00,62.27,EUR,19.280,MWh
Power,Intraday,Continuous,NL,ID3,QH,2021-02-02T08:45:00+01:00,2021-02-02T09:00:00+01:00,71.96,EUR,32.680,MWh
Power,Intraday,Continuous,NL,ID3,QH,2021-02-02T09:00:00+01:00,2021-02-02T09:15:00+01:00,52.79,EUR,,MWh
Power,Intraday,Continuous,NL,ID3,QH,2021-02-02T09:15:00+01:00,2021-02-02T09:30:00+01:00,52.79,EUR,,MWh
Power,Intraday,Continuous,NL,ID3,QH,2021-02-02T09:30:00+01:00,2021-02-02T09:45:00+01:00,55.00,EUR,4.500,MWh
Power,Intraday,Continuous,NL,ID3,QH,2021-02-02T09:45:00+01:00,2021-02-02T10:00:00+01:00,65.87,EUR,21.700,MWh
Power,Intraday,Continuous,NL,ID3,QH,2021-02-02T10:00:00+01:00,2021-02-02T10:15:00+01:00,64.79,EUR,18.250,MWh
Power,Intraday,Continuous,NL,ID3,QH,2021-02-02T10:15:00+01:00,2021-02-02T10:30:00+01:00,65.26,EUR,18.530,MWh
Power,Intraday,Continuous,NL,ID3,QH,2021-02-02T10:30:00+01:00,2021-02-02T10:45:00+01:00,62.27,EUR,11.850,MWh
Power,Intraday,Continuous,NL,ID3,QH,2021-02-02T10:45:00+01:00,2021-02-02T11:00:00+01:00,62.59,EUR,23.150,MWh
Power,Intraday,Continuous,NL,ID3,QH,2021-02-02T11:00:00+01:00,2021-02-02T11:15:00+01:00,61.42,EUR,6.380,MWh
Power,Intraday,Continuous,NL,ID3,QH,2021-02-02T11:15:00+01:00,2021-02-02T11:30:00+01:00,63.51,EUR,25.400,MWh
Power,Intraday,Continuous,NL,ID3,QH,2021-02-02T11:30:00+01:00,2021-02-02T11:45:00+01:00,61.96,EUR,39.180,MWh
Power,Intraday,Continuous,NL,ID3,QH,2021-02-02T11:45:00+01:00,2021-02-02T12:00:00+01:00,59.50,EUR,34.700,MWh
Power,Intraday,Continuous,NL,ID3,QH,2021-02-02T12:00:00+01:00,2021-02-02T12:15:00+01:00,65.35,EUR,63.580,MWh
Power,Intraday,Continuous,NL,ID3,QH,2021-02-02T12:15:00+01:00,2021-02-02T12:30:00+01:00,62.56,EUR,34.850,MWh
Power,Intraday,Continuous,NL,ID3,QH,2021-02-02T12:30:00+01:00,2021-02-02T12:45:00+01:00,56.98,EUR,51.950,MWh
Power,Intraday,Continuous,NL,ID3,QH,2021-02-02T12:45:00+01:00,2021-02-02T13:00:00+01:00,52.99,EUR,58.680,MWh
Power,Intraday,Continuous,NL,ID3,QH,2021-02-02T13:00:00+01:00,2021-02-02T13:15:00+01:00,65.17,EUR,28.330,MWh
Power,Intraday,Continuous,NL,ID3,QH,2021-02-02T13:15:00+01:00,2021-02-02T13:30:00+01:00,61.53,EUR,17.930,MWh
Power,Intraday,Continuous,NL,ID3,QH,2021-02-02T13:30:00+01:00,2021-02-02T13:45:00+01:00,60.13,EUR,21.350,MWh
Power,Intraday,Continuous,NL,ID3,QH,2021-02-02T13:45:00+01:00,2021-02-02T14:00:00+01:00,54.44,EUR,27.350,MWh
Power,Intraday,Continuous,NL,ID3,QH,2021-02-02T14:00:00+01:00,2021-02-02T14:15:00+01:00,72.65,EUR,2.930,MWh
Power,Intraday,Continuous,NL,ID3,QH,2021-02-02T14:15:00+01:00,2021-02-02T14:30:00+01:00,66.27,EUR,21.150,MWh
Power,Intraday,Continuous,NL,ID3,QH,2021-02-02T14:30:00+01:00,2021-02-02T14:45:00+01:00,66.40,EUR,24.230,MWh
Power,Intraday,Continuous,NL,ID3,QH,2021-02-02T14:45:00+01:00,2021-02-02T15:00:00+01:00,62.97,EUR,39.750,MWh
Power,Intraday,Continuous,NL,ID3,QH,2021-02-02T15:00:00+01:00,2021-02-02T15:15:00+01:00,59.62,EUR,28.580,MWh
Power,Intraday,Continuous,NL,ID3,QH,2021-02-02T15:15:00+01:00,2021-02-02T15:30:00+01:00,58.29,EUR,8.730,MWh
Power,Intraday,Continuous,NL,ID3,QH,2021-02-02T15:30:00+01:00,2021-02-02T15:45:00+01:00,62.09,EUR,41.100,MWh
Power,Intraday,Continuous,NL,ID3,QH,2021-02-02T15:45:00+01:00,2021-02-02T16:00:00+01:00,54.36,EUR,68.600,MWh
Power,Intraday,Continuous,NL,ID3,QH,2021-02-02T16:00:00+01:00,2021-02-02T16:15:00+01:00,50.16,EUR,70.230,MWh
Power,Intraday,Continuous,NL,ID3,QH,2021-02-02T16:15:00+01:00,2021-02-02T16:30:00+01:00,57.98,EUR,18.130,MWh
Power,Intraday,Continuous,NL,ID3,QH,2021-02-02T16:30:00+01:00,2021-02-02T16:45:00+01:00,60.71,EUR,34.780,MWh
Power,Intraday,Continuous,NL,ID3,QH,2021-02-02T16:45:00+01:00,2021-02-02T17:00:00+01:00,64.24,EUR,37.680,MWh
Power,Intraday,Continuous,NL,ID3,QH,2021-02-02T17:00:00+01:00,2021-02-02T17:15:00+01:00,49.65,EUR,68.980,MWh
Power,Intraday,Continuous,NL,ID3,QH,2021-02-02T17:15:00+01:00,2021-02-02T17:30:00+01:00,59.49,EUR,13.550,MWh
Power,Intraday,Continuous,NL,ID3,QH,2021-02-02T17:30:00+01:00,2021-02-02T17:45:00+01:00,69.98,EUR,25.430,MWh
Power,Intraday,Continuous,NL,ID3,QH,2021-02-02T17:45:00+01:00,2021-02-02T18:00:00+01:00,69.68,EUR,25.800,MWh
Power,Intraday,Continuous,NL,ID3,QH,2021-02-02T18:00:00+01:00,2021-02-02T18:15:00+01:00,53.10,EUR,16.530,MWh
Power,Intraday,Continuous,NL,ID3,QH,2021-02-02T18:15:00+01:00,2021-02-02T18:30:00+01:00,56.32,EUR,31.980,MWh
Power,Intraday,Continuous,NL,ID3,QH,2021-02-02T18:30:00+01:00,2021-02-02T18:45:00+01:00,60.91,EUR,31.500,MWh
Power,Intraday,Continuous,NL,ID3,QH,2021-02-02T18:45:00+01:00,2021-02-02T19:00:00+01:00,52.11,EUR,30.080,MWh
Power,Intraday,Continuous,NL,ID3,QH,2021-02-02T19:00:00+01:00,2021-02-02T19:15:00+01:00,65.34,EUR,25.480,MWh
Power,Intraday,Continuous,NL,ID3,QH,2021-02-02T19:15:00+01:00,2021-02-02T19:30:00+01:00,56.53,EUR,16.350,MWh
Power,Intraday,Continuous,NL,ID3,QH,2021-02-02T19:30:00+01:00,2021-02-02T19:45:00+01:00,50.19,EUR,17.380,MWh
Power,Intraday,Continuous,NL,ID3,QH,2021-02-02T19:45:00+01:00,2021-02-02T20:00:00+01:00,44.99,EUR,6.930,MWh
Power,Intraday,Continuous,NL,ID3,QH,2021-02-02T20:00:00+01:00,2021-02-02T20:15:00+01:00,56.84,EUR,13.380,MWh
Power,Intraday,Continuous,NL,ID3,QH,2021-02-02T20:15:00+01:00,2021-02-02T20:30:00+01:00,52.96,EUR,,MWh
Power,Intraday,Continuous,NL,ID3,QH,2021-02-02T20:30:00+01:00,2021-02-02T20:45:00+01:00,49.99,EUR,17.580,MWh
Power,Intraday,Continuous,NL,ID3,QH,2021-02-02T20:45:00+01:00,2021-02-02T21:00:00+01:00,51.63,EUR,13.200,MWh
Power,Intraday,Continuous,NL,ID3,QH,2021-02-02T21:00:00+01:00,2021-02-02T21:15:00+01:00,56.20,EUR,5.130,MWh
Power,Intraday,Continuous,NL,ID3,QH,2021-02-02T21:15:00+01:00,2021-02-02T21:30:00+01:00,55.41,EUR,6.480,MWh
Power,Intraday,Continuous,NL,ID3,QH,2021-02-02T21:30:00+01:00,2021-02-02T21:45:00+01:00,51.05,EUR,8.230,MWh
Power,Intraday,Continuous,NL,ID3,QH,2021-02-02T21:45:00+01:00,2021-02-02T22:00:00+01:00,40.44,EUR,31.580,MWh
Power,Intraday,Continuous,NL,ID3,QH,2021-02-02T22:00:00+01:00,2021-02-02T22:15:00+01:00,60.08,EUR,13.730,MWh
Power,Intraday,Continuous,NL,ID3,QH,2021-02-02T22:15:00+01:00,2021-02-02T22:30:00+01:00,43.87,EUR,,MWh
Power,Intraday,Continuous,NL,ID3,QH,2021-02-02T22:30:00+01:00,2021-02-02T22:45:00+01:00,47.47,EUR,,MWh
Power,Intraday,Continuous,NL,ID3,QH,2021-02-02T22:45:00+01:00,2021-02-02T23:00:00+01:00,35.08,EUR,10.180,MWh
Power,Intraday,Continuous,NL,ID3,QH,2021-02-02T23:00:00+01:00,2021-02-02T23:15:00+01:00,52.79,EUR,,MWh
Power,Intraday,Continuous,NL,ID3,QH,2021-02-02T23:15:00+01:00,2021-02-02T23:30:00+01:00,37.89,EUR,6.830,MWh
Power,Intraday,Continuous,NL,ID3,QH,2021-02-02T23:30:00+01:00,2021-02-02T23:45:00+01:00,38.70,EUR,3.930,MWh
Power,Intraday,Continuous,NL,ID3,QH,2021-02-02T23:45:00+01:00,2021-02-03T00:00:00+01:00,34.41,EUR,24.050,MWh
Power,Intraday,Continuous,NL,IDFULL,BASE,2021-02-02T00:00:00+01:00,2021-02-03T00:00:00+01:00,51.15,EUR,12445.300,MWh
Power,Intraday,Continuous,NL,IDFULL,PEAK,2021-02-02T08:00:00+01:00,2021-02-02T20:00:00+01:00,57.78,EUR,7531.700,MWh
