Commodity,NominationModality,TradingModality,MarketArea,IndexName,TimeResolution,DeliveryStart,DeliveryEnd,IndexPrice,Currency,Volume,VolumeUnit
Power,Intraday,Continuous,NL,IDFULL,H,2021-06-29T00:00:00+02:00,2021-06-29T01:00:00+02:00,85.04,EUR,796.900,MWh
Power,Intraday,Continuous,NL,IDFULL,H,2021-06-29T01:00:00+02:00,2021-06-29T02:00:00+02:00,81.13,EUR,948.700,MWh
Power,Intraday,Continuous,NL,IDFULL,H,2021-06-29T02:00:00+02:00,2021-06-29T03:00:00+02:00,80.02,EUR,786.200,MWh
Power,Intraday,Continuous,NL,IDFULL,H,2021-06-29T03:00:00+02:00,2021-06-29T04:00:00+02:00,79.23,EUR,987.800,MWh
Power,Intraday,Continuous,NL,IDFULL,H,2021-06-29T04:00:00+02:00,2021-06-29T05:00:00+02:00,79.97,EUR,1090.800,MWh
Power,Intraday,Continuous,NL,IDFULL,H,2021-06-29T05:00:00+02:00,2021-06-29T06:00:00+02:00,87.06,EUR,1057.100,MWh
Power,Intraday,Continuous,NL,IDFULL,H,2021-06-29T06:00:00+02:00,2021-06-29T07:00:00+02:00,104.75,EUR,910.900,MWh
Power,Intraday,Continuous,NL,IDFULL,H,2021-06-29T07:00:00+02:00,2021-06-29T08:00:00+02:00,109.40,EUR,699.600,MWh
Power,Intraday,Continuous,NL,IDFULL,H,2021-06-29T08:00:00+02:00,2021-06-29T09:00:00+02:00,115.23,EUR,1213.100,MWh
Power,Intraday,Continuous,NL,IDFULL,H,2021-06-29T09:00:00+02:00,2021-06-29T10:00:00+02:00,114.59,EUR,1531.500,MWh
Power,Intraday,Continuous,NL,IDFULL,H,2021-06-29T10:00:00+02:00,2021-06-29T11:00:00+02:00,106.36,EUR,1937.200,MWh
Power,Intraday,Continuous,NL,IDFULL,H,2021-06-29T11:00:00+02:00,2021-06-29T12:00:00+02:00,99.33,EUR,1850.000,MWh
Power,Intraday,Continuous,NL,IDFULL,H,2021-06-29T12:00:00+02:00,2021-06-29T13:00:00+02:00,96.51,EUR,1425.400,MWh
Power,Intraday,Continuous,NL,IDFULL,H,2021-06-29T13:00:00+02:00,2021-06-29T14:00:00+02:00,91.29,EUR,1290.000,MWh
Power,Intraday,Continuous,NL,IDFULL,H,2021-06-29T14:00:00+02:00,2021-06-29T15:00:00+02:00,89.24,EUR,1308.200,MWh
Power,Intraday,Continuous,NL,IDFULL,H,2021-06-29T15:00:00+02:00,2021-06-29T16:00:00+02:00,108.50,EUR,1630.400,MWh
Power,Intraday,Continuous,NL,IDFULL,H,2021-06-29T16:00:00+02:00,2021-06-29T17:00:00+02:00,93.06,EUR,1935.000,MWh
Power,Intraday,Continuous,NL,IDFULL,H,2021-06-29T17:00:00+02:00,2021-06-29T18:00:00+02:00,112.53,EUR,1117.800,MWh
Power,Intraday,Continuous,NL,IDFULL,H,2021-06-29T18:00:00+02:00,2021-06-29T19:00:00+02:00,139.76,EUR,908.000,MWh
Power,Intraday,Continuous,NL,IDFULL,H,2021-06-29T19:00:00+02:00,2021-06-29T20:00:00+02:00,151.26,EUR,1180.700,MWh
Power,Intraday,Continuous,NL,IDFULL,H,2021-06-29T20:00:00+02:00,2021-06-29T21:00:00+02:00,147.74,EUR,1310.400,MWh
Power,Intraday,Continuous,NL,IDFULL,H,2021-06-29T21:00:00+02:00,2021-06-29T22:00:00+02:00,136.68,EUR,1071.900,MWh
Power,Intraday,Continuous,NL,IDFULL,H,2021-06-29T22:00:00+02:00,2021-06-29T23:00:00+02:00,116.75,EUR,2248.300,MWh
Power,Intraday,Continuous,NL,IDFULL,H,2021-06-29T23:00:00+02:00,2021-06-30T00:00:00+02:00,92.86,EUR,2763.300,MWh
Power,Intraday,Continuous,NL,ID1,H,2021-06-29T00:00:00+02:00,2021-06-29T01:00:00+02:00,83.41,EUR,,MWh
Power,Intraday,Continuous,NL,ID1,H,2021-06-29T01:00:00+02:00,2021-06-29T02:00:00+02:00,94.83,EUR,29.000,MWh
Power,Intraday,Continuous,NL,ID1,H,2021-06-29T02:00:00+02:00,2021-06-29T03:00:00+02:00,103.49,EUR,49.700,MWh
Power,Intraday,Continuous,NL,ID1,H,2021-06-29T03:00:00+02:00,2021-06-29T04:00:00+02:00,94.25,EUR,13.400,MWh
Power,Intraday,Continuous,NL,ID1,H,2021-06-29T04:00:00+02:00,2021-06-29T05:00:00+02:00,79.99,EUR,,MWh
Power,Intraday,Continuous,NL,ID1,H,2021-06-29T05:00:00+02:00,2021-06-29T06:00:00+02:00,86.95,EUR,,MWh
Power,Intraday,Continuous,NL,ID1,H,2021-06-29T06:00:00+02:00,2021-06-29T07:00:00+02:00,102.41,EUR,,MWh
Power,Intraday,Continuous,NL,ID1,H,2021-06-29T07:00:00+02:00,2021-06-29T08:00:00+02:00,134.16,EUR,15.000,MWh
Power,Intraday,Continuous,NL,ID1,H,2021-06-29T08:00:00+02:00,2021-06-29T09:00:00+02:00,112.41,EUR,,MWh
Power,Intraday,Continuous,NL,ID1,H,2021-06-29T09:00:00+02:00,2021-06-29T10:00:00+02:00,110.64,EUR,,MWh
Power,Intraday,Continuous,NL,ID1,H,2021-06-29T10:00:00+02:00,2021-06-29T11:00:00+02:00,80.21,EUR,137.200,MWh
Power,Intraday,Continuous,NL,ID1,H,2021-06-29T11:00:00+02:00,2021-06-29T12:00:00+02:00,72.13,EUR,47.300,MWh
Power,Intraday,Continuous,NL,ID1,H,2021-06-29T12:00:00+02:00,2021-06-29T13:00:00+02:00,105.26,EUR,85.100,MWh
Power,Intraday,Continuous,NL,ID1,H,2021-06-29T13:00:00+02:00,2021-06-29T14:00:00+02:00,99.00,EUR,10.000,MWh
Power,Intraday,Continuous,NL,ID1,H,2021-06-29T14:00:00+02:00,2021-06-29T15:00:00+02:00,87.65,EUR,,MWh
Power,Intraday,Continuous,NL,ID1,H,2021-06-29T15:00:00+02:00,2021-06-29T16:00:00+02:00,191.76,EUR,311.000,MWh
Power,Intraday,Continuous,NL,ID1,H,2021-06-29T16:00:00+02:00,2021-06-29T17:00:00+02:00,58.64,EUR,62.200,MWh
Power,Intraday,Continuous,NL,ID1,H,2021-06-29T17:00:00+02:00,2021-06-29T18:00:00+02:00,132.30,EUR,99.100,MWh
Power,Intraday,Continuous,NL,ID1,H,2021-06-29T18:00:00+02:00,2021-06-29T19:00:00+02:00,177.61,EUR,117.900,MWh
Power,Intraday,Continuous,NL,ID1,H,2021-06-29T19:00:00+02:00,2021-06-29T20:00:00+02:00,155.96,EUR,145.200,MWh
Power,Intraday,Continuous,NL,ID1,H,2021-06-29T20:00:00+02:00,2021-06-29T21:00:00+02:00,176.39,EUR,34.400,MWh
Power,Intraday,Continuous,NL,ID1,H,2021-06-29T21:00:00+02:00,2021-06-29T22:00:00+02:00,145.87,EUR,80.000,MWh
Power,Intraday,Continuous,NL,ID1,H,2021-06-29T22:00:00+02:00,2021-06-29T23:00:00+02:00,118.81,EUR,116.000,MWh
Power,Intraday,Continuous,NL,ID1,H,2021-06-29T23:00:00+02:00,2021-06-30T00:00:00+02:00,71.50,EUR,177.300,MWh
Power,Intraday,Continuous,NL,ID3,H,2021-06-29T00:00:00+02:00,2021-06-29T01:00:00+02:00,83.41,EUR,507.000,MWh
Power,Intraday,Continuous,NL,ID3,H,2021-06-29T01:00:00+02:00,2021-06-29T02:00:00+02:00,81.56,EUR,538.100,MWh
Power,Intraday,Continuous,NL,ID3,H,2021-06-29T02:00:00+02:00,2021-06-29T03:00:00+02:00,80.86,EUR,424.700,MWh
Power,Intraday,Continuous,NL,ID3,H,2021-06-29T03:00:00+02:00,2021-06-29T04:00:00+02:00,80.53,EUR,502.100,MWh
Power,Intraday,Continuous,NL,ID3,H,2021-06-29T04:00:00+02:00,2021-06-29T05:00:00+02:00,79.99,EUR,509.300,MWh
Power,Intraday,Continuous,NL,ID3,H,2021-06-29T05:00:00+02:00,2021-06-29T06:00:00+02:00,86.95,EUR,519.500,MWh
Power,Intraday,Continuous,NL,ID3,H,2021-06-29T06:00:00+02:00,2021-06-29T07:00:00+02:00,102.41,EUR,428.400,MWh
Power,Intraday,Continuous,NL,ID3,H,2021-06-29T07:00:00+02:00,2021-06-29T08:00:00+02:00,100.87,EUR,288.000,MWh
Power,Intraday,Continuous,NL,ID3,H,2021-06-29T08:00:00+02:00,2021-06-29T09:00:00+02:00,112.41,EUR,959.800,MWh
Power,Intraday,Continuous,NL,ID3,H,2021-06-29T09:00:00+02:00,2021-06-29T10:00:00+02:00,110.64,EUR,924.400,MWh
Power,Intraday,Continuous,NL,ID3,H,2021-06-29T10:00:00+02:00,2021-06-29T11:00:00+02:00,105.81,EUR,1584.500,MWh
Power,Intraday,Continuous,NL,ID3,H,2021-06-29T11:00:00+02:00,2021-06-29T12:00:00+02:00,99.14,EUR,1327.300,MWh
Power,Intraday,Continuous,NL,ID3,H,2021-06-29T12:00:00+02:00,2021-06-29T13:00:00+02:00,95.81,EUR,696.200,MWh
Power,Intraday,Continuous,NL,ID3,H,2021-06-29T13:00:00+02:00,2021-06-29T14:00:00+02:00,89.69,EUR,694.600,MWh
Power,Intraday,Continuous,NL,ID3,H,2021-06-29T14:00:00+02:00,2021-06-29T15:00:00+02:00,87.65,EUR,731.500,MWh
Power,Intraday,Continuous,NL,ID3,H,2021-06-29T15:00:00+02:00,2021-06-29T16:00:00+02:00,119.65,EUR,1006.100,MWh
Power,Intraday,Continuous,NL,ID3,H,2021-06-29T16:00:00+02:00,2021-06-29T17:00:00+02:00,93.93,EUR,1593.600,MWh
Power,Intraday,Continuous,NL,ID3,H,2021-06-29T17:00:00+02:00,2021-06-29T18:00:00+02:00,113.67,EUR,927.500,MWh
Power,Intraday,Continuous,NL,ID3,H,2021-06-29T18:00:00+02:00,2021-06-29T19:00:00+02:00,149.44,EUR,694.300,MWh
Power,Intraday,Continuous,NL,ID3,H,2021-06-29T19:00:00+02:00,2021-06-29T20:00:00+02:00,161.72,EUR,921.300,MWh
Power,Intraday,Continuous,NL,ID3,H,2021-06-29T20:00:00+02:00,2021-06-29T21:00:00+02:00,153.82,EUR,949.600,MWh
Power,Intraday,Continuous,NL,ID3,H,2021-06-29T21:00:00+02:00,2021-06-29T22:00:00+02:00,139.26,EUR,788.900,MWh
Power,Intraday,Continuous,NL,ID3,H,2021-06-29T22:00:00+02:00,2021-06-29T23:00:00+02:00,118.19,EUR,1440.100,MWh
Power,Intraday,Continuous,NL,ID3,H,2021-06-29T23:00:00+02:00,2021-06-30T00:00:00+02:00,92.18,EUR,1492.600,MWh
Power,Intraday,Continuous,NL,IDFULL,HH,2021-06-29T00:00:00+02:00,2021-06-29T00:30:00+02:00,85.04,EUR,,MWh
Power,Intraday,Continuous,NL,IDFULL,HH,2021-06-29T00:30:00+02:00,2021-06-29T01:00:00+02:00,85.04,EUR,,MWh
Power,Intraday,Continuous,NL,IDFULL,HH,2021-06-29T01:00:00+02:00,2021-06-29T01:30:00+02:00,81.13,EUR,,MWh
Power,Intraday,Continuous,NL,IDFULL,HH,2021-06-29T01:30:00+02:00,2021-06-29T02:00:00+02:00,81.13,EUR,,MWh
Power,Intraday,Continuous,NL,IDFULL,HH,2021-06-29T02:00:00+02:00,2021-06-29T02:30:00+02:00,80.02,EUR,,MWh
Power,Intraday,Continuous,NL,IDFULL,HH,2021-06-29T02:30:00+02:00,2021-06-29T03:00:00+02:00,80.02,EUR,,MWh
Power,Intraday,Continuous,NL,IDFULL,HH,2021-06-29T03:00:00+02:00,2021-06-29T03:30:00+02:00,79.23,EUR,,MWh
Power,Intraday,Continuous,NL,IDFULL,HH,2021-06-29T03:30:00+02:00,2021-06-29T04:00:00+02:00,79.23,EUR,,MWh
Power,Intraday,Continuous,NL,IDFULL,HH,2021-06-29T04:00:00+02:00,2021-06-29T04:30:00+02:00,79.97,EUR,,MWh
Power,Intraday,Continuous,NL,IDFULL,HH,2021-06-29T04:30:00+02:00,2021-06-29T05:00:00+02:00,79.97,EUR,,MWh
Power,Intraday,Continuous,NL,IDFULL,HH,2021-06-29T05:00:00+02:00,2021-06-29T05:30:00+02:00,87.06,EUR,,MWh
Power,Intraday,Continuous,NL,IDFULL,HH,2021-06-29T05:30:00+02:00,2021-06-29T06:00:00+02:00,87.06,EUR,,MWh
Power,Intraday,Continuous,NL,IDFULL,HH,2021-06-29T06:00:00+02:00,2021-06-29T06:30:00+02:00,85.50,EUR,6.400,MWh
Power,Intraday,Continuous,NL,IDFULL,HH,2021-06-29T06:30:00+02:00,2021-06-29T07:00:00+02:00,124.00,EUR,,MWh
Power,Intraday,Continuous,NL,IDFULL,HH,2021-06-29T07:00:00+02:00,2021-06-29T07:30:00+02:00,109.40,EUR,,MWh
Power,Intraday,Continuous,NL,IDFULL,HH,2021-06-29T07:30:00+02:00,2021-06-29T08:00:00+02:00,109.40,EUR,,MWh
Power,Intraday,Continuous,NL,IDFULL,HH,2021-06-29T08:00:00+02:00,2021-06-29T08:30:00+02:00,115.23,EUR,,MWh
Power,Intraday,Continuous,NL,IDFULL,HH,2021-06-29T08:30:00+02:00,2021-06-29T09:00:00+02:00,115.23,EUR,,MWh
Power,Intraday,Continuous,NL,IDFULL,HH,2021-06-29T09:00:00+02:00,2021-06-29T09:30:00+02:00,114.59,EUR,,MWh
Power,Intraday,Continuous,NL,IDFULL,HH,2021-06-29T09:30:00+02:00,2021-06-29T10:00:00+02:00,114.59,EUR,,MWh
Power,Intraday,Continuous,NL,IDFULL,HH,2021-06-29T10:00:00+02:00,2021-06-29T10:30:00+02:00,106.36,EUR,,MWh
Power,Intraday,Continuous,NL,IDFULL,HH,2021-06-29T10:30:00+02:00,2021-06-29T11:00:00+02:00,106.36,EUR,,MWh
Power,Intraday,Continuous,NL,IDFULL,HH,2021-06-29T11:00:00+02:00,2021-06-29T11:30:00+02:00,99.33,EUR,,MWh
Power,Intraday,Continuous,NL,IDFULL,HH,2021-06-29T11:30:00+02:00,2021-06-29T12:00:00+02:00,99.33,EUR,,MWh
Power,Intraday,Continuous,NL,IDFULL,HH,2021-06-29T12:00:00+02:00,2021-06-29T12:30:00+02:00,96.51,EUR,,MWh
Power,Intraday,Continuous,NL,IDFULL,HH,2021-06-29T12:30:00+02:00,2021-06-29T13:00:00+02:00,96.51,EUR,,MWh
Power,Intraday,Continuous,NL,IDFULL,HH,2021-06-29T13:00:00+02:00,2021-06-29T13:30:00+02:00,91.29,EUR,,MWh
Power,Intraday,Continuous,NL,IDFULL,HH,2021-06-29T13:30:00+02:00,2021-06-29T14:00:00+02:00,91.29,EUR,,MWh
Power,Intraday,Continuous,NL,IDFULL,HH,2021-06-29T14:00:00+02:00,2021-06-29T14:30:00+02:00,89.24,EUR,,MWh
Power,Intraday,Continuous,NL,IDFULL,HH,2021-06-29T14:30:00+02:00,2021-06-29T15:00:00+02:00,89.24,EUR,,MWh
Power,Intraday,Continuous,NL,IDFULL,HH,2021-06-29T15:00:00+02:00,2021-06-29T15:30:00+02:00,108.50,EUR,,MWh
Power,Intraday,Continuous,NL,IDFULL,HH,2021-06-29T15:30:00+02:00,2021-06-29T16:00:00+02:00,108.50,EUR,,MWh
Power,Intraday,Continuous,NL,IDFULL,HH,2021-06-29T16:00:00+02:00,2021-06-29T16:30:00+02:00,93.06,EUR,,MWh
Power,Intraday,Continuous,NL,IDFULL,HH,2021-06-29T16:30:00+02:00,2021-06-29T17:00:00+02:00,93.06,EUR,,MWh
Power,Intraday,Continuous,NL,IDFULL,HH,2021-06-29T17:00:00+02:00,2021-06-29T17:30:00+02:00,81.90,EUR,33.700,MWh
Power,Intraday,Continuous,NL,IDFULL,HH,2021-06-29T17:30:00+02:00,2021-06-29T18:00:00+02:00,143.16,EUR,,MWh
Power,Intraday,Continuous,NL,IDFULL,HH,2021-06-29T18:00:00+02:00,2021-06-29T18:30:00+02:00,94.99,EUR,5.600,MWh
Power,Intraday,Continuous,NL,IDFULL,HH,2021-06-29T18:30:00+02:00,2021-06-29T19:00:00+02:00,184.53,EUR,,MWh
Power,Intraday,Continuous,NL,IDFULL,HH,2021-06-29T19:00:00+02:00,2021-06-29T19:30:00+02:00,151.26,EUR,,MWh
Power,Intraday,Continuous,NL,IDFULL,HH,2021-06-29T19:30:00+02:00,2021-06-29T20:00:00+02:00,151.26,EUR,,MWh
Power,Intraday,Continuous,NL,IDFULL,HH,2021-06-29T20:00:00+02:00,2021-06-29T20:30:00+02:00,147.74,EUR,,MWh
Power,Intraday,Continuous,NL,IDFULL,HH,2021-06-29T20:30:00+02:00,2021-06-29T21:00:00+02:00,147.74,EUR,,MWh
Power,Intraday,Continuous,NL,IDFULL,HH,2021-06-29T21:00:00+02:00,2021-06-29T21:30:00+02:00,167.56,EUR,,MWh
Power,Intraday,Continuous,NL,IDFULL,HH,2021-06-29T21:30:00+02:00,2021-06-29T22:00:00+02:00,105.80,EUR,5.200,MWh
Power,Intraday,Continuous,NL,IDFULL,HH,2021-06-29T22:00:00+02:00,2021-06-29T22:30:00+02:00,116.75,EUR,,MWh
Power,Intraday,Continuous,NL,IDFULL,HH,2021-06-29T22:30:00+02:00,2021-06-29T23:00:00+02:00,116.75,EUR,,MWh
Power,Intraday,Continuous,NL,IDFULL,HH,2021-06-29T23:00:00+02:00,2021-06-29T23:30:00+02:00,92.86,EUR,,MWh
Power,Intraday,Continuous,NL,IDFULL,HH,2021-06-29T23:30:00+02:00,2021-06-30T00:00:00+02:00,92.86,EUR,,MWh
Power,Intraday,Continuous,NL,ID1,HH,2021-06-29T00:00:00+02:00,2021-06-29T00:30:00+02:00,85.04,EUR,,MWh
Power,Intraday,Continuous,NL,ID1,HH,2021-06-29T00:30:00+02:00,2021-06-29T01:00:00+02:00,85.04,EUR,,MWh
Power,Intraday,Continuous,NL,ID1,HH,2021-06-29T01:00:00+02:00,2021-06-29T01:30:00+02:00,81.13,EUR,,MWh
Power,Intraday,Continuous,NL,ID1,HH,2021-06-29T01:30:00+02:00,2021-06-29T02:00:00+02:00,81.13,EUR,,MWh
Power,Intraday,Continuous,NL,ID1,HH,2021-06-29T02:00:00+02:00,2021-06-29T02:30:00+02:00,80.02,EUR,,MWh
Power,Intraday,Continuous,NL,ID1,HH,2021-06-29T02:30:00+02:00,2021-06-29T03:00:00+02:00,80.02,EUR,,MWh
Power,Intraday,Continuous,NL,ID1,HH,2021-06-29T03:00:00+02:00,2021-06-29T03:30:00+02:00,79.23,EUR,,MWh
Power,Intraday,Continuous,NL,ID1,HH,2021-06-29T03:30:00+02:00,2021-06-29T04:00:00+02:00,79.23,EUR,,MWh
Power,Intraday,Continuous,NL,ID1,HH,2021-06-29T04:00:00+02:00,2021-06-29T04:30:00+02:00,79.97,EUR,,MWh
Power,Intraday,Continuous,NL,ID1,HH,2021-06-29T04:30:00+02:00,2021-06-29T05:00:00+02:00,79.97,EUR,,MWh
Power,Intraday,Continuous,NL,ID1,HH,2021-06-29T05:00:00+02:00,2021-06-29T05:30:00+02:00,87.06,EUR,,MWh
Power,Intraday,Continuous,NL,ID1,HH,2021-06-29T05:30:00+02:00,2021-06-29T06:00:00+02:00,87.06,EUR,,MWh
Power,Intraday,Continuous,NL,ID1,HH,2021-06-29T06:00:00+02:00,2021-06-29T06:30:00+02:00,85.50,EUR,,MWh
Power,Intraday,Continuous,NL,ID1,HH,2021-06-29T06:30:00+02:00,2021-06-29T07:00:00+02:00,124.00,EUR,,MWh
Power,Intraday,Continuous,NL,ID1,HH,2021-06-29T07:00:00+02:00,2021-06-29T07:30:00+02:00,109.40,EUR,,MWh
Power,Intraday,Continuous,NL,ID1,HH,2021-06-29T07:30:00+02:00,2021-06-29T08:00:00+02:00,109.40,EUR,,MWh
Power,Intraday,Continuous,NL,ID1,HH,2021-06-29T08:00:00+02:00,2021-06-29T08:30:00+02:00,115.23,EUR,,MWh
Power,Intraday,Continuous,NL,ID1,HH,2021-06-29T08:30:00+02:00,2021-06-29T09:00:00+02:00,115.23,EUR,,MWh
Power,Intraday,Continuous,NL,ID1,HH,2021-06-29T09:00:00+02:00,2021-06-29T09:30:00+02:00,114.59,EUR,,MWh
Power,Intraday,Continuous,NL,ID1,HH,2021-06-29T09:30:00+02:00,2021-06-29T10:00:00+02:00,114.59,EUR,,MWh
Power,Intraday,Continuous,NL,ID1,HH,2021-06-29T10:00:00+02:00,2021-06-29T10:30:00+02:00,106.36,EUR,,MWh
Power,Intraday,Continuous,NL,ID1,HH,2021-06-29T10:30:00+02:00,2021-06-29T11:00:00+02:00,106.36,EUR,,MWh
Power,Intraday,Continuous,NL,ID1,HH,2021-06-29T11:00:00+02:00,2021-06-29T11:30:00+02:00,99.33,EUR,,MWh
Power,Intraday,Continuous,NL,ID1,HH,2021-06-29T11:30:00+02:00,2021-06-29T12:00:00+02:00,99.33,EUR,,MWh
Power,Intraday,Continuous,NL,ID1,HH,2021-06-29T12:00:00+02:00,2021-06-29T12:30:00+02:00,96.51,EUR,,MWh
Power,Intraday,Continuous,NL,ID1,HH,2021-06-29T12:30:00+02:00,2021-06-29T13:00:00+02:00,96.51,EUR,,MWh
Power,Intraday,Continuous,NL,ID1,HH,2021-06-29T13:00:00+02:00,2021-06-29T13:30:00+02:00,91.29,EUR,,MWh
Power,Intraday,Continuous,NL,ID1,HH,2021-06-29T13:30:00+02:00,2021-06-29T14:00:00+02:00,91.29,EUR,,MWh
Power,Intraday,Continuous,NL,ID1,HH,2021-06-29T14:00:00+02:00,2021-06-29T14:30:00+02:00,89.24,EUR,,MWh
Power,Intraday,Continuous,NL,ID1,HH,2021-06-29T14:30:00+02:00,2021-06-29T15:00:00+02:00,89.24,EUR,,MWh
Power,Intraday,Continuous,NL,ID1,HH,2021-06-29T15:00:00+02:00,2021-06-29T15:30:00+02:00,108.50,EUR,,MWh
Power,Intraday,Continuous,NL,ID1,HH,2021-06-29T15:30:00+02:00,2021-06-29T16:00:00+02:00,108.50,EUR,,MWh
Power,Intraday,Continuous,NL,ID1,HH,2021-06-29T16:00:00+02:00,2021-06-29T16:30:00+02:00,93.06,EUR,,MWh
Power,Intraday,Continuous,NL,ID1,HH,2021-06-29T16:30:00+02:00,2021-06-29T17:00:00+02:00,93.06,EUR,,MWh
Power,Intraday,Continuous,NL,ID1,HH,2021-06-29T17:00:00+02:00,2021-06-29T17:30:00+02:00,81.63,EUR,,MWh
Power,Intraday,Continuous,NL,ID1,HH,2021-06-29T17:30:00+02:00,2021-06-29T18:00:00+02:00,143.16,EUR,,MWh
Power,Intraday,Continuous,NL,ID1,HH,2021-06-29T18:00:00+02:00,2021-06-29T18:30:00+02:00,94.99,EUR,,MWh
Power,Intraday,Continuous,NL,ID1,HH,2021-06-29T18:30:00+02:00,2021-06-29T19:00:00+02:00,184.53,EUR,,MWh
Power,Intraday,Continuous,NL,ID1,HH,2021-06-29T19:00:00+02:00,2021-06-29T19:30:00+02:00,151.26,EUR,,MWh
Power,Intraday,Continuous,NL,ID1,HH,2021-06-29T19:30:00+02:00,2021-06-29T20:00:00+02:00,151.26,EUR,,MWh
Power,Intraday,Continuous,NL,ID1,HH,2021-06-29T20:00:00+02:00,2021-06-29T20:30:00+02:00,147.74,EUR,,MWh
Power,Intraday,Continuous,NL,ID1,HH,2021-06-29T20:30:00+02:00,2021-06-29T21:00:00+02:00,147.74,EUR,,MWh
Power,Intraday,Continuous,NL,ID1,HH,2021-06-29T21:00:00+02:00,2021-06-29T21:30:00+02:00,167.56,EUR,,MWh
Power,Intraday,Continuous,NL,ID1,HH,2021-06-29T21:30:00+02:00,2021-06-29T22:00:00+02:00,105.80,EUR,,MWh
Power,Intraday,Continuous,NL,ID1,HH,2021-06-29T22:00:00+02:00,2021-06-29T22:30:00+02:00,116.75,EUR,,MWh
Power,Intraday,Continuous,NL,ID1,HH,2021-06-29T22:30:00+02:00,2021-06-29T23:00:00+02:00,116.75,EUR,,MWh
Power,Intraday,Continuous,NL,ID1,HH,2021-06-29T23:00:00+02:00,2021-06-29T23:30:00+02:00,92.86,EUR,,MWh
Power,Intraday,Continuous,NL,ID1,HH,2021-06-29T23:30:00+02:00,2021-06-30T00:00:00+02:00,92.86,EUR,,MWh
Power,Intraday,Continuous,NL,ID3,HH,2021-06-29T00:00:00+02:00,2021-06-29T00:30:00+02:00,85.04,EUR,,MWh
Power,Intraday,Continuous,NL,ID3,HH,2021-06-29T00:30:00+02:00,2021-06-29T01:00:00+02:00,85.04,EUR,,MWh
Power,Intraday,Continuous,NL,ID3,HH,2021-06-29T01:00:00+02:00,2021-06-29T01:30:00+02:00,81.13,EUR,,MWh
Power,Intraday,Continuous,NL,ID3,HH,2021-06-29T01:30:00+02:00,2021-06-29T02:00:00+02:00,81.13,EUR,,MWh
Power,Intraday,Continuous,NL,ID3,HH,2021-06-29T02:00:00+02:00,2021-06-29T02:30:00+02:00,80.02,EUR,,MWh
Power,Intraday,Continuous,NL,ID3,HH,2021-06-29T02:30:00+02:00,2021-06-29T03:00:00+02:00,80.02,EUR,,MWh
Power,Intraday,Continuous,NL,ID3,HH,2021-06-29T03:00:00+02:00,2021-06-29T03:30:00+02:00,79.23,EUR,,MWh
Power,Intraday,Continuous,NL,ID3,HH,2021-06-29T03:30:00+02:00,2021-06-29T04:00:00+02:00,79.23,EUR,,MWh
Power,Intraday,Continuous,NL,ID3,HH,2021-06-29T04:00:00+02:00,2021-06-29T04:30:00+02:00,79.97,EUR,,MWh
Power,Intraday,Continuous,NL,ID3,HH,2021-06-29T04:30:00+02:00,2021-06-29T05:00:00+02:00,79.97,EUR,,MWh
Power,Intraday,Continuous,NL,ID3,HH,2021-06-29T05:00:00+02:00,2021-06-29T05:30:00+02:00,87.06,EUR,,MWh
Power,Intraday,Continuous,NL,ID3,HH,2021-06-29T05:30:00+02:00,2021-06-29T06:00:00+02:00,87.06,EUR,,MWh
Power,Intraday,Continuous,NL,ID3,HH,2021-06-29T06:00:00+02:00,2021-06-29T06:30:00+02:00,85.50,EUR,6.400,MWh
Power,Intraday,Continuous,NL,ID3,HH,2021-06-29T06:30:00+02:00,2021-06-29T07:00:00+02:00,124.00,EUR,,MWh
Power,Intraday,Continuous,NL,ID3,HH,2021-06-29T07:00:00+02:00,2021-06-29T07:30:00+02:00,109.40,EUR,,MWh
Power,Intraday,Continuous,NL,ID3,HH,2021-06-29T07:30:00+02:00,2021-06-29T08:00:00+02:00,109.40,EUR,,MWh
Power,Intraday,Continuous,NL,ID3,HH,2021-06-29T08:00:00+02:00,2021-06-29T08:30:00+02:00,115.23,EUR,,MWh
Power,Intraday,Continuous,NL,ID3,HH,2021-06-29T08:30:00+02:00,2021-06-29T09:00:00+02:00,115.23,EUR,,MWh
Power,Intraday,Continuous,NL,ID3,HH,2021-06-29T09:00:00+02:00,2021-06-29T09:30:00+02:00,114.59,EUR,,MWh
Power,Intraday,Continuous,NL,ID3,HH,2021-06-29T09:30:00+02:00,2021-06-29T10:00:00+02:00,114.59,EUR,,MWh
Power,Intraday,Continuous,NL,ID3,HH,2021-06-29T10:00:00+02:00,2021-06-29T10:30:00+02:00,106.36,EUR,,MWh
Power,Intraday,Continuous,NL,ID3,HH,2021-06-29T10:30:00+02:00,2021-06-29T11:00:00+02:00,106.36,EUR,,MWh
Power,Intraday,Continuous,NL,ID3,HH,2021-06-29T11:00:00+02:00,2021-06-29T11:30:00+02:00,99.33,EUR,,MWh
Power,Intraday,Continuous,NL,ID3,HH,2021-06-29T11:30:00+02:00,2021-06-29T12:00:00+02:00,99.33,EUR,,MWh
Power,Intraday,Continuous,NL,ID3,HH,2021-06-29T12:00:00+02:00,2021-06-29T12:30:00+02:00,96.51,EUR,,MWh
Power,Intraday,Continuous,NL,ID3,HH,2021-06-29T12:30:00+02:00,2021-06-29T13:00:00+02:00,96.51,EUR,,MWh
Power,Intraday,Continuous,NL,ID3,HH,2021-06-29T13:00:00+02:00,2021-06-29T13:30:00+02:00,91.29,EUR,,MWh
Power,Intraday,Continuous,NL,ID3,HH,2021-06-29T13:30:00+02:00,2021-06-29T14:00:00+02:00,91.29,EUR,,MWh
Power,Intraday,Continuous,NL,ID3,HH,2021-06-29T14:00:00+02:00,2021-06-29T14:30:00+02:00,89.24,EUR,,MWh
Power,Intraday,Continuous,NL,ID3,HH,2021-06-29T14:30:00+02:00,2021-06-29T15:00:00+02:00,89.24,EUR,,MWh
Power,Intraday,Continuous,NL,ID3,HH,2021-06-29T15:00:00+02:00,2021-06-29T15:30:00+02:00,108.50,EUR,,MWh
Power,Intraday,Continuous,NL,ID3,HH,2021-06-29T15:30:00+02:00,2021-06-29T16:00:00+02:00,108.50,EUR,,MWh
Power,Intraday,Continuous,NL,ID3,HH,2021-06-29T16:00:00+02:00,2021-06-29T16:30:00+02:00,93.06,EUR,,MWh
Power,Intraday,Continuous,NL,ID3,HH,2021-06-29T16:30:00+02:00,2021-06-29T17:00:00+02:00,93.06,EUR,,MWh
Power,Intraday,Continuous,NL,ID3,HH,2021-06-29T17:00:00+02:00,2021-06-29T17:30:00+02:00,81.63,EUR,31.600,MWh
Power,Intraday,Continuous,NL,ID3,HH,2021-06-29T17:30:00+02:00,2021-06-29T18:00:00+02:00,143.16,EUR,,MWh
Power,Intraday,Continuous,NL,ID3,HH,2021-06-29T18:00:00+02:00,2021-06-29T18:30:00+02:00,94.99,EUR,5.600,MWh
Power,Intraday,Continuous,NL,ID3,HH,2021-06-29T18:30:00+02:00,2021-06-29T19:00:00+02:00,184.53,EUR,,MWh
Power,Intraday,Continuous,NL,ID3,HH,2021-06-29T19:00:00+02:00,2021-06-29T19:30:00+02:00,151.26,EUR,,MWh
Power,Intraday,Continuous,NL,ID3,HH,2021-06-29T19:30:00+02:00,2021-06-29T20:00:00+02:00,151.26,EUR,,MWh
Power,Intraday,Continuous,NL,ID3,HH,2021-06-29T20:00:00+02:00,2021-06-29T20:30:00+02:00,147.74,EUR,,MWh
Power,Intraday,Continuous,NL,ID3,HH,2021-06-29T20:30:00+02:00,2021-06-29T21:00:00+02:00,147.74,EUR,,MWh
Power,Intraday,Continuous,NL,ID3,HH,2021-06-29T21:00:00+02:00,2021-06-29T21:30:00+02:00,167.56,EUR,,MWh
Power,Intraday,Continuous,NL,ID3,HH,2021-06-29T21:30:00+02:00,2021-06-29T22:00:00+02:00,105.80,EUR,,MWh
Power,Intraday,Continuous,NL,ID3,HH,2021-06-29T22:00:00+02:00,2021-06-29T22:30:00+02:00,116.75,EUR,,MWh
Power,Intraday,Continuous,NL,ID3,HH,2021-06-29T22:30:00+02:00,2021-06-29T23:00:00+02:00,116.75,EUR,,MWh
Power,Intraday,Continuous,NL,ID3,HH,2021-06-29T23:00:00+02:00,2021-06-29T23:30:00+02:00,92.86,EUR,,MWh
Power,Intraday,Continuous,NL,ID3,HH,2021-06-29T23:30:00+02:00,2021-06-30T00:00:00+02:00,92.86,EUR,,MWh
Power,Intraday,Continuous,NL,IDFULL,QH,2021-06-29T00:00:00+02:00,2021-06-29T00:15:00+02:00,90.84,EUR,32.330,MWh
Power,Intraday,Continuous,NL,IDFULL,QH,2021-06-29T00:15:00+02:00,2021-06-29T00:30:00+02:00,87.57,EUR,27.930,MWh
Power,Intraday,Continuous,NL,IDFULL,QH,2021-06-29T00:30:00+02:00,2021-06-29T00:45:00+02:00,73.97,EUR,12.430,MWh
Power,Intraday,Continuous,NL,IDFULL,QH,2021-06-29T00:45:00+02:00,2021-06-29T01:00:00+02:00,70.49,EUR,19.500,MWh
Power,Intraday,Continuous,NL,IDFULL,QH,2021-06-29T01:00:00+02:00,2021-06-29T01:15:00+02:00,84.73,EUR,28.230,MWh
Power,Intraday,Continuous,NL,IDFULL,QH,2021-06-29T01:15:00+02:00,2021-06-29T01:30:00+02:00,84.83,EUR,10.380,MWh
Power,Intraday,Continuous,NL,IDFULL,QH,2021-06-29T01:30:00+02:00,2021-06-29T01:45:00+02:00,79.51,EUR,15.050,MWh
Power,Intraday,Continuous,NL,IDFULL,QH,2021-06-29T01:45:00+02:00,2021-06-29T02:00:00+02:00,74.34,EUR,21.750,MWh
Power,Intraday,Continuous,NL,IDFULL,QH,2021-06-29T02:00:00+02:00,2021-06-29T02:15:00+02:00,80.69,EUR,8.350,MWh
Power,Intraday,Continuous,NL,IDFULL,QH,2021-06-29T02:15:00+02:00,2021-06-29T02:30:00+02:00,77.05,EUR,,MWh
Power,Intraday,Continuous,NL,IDFULL,QH,2021-06-29T02:30:00+02:00,2021-06-29T02:45:00+02:00,77.05,EUR,,MWh
Power,Intraday,Continuous,NL,IDFULL,QH,2021-06-29T02:45:00+02:00,2021-06-29T03:00:00+02:00,85.30,EUR,4.150,MWh
Power,Intraday,Continuous,NL,IDFULL,QH,2021-06-29T03:00:00+02:00,2021-06-29T03:15:00+02:00,77.25,EUR,,MWh
Power,Intraday,Continuous,NL,IDFULL,QH,2021-06-29T03:15:00+02:00,2021-06-29T03:30:00+02:00,77.25,EUR,,MWh
Power,Intraday,Continuous,NL,IDFULL,QH,2021-06-29T03:30:00+02:00,2021-06-29T03:45:00+02:00,77.25,EUR,,MWh
Power,Intraday,Continuous,NL,IDFULL,QH,2021-06-29T03:45:00+02:00,2021-06-29T04:00:00+02:00,85.17,EUR,9.950,MWh
Power,Intraday,Continuous,NL,IDFULL,QH,2021-06-29T04:00:00+02:00,2021-06-29T04:15:00+02:00,73.37,EUR,4.880,MWh
Power,Intraday,Continuous,NL,IDFULL,QH,2021-06-29T04:15:00+02:00,2021-06-29T04:30:00+02:00,73.01,EUR,5.700,MWh
Power,Intraday,Continuous,NL,IDFULL,QH,2021-06-29T04:30:00+02:00,2021-06-29T04:45:00+02:00,75.02,EUR,7.600,MWh
Power,Intraday,Continuous,NL,IDFULL,QH,2021-06-29T04:45:00+02:00,2021-06-29T05:00:00+02:00,85.18,EUR,8.180,MWh
Power,Intraday,Continuous,NL,IDFULL,QH,2021-06-29T05:00:00+02:00,2021-06-29T05:15:00+02:00,74.00,EUR,20.680,MWh
Power,Intraday,Continuous,NL,IDFULL,QH,2021-06-29T05:15:00+02:00,2021-06-29T05:30:00+02:00,79.80,EUR,12.030,MWh
Power,Intraday,Continuous,NL,IDFULL,QH,2021-06-29T05:30:00+02:00,2021-06-29T05:45:00+02:00,85.49,EUR,23.330,MWh
Power,Intraday,Continuous,NL,IDFULL,QH,2021-06-29T05:45:00+02:00,2021-06-29T06:00:00+02:00,95.73,EUR,38.330,MWh
Power,Intraday,Continuous,NL,IDFULL,QH,2021-06-29T06:00:00+02:00,2021-06-29T06:15:00+02:00,74.86,EUR,55.880,MWh
Power,Intraday,Continuous,NL,IDFULL,QH,2021-06-29T06:15:00+02:00,2021-06-29T06:30:00+02:00,83.94,EUR,21.230,MWh
Power,Intraday,Continuous,NL,IDFULL,QH,2021-06-29T06:30:00+02:00,2021-06-29T06:45:00+02:00,105.92,EUR,30.950,MWh
Power,Intraday,Continuous,NL,IDFULL,QH,2021-06-29T06:45:00+02:00,2021-06-29T07:00:00+02:00,134.65,EUR,41.280,MWh
Power,Intraday,Continuous,NL,IDFULL,QH,2021-06-29T07:00:00+02:00,2021-06-29T07:15:00+02:00,83.98,EUR,58.430,MWh
Power,Intraday,Continuous,NL,IDFULL,QH,2021-06-29T07:15:00+02:00,2021-06-29T07:30:00+02:00,101.56,EUR,13.630,MWh
Power,Intraday,Continuous,NL,IDFULL,QH,2021-06-29T07:30:00+02:00,2021-06-29T07:45:00+02:00,104.52,EUR,16.050,MWh
Power,Intraday,Continuous,NL,IDFULL,QH,2021-06-29T07:45:00+02:00,2021-06-29T08:00:00+02:00,138.01,EUR,20.700,MWh
Power,Intraday,Continuous,NL,IDFULL,QH,2021-06-29T08:00:00+02:00,2021-06-29T08:15:00+02:00,141.23,EUR,35.780,MWh
Power,Intraday,Continuous,NL,IDFULL,QH,2021-06-29T08:15:00+02:00,2021-06-29T08:30:00+02:00,122.45,EUR,15.680,MWh
Power,Intraday,Continuous,NL,IDFULL,QH,2021-06-29T08:30:00+02:00,2021-06-29T08:45:00+02:00,98.51,EUR,36.980,MWh
Power,Intraday,Continuous,NL,IDFULL,QH,2021-06-29T08:45:00+02:00,2021-06-29T09:00:00+02:00,91.58,EUR,49.480,MWh
Power,Intraday,Continuous,NL,IDFULL,QH,2021-06-29T09:00:00+02:00,2021-06-29T09:15:00+02:00,131.01,EUR,23.100,MWh
Power,Intraday,Continuous,NL,IDFULL,QH,2021-06-29T09:15:00+02:00,2021-06-29T09:30:00+02:00,116.79,EUR,12.380,MWh
Power,Intraday,Continuous,NL,IDFULL,QH,2021-06-29T09:30:00+02:00,2021-06-29T09:45:00+02:00,94.31,EUR,29.830,MWh
Power,Intraday,Continuous,NL,IDFULL,QH,2021-06-29T09:45:00+02:00,2021-06-29T10:00:00+02:00,84.89,EUR,39.100,MWh
Power,Intraday,Continuous,NL,IDFULL,QH,2021-06-29T10:00:00+02:00,2021-06-29T10:15:00+02:00,123.93,EUR,43.100,MWh
Power,Intraday,Continuous,NL,IDFULL,QH,2021-06-29T10:15:00+02:00,2021-06-29T10:30:00+02:00,104.17,EUR,9.530,MWh
Power,Intraday,Continuous,NL,IDFULL,QH,2021-06-29T10:30:00+02:00,2021-06-29T10:45:00+02:00,89.85,EUR,86.580,MWh
Power,Intraday,Continuous,NL,IDFULL,QH,2021-06-29T10:45:00+02:00,2021-06-29T11:00:00+02:00,85.56,EUR,99.100,MWh
Power,Intraday,Continuous,NL,IDFULL,QH,2021-06-29T11:00:00+02:00,2021-06-29T11:15:00+02:00,112.36,EUR,29.980,MWh
Power,Intraday,Continuous,NL,IDFULL,QH,2021-06-29T11:15:00+02:00,2021-06-29T11:30:00+02:00,95.85,EUR,14.800,MWh
Power,Intraday,Continuous,NL,IDFULL,QH,2021-06-29T11:30:00+02:00,2021-06-29T11:45:00+02:00,89.96,EUR,53.750,MWh
Power,Intraday,Continuous,NL,IDFULL,QH,2021-06-29T11:45:00+02:00,2021-06-29T12:00:00+02:00,84.27,EUR,69.980,MWh
Power,Intraday,Continuous,NL,IDFULL,QH,2021-06-29T12:00:00+02:00,2021-06-29T12:15:00+02:00,104.60,EUR,59.150,MWh
Power,Intraday,Continuous,NL,IDFULL,QH,2021-06-29T12:15:00+02:00,2021-06-29T12:30:00+02:00,93.24,EUR,17.850,MWh
Power,Intraday,Continuous,NL,IDFULL,QH,2021-06-29T12:30:00+02:00,2021-06-29T12:45:00+02:00,83.30,EUR,56.230,MWh
Power,Intraday,Continuous,NL,IDFULL,QH,2021-06-29T12:45:00+02:00,2021-06-29T13:00:00+02:00,84.73,EUR,86.630,MWh
Power,Intraday,Continuous,NL,IDFULL,QH,2021-06-29T13:00:00+02:00,2021-06-29T13:15:00+02:00,96.90,EUR,22.300,MWh
Power,Intraday,Continuous,NL,IDFULL,QH,2021-06-29T13:15:00+02:00,2021-06-29T13:30:00+02:00,94.04,EUR,27.080,MWh
Power,Intraday,Continuous,NL,IDFULL,QH,2021-06-29T13:30:00+02:00,2021-06-29T13:45:00+02:00,84.00,EUR,50.380,MWh
Power,Intraday,Continuous,NL,IDFULL,QH,2021-06-29T13:45:00+02:00,2021-06-29T14:00:00+02:00,80.48,EUR,54.880,MWh
Power,Intraday,Continuous,NL,IDFULL,QH,2021-06-29T14:00:00+02:00,2021-06-29T14:15:00+02:00,74.40,EUR,60.300,MWh
Power,Intraday,Continuous,NL,IDFULL,QH,2021-06-29T14:15:00+02:00,2021-06-29T14:30:00+02:00,82.51,EUR,42.000,MWh
Power,Intraday,Continuous,NL,IDFULL,QH,2021-06-29T14:30:00+02:00,2021-06-29T14:45:00+02:00,87.34,EUR,27.080,MWh
Power,Intraday,Continuous,NL,IDFULL,QH,2021-06-29T14:45:00+02:00,2021-06-29T15:00:00+02:00,99.05,EUR,39.830,MWh
Power,Intraday,Continuous,NL,IDFULL,QH,2021-06-29T15:00:00+02:00,2021-06-29T15:15:00+02:00,96.70,EUR,46.050,MWh
Power,Intraday,Continuous,NL,IDFULL,QH,2021-06-29T15:15:00+02:00,2021-06-29T15:30:00+02:00,93.56,EUR,195.380,MWh
Power,Intraday,Continuous,NL,IDFULL,QH,2021-06-29T15:30:00+02:00,2021-06-29T15:45:00+02:00,95.01,EUR,167.050,MWh
Power,Intraday,Continuous,NL,IDFULL,QH,2021-06-29T15:45:00+02:00,2021-06-29T16:00:00+02:00,107.75,EUR,206.080,MWh
Power,Intraday,Continuous,NL,IDFULL,QH,2021-06-29T16:00:00+02:00,2021-06-29T16:15:00+02:00,69.27,EUR,50.580,MWh
Power,Intraday,Continuous,NL,IDFULL,QH,2021-06-29T16:15:00+02:00,2021-06-29T16:30:00+02:00,83.68,EUR,25.480,MWh
Power,Intraday,Continuous,NL,IDFULL,QH,2021-06-29T16:30:00+02:00,2021-06-29T16:45:00+02:00,98.10,EUR,31.880,MWh
Power,Intraday,Continuous,NL,IDFULL,QH,2021-06-29T16:45:00+02:00,2021-06-29T17:00:00+02:00,113.33,EUR,34.950,MWh
Power,Intraday,Continuous,NL,IDFULL,QH,2021-06-29T17:00:00+02:00,2021-06-29T17:15:00+02:00,67.75,EUR,33.750,MWh
Power,Intraday,Continuous,NL,IDFULL,QH,2021-06-29T17:15:00+02:00,2021-06-29T17:30:00+02:00,104.24,EUR,35.430,MWh
Power,Intraday,Continuous,NL,IDFULL,QH,2021-06-29T17:30:00+02:00,2021-06-29T17:45:00+02:00,123.31,EUR,38.200,MWh
Power,Intraday,Continuous,NL,IDFULL,QH,2021-06-29T17:45:00+02:00,2021-06-29T18:00:00+02:00,168.17,EUR,62.000,MWh
Power,Intraday,Continuous,NL,IDFULL,QH,2021-06-29T18:00:00+02:00,2021-06-29T18:15:00+02:00,81.56,EUR,33.650,MWh
Power,Intraday,Continuous,NL,IDFULL,QH,2021-06-29T18:15:00+02:00,2021-06-29T18:30:00+02:00,135.64,EUR,20.930,MWh
Power,Intraday,Continuous,NL,IDFULL,QH,2021-06-29T18:30:00+02:00,2021-06-29T18:45:00+02:00,99.51,EUR,10.680,MWh
Power,Intraday,Continuous,NL,IDFULL,QH,2021-06-29T18:45:00+02:00,2021-06-29T19:00:00+02:00,231.50,EUR,19.300,MWh
Power,Intraday,Continuous,NL,IDFULL,QH,2021-06-29T19:00:00+02:00,2021-06-29T19:15:00+02:00,129.31,EUR,15.530,MWh
Power,Intraday,Continuous,NL,IDFULL,QH,2021-06-29T19:15:00+02:00,2021-06-29T19:30:00+02:00,123.48,EUR,14.630,MWh
Power,Intraday,Continuous,NL,IDFULL,QH,2021-06-29T19:30:00+02:00,2021-06-29T19:45:00+02:00,161.33,EUR,15.000,MWh
Power,Intraday,Continuous,NL,IDFULL,QH,2021-06-29T19:45:00+02:00,2021-06-29T20:00:00+02:00,211.70,EUR,51.750,MWh
Power,Intraday,Continuous,NL,IDFULL,QH,2021-06-29T20:00:00+02:00,2021-06-29T20:15:00+02:00,163.68,EUR,7.900,MWh
Power,Intraday,Continuous,NL,IDFULL,QH,2021-06-29T20:15:00+02:00,2021-06-29T20:30:00+02:00,192.25,EUR,6.880,MWh
Power,Intraday,Continuous,NL,IDFULL,QH,2021-06-29T20:30:00+02:00,2021-06-29T20:45:00+02:00,104.38,EUR,4.680,MWh
Power,Intraday,Continuous,NL,IDFULL,QH,2021-06-29T20:45:00+02:00,2021-06-29T21:00:00+02:00,110.83,EUR,25.880,MWh
Power,Intraday,Continuous,NL,IDFULL,QH,2021-06-29T21:00:00+02:00,2021-06-29T21:15:00+02:00,140.02,EUR,16.680,MWh
Power,Intraday,Continuous,NL,IDFULL,QH,2021-06-29T21:15:00+02:00,2021-06-29T21:30:00+02:00,145.49,EUR,19.600,MWh
Power,Intraday,Continuous,NL,IDFULL,QH,2021-06-29T21:30:00+02:00,2021-06-29T21:45:00+02:00,137.70,EUR,37.950,MWh
Power,Intraday,Continuous,NL,IDFULL,QH,2021-06-29T21:45:00+02:00,2021-06-29T22:00:00+02:00,101.60,EUR,32.780,MWh
Power,Intraday,Continuous,NL,IDFULL,QH,2021-06-29T22:00:00+02:00,2021-06-29T22:15:00+02:00,127.39,EUR,46.350,MWh
Power,Intraday,Continuous,NL,IDFULL,QH,2021-06-29T22:15:00+02:00,2021-06-29T22:30:00+02:00,127.85,EUR,41.250,MWh
Power,Intraday,Continuous,NL,IDFULL,QH,2021-06-29T22:30:00+02:00,2021-06-29T22:45:00+02:00,104.43,EUR,53.530,MWh
Power,Intraday,Continuous,NL,IDFULL,QH,2021-06-29T22:45:00+02:00,2021-06-29T23:00:00+02:00,89.42,EUR,65.280,MWh
Power,Intraday,Continuous,NL,IDFULL,QH,2021-06-29T23:00:00+02:00,2021-06-29T23:15:00+02:00,102.94,EUR,82.280,MWh
Power,Intraday,Continuous,NL,IDFULL,QH,2021-06-29T23:15:00+02:00,2021-06-29T23:30:00+02:00,101.40,EUR,34.300,MWh
Power,Intraday,Continuous,NL,IDFULL,QH,2021-06-29T23:30:00+02:00,2021-06-29T23:45:00+02:00,86.70,EUR,54.900,MWh
Power,Intraday,Continuous,NL,IDFULL,QH,2021-06-29T23:45:00+02:00,2021-06-30T00:00:00+02:00,75.01,EUR,72.650,MWh
Power,Intraday,Continuous,NL,ID1,QH,2021-06-29T00:00:00+02:00,2021-06-29T00:15:00+02:00,90.48,EUR,,MWh
Power,Intraday,Continuous,NL,ID1,QH,2021-06-29T00:15:00+02:00,2021-06-29T00:30:00+02:00,86.24,EUR,,MWh
Power,Intraday,Continuous,NL,ID1,QH,2021-06-29T00:30:00+02:00,2021-06-29T00:45:00+02:00,70.12,EUR,,MWh
Power,Intraday,Continuous,NL,ID1,QH,2021-06-29T00:45:00+02:00,2021-06-29T01:00:00+02:00,77.74,EUR,3.330,MWh
Power,Intraday,Continuous,NL,ID1,QH,2021-06-29T01:00:00+02:00,2021-06-29T01:15:00+02:00,85.28,EUR,,MWh
Power,Intraday,Continuous,NL,ID1,QH,2021-06-29T01:15:00+02:00,2021-06-29T01:30:00+02:00,85.40,EUR,,MWh
Power,Intraday,Continuous,NL,ID1,QH,2021-06-29T01:30:00+02:00,2021-06-29T01:45:00+02:00,79.15,EUR,,MWh
Power,Intraday,Continuous,NL,ID1,QH,2021-06-29T01:45:00+02:00,2021-06-29T02:00:00+02:00,74.51,EUR,,MWh
Power,Intraday,Continuous,NL,ID1,QH,2021-06-29T02:00:00+02:00,2021-06-29T02:15:00+02:00,80.69,EUR,,MWh
Power,Intraday,Continuous,NL,ID1,QH,2021-06-29T02:15:00+02:00,2021-06-29T02:30:00+02:00,77.05,EUR,,MWh
Power,Intraday,Continuous,NL,ID1,QH,2021-06-29T02:30:00+02:00,2021-06-29T02:45:00+02:00,77.05,EUR,,MWh
Power,Intraday,Continuous,NL,ID1,QH,2021-06-29T02:45:00+02:00,2021-06-29T03:00:00+02:00,85.48,EUR,,MWh
Power,Intraday,Continuous,NL,ID1,QH,2021-06-29T03:00:00+02:00,2021-06-29T03:15:00+02:00,77.25,EUR,,MWh
Power,Intraday,Continuous,NL,ID1,QH,2021-06-29T03:15:00+02:00,2021-06-29T03:30:00+02:00,77.25,EUR,,MWh
Power,Intraday,Continuous,NL,ID1,QH,2021-06-29T03:30:00+02:00,2021-06-29T03:45:00+02:00,77.25,EUR,,MWh
Power,Intraday,Continuous,NL,ID1,QH,2021-06-29T03:45:00+02:00,2021-06-29T04:00:00+02:00,85.17,EUR,,MWh
Power,Intraday,Continuous,NL,ID1,QH,2021-06-29T04:00:00+02:00,2021-06-29T04:15:00+02:00,74.37,EUR,,MWh
Power,Intraday,Continuous,NL,ID1,QH,2021-06-29T04:15:00+02:00,2021-06-29T04:30:00+02:00,73.21,EUR,,MWh
Power,Intraday,Continuous,NL,ID1,QH,2021-06-29T04:30:00+02:00,2021-06-29T04:45:00+02:00,74.96,EUR,,MWh
Power,Intraday,Continuous,NL,ID1,QH,2021-06-29T04:45:00+02:00,2021-06-29T05:00:00+02:00,84.30,EUR,,MWh
Power,Intraday,Continuous,NL,ID1,QH,2021-06-29T05:00:00+02:00,2021-06-29T05:15:00+02:00,75.56,EUR,,MWh
Power,Intraday,Continuous,NL,ID1,QH,2021-06-29T05:15:00+02:00,2021-06-29T05:30:00+02:00,79.96,EUR,,MWh
Power,Intraday,Continuous,NL,ID1,QH,2021-06-29T05:30:00+02:00,2021-06-29T05:45:00+02:00,81.17,EUR,,MWh
Power,Intraday,Continuous,NL,ID1,QH,2021-06-29T05:45:00+02:00,2021-06-29T06:00:00+02:00,89.59,EUR,,MWh
Power,Intraday,Continuous,NL,ID1,QH,2021-06-29T06:00:00+02:00,2021-06-29T06:15:00+02:00,78.26,EUR,,MWh
Power,Intraday,Continuous,NL,ID1,QH,2021-06-29T06:15:00+02:00,2021-06-29T06:30:00+02:00,79.95,EUR,,MWh
Power,Intraday,Continuous,NL,ID1,QH,2021-06-29T06:30:00+02:00,2021-06-29T06:45:00+02:00,102.39,EUR,,MWh
Power,Intraday,Continuous,NL,ID1,QH,2021-06-29T06:45:00+02:00,2021-06-29T07:00:00+02:00,137.42,EUR,,MWh
Power,Intraday,Continuous,NL,ID1,QH,2021-06-29T07:00:00+02:00,2021-06-29T07:15:00+02:00,90.39,EUR,,MWh
Power,Intraday,Continuous,NL,ID1,QH,2021-06-29T07:15:00+02:00,2021-06-29T07:30:00+02:00,87.40,EUR,,MWh
Power,Intraday,Continuous,NL,ID1,QH,2021-06-29T07:30:00+02:00,2021-06-29T07:45:00+02:00,93.76,EUR,,MWh
Power,Intraday,Continuous,NL,ID1,QH,2021-06-29T07:45:00+02:00,2021-06-29T08:00:00+02:00,122.32,EUR,,MWh
Power,Intraday,Continuous,NL,ID1,QH,2021-06-29T08:00:00+02:00,2021-06-29T08:15:00+02:00,138.44,EUR,,MWh
Power,Intraday,Continuous,NL,ID1,QH,2021-06-29T08:15:00+02:00,2021-06-29T08:30:00+02:00,120.04,EUR,,MWh
Power,Intraday,Continuous,NL,ID1,QH,2021-06-29T08:30:00+02:00,2021-06-29T08:45:00+02:00,97.32,EUR,,MWh
Power,Intraday,Continuous,NL,ID1,QH,2021-06-29T08:45:00+02:00,2021-06-29T09:00:00+02:00,88.06,EUR,,MWh
Power,Intraday,Continuous,NL,ID1,QH,2021-06-29T09:00:00+02:00,2021-06-29T09:15:00+02:00,131.02,EUR,,MWh
Power,Intraday,Continuous,NL,ID1,QH,2021-06-29T09:15:00+02:00,2021-06-29T09:30:00+02:00,118.29,EUR,,MWh
Power,Intraday,Continuous,NL,ID1,QH,2021-06-29T09:30:00+02:00,2021-06-29T09:45:00+02:00,94.10,EUR,,MWh
Power,Intraday,Continuous,NL,ID1,QH,2021-06-29T09:45:00+02:00,2021-06-29T10:00:00+02:00,83.84,EUR,,MWh
Power,Intraday,Continuous,NL,ID1,QH,2021-06-29T10:00:00+02:00,2021-06-29T10:15:00+02:00,68.84,EUR,7.400,MWh
Power,Intraday,Continuous,NL,ID1,QH,2021-06-29T10:15:00+02:00,2021-06-29T10:30:00+02:00,101.18,EUR,,MWh
Power,Intraday,Continuous,NL,ID1,QH,2021-06-29T10:30:00+02:00,2021-06-29T10:45:00+02:00,65.00,EUR,2.500,MWh
Power,Intraday,Continuous,NL,ID1,QH,2021-06-29T10:45:00+02:00,2021-06-29T11:00:00+02:00,65.79,EUR,3.750,MWh
Power,Intraday,Continuous,NL,ID1,QH,2021-06-29T11:00:00+02:00,2021-06-29T11:15:00+02:00,114.84,EUR,,MWh
Power,Intraday,Continuous,NL,ID1,QH,2021-06-29T11:15:00+02:00,2021-06-29T11:30:00+02:00,95.21,EUR,,MWh
Power,Intraday,Continuous,NL,ID1,QH,2021-06-29T11:30:00+02:00,2021-06-29T11:45:00+02:00,89.27,EUR,,MWh
Power,Intraday,Continuous,NL,ID1,QH,2021-06-29T11:45:00+02:00,2021-06-29T12:00:00+02:00,84.17,EUR,,MWh
Power,Intraday,Continuous,NL,ID1,QH,2021-06-29T12:00:00+02:00,2021-06-29T12:15:00+02:00,102.79,EUR,,MWh
Power,Intraday,Continuous,NL,ID1,QH,2021-06-29T12:15:00+02:00,2021-06-29T12:30:00+02:00,92.52,EUR,,MWh
Power,Intraday,Continuous,NL,ID1,QH,2021-06-29T12:30:00+02:00,2021-06-29T12:45:00+02:00,80.80,EUR,,MWh
Power,Intraday,Continuous,NL,ID1,QH,2021-06-29T12:45:00+02:00,2021-06-29T13:00:00+02:00,83.72,EUR,,MWh
Power,Intraday,Continuous,NL,ID1,QH,2021-06-29T13:00:00+02:00,2021-06-29T13:15:00+02:00,92.47,EUR,,MWh
Power,Intraday,Continuous,NL,ID1,QH,2021-06-29T13:15:00+02:00,2021-06-29T13:30:00+02:00,93.33,EUR,,MWh
Power,Intraday,Continuous,NL,ID1,QH,2021-06-29T13:30:00+02:00,2021-06-29T13:45:00+02:00,81.96,EUR,,MWh
Power,Intraday,Continuous,NL,ID1,QH,2021-06-29T13:45:00+02:00,2021-06-29T14:00:00+02:00,77.42,EUR,,MWh
Power,Intraday,Continuous,NL,ID1,QH,2021-06-29T14:00:00+02:00,2021-06-29T14:15:00+02:00,65.69,EUR,10.000,MWh
Power,Intraday,Continuous,NL,ID1,QH,2021-06-29T14:15:00+02:00,2021-06-29T14:30:00+02:00,81.90,EUR,,MWh
Power,Intraday,Continuous,NL,ID1,QH,2021-06-29T14:30:00+02:00,2021-06-29T14:45:00+02:00,85.91,EUR,,MWh
Power,Intraday,Continuous,NL,ID1,QH,2021-06-29T14:45:00+02:00,2021-06-29T15:00:00+02:00,95.27,EUR,,MWh
Power,Intraday,Continuous,NL,ID1,QH,2021-06-29T15:00:00+02:00,2021-06-29T15:15:00+02:00,214.70,EUR,6.500,MWh
Power,Intraday,Continuous,NL,ID1,QH,2021-06-29T15:15:00+02:00,2021-06-29T15:30:00+02:00,93.76,EUR,,MWh
Power,Intraday,Continuous,NL,ID1,QH,2021-06-29T15:30:00+02:00,2021-06-29T15:45:00+02:00,95.27,EUR,,MWh
Power,Intraday,Continuous,NL,ID1,QH,2021-06-29T15:45:00+02:00,2021-06-29T16:00:00+02:00,108.48,EUR,,MWh
Power,Intraday,Continuous,NL,ID1,QH,2021-06-29T16:00:00+02:00,2021-06-29T16:15:00+02:00,33.07,EUR,8.250,MWh
Power,Intraday,Continuous,NL,ID1,QH,2021-06-29T16:15:00+02:00,2021-06-29T16:30:00+02:00,51.65,EUR,3.250,MWh
Power,Intraday,Continuous,NL,ID1,QH,2021-06-29T16:30:00+02:00,2021-06-29T16:45:00+02:00,98.48,EUR,,MWh
Power,Intraday,Continuous,NL,ID1,QH,2021-06-29T16:45:00+02:00,2021-06-29T17:00:00+02:00,116.47,EUR,,MWh
Power,Intraday,Continuous,NL,ID1,QH,2021-06-29T17:00:00+02:00,2021-06-29T17:15:00+02:00,69.48,EUR,8.450,MWh
Power,Intraday,Continuous,NL,ID1,QH,2021-06-29T17:15:00+02:00,2021-06-29T17:30:00+02:00,125.94,EUR,,MWh
Power,Intraday,Continuous,NL,ID1,QH,2021-06-29T17:30:00+02:00,2021-06-29T17:45:00+02:00,121.27,EUR,,MWh
Power,Intraday,Continuous,NL,ID1,QH,2021-06-29T17:45:00+02:00,2021-06-29T18:00:00+02:00,187.06,EUR,,MWh
Power,Intraday,Continuous,NL,ID1,QH,2021-06-29T18:00:00+02:00,2021-06-29T18:15:00+02:00,81.58,EUR,,MWh
Power,Intraday,Continuous,NL,ID1,QH,2021-06-29T18:15:00+02:00,2021-06-29T18:30:00+02:00,140.44,EUR,,MWh
Power,Intraday,Continuous,NL,ID1,QH,2021-06-29T18:30:00+02:00,2021-06-29T18:45:00+02:00,98.00,EUR,,MWh
Power,Intraday,Continuous,NL,ID1,QH,2021-06-29T18:45:00+02:00,2021-06-29T19:00:00+02:00,340.12,EUR,,MWh
Power,Intraday,Continuous,NL,ID1,QH,2021-06-29T19:00:00+02:00,2021-06-29T19:15:00+02:00,136.61,EUR,,MWh
Power,Intraday,Continuous,NL,ID1,QH,2021-06-29T19:15:00+02:00,2021-06-29T19:30:00+02:00,125.06,EUR,5.800,MWh
Power,Intraday,Continuous,NL,ID1,QH,2021-06-29T19:30:00+02:00,2021-06-29T19:45:00+02:00,202.01,EUR,,MWh
Power,Intraday,Continuous,NL,ID1,QH,2021-06-29T19:45:00+02:00,2021-06-29T20:00:00+02:00,278.86,EUR,,MWh
Power,Intraday,Continuous,NL,ID1,QH,2021-06-29T20:00:00+02:00,2021-06-29T20:15:00+02:00,167.40,EUR,,MWh
Power,Intraday,Continuous,NL,ID1,QH,2021-06-29T20:15:00+02:00,2021-06-29T20:30:00+02:00,193.47,EUR,,MWh
Power,Intraday,Continuous,NL,ID1,QH,2021-06-29T20:30:00+02:00,2021-06-29T20:45:00+02:00,104.38,EUR,,MWh
Power,Intraday,Continuous,NL,ID1,QH,2021-06-29T20:45:00+02:00,2021-06-29T21:00:00+02:00,116.39,EUR,,MWh
Power,Intraday,Continuous,NL,ID1,QH,2021-06-29T21:00:00+02:00,2021-06-29T21:15:00+02:00,145.11,EUR,,MWh
Power,Intraday,Continuous,NL,ID1,QH,2021-06-29T21:15:00+02:00,2021-06-29T21:30:00+02:00,149.15,EUR,,MWh
Power,Intraday,Continuous,NL,ID1,QH,2021-06-29T21:30:00+02:00,2021-06-29T21:45:00+02:00,146.68,EUR,,MWh
Power,Intraday,Continuous,NL,ID1,QH,2021-06-29T21:45:00+02:00,2021-06-29T22:00:00+02:00,113.25,EUR,,MWh
Power,Intraday,Continuous,NL,ID1,QH,2021-06-29T22:00:00+02:00,2021-06-29T22:15:00+02:00,129.34,EUR,,MWh
Power,Intraday,Continuous,NL,ID1,QH,2021-06-29T22:15:00+02:00,2021-06-29T22:30:00+02:00,123.90,EUR,,MWh
Power,Intraday,Continuous,NL,ID1,QH,2021-06-29T22:30:00+02:00,2021-06-29T22:45:00+02:00,54.18,EUR,2.500,MWh
Power,Intraday,Continuous,NL,ID1,QH,2021-06-29T22:45:00+02:00,2021-06-29T23:00:00+02:00,89.48,EUR,,MWh
Power,Intraday,Continuous,NL,ID1,QH,2021-06-29T23:00:00+02:00,2021-06-29T23:15:00+02:00,49.77,EUR,3.750,MWh
Power,Intraday,Continuous,NL,ID1,QH,2021-06-29T23:15:00+02:00,2021-06-29T23:30:00+02:00,104.25,EUR,,MWh
Power,Intraday,Continuous,NL,ID1,QH,2021-06-29T23:30:00+02:00,2021-06-29T23:45:00+02:00,85.53,EUR,,MWh
Power,Intraday,Continuous,NL,ID1,QH,2021-06-29T23:45:00+02:00,2021-06-30T00:00:00+02:00,74.98,EUR,,MWh
Power,Intraday,Continuous,NL,ID3,QH,2021-06-29T00:00:00+02:00,2021-06-29T00:15:00+02:00,90.48,EUR,27.450,MWh
Power,Intraday,Continuous,NL,ID3,QH,2021-06-29T00:15:00+02:00,2021-06-29T00:30:00+02:00,86.24,EUR,23.200,MWh
Power,Intraday,Continuous,NL,ID3,QH,2021-06-29T00:30:00+02:00,2021-06-29T00:45:00+02:00,70.12,EUR,9.200,MWh
Power,Intraday,Continuous,NL,ID3,QH,2021-06-29T00:45:00+02:00,2021-06-29T01:00:00+02:00,69.81,EUR,16.880,MWh
Power,Intraday,Continuous,NL,ID3,QH,2021-06-29T01:00:00+02:00,2021-06-29T01:15:00+02:00,85.28,EUR,26.030,MWh
Power,Intraday,Continuous,NL,ID3,QH,2021-06-29T01:15:00+02:00,2021-06-29T01:30:00+02:00,85.40,EUR,8.930,MWh
Power,Intraday,Continuous,NL,ID3,QH,2021-06-29T01:30:00+02:00,2021-06-29T01:45:00+02:00,79.15,EUR,13.100,MWh
Power,Intraday,Continuous,NL,ID3,QH,2021-06-29T01:45:00+02:00,2021-06-29T02:00:00+02:00,74.51,EUR,11.530,MWh
Power,Intraday,Continuous,NL,ID3,QH,2021-06-29T02:00:00+02:00,2021-06-29T02:15:00+02:00,80.69,EUR,8.350,MWh
Power,Intraday,Continuous,NL,ID3,QH,2021-06-29T02:15:00+02:00,2021-06-29T02:30:00+02:00,77.05,EUR,,MWh
Power,Intraday,Continuous,NL,ID3,QH,2021-06-29T02:30:00+02:00,2021-06-29T02:45:00+02:00,77.05,EUR,,MWh
Power,Intraday,Continuous,NL,ID3,QH,2021-06-29T02:45:00+02:00,2021-06-29T03:00:00+02:00,85.48,EUR,4.000,MWh
Power,Intraday,Continuous,NL,ID3,QH,2021-06-29T03:00:00+02:00,2021-06-29T03:15:00+02:00,77.25,EUR,,MWh
Power,Intraday,Continuous,NL,ID3,QH,2021-06-29T03:15:00+02:00,2021-06-29T03:30:00+02:00,77.25,EUR,,MWh
Power,Intraday,Continuous,NL,ID3,QH,2021-06-29T03:30:00+02:00,2021-06-29T03:45:00+02:00,77.25,EUR,,MWh
Power,Intraday,Continuous,NL,ID3,QH,2021-06-29T03:45:00+02:00,2021-06-29T04:00:00+02:00,85.17,EUR,9.950,MWh
Power,Intraday,Continuous,NL,ID3,QH,2021-06-29T04:00:00+02:00,2021-06-29T04:15:00+02:00,74.37,EUR,4.400,MWh
Power,Intraday,Continuous,NL,ID3,QH,2021-06-29T04:15:00+02:00,2021-06-29T04:30:00+02:00,73.21,EUR,5.450,MWh
Power,Intraday,Continuous,NL,ID3,QH,2021-06-29T04:30:00+02:00,2021-06-29T04:45:00+02:00,74.96,EUR,7.480,MWh
Power,Intraday,Continuous,NL,ID3,QH,2021-06-29T04:45:00+02:00,2021-06-29T05:00:00+02:00,84.30,EUR,7.300,MWh
Power,Intraday,Continuous,NL,ID3,QH,2021-06-29T05:00:00+02:00,2021-06-29T05:15:00+02:00,75.56,EUR,7.500,MWh
Power,Intraday,Continuous,NL,ID3,QH,2021-06-29T05:15:00+02:00,2021-06-29T05:30:00+02:00,79.96,EUR,8.980,MWh
Power,Intraday,Continuous,NL,ID3,QH,2021-06-29T05:30:00+02:00,2021-06-29T05:45:00+02:00,81.17,EUR,8.050,MWh
Power,Intraday,Continuous,NL,ID3,QH,2021-06-29T05:45:00+02:00,2021-06-29T06:00:00+02:00,89.59,EUR,10.700,MWh
Power,Intraday,Continuous,NL,ID3,QH,2021-06-29T06:00:00+02:00,2021-06-29T06:15:00+02:00,78.26,EUR,21.950,MWh
Power,Intraday,Continuous,NL,ID3,QH,2021-06-29T06:15:00+02:00,2021-06-29T06:30:00+02:00,79.95,EUR,11.280,MWh
Power,Intraday,Continuous,NL,ID3,QH,2021-06-29T06:30:00+02:00,2021-06-29T06:45:00+02:00,102.39,EUR,17.100,MWh
Power,Intraday,Continuous,NL,ID3,QH,2021-06-29T06:45:00+02:00,2021-06-29T07:00:00+02:00,137.42,EUR,18.300,MWh
Power,Intraday,Continuous,NL,ID3,QH,2021-06-29T07:00:00+02:00,2021-06-29T07:15:00+02:00,90.39,EUR,33.300,MWh
Power,Intraday,Continuous,NL,ID3,QH,2021-06-29T07:15:00+02:00,2021-06-29T07:30:00+02:00,87.40,EUR,3.880,MWh
Power,Intraday,Continuous,NL,ID3,QH,2021-06-29T07:30:00+02:00,2021-06-29T07:45:00+02:00,93.76,EUR,10.530,MWh
Power,Intraday,Continuous,NL,ID3,QH,2021-06-29T07:45:00+02:00,2021-06-29T08:00:00+02:00,122.32,EUR,3.330,MWh
Power,Intraday,Continuous,NL,ID3,QH,2021-06-29T08:00:00+02:00,2021-06-29T08:15:00+02:00,138.44,EUR,27.850,MWh
Power,Intraday,Continuous,NL,ID3,QH,2021-06-29T08:15:00+02:00,2021-06-29T08:30:00+02:00,120.04,EUR,14.200,MWh
Power,Intraday,Continuous,NL,ID3,QH,2021-06-29T08:30:00+02:00,2021-06-29T08:45:00+02:00,97.32,EUR,33.030,MWh
Power,Intraday,Continuous,NL,ID3,QH,2021-06-29T08:45:00+02:00,2021-06-29T09:00:00+02:00,88.06,EUR,41.830,MWh
Power,Intraday,Continuous,NL,ID3,QH,2021-06-29T09:00:00+02:00,2021-06-29T09:15:00+02:00,131.02,EUR,22.200,MWh
Power,Intraday,Continuous,NL,ID3,QH,2021-06-29T09:15:00+02:00,2021-06-29T09:30:00+02:00,118.29,EUR,11.080,MWh
Power,Intraday,Continuous,NL,ID3,QH,2021-06-29T09:30:00+02:00,2021-06-29T09:45:00+02:00,94.10,EUR,28.500,MWh
Power,Intraday,Continuous,NL,ID3,QH,2021-06-29T09:45:00+02:00,2021-06-29T10:00:00+02:00,83.84,EUR,36.830,MWh
Power,Intraday,Continuous,NL,ID3,QH,2021-06-29T10:00:00+02:00,2021-06-29T10:15:00+02:00,119.83,EUR,33.980,MWh
Power,Intraday,Continuous,NL,ID3,QH,2021-06-29T10:15:00+02:00,2021-06-29T10:30:00+02:00,101.18,EUR,5.980,MWh
Power,Intraday,Continuous,NL,ID3,QH,2021-06-29T10:30:00+02:00,2021-06-29T10:45:00+02:00,89.47,EUR,83.250,MWh
Power,Intraday,Continuous,NL,ID3,QH,2021-06-29T10:45:00+02:00,2021-06-29T11:00:00+02:00,85.46,EUR,92.400,MWh
Power,Intraday,Continuous,NL,ID3,QH,2021-06-29T11:00:00+02:00,2021-06-29T11:15:00+02:00,114.84,EUR,11.180,MWh
Power,Intraday,Continuous,NL,ID3,QH,2021-06-29T11:15:00+02:00,2021-06-29T11:30:00+02:00,95.21,EUR,12.880,MWh
Power,Intraday,Continuous,NL,ID3,QH,2021-06-29T11:30:00+02:00,2021-06-29T11:45:00+02:00,89.27,EUR,49.400,MWh
Power,Intraday,Continuous,NL,ID3,QH,2021-06-29T11:45:00+02:00,2021-06-29T12:00:00+02:00,84.17,EUR,66.930,MWh
Power,Intraday,Continuous,NL,ID3,QH,2021-06-29T12:00:00+02:00,2021-06-29T12:15:00+02:00,102.79,EUR,37.350,MWh
Power,Intraday,Continuous,NL,ID3,QH,2021-06-29T12:15:00+02:00,2021-06-29T12:30:00+02:00,92.52,EUR,8.730,MWh
Power,Intraday,Continuous,NL,ID3,QH,2021-06-29T12:30:00+02:00,2021-06-29T12:45:00+02:00,80.80,EUR,43.130,MWh
Power,Intraday,Continuous,NL,ID3,QH,2021-06-29T12:45:00+02:00,2021-06-29T13:00:00+02:00,83.72,EUR,65.930,MWh
Power,Intraday,Continuous,NL,ID3,QH,2021-06-29T13:00:00+02:00,2021-06-29T13:15:00+02:00,92.47,EUR,11.080,MWh
Power,Intraday,Continuous,NL,ID3,QH,2021-06-29T13:15:00+02:00,2021-06-29T13:30:00+02:00,93.33,EUR,21.200,MWh
Power,Intraday,Continuous,NL,ID3,QH,2021-06-29T13:30:00+02:00,2021-06-29T13:45:00+02:00,81.96,EUR,33.080,MWh
Power,Intraday,Continuous,NL,ID3,QH,2021-06-29T13:45:00+02:00,2021-06-29T14:00:00+02:00,77.42,EUR,34.980,MWh
Power,Intraday,Continuous,NL,ID3,QH,2021-06-29T14:00:00+02:00,2021-06-29T14:15:00+02:00,73.46,EUR,53.900,MWh
Power,Intraday,Continuous,NL,ID3,QH,2021-06-29T14:15:00+02:00,2021-06-29T14:30:00+02:00,81.90,EUR,37.950,MWh
Power,Intraday,Continuous,NL,ID3,QH,2021-06-29T14:30:00+02:00,2021-06-29T14:45:00+02:00,85.91,EUR,23.030,MWh
Power,Intraday,Continuous,NL,ID3,QH,2021-06-29T14:45:00+02:00,2021-06-29T15:00:00+02:00,95.27,EUR,26.830,MWh
Power,Intraday,Continuous,NL,ID3,QH,2021-06-29T15:00:00+02:00,2021-06-29T15:15:00+02:00,100.87,EUR,36.250,MWh
Power,Intraday,Continuous,NL,ID3,QH,2021-06-29T15:15:00+02:00,2021-06-29T15:30:00+02:00,93.76,EUR,188.750,MWh
Power,Intraday,Continuous,NL,ID3,QH,2021-06-29T15:30:00+02:00,2021-06-29T15:45:00+02:00,95.27,EUR,159.850,MWh
Power,Intraday,Continuous,NL,ID3,QH,2021-06-29T15:45:00+02:00,2021-06-29T16:00:00+02:00,108.48,EUR,188.180,MWh
Power,Intraday,Continuous,NL,ID3,QH,2021-06-29T16:00:00+02:00,2021-06-29T16:15:00+02:00,67.40,EUR,42.880,MWh
Power,Intraday,Continuous,NL,ID3,QH,2021-06-29T16:15:00+02:00,2021-06-29T16:30:00+02:00,83.21,EUR,23.450,MWh
Power,Intraday,Continuous,NL,ID3,QH,2021-06-29T16:30:00+02:00,2021-06-29T16:45:00+02:00,98.48,EUR,29.530,MWh
Power,Intraday,Continuous,NL,ID3,QH,2021-06-29T16:45:00+02:00,2021-06-29T17:00:00+02:00,116.47,EUR,20.600,MWh
Power,Intraday,Continuous,NL,ID3,QH,2021-06-29T17:00:00+02:00,2021-06-29T17:15:00+02:00,52.92,EUR,15.950,MWh
Power,Intraday,Continuous,NL,ID3,QH,2021-06-29T17:15:00+02:00,2021-06-29T17:30:00+02:00,125.94,EUR,5.200,MWh
Power,Intraday,Continuous,NL,ID3,QH,2021-06-29T17:30:00+02:00,2021-06-29T17:45:00+02:00,121.27,EUR,22.700,MWh
Power,Intraday,Continuous,NL,ID3,QH,2021-06-29T17:45:00+02:00,2021-06-29T18:00:00+02:00,187.06,EUR,27.900,MWh
Power,Intraday,Continuous,NL,ID3,QH,2021-06-29T18:00:00+02:00,2021-06-29T18:15:00+02:00,81.58,EUR,25.400,MWh
Power,Intraday,Continuous,NL,ID3,QH,2021-06-29T18:15:00+02:00,2021-06-29T18:30:00+02:00,140.44,EUR,15.930,MWh
Power,Intraday,Continuous,NL,ID3,QH,2021-06-29T18:30:00+02:00,2021-06-29T18:45:00+02:00,98.00,EUR,7.650,MWh
Power,Intraday,Continuous,NL,ID3,QH,2021-06-29T18:45:00+02:00,2021-06-29T19:00:00+02:00,340.12,EUR,8.650,MWh
Power,Intraday,Continuous,NL,ID3,QH,2021-06-29T19:00:00+02:00,2021-06-29T19:15:00+02:00,136.61,EUR,10.250,MWh
Power,Intraday,Continuous,NL,ID3,QH,2021-06-29T19:15:00+02:00,2021-06-29T19:30:00+02:00,137.42,EUR,11.080,MWh
Power,Intraday,Continuous,NL,ID3,QH,2021-06-29T19:30:00+02:00,2021-06-29T19:45:00+02:00,202.01,EUR,10.550,MWh
Power,Intraday,Continuous,NL,ID3,QH,2021-06-29T19:45:00+02:00,2021-06-29T20:00:00+02:00,278.86,EUR,30.600,MWh
Power,Intraday,Continuous,NL,ID3,QH,2021-06-29T20:00:00+02:00,2021-06-29T20:15:00+02:00,167.40,EUR,5.080,MWh
Power,Intraday,Continuous,NL,ID3,QH,2021-06-29T20:15:00+02:00,2021-06-29T20:30:00+02:00,193.47,EUR,4.950,MWh
Power,Intraday,Continuous,NL,ID3,QH,2021-06-29T20:30:00+02:00,2021-06-29T20:45:00+02:00,104.38,EUR,,MWh
Power,Intraday,Continuous,NL,ID3,QH,2021-06-29T20:45:00+02:00,2021-06-29T21:00:00+02:00,116.39,EUR,22.350,MWh
Power,Intraday,Continuous,NL,ID3,QH,2021-06-29T21:00:00+02:00,2021-06-29T21:15:00+02:00,145.11,EUR,15.200,MWh
Power,Intraday,Continuous,NL,ID3,QH,2021-06-29T21:15:00+02:00,2021-06-29T21:30:00+02:00,149.15,EUR,17.680,MWh
Power,Intraday,Continuous,NL,ID3,QH,2021-06-29T21:30:00+02:00,2021-06-29T21:45:00+02:00,146.68,EUR,26.080,MWh
Power,Intraday,Continuous,NL,ID3,QH,2021-06-29T21:45:00+02:00,2021-06-29T22:00:00+02:00,113.25,EUR,13.280,MWh
Power,Intraday,Continuous,NL,ID3,QH,2021-06-29T22:00:00+02:00,2021-06-29T22:15:00+02:00,129.34,EUR,35.280,MWh
Power,Intraday,Continuous,NL,ID3,QH,2021-06-29T22:15:00+02:00,2021-06-29T22:30:00+02:00,123.90,EUR,29.250,MWh
Power,Intraday,Continuous,NL,ID3,QH,2021-06-29T22:30:00+02:00,2021-06-29T22:45:00+02:00,103.87,EUR,29.680,MWh
Power,Intraday,Continuous,NL,ID3,QH,2021-06-29T22:45:00+02:00,2021-06-29T23:00:00+02:00,89.48,EUR,39.430,MWh
Power,Intraday,Continuous,NL,ID3,QH,2021-06-29T23:00:00+02:00,2021-06-29T23:15:00+02:00,100.37,EUR,45.500,MWh
Power,Intraday,Continuous,NL,ID3,QH,2021-06-29T23:15:00+02:00,2021-06-29T23:30:00+02:00,104.25,EUR,22.830,MWh
Power,Intraday,Continuous,NL,ID3,QH,2021-06-29T23:30:00+02:00,2021-06-29T23:45:00+02:00,85.53,EUR,46.880,MWh
Power,Intraday,Continuous,NL,ID3,QH,2021-06-29T23:45:00+02:00,2021-06-30T00:00:00+02:00,74.98,EUR,61.700,MWh
Power,Intraday,Continuous,NL,IDFULL,BASE,2021-06-29T00:00:00+02:00,2021-06-30T00:00:00+02:00,104.93,EUR,31999.200,MWh
Power,Intraday,Continuous,NL,IDFULL,PEAK,2021-06-29T08:00:00+02:00,2021-06-29T20:00:00+02:00,109.81,EUR,17327.300,MWh
