Commodity,NominationModality,TradingModality,MarketArea,IndexName,TimeResolution,DeliveryStart,DeliveryEnd,IndexPrice,Currency,Volume,VolumeUnit
Power,Intraday,Continuous,NL,IDFULL,H,2021-12-27T00:00:00+01:00,2021-12-27T01:00:00+01:00,143.98,EUR,404.400,MWh
Power,Intraday,Continuous,NL,IDFULL,H,2021-12-27T01:00:00+01:00,2021-12-27T02:00:00+01:00,148.64,EUR,463.400,MWh
Power,Intraday,Continuous,NL,IDFULL,H,2021-12-27T02:00:00+01:00,2021-12-27T03:00:00+01:00,158.25,EUR,455.800,MWh
Power,Intraday,Continuous,NL,IDFULL,H,2021-12-27T03:00:00+01:00,2021-12-27T04:00:00+01:00,160.50,EUR,478.700,MWh
Power,Intraday,Continuous,NL,IDFULL,H,2021-12-27T04:00:00+01:00,2021-12-27T05:00:00+01:00,133.86,EUR,648.600,MWh
Power,Intraday,Continuous,NL,IDFULL,H,2021-12-27T05:00:00+01:00,2021-12-27T06:00:00+01:00,138.45,EUR,945.600,MWh
Power,Intraday,Continuous,NL,IDFULL,H,2021-12-27T06:00:00+01:00,2021-12-27T07:00:00+01:00,182.47,EUR,977.300,MWh
Power,Intraday,Continuous,NL,IDFULL,H,2021-12-27T07:00:00+01:00,2021-12-27T08:00:00+01:00,196.49,EUR,1037.900,MWh
Power,Intraday,Continuous,NL,IDFULL,H,2021-12-27T08:00:00+01:00,2021-12-27T09:00:00+01:00,217.54,EUR,894.000,MWh
Power,Intraday,Continuous,NL,IDFULL,H,2021-12-27T09:00:00+01:00,2021-12-27T10:00:00+01:00,223.70,EUR,1129.200,MWh
Power,Intraday,Continuous,NL,IDFULL,H,2021-12-27T10:00:00+01:00,2021-12-27T11:00:00+01:00,226.07,EUR,1554.700,MWh
Power,Intraday,Continuous,NL,IDFULL,H,2021-12-27T11:00:00+01:00,2021-12-27T12:00:00+01:00,227.07,EUR,1563.200,MWh
Power,Intraday,Continuous,NL,IDFULL,H,2021-12-27T12:00:00+01:00,2021-12-27T13:00:00+01:00,221.28,EUR,1845.700,MWh
Power,Intraday,Continuous,NL,IDFULL,H,2021-12-27T13:00:00+01:00,2021-12-27T14:00:00+01:00,220.11,EUR,2011.800,MWh
Power,Intraday,Continuous,NL,IDFULL,H,2021-12-27T14:00:00+01:00,2021-12-27T15:00:00+01:00,204.98,EUR,1089.600,MWh
Power,Intraday,Continuous,NL,IDFULL,H,2021-12-27T15:00:00+01:00,2021-12-27T16:00:00+01:00,202.72,EUR,1694.500,MWh
Power,Intraday,Continuous,NL,IDFULL,H,2021-12-27T16:00:00+01:00,2021-12-27T17:00:00+01:00,187.59,EUR,707.600,MWh
Power,Intraday,Continuous,NL,IDFULL,H,2021-12-27T17:00:00+01:00,2021-12-27T18:00:00+01:00,216.92,EUR,1336.100,MWh
Power,Intraday,Continuous,NL,IDFULL,H,2021-12-27T18:00:00+01:00,2021-12-27T19:00:00+01:00,203.46,EUR,846.700,MWh
Power,Intraday,Continuous,NL,IDFULL,H,2021-12-27T19:00:00+01:00,2021-12-27T20:00:00+01:00,194.07,EUR,1852.100,MWh
Power,Intraday,Continuous,NL,IDFULL,H,2021-12-27T20:00:00+01:00,2021-12-27T21:00:00+01:00,156.08,EUR,1002.000,MWh
Power,Intraday,Continuous,NL,IDFULL,H,2021-12-27T21:00:00+01:00,2021-12-27T22:00:00+01:00,133.62,EUR,514.200,MWh
Power,Intraday,Continuous,NL,IDFULL,H,2021-12-27T22:00:00+01:00,2021-12-27T23:00:00+01:00,100.83,EUR,761.500,MWh
Power,Intraday,Continuous,NL,IDFULL,H,2021-12-27T23:00:00+01:00,2021-12-28T00:00:00+01:00,83.82,EUR,985.800,MWh
Power,Intraday,Continuous,NL,ID1,H,2021-12-27T00:00:00+01:00,2021-12-27T01:00:00+01:00,182.35,EUR,42.600,MWh
Power,Intraday,Continuous,NL,ID1,H,2021-12-27T01:00:00+01:00,2021-12-27T02:00:00+01:00,155.32,EUR,,MWh
Power,Intraday,Continuous,NL,ID1,H,2021-12-27T02:00:00+01:00,2021-12-27T03:00:00+01:00,205.12,EUR,22.500,MWh
Power,Intraday,Continuous,NL,ID1,H,2021-12-27T03:00:00+01:00,2021-12-27T04:00:00+01:00,211.18,EUR,83.600,MWh
Power,Intraday,Continuous,NL,ID1,H,2021-12-27T04:00:00+01:00,2021-12-27T05:00:00+01:00,178.74,EUR,,MWh
Power,Intraday,Continuous,NL,ID1,H,2021-12-27T05:00:00+01:00,2021-12-27T06:00:00+01:00,175.53,EUR,,MWh
Power,Intraday,Continuous,NL,ID1,H,2021-12-27T06:00:00+01:00,2021-12-27T07:00:00+01:00,244.56,EUR,81.900,MWh
Power,Intraday,Continuous,NL,ID1,H,2021-12-27T07:00:00+01:00,2021-12-27T08:00:00+01:00,150.11,EUR,23.600,MWh
Power,Intraday,Continuous,NL,ID1,H,2021-12-27T08:00:00+01:00,2021-12-27T09:00:00+01:00,178.12,EUR,48.500,MWh
Power,Intraday,Continuous,NL,ID1,H,2021-12-27T09:00:00+01:00,2021-12-27T10:00:00+01:00,186.08,EUR,65.000,MWh
Power,Intraday,Continuous,NL,ID1,H,2021-12-27T10:00:00+01:00,2021-12-27T11:00:00+01:00,295.77,EUR,98.700,MWh
Power,Intraday,Continuous,NL,ID1,H,2021-12-27T11:00:00+01:00,2021-12-27T12:00:00+01:00,265.84,EUR,180.600,MWh
Power,Intraday,Continuous,NL,ID1,H,2021-12-27T12:00:00+01:00,2021-12-27T13:00:00+01:00,215.11,EUR,81.400,MWh
Power,Intraday,Continuous,NL,ID1,H,2021-12-27T13:00:00+01:00,2021-12-27T14:00:00+01:00,219.77,EUR,,MWh
Power,Intraday,Continuous,NL,ID1,H,2021-12-27T14:00:00+01:00,2021-12-27T15:00:00+01:00,188.09,EUR,44.900,MWh
Power,Intraday,Continuous,NL,ID1,H,2021-12-27T15:00:00+01:00,2021-12-27T16:00:00+01:00,220.12,EUR,51.400,MWh
Power,Intraday,Continuous,NL,ID1,H,2021-12-27T16:00:00+01:00,2021-12-27T17:00:00+01:00,179.71,EUR,70.400,MWh
Power,Intraday,Continuous,NL,ID1,H,2021-12-27T17:00:00+01:00,2021-12-27T18:00:00+01:00,221.23,EUR,,MWh
Power,Intraday,Continuous,NL,ID1,H,2021-12-27T18:00:00+01:00,2021-12-27T19:00:00+01:00,203.92,EUR,,MWh
Power,Intraday,Continuous,NL,ID1,H,2021-12-27T19:00:00+01:00,2021-12-27T20:00:00+01:00,191.00,EUR,14.800,MWh
Power,Intraday,Continuous,NL,ID1,H,2021-12-27T20:00:00+01:00,2021-12-27T21:00:00+01:00,96.24,EUR,25.000,MWh
Power,Intraday,Continuous,NL,ID1,H,2021-12-27T21:00:00+01:00,2021-12-27T22:00:00+01:00,75.05,EUR,93.700,MWh
Power,Intraday,Continuous,NL,ID1,H,2021-12-27T22:00:00+01:00,2021-12-27T23:00:00+01:00,54.47,EUR,143.000,MWh
Power,Intraday,Continuous,NL,ID1,H,2021-12-27T23:00:00+01:00,2021-12-28T00:00:00+01:00,79.84,EUR,,MWh
Power,Intraday,Continuous,NL,ID3,H,2021-12-27T00:00:00+01:00,2021-12-27T01:00:00+01:00,140.90,EUR,306.400,MWh
Power,Intraday,Continuous,NL,ID3,H,2021-12-27T01:00:00+01:00,2021-12-27T02:00:00+01:00,155.32,EUR,306.800,MWh
Power,Intraday,Continuous,NL,ID3,H,2021-12-27T02:00:00+01:00,2021-12-27T03:00:00+01:00,175.51,EUR,275.000,MWh
Power,Intraday,Continuous,NL,ID3,H,2021-12-27T03:00:00+01:00,2021-12-27T04:00:00+01:00,196.41,EUR,274.900,MWh
Power,Intraday,Continuous,NL,ID3,H,2021-12-27T04:00:00+01:00,2021-12-27T05:00:00+01:00,178.74,EUR,312.600,MWh
Power,Intraday,Continuous,NL,ID3,H,2021-12-27T05:00:00+01:00,2021-12-27T06:00:00+01:00,175.53,EUR,395.200,MWh
Power,Intraday,Continuous,NL,ID3,H,2021-12-27T06:00:00+01:00,2021-12-27T07:00:00+01:00,193.74,EUR,584.000,MWh
Power,Intraday,Continuous,NL,ID3,H,2021-12-27T07:00:00+01:00,2021-12-27T08:00:00+01:00,212.65,EUR,588.600,MWh
Power,Intraday,Continuous,NL,ID3,H,2021-12-27T08:00:00+01:00,2021-12-27T09:00:00+01:00,229.88,EUR,560.600,MWh
Power,Intraday,Continuous,NL,ID3,H,2021-12-27T09:00:00+01:00,2021-12-27T10:00:00+01:00,220.36,EUR,834.600,MWh
Power,Intraday,Continuous,NL,ID3,H,2021-12-27T10:00:00+01:00,2021-12-27T11:00:00+01:00,224.94,EUR,1038.300,MWh
Power,Intraday,Continuous,NL,ID3,H,2021-12-27T11:00:00+01:00,2021-12-27T12:00:00+01:00,230.09,EUR,1010.900,MWh
Power,Intraday,Continuous,NL,ID3,H,2021-12-27T12:00:00+01:00,2021-12-27T13:00:00+01:00,222.18,EUR,1550.500,MWh
Power,Intraday,Continuous,NL,ID3,H,2021-12-27T13:00:00+01:00,2021-12-27T14:00:00+01:00,219.77,EUR,1083.000,MWh
Power,Intraday,Continuous,NL,ID3,H,2021-12-27T14:00:00+01:00,2021-12-27T15:00:00+01:00,208.15,EUR,635.000,MWh
Power,Intraday,Continuous,NL,ID3,H,2021-12-27T15:00:00+01:00,2021-12-27T16:00:00+01:00,208.86,EUR,852.100,MWh
Power,Intraday,Continuous,NL,ID3,H,2021-12-27T16:00:00+01:00,2021-12-27T17:00:00+01:00,189.22,EUR,504.400,MWh
Power,Intraday,Continuous,NL,ID3,H,2021-12-27T17:00:00+01:00,2021-12-27T18:00:00+01:00,221.23,EUR,798.000,MWh
Power,Intraday,Continuous,NL,ID3,H,2021-12-27T18:00:00+01:00,2021-12-27T19:00:00+01:00,203.92,EUR,527.800,MWh
Power,Intraday,Continuous,NL,ID3,H,2021-12-27T19:00:00+01:00,2021-12-27T20:00:00+01:00,190.48,EUR,1128.300,MWh
Power,Intraday,Continuous,NL,ID3,H,2021-12-27T20:00:00+01:00,2021-12-27T21:00:00+01:00,154.50,EUR,908.400,MWh
Power,Intraday,Continuous,NL,ID3,H,2021-12-27T21:00:00+01:00,2021-12-27T22:00:00+01:00,133.23,EUR,496.600,MWh
Power,Intraday,Continuous,NL,ID3,H,2021-12-27T22:00:00+01:00,2021-12-27T23:00:00+01:00,85.63,EUR,387.200,MWh
Power,Intraday,Continuous,NL,ID3,H,2021-12-27T23:00:00+01:00,2021-12-28T00:00:00+01:00,79.84,EUR,637.300,MWh
Power,Intraday,Continuous,NL,IDFULL,HH,2021-12-27T00:00:00+01:00,2021-12-27T00:30:00+01:00,143.98,EUR,,MWh
Power,Intraday,Continuous,NL,IDFULL,HH,2021-12-27T00:30:00+01:00,2021-12-27T01:00:00+01:00,143.98,EUR,,MWh
Power,Intraday,Continuous,NL,IDFULL,HH,2021-12-27T01:00:00+01:00,2021-12-27T01:30:00+01:00,148.64,EUR,,MWh
Power,Intraday,Continuous,NL,IDFULL,HH,2021-12-27T01:30:00+01:00,2021-12-27T02:00:00+01:00,148.64,EUR,,MWh
Power,Intraday,Continuous,NL,IDFULL,HH,2021-12-27T02:00:00+01:00,2021-12-27T02:30:00+01:00,158.25,EUR,,MWh
Power,Intraday,Continuous,NL,IDFULL,HH,2021-12-27T02:30:00+01:00,2021-12-27T03:00:00+01:00,158.25,EUR,,MWh
Power,Intraday,Continuous,NL,IDFULL,HH,2021-12-27T03:00:00+01:00,2021-12-27T03:30:00+01:00,160.50,EUR,,MWh
Power,Intraday,Continuous,NL,IDFULL,HH,2021-12-27T03:30:00+01:00,2021-12-27T04:00:00+01:00,160.50,EUR,,MWh
Power,Intraday,Continuous,NL,IDFULL,HH,2021-12-27T04:00:00+01:00,2021-12-27T04:30:00+01:00,133.86,EUR,,MWh
Power,Intraday,Continuous,NL,IDFULL,HH,2021-12-27T04:30:00+01:00,2021-12-27T05:00:00+01:00,133.86,EUR,,MWh
Power,Intraday,Continuous,NL,IDFULL,HH,2021-12-27T05:00:00+01:00,2021-12-27T05:30:00+01:00,138.45,EUR,,MWh
Power,Intraday,Continuous,NL,IDFULL,HH,2021-12-27T05:30:00+01:00,2021-12-27T06:00:00+01:00,138.45,EUR,,MWh
Power,Intraday,Continuous,NL,IDFULL,HH,2021-12-27T06:00:00+01:00,2021-12-27T06:30:00+01:00,182.47,EUR,,MWh
Power,Intraday,Continuous,NL,IDFULL,HH,2021-12-27T06:30:00+01:00,2021-12-27T07:00:00+01:00,182.47,EUR,,MWh
Power,Intraday,Continuous,NL,IDFULL,HH,2021-12-27T07:00:00+01:00,2021-12-27T07:30:00+01:00,196.49,EUR,,MWh
Power,Intraday,Continuous,NL,IDFULL,HH,2021-12-27T07:30:00+01:00,2021-12-27T08:00:00+01:00,196.49,EUR,,MWh
Power,Intraday,Continuous,NL,IDFULL,HH,2021-12-27T08:00:00+01:00,2021-12-27T08:30:00+01:00,217.54,EUR,,MWh
Power,Intraday,Continuous,NL,IDFULL,HH,2021-12-27T08:30:00+01:00,2021-12-27T09:00:00+01:00,217.54,EUR,,MWh
Power,Intraday,Continuous,NL,IDFULL,HH,2021-12-27T09:00:00+01:00,2021-12-27T09:30:00+01:00,223.70,EUR,,MWh
Power,Intraday,Continuous,NL,IDFULL,HH,2021-12-27T09:30:00+01:00,2021-12-27T10:00:00+01:00,223.70,EUR,,MWh
Power,Intraday,Continuous,NL,IDFULL,HH,2021-12-27T10:00:00+01:00,2021-12-27T10:30:00+01:00,226.07,EUR,,MWh
Power,Intraday,Continuous,NL,IDFULL,HH,2021-12-27T10:30:00+01:00,2021-12-27T11:00:00+01:00,226.07,EUR,,MWh
Power,Intraday,Continuous,NL,IDFULL,HH,2021-12-27T11:00:00+01:00,2021-12-27T11:30:00+01:00,227.07,EUR,,MWh
Power,Intraday,Continuous,NL,IDFULL,HH,2021-12-27T11:30:00+01:00,2021-12-27T12:00:00+01:00,227.07,EUR,,MWh
Power,Intraday,Continuous,NL,IDFULL,HH,2021-12-27T12:00:00+01:00,2021-12-27T12:30:00+01:00,221.28,EUR,,MWh
Power,Intraday,Continuous,NL,IDFULL,HH,2021-12-27T12:30:00+01:00,2021-12-27T13:00:00+01:00,221.28,EUR,,MWh
Power,Intraday,Continuous,NL,IDFULL,HH,2021-12-27T13:00:00+01:00,2021-12-27T13:30:00+01:00,220.11,EUR,,MWh
Power,Intraday,Continuous,NL,IDFULL,HH,2021-12-27T13:30:00+01:00,2021-12-27T14:00:00+01:00,220.11,EUR,,MWh
Power,Intraday,Continuous,NL,IDFULL,HH,2021-12-27T14:00:00+01:00,2021-12-27T14:30:00+01:00,204.98,EUR,,MWh
Power,Intraday,Continuous,NL,IDFULL,HH,2021-12-27T14:30:00+01:00,2021-12-27T15:00:00+01:00,204.98,EUR,,MWh
Power,Intraday,Continuous,NL,IDFULL,HH,2021-12-27T15:00:00+01:00,2021-12-27T15:30:00+01:00,202.72,EUR,,MWh
Power,Intraday,Continuous,NL,IDFULL,HH,2021-12-27T15:30:00+01:00,2021-12-27T16:00:00+01:00,202.72,EUR,,MWh
Power,Intraday,Continuous,NL,IDFULL,HH,2021-12-27T16:00:00+01:00,2021-12-27T16:30:00+01:00,187.59,EUR,,MWh
Power,Intraday,Continuous,NL,IDFULL,HH,2021-12-27T16:30:00+01:00,2021-12-27T17:00:00+01:00,187.59,EUR,,MWh
Power,Intraday,Continuous,NL,IDFULL,HH,2021-12-27T17:00:00+01:00,2021-12-27T17:30:00+01:00,216.92,EUR,,MWh
Power,Intraday,Continuous,NL,IDFULL,HH,2021-12-27T17:30:00+01:00,2021-12-27T18:00:00+01:00,216.92,EUR,,MWh
Power,Intraday,Continuous,NL,IDFULL,HH,2021-12-27T18:00:00+01:00,2021-12-27T18:30:00+01:00,203.46,EUR,,MWh
Power,Intraday,Continuous,NL,IDFULL,HH,2021-12-27T18:30:00+01:00,2021-12-27T19:00:00+01:00,203.46,EUR,,MWh
Power,Intraday,Continuous,NL,IDFULL,HH,2021-12-27T19:00:00+01:00,2021-12-27T19:30:00+01:00,194.07,EUR,,MWh
Power,Intraday,Continuous,NL,IDFULL,HH,2021-12-27T19:30:00+01:00,2021-12-27T20:00:00+01:00,194.07,EUR,,MWh
Power,Intraday,Continuous,NL,IDFULL,HH,2021-12-27T20:00:00+01:00,2021-12-27T20:30:00+01:00,156.08,EUR,,MWh
Power,Intraday,Continuous,NL,IDFULL,HH,2021-12-27T20:30:00+01:00,2021-12-27T21:00:00+01:00,156.08,EUR,,MWh
Power,Intraday,Continuous,NL,IDFULL,HH,2021-12-27T21:00:00+01:00,2021-12-27T21:30:00+01:00,133.62,EUR,,MWh
Power,Intraday,Continuous,NL,IDFULL,HH,2021-12-27T21:30:00+01:00,2021-12-27T22:00:00+01:00,133.62,EUR,,MWh
Power,Intraday,Continuous,NL,IDFULL,HH,2021-12-27T22:00:00+01:00,2021-12-27T22:30:00+01:00,100.83,EUR,,MWh
Power,Intraday,Continuous,NL,IDFULL,HH,2021-12-27T22:30:00+01:00,2021-12-27T23:00:00+01:00,100.83,EUR,,MWh
Power,Intraday,Continuous,NL,IDFULL,HH,2021-12-27T23:00:00+01:00,2021-12-27T23:30:00+01:00,83.82,EUR,,MWh
Power,Intraday,Continuous,NL,IDFULL,HH,2021-12-27T23:30:00+01:00,2021-12-28T00:00:00+01:00,83.82,EUR,,MWh
Power,Intraday,Continuous,NL,ID1,HH,2021-12-27T00:00:00+01:00,2021-12-27T00:30:00+01:00,143.98,EUR,,MWh
Power,Intraday,Continuous,NL,ID1,HH,2021-12-27T00:30:00+01:00,2021-12-27T01:00:00+01:00,143.98,EUR,,MWh
Power,Intraday,Continuous,NL,ID1,HH,2021-12-27T01:00:00+01:00,2021-12-27T01:30:00+01:00,148.64,EUR,,MWh
Power,Intraday,Continuous,NL,ID1,HH,2021-12-27T01:30:00+01:00,2021-12-27T02:00:00+01:00,148.64,EUR,,MWh
Power,Intraday,Continuous,NL,ID1,HH,2021-12-27T02:00:00+01:00,2021-12-27T02:30:00+01:00,158.25,EUR,,MWh
Power,Intraday,Continuous,NL,ID1,HH,2021-12-27T02:30:00+01:00,2021-12-27T03:00:00+01:00,158.25,EUR,,MWh
Power,Intraday,Continuous,NL,ID1,HH,2021-12-27T03:00:00+01:00,2021-12-27T03:30:00+01:00,160.50,EUR,,MWh
Power,Intraday,Continuous,NL,ID1,HH,2021-12-27T03:30:00+01:00,2021-12-27T04:00:00+01:00,160.50,EUR,,MWh
Power,Intraday,Continuous,NL,ID1,HH,2021-12-27T04:00:00+01:00,2021-12-27T04:30:00+01:00,133.86,EUR,,MWh
Power,Intraday,Continuous,NL,ID1,HH,2021-12-27T04:30:00+01:00,2021-12-27T05:00:00+01:00,133.86,EUR,,MWh
Power,Intraday,Continuous,NL,ID1,HH,2021-12-27T05:00:00+01:00,2021-12-27T05:30:00+01:00,138.45,EUR,,MWh
Power,Intraday,Continuous,NL,ID1,HH,2021-12-27T05:30:00+01:00,2021-12-27T06:00:00+01:00,138.45,EUR,,MWh
Power,Intraday,Continuous,NL,ID1,HH,2021-12-27T06:00:00+01:00,2021-12-27T06:30:00+01:00,182.47,EUR,,MWh
Power,Intraday,Continuous,NL,ID1,HH,2021-12-27T06:30:00+01:00,2021-12-27T07:00:00+01:00,182.47,EUR,,MWh
Power,Intraday,Continuous,NL,ID1,HH,2021-12-27T07:00:00+01:00,2021-12-27T07:30:00+01:00,196.49,EUR,,MWh
Power,Intraday,Continuous,NL,ID1,HH,2021-12-27T07:30:00+01:00,2021-12-27T08:00:00+01:00,196.49,EUR,,MWh
Power,Intraday,Continuous,NL,ID1,HH,2021-12-27T08:00:00+01:00,2021-12-27T08:30:00+01:00,217.54,EUR,,MWh
Power,Intraday,Continuous,NL,ID1,HH,2021-12-27T08:30:00+01:00,2021-12-27T09:00:00+01:00,217.54,EUR,,MWh
Power,Intraday,Continuous,NL,ID1,HH,2021-12-27T09:00:00+01:00,2021-12-27T09:30:00+01:00,223.70,EUR,,MWh
Power,Intraday,Continuous,NL,ID1,HH,2021-12-27T09:30:00+01:00,2021-12-27T10:00:00+01:00,223.70,EUR,,MWh
Power,Intraday,Continuous,NL,ID1,HH,2021-12-27T10:00:00+01:00,2021-12-27T10:30:00+01:00,226.07,EUR,,MWh
Power,Intraday,Continuous,NL,ID1,HH,2021-12-27T10:30:00+01:00,2021-12-27T11:00:00+01:00,226.07,EUR,,MWh
Power,Intraday,Continuous,NL,ID1,HH,2021-12-27T11:00:00+01:00,2021-12-27T11:30:00+01:00,227.07,EUR,,MWh
Power,Intraday,Continuous,NL,ID1,HH,2021-12-27T11:30:00+01:00,2021-12-27T12:00:00+01:00,227.07,EUR,,MWh
Power,Intraday,Continuous,NL,ID1,HH,2021-12-27T12:00:00+01:00,2021-12-27T12:30:00+01:00,221.28,EUR,,MWh
Power,Intraday,Continuous,NL,ID1,HH,2021-12-27T12:30:00+01:00,2021-12-27T13:00:00+01:00,221.28,EUR,,MWh
Power,Intraday,Continuous,NL,ID1,HH,2021-12-27T13:00:00+01:00,2021-12-27T13:30:00+01:00,220.11,EUR,,MWh
Power,Intraday,Continuous,NL,ID1,HH,2021-12-27T13:30:00+01:00,2021-12-27T14:00:00+01:00,220.11,EUR,,MWh
Power,Intraday,Continuous,NL,ID1,HH,2021-12-27T14:00:00+01:00,2021-12-27T14:30:00+01:00,204.98,EUR,,MWh
Power,Intraday,Continuous,NL,ID1,HH,2021-12-27T14:30:00+01:00,2021-12-27T15:00:00+01:00,204.98,EUR,,MWh
Power,Intraday,Continuous,NL,ID1,HH,2021-12-27T15:00:00+01:00,2021-12-27T15:30:00+01:00,202.72,EUR,,MWh
Power,Intraday,Continuous,NL,ID1,HH,2021-12-27T15:30:00+01:00,2021-12-27T16:00:00+01:00,202.72,EUR,,MWh
Power,Intraday,Continuous,NL,ID1,HH,2021-12-27T16:00:00+01:00,2021-12-27T16:30:00+01:00,187.59,EUR,,MWh
Power,Intraday,Continuous,NL,ID1,HH,2021-12-27T16:30:00+01:00,2021-12-27T17:00:00+01:00,187.59,EUR,,MWh
Power,Intraday,Continuous,NL,ID1,HH,2021-12-27T17:00:00+01:00,2021-12-27T17:30:00+01:00,216.92,EUR,,MWh
Power,Intraday,Continuous,NL,ID1,HH,2021-12-27T17:30:00+01:00,2021-12-27T18:00:00+01:00,216.92,EUR,,MWh
Power,Intraday,Continuous,NL,ID1,HH,2021-12-27T18:00:00+01:00,2021-12-27T18:30:00+01:00,203.46,EUR,,MWh
Power,Intraday,Continuous,NL,ID1,HH,2021-12-27T18:30:00+01:00,2021-12-27T19:00:00+01:00,203.46,EUR,,MWh
Power,Intraday,Continuous,NL,ID1,HH,2021-12-27T19:00:00+01:00,2021-12-27T19:30:00+01:00,194.07,EUR,,MWh
Power,Intraday,Continuous,NL,ID1,HH,2021-12-27T19:30:00+01:00,2021-12-27T20:00:00+01:00,194.07,EUR,,MWh
Power,Intraday,Continuous,NL,ID1,HH,2021-12-27T20:00:00+01:00,2021-12-27T20:30:00+01:00,156.08,EUR,,MWh
Power,Intraday,Continuous,NL,ID1,HH,2021-12-27T20:30:00+01:00,2021-12-27T21:00:00+01:00,156.08,EUR,,MWh
Power,Intraday,Continuous,NL,ID1,HH,2021-12-27T21:00:00+01:00,2021-12-27T21:30:00+01:00,133.62,EUR,,MWh
Power,Intraday,Continuous,NL,ID1,HH,2021-12-27T21:30:00+01:00,2021-12-27T22:00:00+01:00,133.62,EUR,,MWh
Power,Intraday,Continuous,NL,ID1,HH,2021-12-27T22:00:00+01:00,2021-12-27T22:30:00+01:00,100.83,EUR,,MWh
Power,Intraday,Continuous,NL,ID1,HH,2021-12-27T22:30:00+01:00,2021-12-27T23:00:00+01:00,100.83,EUR,,MWh
Power,Intraday,Continuous,NL,ID1,HH,2021-12-27T23:00:00+01:00,2021-12-27T23:30:00+01:00,83.82,EUR,,MWh
Power,Intraday,Continuous,NL,ID1,HH,2021-12-27T23:30:00+01:00,2021-12-28T00:00:00+01:00,83.82,EUR,,MWh
Power,Intraday,Continuous,NL,ID3,HH,2021-12-27T00:00:00+01:00,2021-12-27T00:30:00+01:00,143.98,EUR,,MWh
Power,Intraday,Continuous,NL,ID3,HH,2021-12-27T00:30:00+01:00,2021-12-27T01:00:00+01:00,143.98,EUR,,MWh
Power,Intraday,Continuous,NL,ID3,HH,2021-12-27T01:00:00+01:00,2021-12-27T01:30:00+01:00,148.64,EUR,,MWh
Power,Intraday,Continuous,NL,ID3,HH,2021-12-27T01:30:00+01:00,2021-12-27T02:00:00+01:00,148.64,EUR,,MWh
Power,Intraday,Continuous,NL,ID3,HH,2021-12-27T02:00:00+01:00,2021-12-27T02:30:00+01:00,158.25,EUR,,MWh
Power,Intraday,Continuous,NL,ID3,HH,2021-12-27T02:30:00+01:00,2021-12-27T03:00:00+01:00,158.25,EUR,,MWh
Power,Intraday,Continuous,NL,ID3,HH,2021-12-27T03:00:00+01:00,2021-12-27T03:30:00+01:00,160.50,EUR,,MWh
Power,Intraday,Continuous,NL,ID3,HH,2021-12-27T03:30:00+01:00,2021-12-27T04:00:00+01:00,160.50,EUR,,MWh
Power,Intraday,Continuous,NL,ID3,HH,2021-12-27T04:00:00+01:00,2021-12-27T04:30:00+01:00,133.86,EUR,,MWh
Power,Intraday,Continuous,NL,ID3,HH,2021-12-27T04:30:00+01:00,2021-12-27T05:00:00+01:00,133.86,EUR,,MWh
Power,Intraday,Continuous,NL,ID3,HH,2021-12-27T05:00:00+01:00,2021-12-27T05:30:00+01:00,138.45,EUR,,MWh
Power,Intraday,Continuous,NL,ID3,HH,2021-12-27T05:30:00+01:00,2021-12-27T06:00:00+01:00,138.45,EUR,,MWh
Power,Intraday,Continuous,NL,ID3,HH,2021-12-27T06:00:00+01:00,2021-12-27T06:30:00+01:00,182.47,EUR,,MWh
Power,Intraday,Continuous,NL,ID3,HH,2021-12-27T06:30:00+01:00,2021-12-27T07:00:00+01:00,182.47,EUR,,MWh
Power,Intraday,Continuous,NL,ID3,HH,2021-12-27T07:00:00+01:00,2021-12-27T07:30:00+01:00,196.49,EUR,,MWh
Power,Intraday,Continuous,NL,ID3,HH,2021-12-27T07:30:00+01:00,2021-12-27T08:00:00+01:00,196.49,EUR,,MWh
Power,Intraday,Continuous,NL,ID3,HH,2021-12-27T08:00:00+01:00,2021-12-27T08:30:00+01:00,217.54,EUR,,MWh
Power,Intraday,Continuous,NL,ID3,HH,2021-12-27T08:30:00+01:00,2021-12-27T09:00:00+01:00,217.54,EUR,,MWh
Power,Intraday,Continuous,NL,ID3,HH,2021-12-27T09:00:00+01:00,2021-12-27T09:30:00+01:00,223.70,EUR,,MWh
Power,Intraday,Continuous,NL,ID3,HH,2021-12-27T09:30:00+01:00,2021-12-27T10:00:00+01:00,223.70,EUR,,MWh
Power,Intraday,Continuous,NL,ID3,HH,2021-12-27T10:00:00+01:00,2021-12-27T10:30:00+01:00,226.07,EUR,,MWh
Power,Intraday,Continuous,NL,ID3,HH,2021-12-27T10:30:00+01:00,2021-12-27T11:00:00+01:00,226.07,EUR,,MWh
Power,Intraday,Continuous,NL,ID3,HH,2021-12-27T11:00:00+01:00,2021-12-27T11:30:00+01:00,227.07,EUR,,MWh
Power,Intraday,Continuous,NL,ID3,HH,2021-12-27T11:30:00+01:00,2021-12-27T12:00:00+01:00,227.07,EUR,,MWh
Power,Intraday,Continuous,NL,ID3,HH,2021-12-27T12:00:00+01:00,2021-12-27T12:30:00+01:00,221.28,EUR,,MWh
Power,Intraday,Continuous,NL,ID3,HH,2021-12-27T12:30:00+01:00,2021-12-27T13:00:00+01:00,221.28,EUR,,MWh
Power,Intraday,Continuous,NL,ID3,HH,2021-12-27T13:00:00+01:00,2021-12-27T13:30:00+01:00,220.11,EUR,,MWh
Power,Intraday,Continuous,NL,ID3,HH,2021-12-27T13:30:00+01:00,2021-12-27T14:00:00+01:00,220.11,EUR,,MWh
Power,Intraday,Continuous,NL,ID3,HH,2021-12-27T14:00:00+01:00,2021-12-27T14:30:00+01:00,204.98,EUR,,MWh
Power,Intraday,Continuous,NL,ID3,HH,2021-12-27T14:30:00+01:00,2021-12-27T15:00:00+01:00,204.98,EUR,,MWh
Power,Intraday,Continuous,NL,ID3,HH,2021-12-27T15:00:00+01:00,2021-12-27T15:30:00+01:00,202.72,EUR,,MWh
Power,Intraday,Continuous,NL,ID3,HH,2021-12-27T15:30:00+01:00,2021-12-27T16:00:00+01:00,202.72,EUR,,MWh
Power,Intraday,Continuous,NL,ID3,HH,2021-12-27T16:00:00+01:00,2021-12-27T16:30:00+01:00,187.59,EUR,,MWh
Power,Intraday,Continuous,NL,ID3,HH,2021-12-27T16:30:00+01:00,2021-12-27T17:00:00+01:00,187.59,EUR,,MWh
Power,Intraday,Continuous,NL,ID3,HH,2021-12-27T17:00:00+01:00,2021-12-27T17:30:00+01:00,216.92,EUR,,MWh
Power,Intraday,Continuous,NL,ID3,HH,2021-12-27T17:30:00+01:00,2021-12-27T18:00:00+01:00,216.92,EUR,,MWh
Power,Intraday,Continuous,NL,ID3,HH,2021-12-27T18:00:00+01:00,2021-12-27T18:30:00+01:00,203.46,EUR,,MWh
Power,Intraday,Continuous,NL,ID3,HH,2021-12-27T18:30:00+01:00,2021-12-27T19:00:00+01:00,203.46,EUR,,MWh
Power,Intraday,Continuous,NL,ID3,HH,2021-12-27T19:00:00+01:00,2021-12-27T19:30:00+01:00,194.07,EUR,,MWh
Power,Intraday,Continuous,NL,ID3,HH,2021-12-27T19:30:00+01:00,2021-12-27T20:00:00+01:00,194.07,EUR,,MWh
Power,Intraday,Continuous,NL,ID3,HH,2021-12-27T20:00:00+01:00,2021-12-27T20:30:00+01:00,156.08,EUR,,MWh
Power,Intraday,Continuous,NL,ID3,HH,2021-12-27T20:30:00+01:00,2021-12-27T21:00:00+01:00,156.08,EUR,,MWh
Power,Intraday,Continuous,NL,ID3,HH,2021-12-27T21:00:00+01:00,2021-12-27T21:30:00+01:00,133.62,EUR,,MWh
Power,Intraday,Continuous,NL,ID3,HH,2021-12-27T21:30:00+01:00,2021-12-27T22:00:00+01:00,133.62,EUR,,MWh
Power,Intraday,Continuous,NL,ID3,HH,2021-12-27T22:00:00+01:00,2021-12-27T22:30:00+01:00,100.83,EUR,,MWh
Power,Intraday,Continuous,NL,ID3,HH,2021-12-27T22:30:00+01:00,2021-12-27T23:00:00+01:00,100.83,EUR,,MWh
Power,Intraday,Continuous,NL,ID3,HH,2021-12-27T23:00:00+01:00,2021-12-27T23:30:00+01:00,83.82,EUR,,MWh
Power,Intraday,Continuous,NL,ID3,HH,2021-12-27T23:30:00+01:00,2021-12-28T00:00:00+01:00,83.82,EUR,,MWh
Power,Intraday,Continuous,NL,IDFULL,QH,2021-12-27T00:00:00+01:00,2021-12-27T00:15:00+01:00,140.70,EUR,8.300,MWh
Power,Intraday,Continuous,NL,IDFULL,QH,2021-12-27T00:15:00+01:00,2021-12-27T00:30:00+01:00,123.64,EUR,7.650,MWh
Power,Intraday,Continuous,NL,IDFULL,QH,2021-12-27T00:30:00+01:00,2021-12-27T00:45:00+01:00,111.59,EUR,6.130,MWh
Power,Intraday,Continuous,NL,IDFULL,QH,2021-12-27T00:45:00+01:00,2021-12-27T01:00:00+01:00,127.37,EUR,8.630,MWh
Power,Intraday,Continuous,NL,IDFULL,QH,2021-12-27T01:00:00+01:00,2021-12-27T01:15:00+01:00,181.62,EUR,9.680,MWh
Power,Intraday,Continuous,NL,IDFULL,QH,2021-12-27T01:15:00+01:00,2021-12-27T01:30:00+01:00,186.62,EUR,12.130,MWh
Power,Intraday,Continuous,NL,IDFULL,QH,2021-12-27T01:30:00+01:00,2021-12-27T01:45:00+01:00,210.99,EUR,9.350,MWh
Power,Intraday,Continuous,NL,IDFULL,QH,2021-12-27T01:45:00+01:00,2021-12-27T02:00:00+01:00,164.96,EUR,11.330,MWh
Power,Intraday,Continuous,NL,IDFULL,QH,2021-12-27T02:00:00+01:00,2021-12-27T02:15:00+01:00,158.34,EUR,12.150,MWh
Power,Intraday,Continuous,NL,IDFULL,QH,2021-12-27T02:15:00+01:00,2021-12-27T02:30:00+01:00,142.70,EUR,10.730,MWh
Power,Intraday,Continuous,NL,IDFULL,QH,2021-12-27T02:30:00+01:00,2021-12-27T02:45:00+01:00,144.50,EUR,12.800,MWh
Power,Intraday,Continuous,NL,IDFULL,QH,2021-12-27T02:45:00+01:00,2021-12-27T03:00:00+01:00,164.74,EUR,19.650,MWh
Power,Intraday,Continuous,NL,IDFULL,QH,2021-12-27T03:00:00+01:00,2021-12-27T03:15:00+01:00,318.00,EUR,,MWh
Power,Intraday,Continuous,NL,IDFULL,QH,2021-12-27T03:15:00+01:00,2021-12-27T03:30:00+01:00,140.68,EUR,5.730,MWh
Power,Intraday,Continuous,NL,IDFULL,QH,2021-12-27T03:30:00+01:00,2021-12-27T03:45:00+01:00,90.29,EUR,3.530,MWh
Power,Intraday,Continuous,NL,IDFULL,QH,2021-12-27T03:45:00+01:00,2021-12-27T04:00:00+01:00,93.03,EUR,4.950,MWh
Power,Intraday,Continuous,NL,IDFULL,QH,2021-12-27T04:00:00+01:00,2021-12-27T04:15:00+01:00,104.51,EUR,7.880,MWh
Power,Intraday,Continuous,NL,IDFULL,QH,2021-12-27T04:15:00+01:00,2021-12-27T04:30:00+01:00,78.95,EUR,4.280,MWh
Power,Intraday,Continuous,NL,IDFULL,QH,2021-12-27T04:30:00+01:00,2021-12-27T04:45:00+01:00,85.24,EUR,4.450,MWh
Power,Intraday,Continuous,NL,IDFULL,QH,2021-12-27T04:45:00+01:00,2021-12-27T05:00:00+01:00,98.99,EUR,4.550,MWh
Power,Intraday,Continuous,NL,IDFULL,QH,2021-12-27T05:00:00+01:00,2021-12-27T05:15:00+01:00,89.25,EUR,42.400,MWh
Power,Intraday,Continuous,NL,IDFULL,QH,2021-12-27T05:15:00+01:00,2021-12-27T05:30:00+01:00,117.60,EUR,23.130,MWh
Power,Intraday,Continuous,NL,IDFULL,QH,2021-12-27T05:30:00+01:00,2021-12-27T05:45:00+01:00,179.89,EUR,10.200,MWh
Power,Intraday,Continuous,NL,IDFULL,QH,2021-12-27T05:45:00+01:00,2021-12-27T06:00:00+01:00,195.21,EUR,16.950,MWh
Power,Intraday,Continuous,NL,IDFULL,QH,2021-12-27T06:00:00+01:00,2021-12-27T06:15:00+01:00,108.61,EUR,45.500,MWh
Power,Intraday,Continuous,NL,IDFULL,QH,2021-12-27T06:15:00+01:00,2021-12-27T06:30:00+01:00,134.94,EUR,16.300,MWh
Power,Intraday,Continuous,NL,IDFULL,QH,2021-12-27T06:30:00+01:00,2021-12-27T06:45:00+01:00,173.72,EUR,20.000,MWh
Power,Intraday,Continuous,NL,IDFULL,QH,2021-12-27T06:45:00+01:00,2021-12-27T07:00:00+01:00,267.67,EUR,21.030,MWh
Power,Intraday,Continuous,NL,IDFULL,QH,2021-12-27T07:00:00+01:00,2021-12-27T07:15:00+01:00,111.69,EUR,115.350,MWh
Power,Intraday,Continuous,NL,IDFULL,QH,2021-12-27T07:15:00+01:00,2021-12-27T07:30:00+01:00,194.93,EUR,33.380,MWh
Power,Intraday,Continuous,NL,IDFULL,QH,2021-12-27T07:30:00+01:00,2021-12-27T07:45:00+01:00,204.94,EUR,37.930,MWh
Power,Intraday,Continuous,NL,IDFULL,QH,2021-12-27T07:45:00+01:00,2021-12-27T08:00:00+01:00,230.86,EUR,36.200,MWh
Power,Intraday,Continuous,NL,IDFULL,QH,2021-12-27T08:00:00+01:00,2021-12-27T08:15:00+01:00,161.44,EUR,103.230,MWh
Power,Intraday,Continuous,NL,IDFULL,QH,2021-12-27T08:15:00+01:00,2021-12-27T08:30:00+01:00,217.90,EUR,74.850,MWh
Power,Intraday,Continuous,NL,IDFULL,QH,2021-12-27T08:30:00+01:00,2021-12-27T08:45:00+01:00,245.73,EUR,52.300,MWh
Power,Intraday,Continuous,NL,IDFULL,QH,2021-12-27T08:45:00+01:00,2021-12-27T09:00:00+01:00,322.01,EUR,48.150,MWh
Power,Intraday,Continuous,NL,IDFULL,QH,2021-12-27T09:00:00+01:00,2021-12-27T09:15:00+01:00,219.35,EUR,25.430,MWh
Power,Intraday,Continuous,NL,IDFULL,QH,2021-12-27T09:15:00+01:00,2021-12-27T09:30:00+01:00,222.23,EUR,25.800,MWh
Power,Intraday,Continuous,NL,IDFULL,QH,2021-12-27T09:30:00+01:00,2021-12-27T09:45:00+01:00,211.89,EUR,30.230,MWh
Power,Intraday,Continuous,NL,IDFULL,QH,2021-12-27T09:45:00+01:00,2021-12-27T10:00:00+01:00,204.37,EUR,35.900,MWh
Power,Intraday,Continuous,NL,IDFULL,QH,2021-12-27T10:00:00+01:00,2021-12-27T10:15:00+01:00,227.71,EUR,28.080,MWh
Power,Intraday,Continuous,NL,IDFULL,QH,2021-12-27T10:15:00+01:00,2021-12-27T10:30:00+01:00,208.12,EUR,17.050,MWh
Power,Intraday,Continuous,NL,IDFULL,QH,2021-12-27T10:30:00+01:00,2021-12-27T10:45:00+01:00,206.69,EUR,24.700,MWh
Power,Intraday,Continuous,NL,IDFULL,QH,2021-12-27T10:45:00+01:00,2021-12-27T11:00:00+01:00,216.11,EUR,80.800,MWh
Power,Intraday,Continuous,NL,IDFULL,QH,2021-12-27T11:00:00+01:00,2021-12-27T11:15:00+01:00,239.41,EUR,17.150,MWh
Power,Intraday,Continuous,NL,IDFULL,QH,2021-12-27T11:15:00+01:00,2021-12-27T11:30:00+01:00,227.50,EUR,18.700,MWh
Power,Intraday,Continuous,NL,IDFULL,QH,2021-12-27T11:30:00+01:00,2021-12-27T11:45:00+01:00,223.10,EUR,15.230,MWh
Power,Intraday,Continuous,NL,IDFULL,QH,2021-12-27T11:45:00+01:00,2021-12-27T12:00:00+01:00,216.04,EUR,28.350,MWh
Power,Intraday,Continuous,NL,IDFULL,QH,2021-12-27T12:00:00+01:00,2021-12-27T12:15:00+01:00,230.07,EUR,29.450,MWh
Power,Intraday,Continuous,NL,IDFULL,QH,2021-12-27T12:15:00+01:00,2021-12-27T12:30:00+01:00,220.56,EUR,30.130,MWh
Power,Intraday,Continuous,NL,IDFULL,QH,2021-12-27T12:30:00+01:00,2021-12-27T12:45:00+01:00,216.95,EUR,39.380,MWh
Power,Intraday,Continuous,NL,IDFULL,QH,2021-12-27T12:45:00+01:00,2021-12-27T13:00:00+01:00,212.54,EUR,58.650,MWh
Power,Intraday,Continuous,NL,IDFULL,QH,2021-12-27T13:00:00+01:00,2021-12-27T13:15:00+01:00,219.53,EUR,27.530,MWh
Power,Intraday,Continuous,NL,IDFULL,QH,2021-12-27T13:15:00+01:00,2021-12-27T13:30:00+01:00,223.69,EUR,21.400,MWh
Power,Intraday,Continuous,NL,IDFULL,QH,2021-12-27T13:30:00+01:00,2021-12-27T13:45:00+01:00,221.05,EUR,17.650,MWh
Power,Intraday,Continuous,NL,IDFULL,QH,2021-12-27T13:45:00+01:00,2021-12-27T14:00:00+01:00,206.86,EUR,20.780,MWh
Power,Intraday,Continuous,NL,IDFULL,QH,2021-12-27T14:00:00+01:00,2021-12-27T14:15:00+01:00,193.65,EUR,46.580,MWh
Power,Intraday,Continuous,NL,IDFULL,QH,2021-12-27T14:15:00+01:00,2021-12-27T14:30:00+01:00,204.00,EUR,31.480,MWh
Power,Intraday,Continuous,NL,IDFULL,QH,2021-12-27T14:30:00+01:00,2021-12-27T14:45:00+01:00,200.73,EUR,28.930,MWh
Power,Intraday,Continuous,NL,IDFULL,QH,2021-12-27T14:45:00+01:00,2021-12-27T15:00:00+01:00,217.97,EUR,36.530,MWh
Power,Intraday,Continuous,NL,IDFULL,QH,2021-12-27T15:00:00+01:00,2021-12-27T15:15:00+01:00,180.94,EUR,43.380,MWh
Power,Intraday,Continuous,NL,IDFULL,QH,2021-12-27T15:15:00+01:00,2021-12-27T15:30:00+01:00,207.41,EUR,42.050,MWh
Power,Intraday,Continuous,NL,IDFULL,QH,2021-12-27T15:30:00+01:00,2021-12-27T15:45:00+01:00,225.66,EUR,68.500,MWh
Power,Intraday,Continuous,NL,IDFULL,QH,2021-12-27T15:45:00+01:00,2021-12-27T16:00:00+01:00,227.49,EUR,87.400,MWh
Power,Intraday,Continuous,NL,IDFULL,QH,2021-12-27T16:00:00+01:00,2021-12-27T16:15:00+01:00,175.55,EUR,5.030,MWh
Power,Intraday,Continuous,NL,IDFULL,QH,2021-12-27T16:15:00+01:00,2021-12-27T16:30:00+01:00,202.95,EUR,4.400,MWh
Power,Intraday,Continuous,NL,IDFULL,QH,2021-12-27T16:30:00+01:00,2021-12-27T16:45:00+01:00,201.93,EUR,10.600,MWh
Power,Intraday,Continuous,NL,IDFULL,QH,2021-12-27T16:45:00+01:00,2021-12-27T17:00:00+01:00,199.28,EUR,52.000,MWh
Power,Intraday,Continuous,NL,IDFULL,QH,2021-12-27T17:00:00+01:00,2021-12-27T17:15:00+01:00,212.11,EUR,59.480,MWh
Power,Intraday,Continuous,NL,IDFULL,QH,2021-12-27T17:15:00+01:00,2021-12-27T17:30:00+01:00,212.72,EUR,42.770,MWh
Power,Intraday,Continuous,NL,IDFULL,QH,2021-12-27T17:30:00+01:00,2021-12-27T17:45:00+01:00,218.84,EUR,47.550,MWh
Power,Intraday,Continuous,NL,IDFULL,QH,2021-12-27T17:45:00+01:00,2021-12-27T18:00:00+01:00,213.76,EUR,61.580,MWh
Power,Intraday,Continuous,NL,IDFULL,QH,2021-12-27T18:00:00+01:00,2021-12-27T18:15:00+01:00,239.33,EUR,134.800,MWh
Power,Intraday,Continuous,NL,IDFULL,QH,2021-12-27T18:15:00+01:00,2021-12-27T18:30:00+01:00,201.11,EUR,62.450,MWh
Power,Intraday,Continuous,NL,IDFULL,QH,2021-12-27T18:30:00+01:00,2021-12-27T18:45:00+01:00,203.37,EUR,56.550,MWh
Power,Intraday,Continuous,NL,IDFULL,QH,2021-12-27T18:45:00+01:00,2021-12-27T19:00:00+01:00,179.22,EUR,65.150,MWh
Power,Intraday,Continuous,NL,IDFULL,QH,2021-12-27T19:00:00+01:00,2021-12-27T19:15:00+01:00,226.91,EUR,27.280,MWh
Power,Intraday,Continuous,NL,IDFULL,QH,2021-12-27T19:15:00+01:00,2021-12-27T19:30:00+01:00,201.34,EUR,23.750,MWh
Power,Intraday,Continuous,NL,IDFULL,QH,2021-12-27T19:30:00+01:00,2021-12-27T19:45:00+01:00,192.19,EUR,42.750,MWh
Power,Intraday,Continuous,NL,IDFULL,QH,2021-12-27T19:45:00+01:00,2021-12-27T20:00:00+01:00,148.38,EUR,81.550,MWh
Power,Intraday,Continuous,NL,IDFULL,QH,2021-12-27T20:00:00+01:00,2021-12-27T20:15:00+01:00,208.94,EUR,67.600,MWh
Power,Intraday,Continuous,NL,IDFULL,QH,2021-12-27T20:15:00+01:00,2021-12-27T20:30:00+01:00,168.40,EUR,32.700,MWh
Power,Intraday,Continuous,NL,IDFULL,QH,2021-12-27T20:30:00+01:00,2021-12-27T20:45:00+01:00,146.78,EUR,30.930,MWh
Power,Intraday,Continuous,NL,IDFULL,QH,2021-12-27T20:45:00+01:00,2021-12-27T21:00:00+01:00,89.77,EUR,42.250,MWh
Power,Intraday,Continuous,NL,IDFULL,QH,2021-12-27T21:00:00+01:00,2021-12-27T21:15:00+01:00,141.19,EUR,,MWh
Power,Intraday,Continuous,NL,IDFULL,QH,2021-12-27T21:15:00+01:00,2021-12-27T21:30:00+01:00,110.90,EUR,3.600,MWh
Power,Intraday,Continuous,NL,IDFULL,QH,2021-12-27T21:30:00+01:00,2021-12-27T21:45:00+01:00,141.19,EUR,,MWh
Power,Intraday,Continuous,NL,IDFULL,QH,2021-12-27T21:45:00+01:00,2021-12-27T22:00:00+01:00,141.19,EUR,,MWh
Power,Intraday,Continuous,NL,IDFULL,QH,2021-12-27T22:00:00+01:00,2021-12-27T22:15:00+01:00,128.40,EUR,24.080,MWh
Power,Intraday,Continuous,NL,IDFULL,QH,2021-12-27T22:15:00+01:00,2021-12-27T22:30:00+01:00,92.17,EUR,35.680,MWh
Power,Intraday,Continuous,NL,IDFULL,QH,2021-12-27T22:30:00+01:00,2021-12-27T22:45:00+01:00,92.88,EUR,57.630,MWh
Power,Intraday,Continuous,NL,IDFULL,QH,2021-12-27T22:45:00+01:00,2021-12-27T23:00:00+01:00,57.84,EUR,77.730,MWh
Power,Intraday,Continuous,NL,IDFULL,QH,2021-12-27T23:00:00+01:00,2021-12-27T23:15:00+01:00,113.27,EUR,22.080,MWh
Power,Intraday,Continuous,NL,IDFULL,QH,2021-12-27T23:15:00+01:00,2021-12-27T23:30:00+01:00,78.68,EUR,31.500,MWh
Power,Intraday,Continuous,NL,IDFULL,QH,2021-12-27T23:30:00+01:00,2021-12-27T23:45:00+01:00,73.45,EUR,47.300,MWh
Power,Intraday,Continuous,NL,IDFULL,QH,2021-12-27T23:45:00+01:00,2021-12-28T00:00:00+01:00,63.77,EUR,62.680,MWh
Power,Intraday,Continuous,NL,ID1,QH,2021-12-27T00:00:00+01:00,2021-12-27T00:15:00+01:00,140.70,EUR,,MWh
Power,Intraday,Continuous,NL,ID1,QH,2021-12-27T00:15:00+01:00,2021-12-27T00:30:00+01:00,123.64,EUR,,MWh
Power,Intraday,Continuous,NL,ID1,QH,2021-12-27T00:30:00+01:00,2021-12-27T00:45:00+01:00,111.59,EUR,,MWh
Power,Intraday,Continuous,NL,ID1,QH,2021-12-27T00:45:00+01:00,2021-12-27T01:00:00+01:00,127.37,EUR,,MWh
Power,Intraday,Continuous,NL,ID1,QH,2021-12-27T01:00:00+01:00,2021-12-27T01:15:00+01:00,181.62,EUR,,MWh
Power,Intraday,Continuous,NL,ID1,QH,2021-12-27T01:15:00+01:00,2021-12-27T01:30:00+01:00,190.93,EUR,,MWh
Power,Intraday,Continuous,NL,ID1,QH,2021-12-27T01:30:00+01:00,2021-12-27T01:45:00+01:00,210.99,EUR,,MWh
Power,Intraday,Continuous,NL,ID1,QH,2021-12-27T01:45:00+01:00,2021-12-27T02:00:00+01:00,83.82,EUR,,MWh
Power,Intraday,Continuous,NL,ID1,QH,2021-12-27T02:00:00+01:00,2021-12-27T02:15:00+01:00,158.34,EUR,,MWh
Power,Intraday,Continuous,NL,ID1,QH,2021-12-27T02:15:00+01:00,2021-12-27T02:30:00+01:00,142.70,EUR,,MWh
Power,Intraday,Continuous,NL,ID1,QH,2021-12-27T02:30:00+01:00,2021-12-27T02:45:00+01:00,144.50,EUR,,MWh
Power,Intraday,Continuous,NL,ID1,QH,2021-12-27T02:45:00+01:00,2021-12-27T03:00:00+01:00,194.81,EUR,7.930,MWh
Power,Intraday,Continuous,NL,ID1,QH,2021-12-27T03:00:00+01:00,2021-12-27T03:15:00+01:00,318.00,EUR,,MWh
Power,Intraday,Continuous,NL,ID1,QH,2021-12-27T03:15:00+01:00,2021-12-27T03:30:00+01:00,207.99,EUR,2.500,MWh
Power,Intraday,Continuous,NL,ID1,QH,2021-12-27T03:30:00+01:00,2021-12-27T03:45:00+01:00,90.29,EUR,,MWh
Power,Intraday,Continuous,NL,ID1,QH,2021-12-27T03:45:00+01:00,2021-12-27T04:00:00+01:00,93.03,EUR,,MWh
Power,Intraday,Continuous,NL,ID1,QH,2021-12-27T04:00:00+01:00,2021-12-27T04:15:00+01:00,161.46,EUR,2.700,MWh
Power,Intraday,Continuous,NL,ID1,QH,2021-12-27T04:15:00+01:00,2021-12-27T04:30:00+01:00,78.95,EUR,,MWh
Power,Intraday,Continuous,NL,ID1,QH,2021-12-27T04:30:00+01:00,2021-12-27T04:45:00+01:00,85.24,EUR,,MWh
Power,Intraday,Continuous,NL,ID1,QH,2021-12-27T04:45:00+01:00,2021-12-27T05:00:00+01:00,98.99,EUR,,MWh
Power,Intraday,Continuous,NL,ID1,QH,2021-12-27T05:00:00+01:00,2021-12-27T05:15:00+01:00,101.53,EUR,,MWh
Power,Intraday,Continuous,NL,ID1,QH,2021-12-27T05:15:00+01:00,2021-12-27T05:30:00+01:00,62.30,EUR,2.500,MWh
Power,Intraday,Continuous,NL,ID1,QH,2021-12-27T05:30:00+01:00,2021-12-27T05:45:00+01:00,206.01,EUR,,MWh
Power,Intraday,Continuous,NL,ID1,QH,2021-12-27T05:45:00+01:00,2021-12-27T06:00:00+01:00,196.13,EUR,7.200,MWh
Power,Intraday,Continuous,NL,ID1,QH,2021-12-27T06:00:00+01:00,2021-12-27T06:15:00+01:00,123.53,EUR,,MWh
Power,Intraday,Continuous,NL,ID1,QH,2021-12-27T06:15:00+01:00,2021-12-27T06:30:00+01:00,142.06,EUR,,MWh
Power,Intraday,Continuous,NL,ID1,QH,2021-12-27T06:30:00+01:00,2021-12-27T06:45:00+01:00,177.43,EUR,,MWh
Power,Intraday,Continuous,NL,ID1,QH,2021-12-27T06:45:00+01:00,2021-12-27T07:00:00+01:00,282.13,EUR,,MWh
Power,Intraday,Continuous,NL,ID1,QH,2021-12-27T07:00:00+01:00,2021-12-27T07:15:00+01:00,124.93,EUR,,MWh
Power,Intraday,Continuous,NL,ID1,QH,2021-12-27T07:15:00+01:00,2021-12-27T07:30:00+01:00,217.00,EUR,,MWh
Power,Intraday,Continuous,NL,ID1,QH,2021-12-27T07:30:00+01:00,2021-12-27T07:45:00+01:00,191.94,EUR,3.000,MWh
Power,Intraday,Continuous,NL,ID1,QH,2021-12-27T07:45:00+01:00,2021-12-27T08:00:00+01:00,239.65,EUR,,MWh
Power,Intraday,Continuous,NL,ID1,QH,2021-12-27T08:00:00+01:00,2021-12-27T08:15:00+01:00,164.91,EUR,,MWh
Power,Intraday,Continuous,NL,ID1,QH,2021-12-27T08:15:00+01:00,2021-12-27T08:30:00+01:00,219.76,EUR,,MWh
Power,Intraday,Continuous,NL,ID1,QH,2021-12-27T08:30:00+01:00,2021-12-27T08:45:00+01:00,248.08,EUR,,MWh
Power,Intraday,Continuous,NL,ID1,QH,2021-12-27T08:45:00+01:00,2021-12-27T09:00:00+01:00,331.27,EUR,,MWh
Power,Intraday,Continuous,NL,ID1,QH,2021-12-27T09:00:00+01:00,2021-12-27T09:15:00+01:00,217.68,EUR,,MWh
Power,Intraday,Continuous,NL,ID1,QH,2021-12-27T09:15:00+01:00,2021-12-27T09:30:00+01:00,221.45,EUR,,MWh
Power,Intraday,Continuous,NL,ID1,QH,2021-12-27T09:30:00+01:00,2021-12-27T09:45:00+01:00,210.77,EUR,,MWh
Power,Intraday,Continuous,NL,ID1,QH,2021-12-27T09:45:00+01:00,2021-12-27T10:00:00+01:00,202.75,EUR,,MWh
Power,Intraday,Continuous,NL,ID1,QH,2021-12-27T10:00:00+01:00,2021-12-27T10:15:00+01:00,227.67,EUR,,MWh
Power,Intraday,Continuous,NL,ID1,QH,2021-12-27T10:15:00+01:00,2021-12-27T10:30:00+01:00,207.31,EUR,,MWh
Power,Intraday,Continuous,NL,ID1,QH,2021-12-27T10:30:00+01:00,2021-12-27T10:45:00+01:00,206.53,EUR,,MWh
Power,Intraday,Continuous,NL,ID1,QH,2021-12-27T10:45:00+01:00,2021-12-27T11:00:00+01:00,218.75,EUR,,MWh
Power,Intraday,Continuous,NL,ID1,QH,2021-12-27T11:00:00+01:00,2021-12-27T11:15:00+01:00,299.84,EUR,3.400,MWh
Power,Intraday,Continuous,NL,ID1,QH,2021-12-27T11:15:00+01:00,2021-12-27T11:30:00+01:00,227.74,EUR,,MWh
Power,Intraday,Continuous,NL,ID1,QH,2021-12-27T11:30:00+01:00,2021-12-27T11:45:00+01:00,223.03,EUR,,MWh
Power,Intraday,Continuous,NL,ID1,QH,2021-12-27T11:45:00+01:00,2021-12-27T12:00:00+01:00,215.56,EUR,,MWh
Power,Intraday,Continuous,NL,ID1,QH,2021-12-27T12:00:00+01:00,2021-12-27T12:15:00+01:00,233.39,EUR,,MWh
Power,Intraday,Continuous,NL,ID1,QH,2021-12-27T12:15:00+01:00,2021-12-27T12:30:00+01:00,218.91,EUR,,MWh
Power,Intraday,Continuous,NL,ID1,QH,2021-12-27T12:30:00+01:00,2021-12-27T12:45:00+01:00,215.75,EUR,,MWh
Power,Intraday,Continuous,NL,ID1,QH,2021-12-27T12:45:00+01:00,2021-12-27T13:00:00+01:00,210.71,EUR,,MWh
Power,Intraday,Continuous,NL,ID1,QH,2021-12-27T13:00:00+01:00,2021-12-27T13:15:00+01:00,217.55,EUR,,MWh
Power,Intraday,Continuous,NL,ID1,QH,2021-12-27T13:15:00+01:00,2021-12-27T13:30:00+01:00,224.71,EUR,,MWh
Power,Intraday,Continuous,NL,ID1,QH,2021-12-27T13:30:00+01:00,2021-12-27T13:45:00+01:00,221.79,EUR,,MWh
Power,Intraday,Continuous,NL,ID1,QH,2021-12-27T13:45:00+01:00,2021-12-27T14:00:00+01:00,207.21,EUR,,MWh
Power,Intraday,Continuous,NL,ID1,QH,2021-12-27T14:00:00+01:00,2021-12-27T14:15:00+01:00,198.38,EUR,,MWh
Power,Intraday,Continuous,NL,ID1,QH,2021-12-27T14:15:00+01:00,2021-12-27T14:30:00+01:00,210.54,EUR,,MWh
Power,Intraday,Continuous,NL,ID1,QH,2021-12-27T14:30:00+01:00,2021-12-27T14:45:00+01:00,210.15,EUR,,MWh
Power,Intraday,Continuous,NL,ID1,QH,2021-12-27T14:45:00+01:00,2021-12-27T15:00:00+01:00,222.07,EUR,,MWh
Power,Intraday,Continuous,NL,ID1,QH,2021-12-27T15:00:00+01:00,2021-12-27T15:15:00+01:00,188.11,EUR,,MWh
Power,Intraday,Continuous,NL,ID1,QH,2021-12-27T15:15:00+01:00,2021-12-27T15:30:00+01:00,213.67,EUR,,MWh
Power,Intraday,Continuous,NL,ID1,QH,2021-12-27T15:30:00+01:00,2021-12-27T15:45:00+01:00,228.70,EUR,,MWh
Power,Intraday,Continuous,NL,ID1,QH,2021-12-27T15:45:00+01:00,2021-12-27T16:00:00+01:00,229.24,EUR,,MWh
Power,Intraday,Continuous,NL,ID1,QH,2021-12-27T16:00:00+01:00,2021-12-27T16:15:00+01:00,181.17,EUR,,MWh
Power,Intraday,Continuous,NL,ID1,QH,2021-12-27T16:15:00+01:00,2021-12-27T16:30:00+01:00,205.02,EUR,,MWh
Power,Intraday,Continuous,NL,ID1,QH,2021-12-27T16:30:00+01:00,2021-12-27T16:45:00+01:00,202.87,EUR,,MWh
Power,Intraday,Continuous,NL,ID1,QH,2021-12-27T16:45:00+01:00,2021-12-27T17:00:00+01:00,183.36,EUR,17.030,MWh
Power,Intraday,Continuous,NL,ID1,QH,2021-12-27T17:00:00+01:00,2021-12-27T17:15:00+01:00,215.68,EUR,,MWh
Power,Intraday,Continuous,NL,ID1,QH,2021-12-27T17:15:00+01:00,2021-12-27T17:30:00+01:00,219.96,EUR,,MWh
Power,Intraday,Continuous,NL,ID1,QH,2021-12-27T17:30:00+01:00,2021-12-27T17:45:00+01:00,225.12,EUR,,MWh
Power,Intraday,Continuous,NL,ID1,QH,2021-12-27T17:45:00+01:00,2021-12-27T18:00:00+01:00,221.36,EUR,,MWh
Power,Intraday,Continuous,NL,ID1,QH,2021-12-27T18:00:00+01:00,2021-12-27T18:15:00+01:00,241.77,EUR,,MWh
Power,Intraday,Continuous,NL,ID1,QH,2021-12-27T18:15:00+01:00,2021-12-27T18:30:00+01:00,203.22,EUR,,MWh
Power,Intraday,Continuous,NL,ID1,QH,2021-12-27T18:30:00+01:00,2021-12-27T18:45:00+01:00,195.43,EUR,,MWh
Power,Intraday,Continuous,NL,ID1,QH,2021-12-27T18:45:00+01:00,2021-12-27T19:00:00+01:00,171.70,EUR,,MWh
Power,Intraday,Continuous,NL,ID1,QH,2021-12-27T19:00:00+01:00,2021-12-27T19:15:00+01:00,224.67,EUR,,MWh
Power,Intraday,Continuous,NL,ID1,QH,2021-12-27T19:15:00+01:00,2021-12-27T19:30:00+01:00,200.36,EUR,,MWh
Power,Intraday,Continuous,NL,ID1,QH,2021-12-27T19:30:00+01:00,2021-12-27T19:45:00+01:00,188.75,EUR,,MWh
Power,Intraday,Continuous,NL,ID1,QH,2021-12-27T19:45:00+01:00,2021-12-27T20:00:00+01:00,145.86,EUR,,MWh
Power,Intraday,Continuous,NL,ID1,QH,2021-12-27T20:00:00+01:00,2021-12-27T20:15:00+01:00,183.86,EUR,3.600,MWh
Power,Intraday,Continuous,NL,ID1,QH,2021-12-27T20:15:00+01:00,2021-12-27T20:30:00+01:00,64.59,EUR,3.330,MWh
Power,Intraday,Continuous,NL,ID1,QH,2021-12-27T20:30:00+01:00,2021-12-27T20:45:00+01:00,123.09,EUR,,MWh
Power,Intraday,Continuous,NL,ID1,QH,2021-12-27T20:45:00+01:00,2021-12-27T21:00:00+01:00,81.56,EUR,,MWh
Power,Intraday,Continuous,NL,ID1,QH,2021-12-27T21:00:00+01:00,2021-12-27T21:15:00+01:00,141.19,EUR,,MWh
Power,Intraday,Continuous,NL,ID1,QH,2021-12-27T21:15:00+01:00,2021-12-27T21:30:00+01:00,110.90,EUR,,MWh
Power,Intraday,Continuous,NL,ID1,QH,2021-12-27T21:30:00+01:00,2021-12-27T21:45:00+01:00,141.19,EUR,,MWh
Power,Intraday,Continuous,NL,ID1,QH,2021-12-27T21:45:00+01:00,2021-12-27T22:00:00+01:00,141.19,EUR,,MWh
Power,Intraday,Continuous,NL,ID1,QH,2021-12-27T22:00:00+01:00,2021-12-27T22:15:00+01:00,106.49,EUR,,MWh
Power,Intraday,Continuous,NL,ID1,QH,2021-12-27T22:15:00+01:00,2021-12-27T22:30:00+01:00,68.48,EUR,,MWh
Power,Intraday,Continuous,NL,ID1,QH,2021-12-27T22:30:00+01:00,2021-12-27T22:45:00+01:00,90.68,EUR,,MWh
Power,Intraday,Continuous,NL,ID1,QH,2021-12-27T22:45:00+01:00,2021-12-27T23:00:00+01:00,46.12,EUR,,MWh
Power,Intraday,Continuous,NL,ID1,QH,2021-12-27T23:00:00+01:00,2021-12-27T23:15:00+01:00,112.58,EUR,,MWh
Power,Intraday,Continuous,NL,ID1,QH,2021-12-27T23:15:00+01:00,2021-12-27T23:30:00+01:00,71.19,EUR,,MWh
Power,Intraday,Continuous,NL,ID1,QH,2021-12-27T23:30:00+01:00,2021-12-27T23:45:00+01:00,70.37,EUR,,MWh
Power,Intraday,Continuous,NL,ID1,QH,2021-12-27T23:45:00+01:00,2021-12-28T00:00:00+01:00,63.09,EUR,,MWh
Power,Intraday,Continuous,NL,ID3,QH,2021-12-27T00:00:00+01:00,2021-12-27T00:15:00+01:00,140.70,EUR,8.300,MWh
Power,Intraday,Continuous,NL,ID3,QH,2021-12-27T00:15:00+01:00,2021-12-27T00:30:00+01:00,123.64,EUR,7.650,MWh
Power,Intraday,Continuous,NL,ID3,QH,2021-12-27T00:30:00+01:00,2021-12-27T00:45:00+01:00,111.59,EUR,6.130,MWh
Power,Intraday,Continuous,NL,ID3,QH,2021-12-27T00:45:00+01:00,2021-12-27T01:00:00+01:00,127.37,EUR,8.630,MWh
Power,Intraday,Continuous,NL,ID3,QH,2021-12-27T01:00:00+01:00,2021-12-27T01:15:00+01:00,181.62,EUR,,MWh
Power,Intraday,Continuous,NL,ID3,QH,2021-12-27T01:15:00+01:00,2021-12-27T01:30:00+01:00,190.93,EUR,2.830,MWh
Power,Intraday,Continuous,NL,ID3,QH,2021-12-27T01:30:00+01:00,2021-12-27T01:45:00+01:00,210.99,EUR,,MWh
Power,Intraday,Continuous,NL,ID3,QH,2021-12-27T01:45:00+01:00,2021-12-27T02:00:00+01:00,83.82,EUR,4.580,MWh
Power,Intraday,Continuous,NL,ID3,QH,2021-12-27T02:00:00+01:00,2021-12-27T02:15:00+01:00,158.34,EUR,,MWh
Power,Intraday,Continuous,NL,ID3,QH,2021-12-27T02:15:00+01:00,2021-12-27T02:30:00+01:00,142.70,EUR,,MWh
Power,Intraday,Continuous,NL,ID3,QH,2021-12-27T02:30:00+01:00,2021-12-27T02:45:00+01:00,144.50,EUR,,MWh
Power,Intraday,Continuous,NL,ID3,QH,2021-12-27T02:45:00+01:00,2021-12-27T03:00:00+01:00,183.95,EUR,9.430,MWh
Power,Intraday,Continuous,NL,ID3,QH,2021-12-27T03:00:00+01:00,2021-12-27T03:15:00+01:00,318.00,EUR,,MWh
Power,Intraday,Continuous,NL,ID3,QH,2021-12-27T03:15:00+01:00,2021-12-27T03:30:00+01:00,207.99,EUR,2.580,MWh
Power,Intraday,Continuous,NL,ID3,QH,2021-12-27T03:30:00+01:00,2021-12-27T03:45:00+01:00,90.29,EUR,,MWh
Power,Intraday,Continuous,NL,ID3,QH,2021-12-27T03:45:00+01:00,2021-12-27T04:00:00+01:00,93.03,EUR,,MWh
Power,Intraday,Continuous,NL,ID3,QH,2021-12-27T04:00:00+01:00,2021-12-27T04:15:00+01:00,161.17,EUR,2.880,MWh
Power,Intraday,Continuous,NL,ID3,QH,2021-12-27T04:15:00+01:00,2021-12-27T04:30:00+01:00,78.95,EUR,,MWh
Power,Intraday,Continuous,NL,ID3,QH,2021-12-27T04:30:00+01:00,2021-12-27T04:45:00+01:00,85.24,EUR,,MWh
Power,Intraday,Continuous,NL,ID3,QH,2021-12-27T04:45:00+01:00,2021-12-27T05:00:00+01:00,98.99,EUR,,MWh
Power,Intraday,Continuous,NL,ID3,QH,2021-12-27T05:00:00+01:00,2021-12-27T05:15:00+01:00,101.53,EUR,14.650,MWh
Power,Intraday,Continuous,NL,ID3,QH,2021-12-27T05:15:00+01:00,2021-12-27T05:30:00+01:00,155.26,EUR,8.980,MWh
Power,Intraday,Continuous,NL,ID3,QH,2021-12-27T05:30:00+01:00,2021-12-27T05:45:00+01:00,206.01,EUR,5.650,MWh
Power,Intraday,Continuous,NL,ID3,QH,2021-12-27T05:45:00+01:00,2021-12-27T06:00:00+01:00,196.72,EUR,7.400,MWh
Power,Intraday,Continuous,NL,ID3,QH,2021-12-27T06:00:00+01:00,2021-12-27T06:15:00+01:00,123.53,EUR,29.000,MWh
Power,Intraday,Continuous,NL,ID3,QH,2021-12-27T06:15:00+01:00,2021-12-27T06:30:00+01:00,142.06,EUR,11.530,MWh
Power,Intraday,Continuous,NL,ID3,QH,2021-12-27T06:30:00+01:00,2021-12-27T06:45:00+01:00,177.43,EUR,17.230,MWh
Power,Intraday,Continuous,NL,ID3,QH,2021-12-27T06:45:00+01:00,2021-12-27T07:00:00+01:00,282.13,EUR,15.930,MWh
Power,Intraday,Continuous,NL,ID3,QH,2021-12-27T07:00:00+01:00,2021-12-27T07:15:00+01:00,124.93,EUR,56.980,MWh
Power,Intraday,Continuous,NL,ID3,QH,2021-12-27T07:15:00+01:00,2021-12-27T07:30:00+01:00,217.00,EUR,12.450,MWh
Power,Intraday,Continuous,NL,ID3,QH,2021-12-27T07:30:00+01:00,2021-12-27T07:45:00+01:00,209.43,EUR,27.280,MWh
Power,Intraday,Continuous,NL,ID3,QH,2021-12-27T07:45:00+01:00,2021-12-27T08:00:00+01:00,239.65,EUR,25.080,MWh
Power,Intraday,Continuous,NL,ID3,QH,2021-12-27T08:00:00+01:00,2021-12-27T08:15:00+01:00,164.91,EUR,82.950,MWh
Power,Intraday,Continuous,NL,ID3,QH,2021-12-27T08:15:00+01:00,2021-12-27T08:30:00+01:00,219.76,EUR,66.350,MWh
Power,Intraday,Continuous,NL,ID3,QH,2021-12-27T08:30:00+01:00,2021-12-27T08:45:00+01:00,248.08,EUR,48.830,MWh
Power,Intraday,Continuous,NL,ID3,QH,2021-12-27T08:45:00+01:00,2021-12-27T09:00:00+01:00,331.27,EUR,42.880,MWh
Power,Intraday,Continuous,NL,ID3,QH,2021-12-27T09:00:00+01:00,2021-12-27T09:15:00+01:00,217.68,EUR,20.680,MWh
Power,Intraday,Continuous,NL,ID3,QH,2021-12-27T09:15:00+01:00,2021-12-27T09:30:00+01:00,221.45,EUR,22.900,MWh
Power,Intraday,Continuous,NL,ID3,QH,2021-12-27T09:30:00+01:00,2021-12-27T09:45:00+01:00,210.77,EUR,26.900,MWh
Power,Intraday,Continuous,NL,ID3,QH,2021-12-27T09:45:00+01:00,2021-12-27T10:00:00+01:00,202.75,EUR,32.950,MWh
Power,Intraday,Continuous,NL,ID3,QH,2021-12-27T10:00:00+01:00,2021-12-27T10:15:00+01:00,227.67,EUR,27.830,MWh
Power,Intraday,Continuous,NL,ID3,QH,2021-12-27T10:15:00+01:00,2021-12-27T10:30:00+01:00,207.31,EUR,16.650,MWh
Power,Intraday,Continuous,NL,ID3,QH,2021-12-27T10:30:00+01:00,2021-12-27T10:45:00+01:00,206.53,EUR,16.100,MWh
Power,Intraday,Continuous,NL,ID3,QH,2021-12-27T10:45:00+01:00,2021-12-27T11:00:00+01:00,218.75,EUR,66.450,MWh
Power,Intraday,Continuous,NL,ID3,QH,2021-12-27T11:00:00+01:00,2021-12-27T11:15:00+01:00,240.27,EUR,16.000,MWh
Power,Intraday,Continuous,NL,ID3,QH,2021-12-27T11:15:00+01:00,2021-12-27T11:30:00+01:00,227.74,EUR,17.250,MWh
Power,Intraday,Continuous,NL,ID3,QH,2021-12-27T11:30:00+01:00,2021-12-27T11:45:00+01:00,223.03,EUR,13.830,MWh
Power,Intraday,Continuous,NL,ID3,QH,2021-12-27T11:45:00+01:00,2021-12-27T12:00:00+01:00,215.56,EUR,27.150,MWh
Power,Intraday,Continuous,NL,ID3,QH,2021-12-27T12:00:00+01:00,2021-12-27T12:15:00+01:00,233.39,EUR,18.780,MWh
Power,Intraday,Continuous,NL,ID3,QH,2021-12-27T12:15:00+01:00,2021-12-27T12:30:00+01:00,218.91,EUR,20.680,MWh
Power,Intraday,Continuous,NL,ID3,QH,2021-12-27T12:30:00+01:00,2021-12-27T12:45:00+01:00,215.75,EUR,24.900,MWh
Power,Intraday,Continuous,NL,ID3,QH,2021-12-27T12:45:00+01:00,2021-12-27T13:00:00+01:00,210.71,EUR,40.230,MWh
Power,Intraday,Continuous,NL,ID3,QH,2021-12-27T13:00:00+01:00,2021-12-27T13:15:00+01:00,217.55,EUR,23.530,MWh
Power,Intraday,Continuous,NL,ID3,QH,2021-12-27T13:15:00+01:00,2021-12-27T13:30:00+01:00,224.71,EUR,18.380,MWh
Power,Intraday,Continuous,NL,ID3,QH,2021-12-27T13:30:00+01:00,2021-12-27T13:45:00+01:00,221.79,EUR,14.450,MWh
Power,Intraday,Continuous,NL,ID3,QH,2021-12-27T13:45:00+01:00,2021-12-27T14:00:00+01:00,207.21,EUR,15.180,MWh
Power,Intraday,Continuous,NL,ID3,QH,2021-12-27T14:00:00+01:00,2021-12-27T14:15:00+01:00,198.38,EUR,27.050,MWh
Power,Intraday,Continuous,NL,ID3,QH,2021-12-27T14:15:00+01:00,2021-12-27T14:30:00+01:00,210.54,EUR,15.900,MWh
Power,Intraday,Continuous,NL,ID3,QH,2021-12-27T14:30:00+01:00,2021-12-27T14:45:00+01:00,210.15,EUR,11.450,MWh
Power,Intraday,Continuous,NL,ID3,QH,2021-12-27T14:45:00+01:00,2021-12-27T15:00:00+01:00,222.07,EUR,16.850,MWh
Power,Intraday,Continuous,NL,ID3,QH,2021-12-27T15:00:00+01:00,2021-12-27T15:15:00+01:00,188.11,EUR,25.030,MWh
Power,Intraday,Continuous,NL,ID3,QH,2021-12-27T15:15:00+01:00,2021-12-27T15:30:00+01:00,213.67,EUR,29.980,MWh
Power,Intraday,Continuous,NL,ID3,QH,2021-12-27T15:30:00+01:00,2021-12-27T15:45:00+01:00,228.70,EUR,55.200,MWh
Power,Intraday,Continuous,NL,ID3,QH,2021-12-27T15:45:00+01:00,2021-12-27T16:00:00+01:00,229.24,EUR,71.050,MWh
Power,Intraday,Continuous,NL,ID3,QH,2021-12-27T16:00:00+01:00,2021-12-27T16:15:00+01:00,181.17,EUR,3.730,MWh
Power,Intraday,Continuous,NL,ID3,QH,2021-12-27T16:15:00+01:00,2021-12-27T16:30:00+01:00,205.02,EUR,3.900,MWh
Power,Intraday,Continuous,NL,ID3,QH,2021-12-27T16:30:00+01:00,2021-12-27T16:45:00+01:00,202.87,EUR,9.750,MWh
Power,Intraday,Continuous,NL,ID3,QH,2021-12-27T16:45:00+01:00,2021-12-27T17:00:00+01:00,199.13,EUR,36.950,MWh
Power,Intraday,Continuous,NL,ID3,QH,2021-12-27T17:00:00+01:00,2021-12-27T17:15:00+01:00,215.68,EUR,28.580,MWh
Power,Intraday,Continuous,NL,ID3,QH,2021-12-27T17:15:00+01:00,2021-12-27T17:30:00+01:00,219.96,EUR,19.880,MWh
Power,Intraday,Continuous,NL,ID3,QH,2021-12-27T17:30:00+01:00,2021-12-27T17:45:00+01:00,225.12,EUR,16.900,MWh
Power,Intraday,Continuous,NL,ID3,QH,2021-12-27T17:45:00+01:00,2021-12-27T18:00:00+01:00,221.36,EUR,22.580,MWh
Power,Intraday,Continuous,NL,ID3,QH,2021-12-27T18:00:00+01:00,2021-12-27T18:15:00+01:00,241.77,EUR,64.180,MWh
Power,Intraday,Continuous,NL,ID3,QH,2021-12-27T18:15:00+01:00,2021-12-27T18:30:00+01:00,203.22,EUR,22.600,MWh
Power,Intraday,Continuous,NL,ID3,QH,2021-12-27T18:30:00+01:00,2021-12-27T18:45:00+01:00,195.43,EUR,7.280,MWh
Power,Intraday,Continuous,NL,ID3,QH,2021-12-27T18:45:00+01:00,2021-12-27T19:00:00+01:00,171.70,EUR,18.280,MWh
Power,Intraday,Continuous,NL,ID3,QH,2021-12-27T19:00:00+01:00,2021-12-27T19:15:00+01:00,224.67,EUR,20.150,MWh
Power,Intraday,Continuous,NL,ID3,QH,2021-12-27T19:15:00+01:00,2021-12-27T19:30:00+01:00,200.36,EUR,20.130,MWh
Power,Intraday,Continuous,NL,ID3,QH,2021-12-27T19:30:00+01:00,2021-12-27T19:45:00+01:00,188.75,EUR,21.530,MWh
Power,Intraday,Continuous,NL,ID3,QH,2021-12-27T19:45:00+01:00,2021-12-27T20:00:00+01:00,145.86,EUR,24.930,MWh
Power,Intraday,Continuous,NL,ID3,QH,2021-12-27T20:00:00+01:00,2021-12-27T20:15:00+01:00,208.90,EUR,65.400,MWh
Power,Intraday,Continuous,NL,ID3,QH,2021-12-27T20:15:00+01:00,2021-12-27T20:30:00+01:00,164.43,EUR,25.580,MWh
Power,Intraday,Continuous,NL,ID3,QH,2021-12-27T20:30:00+01:00,2021-12-27T20:45:00+01:00,123.09,EUR,11.900,MWh
Power,Intraday,Continuous,NL,ID3,QH,2021-12-27T20:45:00+01:00,2021-12-27T21:00:00+01:00,81.56,EUR,23.780,MWh
Power,Intraday,Continuous,NL,ID3,QH,2021-12-27T21:00:00+01:00,2021-12-27T21:15:00+01:00,141.19,EUR,,MWh
Power,Intraday,Continuous,NL,ID3,QH,2021-12-27T21:15:00+01:00,2021-12-27T21:30:00+01:00,110.90,EUR,,MWh
Power,Intraday,Continuous,NL,ID3,QH,2021-12-27T21:30:00+01:00,2021-12-27T21:45:00+01:00,141.19,EUR,,MWh
Power,Intraday,Continuous,NL,ID3,QH,2021-12-27T21:45:00+01:00,2021-12-27T22:00:00+01:00,141.19,EUR,,MWh
Power,Intraday,Continuous,NL,ID3,QH,2021-12-27T22:00:00+01:00,2021-12-27T22:15:00+01:00,106.49,EUR,4.880,MWh
Power,Intraday,Continuous,NL,ID3,QH,2021-12-27T22:15:00+01:00,2021-12-27T22:30:00+01:00,68.48,EUR,17.600,MWh
Power,Intraday,Continuous,NL,ID3,QH,2021-12-27T22:30:00+01:00,2021-12-27T22:45:00+01:00,90.68,EUR,45.150,MWh
Power,Intraday,Continuous,NL,ID3,QH,2021-12-27T22:45:00+01:00,2021-12-27T23:00:00+01:00,46.12,EUR,54.280,MWh
Power,Intraday,Continuous,NL,ID3,QH,2021-12-27T23:00:00+01:00,2021-12-27T23:15:00+01:00,112.58,EUR,14.930,MWh
Power,Intraday,Continuous,NL,ID3,QH,2021-12-27T23:15:00+01:00,2021-12-27T23:30:00+01:00,71.19,EUR,18.800,MWh
Power,Intraday,Continuous,NL,ID3,QH,2021-12-27T23:30:00+01:00,2021-12-27T23:45:00+01:00,70.37,EUR,39.230,MWh
Power,Intraday,Continuous,NL,ID3,QH,2021-12-27T23:45:00+01:00,2021-12-28T00:00:00+01:00,63.09,EUR,46.550,MWh
Power,Intraday,Continuous,NL,IDFULL,BASE,2021-12-27T00:00:00+01:00,2021-12-28T00:00:00+01:00,178.44,EUR,25200.400,MWh
Power,Intraday,Continuous,NL,IDFULL,PEAK,2021-12-27T08:00:00+01:00,2021-12-27T20:00:00+01:00,212.13,EUR,16525.200,MWh
