Commodity,NominationModality,TradingModality,MarketArea,IndexName,TimeResolution,DeliveryStart,DeliveryEnd,IndexPrice,Currency,Volume,VolumeUnit
Power,Intraday,Continuous,NL,IDFULL,H,2021-11-30T00:00:00+01:00,2021-11-30T01:00:00+01:00,100.01,EUR,616.200,MWh
Power,Intraday,Continuous,NL,IDFULL,H,2021-11-30T01:00:00+01:00,2021-11-30T02:00:00+01:00,81.42,EUR,163.600,MWh
Power,Intraday,Continuous,NL,IDFULL,H,2021-11-30T02:00:00+01:00,2021-11-30T03:00:00+01:00,78.22,EUR,115.100,MWh
Power,Intraday,Continuous,NL,IDFULL,H,2021-11-30T03:00:00+01:00,2021-11-30T04:00:00+01:00,95.81,EUR,158.300,MWh
Power,Intraday,Continuous,NL,IDFULL,H,2021-11-30T04:00:00+01:00,2021-11-30T05:00:00+01:00,90.52,EUR,269.700,MWh
Power,Intraday,Continuous,NL,IDFULL,H,2021-11-30T05:00:00+01:00,2021-11-30T06:00:00+01:00,99.56,EUR,536.000,MWh
Power,Intraday,Continuous,NL,IDFULL,H,2021-11-30T06:00:00+01:00,2021-11-30T07:00:00+01:00,100.91,EUR,326.100,MWh
Power,Intraday,Continuous,NL,IDFULL,H,2021-11-30T07:00:00+01:00,2021-11-30T08:00:00+01:00,186.65,EUR,210.300,MWh
Power,Intraday,Continuous,NL,IDFULL,H,2021-11-30T08:00:00+01:00,2021-11-30T09:00:00+01:00,180.65,EUR,303.300,MWh
Power,Intraday,Continuous,NL,IDFULL,H,2021-11-30T09:00:00+01:00,2021-11-30T10:00:00+01:00,179.45,EUR,320.500,MWh
Power,Intraday,Continuous,NL,IDFULL,H,2021-11-30T10:00:00+01:00,2021-11-30T11:00:00+01:00,190.12,EUR,469.700,MWh
Power,Intraday,Continuous,NL,IDFULL,H,2021-11-30T11:00:00+01:00,2021-11-30T12:00:00+01:00,189.43,EUR,493.300,MWh
Power,Intraday,Continuous,NL,IDFULL,H,2021-11-30T12:00:00+01:00,2021-11-30T13:00:00+01:00,194.54,EUR,508.600,MWh
Power,Intraday,Continuous,NL,IDFULL,H,2021-11-30T13:00:00+01:00,2021-11-30T14:00:00+01:00,208.28,EUR,758.400,MWh
Power,Intraday,Continuous,NL,IDFULL,H,2021-11-30T14:00:00+01:00,2021-11-30T15:00:00+01:00,239.11,EUR,591.800,MWh
Power,Intraday,Continuous,NL,IDFULL,H,2021-11-30T15:00:00+01:00,2021-11-30T16:00:00+01:00,235.78,EUR,680.700,MWh
Power,Intraday,Continuous,NL,IDFULL,H,2021-11-30T16:00:00+01:00,2021-11-30T17:00:00+01:00,255.30,EUR,572.300,MWh
Power,Intraday,Continuous,NL,IDFULL,H,2021-11-30T17:00:00+01:00,2021-11-30T18:00:00+01:00,208.33,EUR,714.000,MWh
Power,Intraday,Continuous,NL,IDFULL,H,2021-11-30T18:00:00+01:00,2021-11-30T19:00:00+01:00,214.22,EUR,1118.100,MWh
Power,Intraday,Continuous,NL,IDFULL,H,2021-11-30T19:00:00+01:00,2021-11-30T20:00:00+01:00,209.95,EUR,818.800,MWh
Power,Intraday,Continuous,NL,IDFULL,H,2021-11-30T20:00:00+01:00,2021-11-30T21:00:00+01:00,200.71,EUR,1190.900,MWh
Power,Intraday,Continuous,NL,IDFULL,H,2021-11-30T21:00:00+01:00,2021-11-30T22:00:00+01:00,185.37,EUR,1716.200,MWh
Power,Intraday,Continuous,NL,IDFULL,H,2021-11-30T22:00:00+01:00,2021-11-30T23:00:00+01:00,168.00,EUR,942.200,MWh
Power,Intraday,Continuous,NL,IDFULL,H,2021-11-30T23:00:00+01:00,2021-12-01T00:00:00+01:00,136.87,EUR,1334.100,MWh
Power,Intraday,Continuous,NL,ID1,H,2021-11-30T00:00:00+01:00,2021-11-30T01:00:00+01:00,94.35,EUR,,MWh
Power,Intraday,Continuous,NL,ID1,H,2021-11-30T01:00:00+01:00,2021-11-30T02:00:00+01:00,76.79,EUR,,MWh
Power,Intraday,Continuous,NL,ID1,H,2021-11-30T02:00:00+01:00,2021-11-30T03:00:00+01:00,76.82,EUR,,MWh
Power,Intraday,Continuous,NL,ID1,H,2021-11-30T03:00:00+01:00,2021-11-30T04:00:00+01:00,96.41,EUR,,MWh
Power,Intraday,Continuous,NL,ID1,H,2021-11-30T04:00:00+01:00,2021-11-30T05:00:00+01:00,90.76,EUR,,MWh
Power,Intraday,Continuous,NL,ID1,H,2021-11-30T05:00:00+01:00,2021-11-30T06:00:00+01:00,99.32,EUR,,MWh
Power,Intraday,Continuous,NL,ID1,H,2021-11-30T06:00:00+01:00,2021-11-30T07:00:00+01:00,96.41,EUR,,MWh
Power,Intraday,Continuous,NL,ID1,H,2021-11-30T07:00:00+01:00,2021-11-30T08:00:00+01:00,183.51,EUR,,MWh
Power,Intraday,Continuous,NL,ID1,H,2021-11-30T08:00:00+01:00,2021-11-30T09:00:00+01:00,183.86,EUR,75.800,MWh
Power,Intraday,Continuous,NL,ID1,H,2021-11-30T09:00:00+01:00,2021-11-30T10:00:00+01:00,190.80,EUR,80.800,MWh
Power,Intraday,Continuous,NL,ID1,H,2021-11-30T10:00:00+01:00,2021-11-30T11:00:00+01:00,199.45,EUR,55.000,MWh
Power,Intraday,Continuous,NL,ID1,H,2021-11-30T11:00:00+01:00,2021-11-30T12:00:00+01:00,170.65,EUR,80.000,MWh
Power,Intraday,Continuous,NL,ID1,H,2021-11-30T12:00:00+01:00,2021-11-30T13:00:00+01:00,162.90,EUR,112.800,MWh
Power,Intraday,Continuous,NL,ID1,H,2021-11-30T13:00:00+01:00,2021-11-30T14:00:00+01:00,217.63,EUR,324.300,MWh
Power,Intraday,Continuous,NL,ID1,H,2021-11-30T14:00:00+01:00,2021-11-30T15:00:00+01:00,238.71,EUR,87.000,MWh
Power,Intraday,Continuous,NL,ID1,H,2021-11-30T15:00:00+01:00,2021-11-30T16:00:00+01:00,216.93,EUR,18.200,MWh
Power,Intraday,Continuous,NL,ID1,H,2021-11-30T16:00:00+01:00,2021-11-30T17:00:00+01:00,215.77,EUR,63.600,MWh
Power,Intraday,Continuous,NL,ID1,H,2021-11-30T17:00:00+01:00,2021-11-30T18:00:00+01:00,199.91,EUR,81.000,MWh
Power,Intraday,Continuous,NL,ID1,H,2021-11-30T18:00:00+01:00,2021-11-30T19:00:00+01:00,196.97,EUR,65.500,MWh
Power,Intraday,Continuous,NL,ID1,H,2021-11-30T19:00:00+01:00,2021-11-30T20:00:00+01:00,227.94,EUR,25.000,MWh
Power,Intraday,Continuous,NL,ID1,H,2021-11-30T20:00:00+01:00,2021-11-30T21:00:00+01:00,218.29,EUR,58.100,MWh
Power,Intraday,Continuous,NL,ID1,H,2021-11-30T21:00:00+01:00,2021-11-30T22:00:00+01:00,186.56,EUR,,MWh
Power,Intraday,Continuous,NL,ID1,H,2021-11-30T22:00:00+01:00,2021-11-30T23:00:00+01:00,177.43,EUR,,MWh
Power,Intraday,Continuous,NL,ID1,H,2021-11-30T23:00:00+01:00,2021-12-01T00:00:00+01:00,139.81,EUR,,MWh
Power,Intraday,Continuous,NL,ID3,H,2021-11-30T00:00:00+01:00,2021-11-30T01:00:00+01:00,94.35,EUR,444.900,MWh
Power,Intraday,Continuous,NL,ID3,H,2021-11-30T01:00:00+01:00,2021-11-30T02:00:00+01:00,76.79,EUR,127.500,MWh
Power,Intraday,Continuous,NL,ID3,H,2021-11-30T02:00:00+01:00,2021-11-30T03:00:00+01:00,76.82,EUR,96.500,MWh
Power,Intraday,Continuous,NL,ID3,H,2021-11-30T03:00:00+01:00,2021-11-30T04:00:00+01:00,96.41,EUR,146.300,MWh
Power,Intraday,Continuous,NL,ID3,H,2021-11-30T04:00:00+01:00,2021-11-30T05:00:00+01:00,90.76,EUR,249.000,MWh
Power,Intraday,Continuous,NL,ID3,H,2021-11-30T05:00:00+01:00,2021-11-30T06:00:00+01:00,99.32,EUR,417.400,MWh
Power,Intraday,Continuous,NL,ID3,H,2021-11-30T06:00:00+01:00,2021-11-30T07:00:00+01:00,96.41,EUR,212.400,MWh
Power,Intraday,Continuous,NL,ID3,H,2021-11-30T07:00:00+01:00,2021-11-30T08:00:00+01:00,183.51,EUR,189.700,MWh
Power,Intraday,Continuous,NL,ID3,H,2021-11-30T08:00:00+01:00,2021-11-30T09:00:00+01:00,179.52,EUR,283.100,MWh
Power,Intraday,Continuous,NL,ID3,H,2021-11-30T09:00:00+01:00,2021-11-30T10:00:00+01:00,179.12,EUR,304.500,MWh
Power,Intraday,Continuous,NL,ID3,H,2021-11-30T10:00:00+01:00,2021-11-30T11:00:00+01:00,188.17,EUR,402.700,MWh
Power,Intraday,Continuous,NL,ID3,H,2021-11-30T11:00:00+01:00,2021-11-30T12:00:00+01:00,190.13,EUR,460.400,MWh
Power,Intraday,Continuous,NL,ID3,H,2021-11-30T12:00:00+01:00,2021-11-30T13:00:00+01:00,188.92,EUR,455.700,MWh
Power,Intraday,Continuous,NL,ID3,H,2021-11-30T13:00:00+01:00,2021-11-30T14:00:00+01:00,207.12,EUR,655.500,MWh
Power,Intraday,Continuous,NL,ID3,H,2021-11-30T14:00:00+01:00,2021-11-30T15:00:00+01:00,244.14,EUR,407.400,MWh
Power,Intraday,Continuous,NL,ID3,H,2021-11-30T15:00:00+01:00,2021-11-30T16:00:00+01:00,239.36,EUR,381.500,MWh
Power,Intraday,Continuous,NL,ID3,H,2021-11-30T16:00:00+01:00,2021-11-30T17:00:00+01:00,242.37,EUR,321.700,MWh
Power,Intraday,Continuous,NL,ID3,H,2021-11-30T17:00:00+01:00,2021-11-30T18:00:00+01:00,193.92,EUR,523.900,MWh
Power,Intraday,Continuous,NL,ID3,H,2021-11-30T18:00:00+01:00,2021-11-30T19:00:00+01:00,208.22,EUR,790.100,MWh
Power,Intraday,Continuous,NL,ID3,H,2021-11-30T19:00:00+01:00,2021-11-30T20:00:00+01:00,208.44,EUR,628.300,MWh
Power,Intraday,Continuous,NL,ID3,H,2021-11-30T20:00:00+01:00,2021-11-30T21:00:00+01:00,197.44,EUR,643.100,MWh
Power,Intraday,Continuous,NL,ID3,H,2021-11-30T21:00:00+01:00,2021-11-30T22:00:00+01:00,186.56,EUR,911.100,MWh
Power,Intraday,Continuous,NL,ID3,H,2021-11-30T22:00:00+01:00,2021-11-30T23:00:00+01:00,177.43,EUR,490.200,MWh
Power,Intraday,Continuous,NL,ID3,H,2021-11-30T23:00:00+01:00,2021-12-01T00:00:00+01:00,139.81,EUR,693.900,MWh
Power,Intraday,Continuous,NL,IDFULL,HH,2021-11-30T00:00:00+01:00,2021-11-30T00:30:00+01:00,100.01,EUR,,MWh
Power,Intraday,Continuous,NL,IDFULL,HH,2021-11-30T00:30:00+01:00,2021-11-30T01:00:00+01:00,100.01,EUR,,MWh
Power,Intraday,Continuous,NL,IDFULL,HH,2021-11-30T01:00:00+01:00,2021-11-30T01:30:00+01:00,81.42,EUR,,MWh
Power,Intraday,Continuous,NL,IDFULL,HH,2021-11-30T01:30:00+01:00,2021-11-30T02:00:00+01:00,81.42,EUR,,MWh
Power,Intraday,Continuous,NL,IDFULL,HH,2021-11-30T02:00:00+01:00,2021-11-30T02:30:00+01:00,78.22,EUR,,MWh
Power,Intraday,Continuous,NL,IDFULL,HH,2021-11-30T02:30:00+01:00,2021-11-30T03:00:00+01:00,78.22,EUR,,MWh
Power,Intraday,Continuous,NL,IDFULL,HH,2021-11-30T03:00:00+01:00,2021-11-30T03:30:00+01:00,95.81,EUR,,MWh
Power,Intraday,Continuous,NL,IDFULL,HH,2021-11-30T03:30:00+01:00,2021-11-30T04:00:00+01:00,95.81,EUR,,MWh
Power,Intraday,Continuous,NL,IDFULL,HH,2021-11-30T04:00:00+01:00,2021-11-30T04:30:00+01:00,90.52,EUR,,MWh
Power,Intraday,Continuous,NL,IDFULL,HH,2021-11-30T04:30:00+01:00,2021-11-30T05:00:00+01:00,90.52,EUR,,MWh
Power,Intraday,Continuous,NL,IDFULL,HH,2021-11-30T05:00:00+01:00,2021-11-30T05:30:00+01:00,99.56,EUR,,MWh
Power,Intraday,Continuous,NL,IDFULL,HH,2021-11-30T05:30:00+01:00,2021-11-30T06:00:00+01:00,99.56,EUR,,MWh
Power,Intraday,Continuous,NL,IDFULL,HH,2021-11-30T06:00:00+01:00,2021-11-30T06:30:00+01:00,100.91,EUR,,MWh
Power,Intraday,Continuous,NL,IDFULL,HH,2021-11-30T06:30:00+01:00,2021-11-30T07:00:00+01:00,100.91,EUR,,MWh
Power,Intraday,Continuous,NL,IDFULL,HH,2021-11-30T07:00:00+01:00,2021-11-30T07:30:00+01:00,186.65,EUR,,MWh
Power,Intraday,Continuous,NL,IDFULL,HH,2021-11-30T07:30:00+01:00,2021-11-30T08:00:00+01:00,186.65,EUR,,MWh
Power,Intraday,Continuous,NL,IDFULL,HH,2021-11-30T08:00:00+01:00,2021-11-30T08:30:00+01:00,180.65,EUR,,MWh
Power,Intraday,Continuous,NL,IDFULL,HH,2021-11-30T08:30:00+01:00,2021-11-30T09:00:00+01:00,180.65,EUR,,MWh
Power,Intraday,Continuous,NL,IDFULL,HH,2021-11-30T09:00:00+01:00,2021-11-30T09:30:00+01:00,179.45,EUR,,MWh
Power,Intraday,Continuous,NL,IDFULL,HH,2021-11-30T09:30:00+01:00,2021-11-30T10:00:00+01:00,179.45,EUR,,MWh
Power,Intraday,Continuous,NL,IDFULL,HH,2021-11-30T10:00:00+01:00,2021-11-30T10:30:00+01:00,190.12,EUR,,MWh
Power,Intraday,Continuous,NL,IDFULL,HH,2021-11-30T10:30:00+01:00,2021-11-30T11:00:00+01:00,190.12,EUR,,MWh
Power,Intraday,Continuous,NL,IDFULL,HH,2021-11-30T11:00:00+01:00,2021-11-30T11:30:00+01:00,189.43,EUR,,MWh
Power,Intraday,Continuous,NL,IDFULL,HH,2021-11-30T11:30:00+01:00,2021-11-30T12:00:00+01:00,189.43,EUR,,MWh
Power,Intraday,Continuous,NL,IDFULL,HH,2021-11-30T12:00:00+01:00,2021-11-30T12:30:00+01:00,194.54,EUR,,MWh
Power,Intraday,Continuous,NL,IDFULL,HH,2021-11-30T12:30:00+01:00,2021-11-30T13:00:00+01:00,194.54,EUR,,MWh
Power,Intraday,Continuous,NL,IDFULL,HH,2021-11-30T13:00:00+01:00,2021-11-30T13:30:00+01:00,208.28,EUR,,MWh
Power,Intraday,Continuous,NL,IDFULL,HH,2021-11-30T13:30:00+01:00,2021-11-30T14:00:00+01:00,208.28,EUR,,MWh
Power,Intraday,Continuous,NL,IDFULL,HH,2021-11-30T14:00:00+01:00,2021-11-30T14:30:00+01:00,239.11,EUR,,MWh
Power,Intraday,Continuous,NL,IDFULL,HH,2021-11-30T14:30:00+01:00,2021-11-30T15:00:00+01:00,239.11,EUR,,MWh
Power,Intraday,Continuous,NL,IDFULL,HH,2021-11-30T15:00:00+01:00,2021-11-30T15:30:00+01:00,235.78,EUR,,MWh
Power,Intraday,Continuous,NL,IDFULL,HH,2021-11-30T15:30:00+01:00,2021-11-30T16:00:00+01:00,235.78,EUR,,MWh
Power,Intraday,Continuous,NL,IDFULL,HH,2021-11-30T16:00:00+01:00,2021-11-30T16:30:00+01:00,255.30,EUR,,MWh
Power,Intraday,Continuous,NL,IDFULL,HH,2021-11-30T16:30:00+01:00,2021-11-30T17:00:00+01:00,255.30,EUR,,MWh
Power,Intraday,Continuous,NL,IDFULL,HH,2021-11-30T17:00:00+01:00,2021-11-30T17:30:00+01:00,208.33,EUR,,MWh
Power,Intraday,Continuous,NL,IDFULL,HH,2021-11-30T17:30:00+01:00,2021-11-30T18:00:00+01:00,208.33,EUR,,MWh
Power,Intraday,Continuous,NL,IDFULL,HH,2021-11-30T18:00:00+01:00,2021-11-30T18:30:00+01:00,214.22,EUR,,MWh
Power,Intraday,Continuous,NL,IDFULL,HH,2021-11-30T18:30:00+01:00,2021-11-30T19:00:00+01:00,214.22,EUR,,MWh
Power,Intraday,Continuous,NL,IDFULL,HH,2021-11-30T19:00:00+01:00,2021-11-30T19:30:00+01:00,209.95,EUR,,MWh
Power,Intraday,Continuous,NL,IDFULL,HH,2021-11-30T19:30:00+01:00,2021-11-30T20:00:00+01:00,209.95,EUR,,MWh
Power,Intraday,Continuous,NL,IDFULL,HH,2021-11-30T20:00:00+01:00,2021-11-30T20:30:00+01:00,200.71,EUR,,MWh
Power,Intraday,Continuous,NL,IDFULL,HH,2021-11-30T20:30:00+01:00,2021-11-30T21:00:00+01:00,200.71,EUR,,MWh
Power,Intraday,Continuous,NL,IDFULL,HH,2021-11-30T21:00:00+01:00,2021-11-30T21:30:00+01:00,185.37,EUR,,MWh
Power,Intraday,Continuous,NL,IDFULL,HH,2021-11-30T21:30:00+01:00,2021-11-30T22:00:00+01:00,185.37,EUR,,MWh
Power,Intraday,Continuous,NL,IDFULL,HH,2021-11-30T22:00:00+01:00,2021-11-30T22:30:00+01:00,168.00,EUR,,MWh
Power,Intraday,Continuous,NL,IDFULL,HH,2021-11-30T22:30:00+01:00,2021-11-30T23:00:00+01:00,168.00,EUR,,MWh
Power,Intraday,Continuous,NL,IDFULL,HH,2021-11-30T23:00:00+01:00,2021-11-30T23:30:00+01:00,136.87,EUR,,MWh
Power,Intraday,Continuous,NL,IDFULL,HH,2021-11-30T23:30:00+01:00,2021-12-01T00:00:00+01:00,136.87,EUR,,MWh
Power,Intraday,Continuous,NL,ID1,HH,2021-11-30T00:00:00+01:00,2021-11-30T00:30:00+01:00,100.01,EUR,,MWh
Power,Intraday,Continuous,NL,ID1,HH,2021-11-30T00:30:00+01:00,2021-11-30T01:00:00+01:00,100.01,EUR,,MWh
Power,Intraday,Continuous,NL,ID1,HH,2021-11-30T01:00:00+01:00,2021-11-30T01:30:00+01:00,81.42,EUR,,MWh
Power,Intraday,Continuous,NL,ID1,HH,2021-11-30T01:30:00+01:00,2021-11-30T02:00:00+01:00,81.42,EUR,,MWh
Power,Intraday,Continuous,NL,ID1,HH,2021-11-30T02:00:00+01:00,2021-11-30T02:30:00+01:00,78.22,EUR,,MWh
Power,Intraday,Continuous,NL,ID1,HH,2021-11-30T02:30:00+01:00,2021-11-30T03:00:00+01:00,78.22,EUR,,MWh
Power,Intraday,Continuous,NL,ID1,HH,2021-11-30T03:00:00+01:00,2021-11-30T03:30:00+01:00,95.81,EUR,,MWh
Power,Intraday,Continuous,NL,ID1,HH,2021-11-30T03:30:00+01:00,2021-11-30T04:00:00+01:00,95.81,EUR,,MWh
Power,Intraday,Continuous,NL,ID1,HH,2021-11-30T04:00:00+01:00,2021-11-30T04:30:00+01:00,90.52,EUR,,MWh
Power,Intraday,Continuous,NL,ID1,HH,2021-11-30T04:30:00+01:00,2021-11-30T05:00:00+01:00,90.52,EUR,,MWh
Power,Intraday,Continuous,NL,ID1,HH,2021-11-30T05:00:00+01:00,2021-11-30T05:30:00+01:00,99.56,EUR,,MWh
Power,Intraday,Continuous,NL,ID1,HH,2021-11-30T05:30:00+01:00,2021-11-30T06:00:00+01:00,99.56,EUR,,MWh
Power,Intraday,Continuous,NL,ID1,HH,2021-11-30T06:00:00+01:00,2021-11-30T06:30:00+01:00,100.91,EUR,,MWh
Power,Intraday,Continuous,NL,ID1,HH,2021-11-30T06:30:00+01:00,2021-11-30T07:00:00+01:00,100.91,EUR,,MWh
Power,Intraday,Continuous,NL,ID1,HH,2021-11-30T07:00:00+01:00,2021-11-30T07:30:00+01:00,186.65,EUR,,MWh
Power,Intraday,Continuous,NL,ID1,HH,2021-11-30T07:30:00+01:00,2021-11-30T08:00:00+01:00,186.65,EUR,,MWh
Power,Intraday,Continuous,NL,ID1,HH,2021-11-30T08:00:00+01:00,2021-11-30T08:30:00+01:00,180.65,EUR,,MWh
Power,Intraday,Continuous,NL,ID1,HH,2021-11-30T08:30:00+01:00,2021-11-30T09:00:00+01:00,180.65,EUR,,MWh
Power,Intraday,Continuous,NL,ID1,HH,2021-11-30T09:00:00+01:00,2021-11-30T09:30:00+01:00,179.45,EUR,,MWh
Power,Intraday,Continuous,NL,ID1,HH,2021-11-30T09:30:00+01:00,2021-11-30T10:00:00+01:00,179.45,EUR,,MWh
Power,Intraday,Continuous,NL,ID1,HH,2021-11-30T10:00:00+01:00,2021-11-30T10:30:00+01:00,190.12,EUR,,MWh
Power,Intraday,Continuous,NL,ID1,HH,2021-11-30T10:30:00+01:00,2021-11-30T11:00:00+01:00,190.12,EUR,,MWh
Power,Intraday,Continuous,NL,ID1,HH,2021-11-30T11:00:00+01:00,2021-11-30T11:30:00+01:00,189.43,EUR,,MWh
Power,Intraday,Continuous,NL,ID1,HH,2021-11-30T11:30:00+01:00,2021-11-30T12:00:00+01:00,189.43,EUR,,MWh
Power,Intraday,Continuous,NL,ID1,HH,2021-11-30T12:00:00+01:00,2021-11-30T12:30:00+01:00,194.54,EUR,,MWh
Power,Intraday,Continuous,NL,ID1,HH,2021-11-30T12:30:00+01:00,2021-11-30T13:00:00+01:00,194.54,EUR,,MWh
Power,Intraday,Continuous,NL,ID1,HH,2021-11-30T13:00:00+01:00,2021-11-30T13:30:00+01:00,208.28,EUR,,MWh
Power,Intraday,Continuous,NL,ID1,HH,2021-11-30T13:30:00+01:00,2021-11-30T14:00:00+01:00,208.28,EUR,,MWh
Power,Intraday,Continuous,NL,ID1,HH,2021-11-30T14:00:00+01:00,2021-11-30T14:30:00+01:00,239.11,EUR,,MWh
Power,Intraday,Continuous,NL,ID1,HH,2021-11-30T14:30:00+01:00,2021-11-30T15:00:00+01:00,239.11,EUR,,MWh
Power,Intraday,Continuous,NL,ID1,HH,2021-11-30T15:00:00+01:00,2021-11-30T15:30:00+01:00,235.78,EUR,,MWh
Power,Intraday,Continuous,NL,ID1,HH,2021-11-30T15:30:00+01:00,2021-11-30T16:00:00+01:00,235.78,EUR,,MWh
Power,Intraday,Continuous,NL,ID1,HH,2021-11-30T16:00:00+01:00,2021-11-30T16:30:00+01:00,255.30,EUR,,MWh
Power,Intraday,Continuous,NL,ID1,HH,2021-11-30T16:30:00+01:00,2021-11-30T17:00:00+01:00,255.30,EUR,,MWh
Power,Intraday,Continuous,NL,ID1,HH,2021-11-30T17:00:00+01:00,2021-11-30T17:30:00+01:00,208.33,EUR,,MWh
Power,Intraday,Continuous,NL,ID1,HH,2021-11-30T17:30:00+01:00,2021-11-30T18:00:00+01:00,208.33,EUR,,MWh
Power,Intraday,Continuous,NL,ID1,HH,2021-11-30T18:00:00+01:00,2021-11-30T18:30:00+01:00,214.22,EUR,,MWh
Power,Intraday,Continuous,NL,ID1,HH,2021-11-30T18:30:00+01:00,2021-11-30T19:00:00+01:00,214.22,EUR,,MWh
Power,Intraday,Continuous,NL,ID1,HH,2021-11-30T19:00:00+01:00,2021-11-30T19:30:00+01:00,209.95,EUR,,MWh
Power,Intraday,Continuous,NL,ID1,HH,2021-11-30T19:30:00+01:00,2021-11-30T20:00:00+01:00,209.95,EUR,,MWh
Power,Intraday,Continuous,NL,ID1,HH,2021-11-30T20:00:00+01:00,2021-11-30T20:30:00+01:00,200.71,EUR,,MWh
Power,Intraday,Continuous,NL,ID1,HH,2021-11-30T20:30:00+01:00,2021-11-30T21:00:00+01:00,200.71,EUR,,MWh
Power,Intraday,Continuous,NL,ID1,HH,2021-11-30T21:00:00+01:00,2021-11-30T21:30:00+01:00,185.37,EUR,,MWh
Power,Intraday,Continuous,NL,ID1,HH,2021-11-30T21:30:00+01:00,2021-11-30T22:00:00+01:00,185.37,EUR,,MWh
Power,Intraday,Continuous,NL,ID1,HH,2021-11-30T22:00:00+01:00,2021-11-30T22:30:00+01:00,168.00,EUR,,MWh
Power,Intraday,Continuous,NL,ID1,HH,2021-11-30T22:30:00+01:00,2021-11-30T23:00:00+01:00,168.00,EUR,,MWh
Power,Intraday,Continuous,NL,ID1,HH,2021-11-30T23:00:00+01:00,2021-11-30T23:30:00+01:00,136.87,EUR,,MWh
Power,Intraday,Continuous,NL,ID1,HH,2021-11-30T23:30:00+01:00,2021-12-01T00:00:00+01:00,136.87,EUR,,MWh
Power,Intraday,Continuous,NL,ID3,HH,2021-11-30T00:00:00+01:00,2021-11-30T00:30:00+01:00,100.01,EUR,,MWh
Power,Intraday,Continuous,NL,ID3,HH,2021-11-30T00:30:00+01:00,2021-11-30T01:00:00+01:00,100.01,EUR,,MWh
Power,Intraday,Continuous,NL,ID3,HH,2021-11-30T01:00:00+01:00,2021-11-30T01:30:00+01:00,81.42,EUR,,MWh
Power,Intraday,Continuous,NL,ID3,HH,2021-11-30T01:30:00+01:00,2021-11-30T02:00:00+01:00,81.42,EUR,,MWh
Power,Intraday,Continuous,NL,ID3,HH,2021-11-30T02:00:00+01:00,2021-11-30T02:30:00+01:00,78.22,EUR,,MWh
Power,Intraday,Continuous,NL,ID3,HH,2021-11-30T02:30:00+01:00,2021-11-30T03:00:00+01:00,78.22,EUR,,MWh
Power,Intraday,Continuous,NL,ID3,HH,2021-11-30T03:00:00+01:00,2021-11-30T03:30:00+01:00,95.81,EUR,,MWh
Power,Intraday,Continuous,NL,ID3,HH,2021-11-30T03:30:00+01:00,2021-11-30T04:00:00+01:00,95.81,EUR,,MWh
Power,Intraday,Continuous,NL,ID3,HH,2021-11-30T04:00:00+01:00,2021-11-30T04:30:00+01:00,90.52,EUR,,MWh
Power,Intraday,Continuous,NL,ID3,HH,2021-11-30T04:30:00+01:00,2021-11-30T05:00:00+01:00,90.52,EUR,,MWh
Power,Intraday,Continuous,NL,ID3,HH,2021-11-30T05:00:00+01:00,2021-11-30T05:30:00+01:00,99.56,EUR,,MWh
Power,Intraday,Continuous,NL,ID3,HH,2021-11-30T05:30:00+01:00,2021-11-30T06:00:00+01:00,99.56,EUR,,MWh
Power,Intraday,Continuous,NL,ID3,HH,2021-11-30T06:00:00+01:00,2021-11-30T06:30:00+01:00,100.91,EUR,,MWh
Power,Intraday,Continuous,NL,ID3,HH,2021-11-30T06:30:00+01:00,2021-11-30T07:00:00+01:00,100.91,EUR,,MWh
Power,Intraday,Continuous,NL,ID3,HH,2021-11-30T07:00:00+01:00,2021-11-30T07:30:00+01:00,186.65,EUR,,MWh
Power,Intraday,Continuous,NL,ID3,HH,2021-11-30T07:30:00+01:00,2021-11-30T08:00:00+01:00,186.65,EUR,,MWh
Power,Intraday,Continuous,NL,ID3,HH,2021-11-30T08:00:00+01:00,2021-11-30T08:30:00+01:00,180.65,EUR,,MWh
Power,Intraday,Continuous,NL,ID3,HH,2021-11-30T08:30:00+01:00,2021-11-30T09:00:00+01:00,180.65,EUR,,MWh
Power,Intraday,Continuous,NL,ID3,HH,2021-11-30T09:00:00+01:00,2021-11-30T09:30:00+01:00,179.45,EUR,,MWh
Power,Intraday,Continuous,NL,ID3,HH,2021-11-30T09:30:00+01:00,2021-11-30T10:00:00+01:00,179.45,EUR,,MWh
Power,Intraday,Continuous,NL,ID3,HH,2021-11-30T10:00:00+01:00,2021-11-30T10:30:00+01:00,190.12,EUR,,MWh
Power,Intraday,Continuous,NL,ID3,HH,2021-11-30T10:30:00+01:00,2021-11-30T11:00:00+01:00,190.12,EUR,,MWh
Power,Intraday,Continuous,NL,ID3,HH,2021-11-30T11:00:00+01:00,2021-11-30T11:30:00+01:00,189.43,EUR,,MWh
Power,Intraday,Continuous,NL,ID3,HH,2021-11-30T11:30:00+01:00,2021-11-30T12:00:00+01:00,189.43,EUR,,MWh
Power,Intraday,Continuous,NL,ID3,HH,2021-11-30T12:00:00+01:00,2021-11-30T12:30:00+01:00,194.54,EUR,,MWh
Power,Intraday,Continuous,NL,ID3,HH,2021-11-30T12:30:00+01:00,2021-11-30T13:00:00+01:00,194.54,EUR,,MWh
Power,Intraday,Continuous,NL,ID3,HH,2021-11-30T13:00:00+01:00,2021-11-30T13:30:00+01:00,208.28,EUR,,MWh
Power,Intraday,Continuous,NL,ID3,HH,2021-11-30T13:30:00+01:00,2021-11-30T14:00:00+01:00,208.28,EUR,,MWh
Power,Intraday,Continuous,NL,ID3,HH,2021-11-30T14:00:00+01:00,2021-11-30T14:30:00+01:00,239.11,EUR,,MWh
Power,Intraday,Continuous,NL,ID3,HH,2021-11-30T14:30:00+01:00,2021-11-30T15:00:00+01:00,239.11,EUR,,MWh
Power,Intraday,Continuous,NL,ID3,HH,2021-11-30T15:00:00+01:00,2021-11-30T15:30:00+01:00,235.78,EUR,,MWh
Power,Intraday,Continuous,NL,ID3,HH,2021-11-30T15:30:00+01:00,2021-11-30T16:00:00+01:00,235.78,EUR,,MWh
Power,Intraday,Continuous,NL,ID3,HH,2021-11-30T16:00:00+01:00,2021-11-30T16:30:00+01:00,255.30,EUR,,MWh
Power,Intraday,Continuous,NL,ID3,HH,2021-11-30T16:30:00+01:00,2021-11-30T17:00:00+01:00,255.30,EUR,,MWh
Power,Intraday,Continuous,NL,ID3,HH,2021-11-30T17:00:00+01:00,2021-11-30T17:30:00+01:00,208.33,EUR,,MWh
Power,Intraday,Continuous,NL,ID3,HH,2021-11-30T17:30:00+01:00,2021-11-30T18:00:00+01:00,208.33,EUR,,MWh
Power,Intraday,Continuous,NL,ID3,HH,2021-11-30T18:00:00+01:00,2021-11-30T18:30:00+01:00,214.22,EUR,,MWh
Power,Intraday,Continuous,NL,ID3,HH,2021-11-30T18:30:00+01:00,2021-11-30T19:00:00+01:00,214.22,EUR,,MWh
Power,Intraday,Continuous,NL,ID3,HH,2021-11-30T19:00:00+01:00,2021-11-30T19:30:00+01:00,209.95,EUR,,MWh
Power,Intraday,Continuous,NL,ID3,HH,2021-11-30T19:30:00+01:00,2021-11-30T20:00:00+01:00,209.95,EUR,,MWh
Power,Intraday,Continuous,NL,ID3,HH,2021-11-30T20:00:00+01:00,2021-11-30T20:30:00+01:00,200.71,EUR,,MWh
Power,Intraday,Continuous,NL,ID3,HH,2021-11-30T20:30:00+01:00,2021-11-30T21:00:00+01:00,200.71,EUR,,MWh
Power,Intraday,Continuous,NL,ID3,HH,2021-11-30T21:00:00+01:00,2021-11-30T21:30:00+01:00,185.37,EUR,,MWh
Power,Intraday,Continuous,NL,ID3,HH,2021-11-30T21:30:00+01:00,2021-11-30T22:00:00+01:00,185.37,EUR,,MWh
Power,Intraday,Continuous,NL,ID3,HH,2021-11-30T22:00:00+01:00,2021-11-30T22:30:00+01:00,168.00,EUR,,MWh
Power,Intraday,Continuous,NL,ID3,HH,2021-11-30T22:30:00+01:00,2021-11-30T23:00:00+01:00,168.00,EUR,,MWh
Power,Intraday,Continuous,NL,ID3,HH,2021-11-30T23:00:00+01:00,2021-11-30T23:30:00+01:00,136.87,EUR,,MWh
Power,Intraday,Continuous,NL,ID3,HH,2021-11-30T23:30:00+01:00,2021-12-01T00:00:00+01:00,136.87,EUR,,MWh
Power,Intraday,Continuous,NL,IDFULL,QH,2021-11-30T00:00:00+01:00,2021-11-30T00:15:00+01:00,126.65,EUR,45.200,MWh
Power,Intraday,Continuous,NL,IDFULL,QH,2021-11-30T00:15:00+01:00,2021-11-30T00:30:00+01:00,119.10,EUR,23.900,MWh
Power,Intraday,Continuous,NL,IDFULL,QH,2021-11-30T00:30:00+01:00,2021-11-30T00:45:00+01:00,77.81,EUR,10.700,MWh
Power,Intraday,Continuous,NL,IDFULL,QH,2021-11-30T00:45:00+01:00,2021-11-30T01:00:00+01:00,43.21,EUR,30.250,MWh
Power,Intraday,Continuous,NL,IDFULL,QH,2021-11-30T01:00:00+01:00,2021-11-30T01:15:00+01:00,81.42,EUR,,MWh
Power,Intraday,Continuous,NL,IDFULL,QH,2021-11-30T01:15:00+01:00,2021-11-30T01:30:00+01:00,81.42,EUR,,MWh
Power,Intraday,Continuous,NL,IDFULL,QH,2021-11-30T01:30:00+01:00,2021-11-30T01:45:00+01:00,81.42,EUR,,MWh
Power,Intraday,Continuous,NL,IDFULL,QH,2021-11-30T01:45:00+01:00,2021-11-30T02:00:00+01:00,81.42,EUR,,MWh
Power,Intraday,Continuous,NL,IDFULL,QH,2021-11-30T02:00:00+01:00,2021-11-30T02:15:00+01:00,78.22,EUR,,MWh
Power,Intraday,Continuous,NL,IDFULL,QH,2021-11-30T02:15:00+01:00,2021-11-30T02:30:00+01:00,78.22,EUR,,MWh
Power,Intraday,Continuous,NL,IDFULL,QH,2021-11-30T02:30:00+01:00,2021-11-30T02:45:00+01:00,78.22,EUR,,MWh
Power,Intraday,Continuous,NL,IDFULL,QH,2021-11-30T02:45:00+01:00,2021-11-30T03:00:00+01:00,78.22,EUR,,MWh
Power,Intraday,Continuous,NL,IDFULL,QH,2021-11-30T03:00:00+01:00,2021-11-30T03:15:00+01:00,95.81,EUR,,MWh
Power,Intraday,Continuous,NL,IDFULL,QH,2021-11-30T03:15:00+01:00,2021-11-30T03:30:00+01:00,95.81,EUR,,MWh
Power,Intraday,Continuous,NL,IDFULL,QH,2021-11-30T03:30:00+01:00,2021-11-30T03:45:00+01:00,95.81,EUR,,MWh
Power,Intraday,Continuous,NL,IDFULL,QH,2021-11-30T03:45:00+01:00,2021-11-30T04:00:00+01:00,95.81,EUR,,MWh
Power,Intraday,Continuous,NL,IDFULL,QH,2021-11-30T04:00:00+01:00,2021-11-30T04:15:00+01:00,90.52,EUR,,MWh
Power,Intraday,Continuous,NL,IDFULL,QH,2021-11-30T04:15:00+01:00,2021-11-30T04:30:00+01:00,90.52,EUR,,MWh
Power,Intraday,Continuous,NL,IDFULL,QH,2021-11-30T04:30:00+01:00,2021-11-30T04:45:00+01:00,90.52,EUR,,MWh
Power,Intraday,Continuous,NL,IDFULL,QH,2021-11-30T04:45:00+01:00,2021-11-30T05:00:00+01:00,90.52,EUR,,MWh
Power,Intraday,Continuous,NL,IDFULL,QH,2021-11-30T05:00:00+01:00,2021-11-30T05:15:00+01:00,76.03,EUR,,MWh
Power,Intraday,Continuous,NL,IDFULL,QH,2021-11-30T05:15:00+01:00,2021-11-30T05:30:00+01:00,76.03,EUR,,MWh
Power,Intraday,Continuous,NL,IDFULL,QH,2021-11-30T05:30:00+01:00,2021-11-30T05:45:00+01:00,76.03,EUR,,MWh
Power,Intraday,Continuous,NL,IDFULL,QH,2021-11-30T05:45:00+01:00,2021-11-30T06:00:00+01:00,170.16,EUR,3.930,MWh
Power,Intraday,Continuous,NL,IDFULL,QH,2021-11-30T06:00:00+01:00,2021-11-30T06:15:00+01:00,-64.59,EUR,,MWh
Power,Intraday,Continuous,NL,IDFULL,QH,2021-11-30T06:15:00+01:00,2021-11-30T06:30:00+01:00,93.70,EUR,8.580,MWh
Power,Intraday,Continuous,NL,IDFULL,QH,2021-11-30T06:30:00+01:00,2021-11-30T06:45:00+01:00,184.54,EUR,8.030,MWh
Power,Intraday,Continuous,NL,IDFULL,QH,2021-11-30T06:45:00+01:00,2021-11-30T07:00:00+01:00,189.99,EUR,17.400,MWh
Power,Intraday,Continuous,NL,IDFULL,QH,2021-11-30T07:00:00+01:00,2021-11-30T07:15:00+01:00,142.13,EUR,,MWh
Power,Intraday,Continuous,NL,IDFULL,QH,2021-11-30T07:15:00+01:00,2021-11-30T07:30:00+01:00,142.13,EUR,,MWh
Power,Intraday,Continuous,NL,IDFULL,QH,2021-11-30T07:30:00+01:00,2021-11-30T07:45:00+01:00,228.06,EUR,10.800,MWh
Power,Intraday,Continuous,NL,IDFULL,QH,2021-11-30T07:45:00+01:00,2021-11-30T08:00:00+01:00,234.29,EUR,6.030,MWh
Power,Intraday,Continuous,NL,IDFULL,QH,2021-11-30T08:00:00+01:00,2021-11-30T08:15:00+01:00,180.65,EUR,,MWh
Power,Intraday,Continuous,NL,IDFULL,QH,2021-11-30T08:15:00+01:00,2021-11-30T08:30:00+01:00,180.65,EUR,,MWh
Power,Intraday,Continuous,NL,IDFULL,QH,2021-11-30T08:30:00+01:00,2021-11-30T08:45:00+01:00,180.65,EUR,,MWh
Power,Intraday,Continuous,NL,IDFULL,QH,2021-11-30T08:45:00+01:00,2021-11-30T09:00:00+01:00,180.65,EUR,,MWh
Power,Intraday,Continuous,NL,IDFULL,QH,2021-11-30T09:00:00+01:00,2021-11-30T09:15:00+01:00,184.28,EUR,,MWh
Power,Intraday,Continuous,NL,IDFULL,QH,2021-11-30T09:15:00+01:00,2021-11-30T09:30:00+01:00,184.28,EUR,,MWh
Power,Intraday,Continuous,NL,IDFULL,QH,2021-11-30T09:30:00+01:00,2021-11-30T09:45:00+01:00,184.28,EUR,,MWh
Power,Intraday,Continuous,NL,IDFULL,QH,2021-11-30T09:45:00+01:00,2021-11-30T10:00:00+01:00,164.96,EUR,13.430,MWh
Power,Intraday,Continuous,NL,IDFULL,QH,2021-11-30T10:00:00+01:00,2021-11-30T10:15:00+01:00,192.14,EUR,5.550,MWh
Power,Intraday,Continuous,NL,IDFULL,QH,2021-11-30T10:15:00+01:00,2021-11-30T10:30:00+01:00,177.94,EUR,2.700,MWh
Power,Intraday,Continuous,NL,IDFULL,QH,2021-11-30T10:30:00+01:00,2021-11-30T10:45:00+01:00,176.95,EUR,14.250,MWh
Power,Intraday,Continuous,NL,IDFULL,QH,2021-11-30T10:45:00+01:00,2021-11-30T11:00:00+01:00,177.10,EUR,15.500,MWh
Power,Intraday,Continuous,NL,IDFULL,QH,2021-11-30T11:00:00+01:00,2021-11-30T11:15:00+01:00,192.57,EUR,14.350,MWh
Power,Intraday,Continuous,NL,IDFULL,QH,2021-11-30T11:15:00+01:00,2021-11-30T11:30:00+01:00,170.54,EUR,5.400,MWh
Power,Intraday,Continuous,NL,IDFULL,QH,2021-11-30T11:30:00+01:00,2021-11-30T11:45:00+01:00,176.50,EUR,12.830,MWh
Power,Intraday,Continuous,NL,IDFULL,QH,2021-11-30T11:45:00+01:00,2021-11-30T12:00:00+01:00,190.74,EUR,10.230,MWh
Power,Intraday,Continuous,NL,IDFULL,QH,2021-11-30T12:00:00+01:00,2021-11-30T12:15:00+01:00,170.93,EUR,6.550,MWh
Power,Intraday,Continuous,NL,IDFULL,QH,2021-11-30T12:15:00+01:00,2021-11-30T12:30:00+01:00,169.77,EUR,6.850,MWh
Power,Intraday,Continuous,NL,IDFULL,QH,2021-11-30T12:30:00+01:00,2021-11-30T12:45:00+01:00,184.35,EUR,13.530,MWh
Power,Intraday,Continuous,NL,IDFULL,QH,2021-11-30T12:45:00+01:00,2021-11-30T13:00:00+01:00,191.75,EUR,10.700,MWh
Power,Intraday,Continuous,NL,IDFULL,QH,2021-11-30T13:00:00+01:00,2021-11-30T13:15:00+01:00,199.14,EUR,4.650,MWh
Power,Intraday,Continuous,NL,IDFULL,QH,2021-11-30T13:15:00+01:00,2021-11-30T13:30:00+01:00,211.33,EUR,,MWh
Power,Intraday,Continuous,NL,IDFULL,QH,2021-11-30T13:30:00+01:00,2021-11-30T13:45:00+01:00,211.33,EUR,,MWh
Power,Intraday,Continuous,NL,IDFULL,QH,2021-11-30T13:45:00+01:00,2021-11-30T14:00:00+01:00,211.33,EUR,,MWh
Power,Intraday,Continuous,NL,IDFULL,QH,2021-11-30T14:00:00+01:00,2021-11-30T14:15:00+01:00,209.36,EUR,6.350,MWh
Power,Intraday,Continuous,NL,IDFULL,QH,2021-11-30T14:15:00+01:00,2021-11-30T14:30:00+01:00,199.54,EUR,2.500,MWh
Power,Intraday,Continuous,NL,IDFULL,QH,2021-11-30T14:30:00+01:00,2021-11-30T14:45:00+01:00,271.07,EUR,6.250,MWh
Power,Intraday,Continuous,NL,IDFULL,QH,2021-11-30T14:45:00+01:00,2021-11-30T15:00:00+01:00,286.54,EUR,5.700,MWh
Power,Intraday,Continuous,NL,IDFULL,QH,2021-11-30T15:00:00+01:00,2021-11-30T15:15:00+01:00,171.50,EUR,7.030,MWh
Power,Intraday,Continuous,NL,IDFULL,QH,2021-11-30T15:15:00+01:00,2021-11-30T15:30:00+01:00,255.37,EUR,,MWh
Power,Intraday,Continuous,NL,IDFULL,QH,2021-11-30T15:30:00+01:00,2021-11-30T15:45:00+01:00,258.10,EUR,6.500,MWh
Power,Intraday,Continuous,NL,IDFULL,QH,2021-11-30T15:45:00+01:00,2021-11-30T16:00:00+01:00,258.15,EUR,12.800,MWh
Power,Intraday,Continuous,NL,IDFULL,QH,2021-11-30T16:00:00+01:00,2021-11-30T16:15:00+01:00,189.77,EUR,15.550,MWh
Power,Intraday,Continuous,NL,IDFULL,QH,2021-11-30T16:15:00+01:00,2021-11-30T16:30:00+01:00,197.16,EUR,12.530,MWh
Power,Intraday,Continuous,NL,IDFULL,QH,2021-11-30T16:30:00+01:00,2021-11-30T16:45:00+01:00,224.65,EUR,16.850,MWh
Power,Intraday,Continuous,NL,IDFULL,QH,2021-11-30T16:45:00+01:00,2021-11-30T17:00:00+01:00,268.16,EUR,15.000,MWh
Power,Intraday,Continuous,NL,IDFULL,QH,2021-11-30T17:00:00+01:00,2021-11-30T17:15:00+01:00,177.01,EUR,6.500,MWh
Power,Intraday,Continuous,NL,IDFULL,QH,2021-11-30T17:15:00+01:00,2021-11-30T17:30:00+01:00,189.24,EUR,14.800,MWh
Power,Intraday,Continuous,NL,IDFULL,QH,2021-11-30T17:30:00+01:00,2021-11-30T17:45:00+01:00,205.84,EUR,11.200,MWh
Power,Intraday,Continuous,NL,IDFULL,QH,2021-11-30T17:45:00+01:00,2021-11-30T18:00:00+01:00,264.67,EUR,17.800,MWh
Power,Intraday,Continuous,NL,IDFULL,QH,2021-11-30T18:00:00+01:00,2021-11-30T18:15:00+01:00,247.67,EUR,22.100,MWh
Power,Intraday,Continuous,NL,IDFULL,QH,2021-11-30T18:15:00+01:00,2021-11-30T18:30:00+01:00,204.25,EUR,7.000,MWh
Power,Intraday,Continuous,NL,IDFULL,QH,2021-11-30T18:30:00+01:00,2021-11-30T18:45:00+01:00,168.11,EUR,7.130,MWh
Power,Intraday,Continuous,NL,IDFULL,QH,2021-11-30T18:45:00+01:00,2021-11-30T19:00:00+01:00,168.07,EUR,11.250,MWh
Power,Intraday,Continuous,NL,IDFULL,QH,2021-11-30T19:00:00+01:00,2021-11-30T19:15:00+01:00,270.00,EUR,5.530,MWh
Power,Intraday,Continuous,NL,IDFULL,QH,2021-11-30T19:15:00+01:00,2021-11-30T19:30:00+01:00,248.28,EUR,4.180,MWh
Power,Intraday,Continuous,NL,IDFULL,QH,2021-11-30T19:30:00+01:00,2021-11-30T19:45:00+01:00,183.35,EUR,13.550,MWh
Power,Intraday,Continuous,NL,IDFULL,QH,2021-11-30T19:45:00+01:00,2021-11-30T20:00:00+01:00,167.83,EUR,19.150,MWh
Power,Intraday,Continuous,NL,IDFULL,QH,2021-11-30T20:00:00+01:00,2021-11-30T20:15:00+01:00,270.00,EUR,5.580,MWh
Power,Intraday,Continuous,NL,IDFULL,QH,2021-11-30T20:15:00+01:00,2021-11-30T20:30:00+01:00,255.68,EUR,6.430,MWh
Power,Intraday,Continuous,NL,IDFULL,QH,2021-11-30T20:30:00+01:00,2021-11-30T20:45:00+01:00,168.40,EUR,9.080,MWh
Power,Intraday,Continuous,NL,IDFULL,QH,2021-11-30T20:45:00+01:00,2021-11-30T21:00:00+01:00,158.02,EUR,15.430,MWh
Power,Intraday,Continuous,NL,IDFULL,QH,2021-11-30T21:00:00+01:00,2021-11-30T21:15:00+01:00,239.99,EUR,86.320,MWh
Power,Intraday,Continuous,NL,IDFULL,QH,2021-11-30T21:15:00+01:00,2021-11-30T21:30:00+01:00,206.66,EUR,59.980,MWh
Power,Intraday,Continuous,NL,IDFULL,QH,2021-11-30T21:30:00+01:00,2021-11-30T21:45:00+01:00,179.49,EUR,74.220,MWh
Power,Intraday,Continuous,NL,IDFULL,QH,2021-11-30T21:45:00+01:00,2021-11-30T22:00:00+01:00,140.73,EUR,90.750,MWh
Power,Intraday,Continuous,NL,IDFULL,QH,2021-11-30T22:00:00+01:00,2021-11-30T22:15:00+01:00,205.39,EUR,145.100,MWh
Power,Intraday,Continuous,NL,IDFULL,QH,2021-11-30T22:15:00+01:00,2021-11-30T22:30:00+01:00,199.13,EUR,83.200,MWh
Power,Intraday,Continuous,NL,IDFULL,QH,2021-11-30T22:30:00+01:00,2021-11-30T22:45:00+01:00,148.48,EUR,75.100,MWh
Power,Intraday,Continuous,NL,IDFULL,QH,2021-11-30T22:45:00+01:00,2021-11-30T23:00:00+01:00,120.44,EUR,81.000,MWh
Power,Intraday,Continuous,NL,IDFULL,QH,2021-11-30T23:00:00+01:00,2021-11-30T23:15:00+01:00,204.84,EUR,73.230,MWh
Power,Intraday,Continuous,NL,IDFULL,QH,2021-11-30T23:15:00+01:00,2021-11-30T23:30:00+01:00,146.25,EUR,58.500,MWh
Power,Intraday,Continuous,NL,IDFULL,QH,2021-11-30T23:30:00+01:00,2021-11-30T23:45:00+01:00,113.36,EUR,85.470,MWh
Power,Intraday,Continuous,NL,IDFULL,QH,2021-11-30T23:45:00+01:00,2021-12-01T00:00:00+01:00,83.06,EUR,53.450,MWh
Power,Intraday,Continuous,NL,ID1,QH,2021-11-30T00:00:00+01:00,2021-11-30T00:15:00+01:00,126.65,EUR,,MWh
Power,Intraday,Continuous,NL,ID1,QH,2021-11-30T00:15:00+01:00,2021-11-30T00:30:00+01:00,119.10,EUR,,MWh
Power,Intraday,Continuous,NL,ID1,QH,2021-11-30T00:30:00+01:00,2021-11-30T00:45:00+01:00,77.81,EUR,,MWh
Power,Intraday,Continuous,NL,ID1,QH,2021-11-30T00:45:00+01:00,2021-11-30T01:00:00+01:00,43.21,EUR,,MWh
Power,Intraday,Continuous,NL,ID1,QH,2021-11-30T01:00:00+01:00,2021-11-30T01:15:00+01:00,81.42,EUR,,MWh
Power,Intraday,Continuous,NL,ID1,QH,2021-11-30T01:15:00+01:00,2021-11-30T01:30:00+01:00,81.42,EUR,,MWh
Power,Intraday,Continuous,NL,ID1,QH,2021-11-30T01:30:00+01:00,2021-11-30T01:45:00+01:00,81.42,EUR,,MWh
Power,Intraday,Continuous,NL,ID1,QH,2021-11-30T01:45:00+01:00,2021-11-30T02:00:00+01:00,81.42,EUR,,MWh
Power,Intraday,Continuous,NL,ID1,QH,2021-11-30T02:00:00+01:00,2021-11-30T02:15:00+01:00,78.22,EUR,,MWh
Power,Intraday,Continuous,NL,ID1,QH,2021-11-30T02:15:00+01:00,2021-11-30T02:30:00+01:00,78.22,EUR,,MWh
Power,Intraday,Continuous,NL,ID1,QH,2021-11-30T02:30:00+01:00,2021-11-30T02:45:00+01:00,78.22,EUR,,MWh
Power,Intraday,Continuous,NL,ID1,QH,2021-11-30T02:45:00+01:00,2021-11-30T03:00:00+01:00,78.22,EUR,,MWh
Power,Intraday,Continuous,NL,ID1,QH,2021-11-30T03:00:00+01:00,2021-11-30T03:15:00+01:00,95.81,EUR,,MWh
Power,Intraday,Continuous,NL,ID1,QH,2021-11-30T03:15:00+01:00,2021-11-30T03:30:00+01:00,95.81,EUR,,MWh
Power,Intraday,Continuous,NL,ID1,QH,2021-11-30T03:30:00+01:00,2021-11-30T03:45:00+01:00,95.81,EUR,,MWh
Power,Intraday,Continuous,NL,ID1,QH,2021-11-30T03:45:00+01:00,2021-11-30T04:00:00+01:00,95.81,EUR,,MWh
Power,Intraday,Continuous,NL,ID1,QH,2021-11-30T04:00:00+01:00,2021-11-30T04:15:00+01:00,90.52,EUR,,MWh
Power,Intraday,Continuous,NL,ID1,QH,2021-11-30T04:15:00+01:00,2021-11-30T04:30:00+01:00,90.52,EUR,,MWh
Power,Intraday,Continuous,NL,ID1,QH,2021-11-30T04:30:00+01:00,2021-11-30T04:45:00+01:00,90.52,EUR,,MWh
Power,Intraday,Continuous,NL,ID1,QH,2021-11-30T04:45:00+01:00,2021-11-30T05:00:00+01:00,90.52,EUR,,MWh
Power,Intraday,Continuous,NL,ID1,QH,2021-11-30T05:00:00+01:00,2021-11-30T05:15:00+01:00,76.03,EUR,,MWh
Power,Intraday,Continuous,NL,ID1,QH,2021-11-30T05:15:00+01:00,2021-11-30T05:30:00+01:00,76.03,EUR,,MWh
Power,Intraday,Continuous,NL,ID1,QH,2021-11-30T05:30:00+01:00,2021-11-30T05:45:00+01:00,76.03,EUR,,MWh
Power,Intraday,Continuous,NL,ID1,QH,2021-11-30T05:45:00+01:00,2021-11-30T06:00:00+01:00,170.16,EUR,,MWh
Power,Intraday,Continuous,NL,ID1,QH,2021-11-30T06:00:00+01:00,2021-11-30T06:15:00+01:00,-64.59,EUR,,MWh
Power,Intraday,Continuous,NL,ID1,QH,2021-11-30T06:15:00+01:00,2021-11-30T06:30:00+01:00,100.00,EUR,3.580,MWh
Power,Intraday,Continuous,NL,ID1,QH,2021-11-30T06:30:00+01:00,2021-11-30T06:45:00+01:00,200.00,EUR,2.830,MWh
Power,Intraday,Continuous,NL,ID1,QH,2021-11-30T06:45:00+01:00,2021-11-30T07:00:00+01:00,195.24,EUR,7.000,MWh
Power,Intraday,Continuous,NL,ID1,QH,2021-11-30T07:00:00+01:00,2021-11-30T07:15:00+01:00,142.13,EUR,,MWh
Power,Intraday,Continuous,NL,ID1,QH,2021-11-30T07:15:00+01:00,2021-11-30T07:30:00+01:00,142.13,EUR,,MWh
Power,Intraday,Continuous,NL,ID1,QH,2021-11-30T07:30:00+01:00,2021-11-30T07:45:00+01:00,228.06,EUR,,MWh
Power,Intraday,Continuous,NL,ID1,QH,2021-11-30T07:45:00+01:00,2021-11-30T08:00:00+01:00,233.89,EUR,5.630,MWh
Power,Intraday,Continuous,NL,ID1,QH,2021-11-30T08:00:00+01:00,2021-11-30T08:15:00+01:00,180.65,EUR,,MWh
Power,Intraday,Continuous,NL,ID1,QH,2021-11-30T08:15:00+01:00,2021-11-30T08:30:00+01:00,180.65,EUR,,MWh
Power,Intraday,Continuous,NL,ID1,QH,2021-11-30T08:30:00+01:00,2021-11-30T08:45:00+01:00,180.65,EUR,,MWh
Power,Intraday,Continuous,NL,ID1,QH,2021-11-30T08:45:00+01:00,2021-11-30T09:00:00+01:00,180.65,EUR,,MWh
Power,Intraday,Continuous,NL,ID1,QH,2021-11-30T09:00:00+01:00,2021-11-30T09:15:00+01:00,184.28,EUR,,MWh
Power,Intraday,Continuous,NL,ID1,QH,2021-11-30T09:15:00+01:00,2021-11-30T09:30:00+01:00,184.28,EUR,,MWh
Power,Intraday,Continuous,NL,ID1,QH,2021-11-30T09:30:00+01:00,2021-11-30T09:45:00+01:00,184.28,EUR,,MWh
Power,Intraday,Continuous,NL,ID1,QH,2021-11-30T09:45:00+01:00,2021-11-30T10:00:00+01:00,181.86,EUR,2.500,MWh
Power,Intraday,Continuous,NL,ID1,QH,2021-11-30T10:00:00+01:00,2021-11-30T10:15:00+01:00,200.28,EUR,,MWh
Power,Intraday,Continuous,NL,ID1,QH,2021-11-30T10:15:00+01:00,2021-11-30T10:30:00+01:00,177.94,EUR,,MWh
Power,Intraday,Continuous,NL,ID1,QH,2021-11-30T10:30:00+01:00,2021-11-30T10:45:00+01:00,167.79,EUR,8.950,MWh
Power,Intraday,Continuous,NL,ID1,QH,2021-11-30T10:45:00+01:00,2021-11-30T11:00:00+01:00,169.15,EUR,10.200,MWh
Power,Intraday,Continuous,NL,ID1,QH,2021-11-30T11:00:00+01:00,2021-11-30T11:15:00+01:00,178.46,EUR,7.550,MWh
Power,Intraday,Continuous,NL,ID1,QH,2021-11-30T11:15:00+01:00,2021-11-30T11:30:00+01:00,167.63,EUR,3.800,MWh
Power,Intraday,Continuous,NL,ID1,QH,2021-11-30T11:30:00+01:00,2021-11-30T11:45:00+01:00,188.70,EUR,5.100,MWh
Power,Intraday,Continuous,NL,ID1,QH,2021-11-30T11:45:00+01:00,2021-11-30T12:00:00+01:00,199.86,EUR,5.000,MWh
Power,Intraday,Continuous,NL,ID1,QH,2021-11-30T12:00:00+01:00,2021-11-30T12:15:00+01:00,170.70,EUR,6.350,MWh
Power,Intraday,Continuous,NL,ID1,QH,2021-11-30T12:15:00+01:00,2021-11-30T12:30:00+01:00,169.70,EUR,5.650,MWh
Power,Intraday,Continuous,NL,ID1,QH,2021-11-30T12:30:00+01:00,2021-11-30T12:45:00+01:00,192.45,EUR,7.350,MWh
Power,Intraday,Continuous,NL,ID1,QH,2021-11-30T12:45:00+01:00,2021-11-30T13:00:00+01:00,209.61,EUR,4.100,MWh
Power,Intraday,Continuous,NL,ID1,QH,2021-11-30T13:00:00+01:00,2021-11-30T13:15:00+01:00,200.09,EUR,4.450,MWh
Power,Intraday,Continuous,NL,ID1,QH,2021-11-30T13:15:00+01:00,2021-11-30T13:30:00+01:00,211.33,EUR,,MWh
Power,Intraday,Continuous,NL,ID1,QH,2021-11-30T13:30:00+01:00,2021-11-30T13:45:00+01:00,211.33,EUR,,MWh
Power,Intraday,Continuous,NL,ID1,QH,2021-11-30T13:45:00+01:00,2021-11-30T14:00:00+01:00,211.33,EUR,,MWh
Power,Intraday,Continuous,NL,ID1,QH,2021-11-30T14:00:00+01:00,2021-11-30T14:15:00+01:00,215.74,EUR,3.800,MWh
Power,Intraday,Continuous,NL,ID1,QH,2021-11-30T14:15:00+01:00,2021-11-30T14:30:00+01:00,199.54,EUR,,MWh
Power,Intraday,Continuous,NL,ID1,QH,2021-11-30T14:30:00+01:00,2021-11-30T14:45:00+01:00,271.07,EUR,6.250,MWh
Power,Intraday,Continuous,NL,ID1,QH,2021-11-30T14:45:00+01:00,2021-11-30T15:00:00+01:00,286.54,EUR,5.700,MWh
Power,Intraday,Continuous,NL,ID1,QH,2021-11-30T15:00:00+01:00,2021-11-30T15:15:00+01:00,179.35,EUR,3.250,MWh
Power,Intraday,Continuous,NL,ID1,QH,2021-11-30T15:15:00+01:00,2021-11-30T15:30:00+01:00,255.37,EUR,,MWh
Power,Intraday,Continuous,NL,ID1,QH,2021-11-30T15:30:00+01:00,2021-11-30T15:45:00+01:00,260.90,EUR,4.250,MWh
Power,Intraday,Continuous,NL,ID1,QH,2021-11-30T15:45:00+01:00,2021-11-30T16:00:00+01:00,252.51,EUR,6.900,MWh
Power,Intraday,Continuous,NL,ID1,QH,2021-11-30T16:00:00+01:00,2021-11-30T16:15:00+01:00,190.06,EUR,14.050,MWh
Power,Intraday,Continuous,NL,ID1,QH,2021-11-30T16:15:00+01:00,2021-11-30T16:30:00+01:00,188.69,EUR,6.500,MWh
Power,Intraday,Continuous,NL,ID1,QH,2021-11-30T16:30:00+01:00,2021-11-30T16:45:00+01:00,173.45,EUR,2.750,MWh
Power,Intraday,Continuous,NL,ID1,QH,2021-11-30T16:45:00+01:00,2021-11-30T17:00:00+01:00,267.17,EUR,,MWh
Power,Intraday,Continuous,NL,ID1,QH,2021-11-30T17:00:00+01:00,2021-11-30T17:15:00+01:00,177.01,EUR,,MWh
Power,Intraday,Continuous,NL,ID1,QH,2021-11-30T17:15:00+01:00,2021-11-30T17:30:00+01:00,190.89,EUR,2.550,MWh
Power,Intraday,Continuous,NL,ID1,QH,2021-11-30T17:30:00+01:00,2021-11-30T17:45:00+01:00,197.74,EUR,5.050,MWh
Power,Intraday,Continuous,NL,ID1,QH,2021-11-30T17:45:00+01:00,2021-11-30T18:00:00+01:00,251.02,EUR,,MWh
Power,Intraday,Continuous,NL,ID1,QH,2021-11-30T18:00:00+01:00,2021-11-30T18:15:00+01:00,250.24,EUR,20.400,MWh
Power,Intraday,Continuous,NL,ID1,QH,2021-11-30T18:15:00+01:00,2021-11-30T18:30:00+01:00,201.18,EUR,6.550,MWh
Power,Intraday,Continuous,NL,ID1,QH,2021-11-30T18:30:00+01:00,2021-11-30T18:45:00+01:00,168.00,EUR,3.750,MWh
Power,Intraday,Continuous,NL,ID1,QH,2021-11-30T18:45:00+01:00,2021-11-30T19:00:00+01:00,168.00,EUR,5.000,MWh
Power,Intraday,Continuous,NL,ID1,QH,2021-11-30T19:00:00+01:00,2021-11-30T19:15:00+01:00,270.00,EUR,2.530,MWh
Power,Intraday,Continuous,NL,ID1,QH,2021-11-30T19:15:00+01:00,2021-11-30T19:30:00+01:00,270.00,EUR,2.530,MWh
Power,Intraday,Continuous,NL,ID1,QH,2021-11-30T19:30:00+01:00,2021-11-30T19:45:00+01:00,184.85,EUR,12.300,MWh
Power,Intraday,Continuous,NL,ID1,QH,2021-11-30T19:45:00+01:00,2021-11-30T20:00:00+01:00,169.02,EUR,12.880,MWh
Power,Intraday,Continuous,NL,ID1,QH,2021-11-30T20:00:00+01:00,2021-11-30T20:15:00+01:00,270.00,EUR,,MWh
Power,Intraday,Continuous,NL,ID1,QH,2021-11-30T20:15:00+01:00,2021-11-30T20:30:00+01:00,252.14,EUR,3.500,MWh
Power,Intraday,Continuous,NL,ID1,QH,2021-11-30T20:30:00+01:00,2021-11-30T20:45:00+01:00,168.37,EUR,,MWh
Power,Intraday,Continuous,NL,ID1,QH,2021-11-30T20:45:00+01:00,2021-11-30T21:00:00+01:00,156.76,EUR,7.500,MWh
Power,Intraday,Continuous,NL,ID1,QH,2021-11-30T21:00:00+01:00,2021-11-30T21:15:00+01:00,247.87,EUR,,MWh
Power,Intraday,Continuous,NL,ID1,QH,2021-11-30T21:15:00+01:00,2021-11-30T21:30:00+01:00,214.89,EUR,,MWh
Power,Intraday,Continuous,NL,ID1,QH,2021-11-30T21:30:00+01:00,2021-11-30T21:45:00+01:00,183.69,EUR,,MWh
Power,Intraday,Continuous,NL,ID1,QH,2021-11-30T21:45:00+01:00,2021-11-30T22:00:00+01:00,132.21,EUR,,MWh
Power,Intraday,Continuous,NL,ID1,QH,2021-11-30T22:00:00+01:00,2021-11-30T22:15:00+01:00,223.27,EUR,,MWh
Power,Intraday,Continuous,NL,ID1,QH,2021-11-30T22:15:00+01:00,2021-11-30T22:30:00+01:00,210.65,EUR,,MWh
Power,Intraday,Continuous,NL,ID1,QH,2021-11-30T22:30:00+01:00,2021-11-30T22:45:00+01:00,149.33,EUR,,MWh
Power,Intraday,Continuous,NL,ID1,QH,2021-11-30T22:45:00+01:00,2021-11-30T23:00:00+01:00,117.04,EUR,,MWh
Power,Intraday,Continuous,NL,ID1,QH,2021-11-30T23:00:00+01:00,2021-11-30T23:15:00+01:00,219.42,EUR,,MWh
Power,Intraday,Continuous,NL,ID1,QH,2021-11-30T23:15:00+01:00,2021-11-30T23:30:00+01:00,142.02,EUR,,MWh
Power,Intraday,Continuous,NL,ID1,QH,2021-11-30T23:30:00+01:00,2021-11-30T23:45:00+01:00,111.28,EUR,,MWh
Power,Intraday,Continuous,NL,ID1,QH,2021-11-30T23:45:00+01:00,2021-12-01T00:00:00+01:00,76.59,EUR,,MWh
Power,Intraday,Continuous,NL,ID3,QH,2021-11-30T00:00:00+01:00,2021-11-30T00:15:00+01:00,126.65,EUR,45.200,MWh
Power,Intraday,Continuous,NL,ID3,QH,2021-11-30T00:15:00+01:00,2021-11-30T00:30:00+01:00,119.10,EUR,23.900,MWh
Power,Intraday,Continuous,NL,ID3,QH,2021-11-30T00:30:00+01:00,2021-11-30T00:45:00+01:00,77.81,EUR,10.700,MWh
Power,Intraday,Continuous,NL,ID3,QH,2021-11-30T00:45:00+01:00,2021-11-30T01:00:00+01:00,43.21,EUR,30.250,MWh
Power,Intraday,Continuous,NL,ID3,QH,2021-11-30T01:00:00+01:00,2021-11-30T01:15:00+01:00,81.42,EUR,,MWh
Power,Intraday,Continuous,NL,ID3,QH,2021-11-30T01:15:00+01:00,2021-11-30T01:30:00+01:00,81.42,EUR,,MWh
Power,Intraday,Continuous,NL,ID3,QH,2021-11-30T01:30:00+01:00,2021-11-30T01:45:00+01:00,81.42,EUR,,MWh
Power,Intraday,Continuous,NL,ID3,QH,2021-11-30T01:45:00+01:00,2021-11-30T02:00:00+01:00,81.42,EUR,,MWh
Power,Intraday,Continuous,NL,ID3,QH,2021-11-30T02:00:00+01:00,2021-11-30T02:15:00+01:00,78.22,EUR,,MWh
Power,Intraday,Continuous,NL,ID3,QH,2021-11-30T02:15:00+01:00,2021-11-30T02:30:00+01:00,78.22,EUR,,MWh
Power,Intraday,Continuous,NL,ID3,QH,2021-11-30T02:30:00+01:00,2021-11-30T02:45:00+01:00,78.22,EUR,,MWh
Power,Intraday,Continuous,NL,ID3,QH,2021-11-30T02:45:00+01:00,2021-11-30T03:00:00+01:00,78.22,EUR,,MWh
Power,Intraday,Continuous,NL,ID3,QH,2021-11-30T03:00:00+01:00,2021-11-30T03:15:00+01:00,95.81,EUR,,MWh
Power,Intraday,Continuous,NL,ID3,QH,2021-11-30T03:15:00+01:00,2021-11-30T03:30:00+01:00,95.81,EUR,,MWh
Power,Intraday,Continuous,NL,ID3,QH,2021-11-30T03:30:00+01:00,2021-11-30T03:45:00+01:00,95.81,EUR,,MWh
Power,Intraday,Continuous,NL,ID3,QH,2021-11-30T03:45:00+01:00,2021-11-30T04:00:00+01:00,95.81,EUR,,MWh
Power,Intraday,Continuous,NL,ID3,QH,2021-11-30T04:00:00+01:00,2021-11-30T04:15:00+01:00,90.52,EUR,,MWh
Power,Intraday,Continuous,NL,ID3,QH,2021-11-30T04:15:00+01:00,2021-11-30T04:30:00+01:00,90.52,EUR,,MWh
Power,Intraday,Continuous,NL,ID3,QH,2021-11-30T04:30:00+01:00,2021-11-30T04:45:00+01:00,90.52,EUR,,MWh
Power,Intraday,Continuous,NL,ID3,QH,2021-11-30T04:45:00+01:00,2021-11-30T05:00:00+01:00,90.52,EUR,,MWh
Power,Intraday,Continuous,NL,ID3,QH,2021-11-30T05:00:00+01:00,2021-11-30T05:15:00+01:00,76.03,EUR,,MWh
Power,Intraday,Continuous,NL,ID3,QH,2021-11-30T05:15:00+01:00,2021-11-30T05:30:00+01:00,76.03,EUR,,MWh
Power,Intraday,Continuous,NL,ID3,QH,2021-11-30T05:30:00+01:00,2021-11-30T05:45:00+01:00,76.03,EUR,,MWh
Power,Intraday,Continuous,NL,ID3,QH,2021-11-30T05:45:00+01:00,2021-11-30T06:00:00+01:00,170.16,EUR,3.930,MWh
Power,Intraday,Continuous,NL,ID3,QH,2021-11-30T06:00:00+01:00,2021-11-30T06:15:00+01:00,-64.59,EUR,,MWh
Power,Intraday,Continuous,NL,ID3,QH,2021-11-30T06:15:00+01:00,2021-11-30T06:30:00+01:00,93.70,EUR,8.580,MWh
Power,Intraday,Continuous,NL,ID3,QH,2021-11-30T06:30:00+01:00,2021-11-30T06:45:00+01:00,184.54,EUR,8.030,MWh
Power,Intraday,Continuous,NL,ID3,QH,2021-11-30T06:45:00+01:00,2021-11-30T07:00:00+01:00,189.99,EUR,17.400,MWh
Power,Intraday,Continuous,NL,ID3,QH,2021-11-30T07:00:00+01:00,2021-11-30T07:15:00+01:00,142.13,EUR,,MWh
Power,Intraday,Continuous,NL,ID3,QH,2021-11-30T07:15:00+01:00,2021-11-30T07:30:00+01:00,142.13,EUR,,MWh
Power,Intraday,Continuous,NL,ID3,QH,2021-11-30T07:30:00+01:00,2021-11-30T07:45:00+01:00,228.06,EUR,10.800,MWh
Power,Intraday,Continuous,NL,ID3,QH,2021-11-30T07:45:00+01:00,2021-11-30T08:00:00+01:00,234.29,EUR,6.030,MWh
Power,Intraday,Continuous,NL,ID3,QH,2021-11-30T08:00:00+01:00,2021-11-30T08:15:00+01:00,180.65,EUR,,MWh
Power,Intraday,Continuous,NL,ID3,QH,2021-11-30T08:15:00+01:00,2021-11-30T08:30:00+01:00,180.65,EUR,,MWh
Power,Intraday,Continuous,NL,ID3,QH,2021-11-30T08:30:00+01:00,2021-11-30T08:45:00+01:00,180.65,EUR,,MWh
Power,Intraday,Continuous,NL,ID3,QH,2021-11-30T08:45:00+01:00,2021-11-30T09:00:00+01:00,180.65,EUR,,MWh
Power,Intraday,Continuous,NL,ID3,QH,2021-11-30T09:00:00+01:00,2021-11-30T09:15:00+01:00,184.28,EUR,,MWh
Power,Intraday,Continuous,NL,ID3,QH,2021-11-30T09:15:00+01:00,2021-11-30T09:30:00+01:00,184.28,EUR,,MWh
Power,Intraday,Continuous,NL,ID3,QH,2021-11-30T09:30:00+01:00,2021-11-30T09:45:00+01:00,184.28,EUR,,MWh
Power,Intraday,Continuous,NL,ID3,QH,2021-11-30T09:45:00+01:00,2021-11-30T10:00:00+01:00,167.63,EUR,9.480,MWh
Power,Intraday,Continuous,NL,ID3,QH,2021-11-30T10:00:00+01:00,2021-11-30T10:15:00+01:00,200.28,EUR,4.050,MWh
Power,Intraday,Continuous,NL,ID3,QH,2021-11-30T10:15:00+01:00,2021-11-30T10:30:00+01:00,177.94,EUR,,MWh
Power,Intraday,Continuous,NL,ID3,QH,2021-11-30T10:30:00+01:00,2021-11-30T10:45:00+01:00,177.92,EUR,12.650,MWh
Power,Intraday,Continuous,NL,ID3,QH,2021-11-30T10:45:00+01:00,2021-11-30T11:00:00+01:00,178.00,EUR,13.900,MWh
Power,Intraday,Continuous,NL,ID3,QH,2021-11-30T11:00:00+01:00,2021-11-30T11:15:00+01:00,194.46,EUR,12.750,MWh
Power,Intraday,Continuous,NL,ID3,QH,2021-11-30T11:15:00+01:00,2021-11-30T11:30:00+01:00,171.05,EUR,4.600,MWh
Power,Intraday,Continuous,NL,ID3,QH,2021-11-30T11:30:00+01:00,2021-11-30T11:45:00+01:00,177.10,EUR,12.030,MWh
Power,Intraday,Continuous,NL,ID3,QH,2021-11-30T11:45:00+01:00,2021-11-30T12:00:00+01:00,193.20,EUR,8.630,MWh
Power,Intraday,Continuous,NL,ID3,QH,2021-11-30T12:00:00+01:00,2021-11-30T12:15:00+01:00,170.70,EUR,6.350,MWh
Power,Intraday,Continuous,NL,ID3,QH,2021-11-30T12:15:00+01:00,2021-11-30T12:30:00+01:00,169.53,EUR,6.650,MWh
Power,Intraday,Continuous,NL,ID3,QH,2021-11-30T12:30:00+01:00,2021-11-30T12:45:00+01:00,184.45,EUR,13.330,MWh
Power,Intraday,Continuous,NL,ID3,QH,2021-11-30T12:45:00+01:00,2021-11-30T13:00:00+01:00,192.01,EUR,10.500,MWh
Power,Intraday,Continuous,NL,ID3,QH,2021-11-30T13:00:00+01:00,2021-11-30T13:15:00+01:00,200.09,EUR,4.450,MWh
Power,Intraday,Continuous,NL,ID3,QH,2021-11-30T13:15:00+01:00,2021-11-30T13:30:00+01:00,211.33,EUR,,MWh
Power,Intraday,Continuous,NL,ID3,QH,2021-11-30T13:30:00+01:00,2021-11-30T13:45:00+01:00,211.33,EUR,,MWh
Power,Intraday,Continuous,NL,ID3,QH,2021-11-30T13:45:00+01:00,2021-11-30T14:00:00+01:00,211.33,EUR,,MWh
Power,Intraday,Continuous,NL,ID3,QH,2021-11-30T14:00:00+01:00,2021-11-30T14:15:00+01:00,209.36,EUR,6.350,MWh
Power,Intraday,Continuous,NL,ID3,QH,2021-11-30T14:15:00+01:00,2021-11-30T14:30:00+01:00,199.54,EUR,2.500,MWh
Power,Intraday,Continuous,NL,ID3,QH,2021-11-30T14:30:00+01:00,2021-11-30T14:45:00+01:00,271.07,EUR,6.250,MWh
Power,Intraday,Continuous,NL,ID3,QH,2021-11-30T14:45:00+01:00,2021-11-30T15:00:00+01:00,286.54,EUR,5.700,MWh
Power,Intraday,Continuous,NL,ID3,QH,2021-11-30T15:00:00+01:00,2021-11-30T15:15:00+01:00,171.50,EUR,7.030,MWh
Power,Intraday,Continuous,NL,ID3,QH,2021-11-30T15:15:00+01:00,2021-11-30T15:30:00+01:00,255.37,EUR,,MWh
Power,Intraday,Continuous,NL,ID3,QH,2021-11-30T15:30:00+01:00,2021-11-30T15:45:00+01:00,258.10,EUR,6.500,MWh
Power,Intraday,Continuous,NL,ID3,QH,2021-11-30T15:45:00+01:00,2021-11-30T16:00:00+01:00,258.15,EUR,12.800,MWh
Power,Intraday,Continuous,NL,ID3,QH,2021-11-30T16:00:00+01:00,2021-11-30T16:15:00+01:00,189.84,EUR,15.350,MWh
Power,Intraday,Continuous,NL,ID3,QH,2021-11-30T16:15:00+01:00,2021-11-30T16:30:00+01:00,196.06,EUR,12.430,MWh
Power,Intraday,Continuous,NL,ID3,QH,2021-11-30T16:30:00+01:00,2021-11-30T16:45:00+01:00,224.00,EUR,16.750,MWh
Power,Intraday,Continuous,NL,ID3,QH,2021-11-30T16:45:00+01:00,2021-11-30T17:00:00+01:00,267.17,EUR,14.900,MWh
Power,Intraday,Continuous,NL,ID3,QH,2021-11-30T17:00:00+01:00,2021-11-30T17:15:00+01:00,177.01,EUR,6.500,MWh
Power,Intraday,Continuous,NL,ID3,QH,2021-11-30T17:15:00+01:00,2021-11-30T17:30:00+01:00,181.79,EUR,13.550,MWh
Power,Intraday,Continuous,NL,ID3,QH,2021-11-30T17:30:00+01:00,2021-11-30T17:45:00+01:00,197.78,EUR,9.950,MWh
Power,Intraday,Continuous,NL,ID3,QH,2021-11-30T17:45:00+01:00,2021-11-30T18:00:00+01:00,251.02,EUR,5.200,MWh
Power,Intraday,Continuous,NL,ID3,QH,2021-11-30T18:00:00+01:00,2021-11-30T18:15:00+01:00,247.67,EUR,22.100,MWh
Power,Intraday,Continuous,NL,ID3,QH,2021-11-30T18:15:00+01:00,2021-11-30T18:30:00+01:00,204.25,EUR,7.000,MWh
Power,Intraday,Continuous,NL,ID3,QH,2021-11-30T18:30:00+01:00,2021-11-30T18:45:00+01:00,168.11,EUR,7.130,MWh
Power,Intraday,Continuous,NL,ID3,QH,2021-11-30T18:45:00+01:00,2021-11-30T19:00:00+01:00,168.07,EUR,11.250,MWh
Power,Intraday,Continuous,NL,ID3,QH,2021-11-30T19:00:00+01:00,2021-11-30T19:15:00+01:00,270.00,EUR,5.530,MWh
Power,Intraday,Continuous,NL,ID3,QH,2021-11-30T19:15:00+01:00,2021-11-30T19:30:00+01:00,248.28,EUR,4.180,MWh
Power,Intraday,Continuous,NL,ID3,QH,2021-11-30T19:30:00+01:00,2021-11-30T19:45:00+01:00,183.35,EUR,13.550,MWh
Power,Intraday,Continuous,NL,ID3,QH,2021-11-30T19:45:00+01:00,2021-11-30T20:00:00+01:00,167.83,EUR,19.150,MWh
Power,Intraday,Continuous,NL,ID3,QH,2021-11-30T20:00:00+01:00,2021-11-30T20:15:00+01:00,270.00,EUR,5.580,MWh
Power,Intraday,Continuous,NL,ID3,QH,2021-11-30T20:15:00+01:00,2021-11-30T20:30:00+01:00,255.68,EUR,6.430,MWh
Power,Intraday,Continuous,NL,ID3,QH,2021-11-30T20:30:00+01:00,2021-11-30T20:45:00+01:00,168.37,EUR,7.780,MWh
Power,Intraday,Continuous,NL,ID3,QH,2021-11-30T20:45:00+01:00,2021-11-30T21:00:00+01:00,156.21,EUR,11.830,MWh
Power,Intraday,Continuous,NL,ID3,QH,2021-11-30T21:00:00+01:00,2021-11-30T21:15:00+01:00,247.87,EUR,71.350,MWh
Power,Intraday,Continuous,NL,ID3,QH,2021-11-30T21:15:00+01:00,2021-11-30T21:30:00+01:00,214.89,EUR,39.680,MWh
Power,Intraday,Continuous,NL,ID3,QH,2021-11-30T21:30:00+01:00,2021-11-30T21:45:00+01:00,183.69,EUR,54.180,MWh
Power,Intraday,Continuous,NL,ID3,QH,2021-11-30T21:45:00+01:00,2021-11-30T22:00:00+01:00,132.21,EUR,42.950,MWh
Power,Intraday,Continuous,NL,ID3,QH,2021-11-30T22:00:00+01:00,2021-11-30T22:15:00+01:00,223.27,EUR,67.100,MWh
Power,Intraday,Continuous,NL,ID3,QH,2021-11-30T22:15:00+01:00,2021-11-30T22:30:00+01:00,210.65,EUR,41.180,MWh
Power,Intraday,Continuous,NL,ID3,QH,2021-11-30T22:30:00+01:00,2021-11-30T22:45:00+01:00,149.33,EUR,50.620,MWh
Power,Intraday,Continuous,NL,ID3,QH,2021-11-30T22:45:00+01:00,2021-11-30T23:00:00+01:00,117.04,EUR,43.080,MWh
Power,Intraday,Continuous,NL,ID3,QH,2021-11-30T23:00:00+01:00,2021-11-30T23:15:00+01:00,219.42,EUR,38.830,MWh
Power,Intraday,Continuous,NL,ID3,QH,2021-11-30T23:15:00+01:00,2021-11-30T23:30:00+01:00,142.02,EUR,32.350,MWh
Power,Intraday,Continuous,NL,ID3,QH,2021-11-30T23:30:00+01:00,2021-11-30T23:45:00+01:00,111.28,EUR,58.300,MWh
Power,Intraday,Continuous,NL,ID3,QH,2021-11-30T23:45:00+01:00,2021-12-01T00:00:00+01:00,76.59,EUR,8.450,MWh
Power,Intraday,Continuous,NL,IDFULL,BASE,2021-11-30T00:00:00+01:00,2021-12-01T00:00:00+01:00,167.88,EUR,14928.200,MWh
Power,Intraday,Continuous,NL,IDFULL,PEAK,2021-11-30T08:00:00+01:00,2021-11-30T20:00:00+01:00,208.76,EUR,7349.500,MWh
