Commodity,NominationModality,TradingModality,MarketArea,IndexName,TimeResolution,DeliveryStart,DeliveryEnd,IndexPrice,Currency,Volume,VolumeUnit
Power,Intraday,Continuous,NL,IDFULL,H,2021-02-15T00:00:00+01:00,2021-02-15T01:00:00+01:00,34.28,EUR,369.300,MWh
Power,Intraday,Continuous,NL,IDFULL,H,2021-02-15T01:00:00+01:00,2021-02-15T02:00:00+01:00,32.45,EUR,329.500,MWh
Power,Intraday,Continuous,NL,IDFULL,H,2021-02-15T02:00:00+01:00,2021-02-15T03:00:00+01:00,32.31,EUR,211.000,MWh
Power,Intraday,Continuous,NL,IDFULL,H,2021-02-15T03:00:00+01:00,2021-02-15T04:00:00+01:00,31.60,EUR,231.900,MWh
Power,Intraday,Continuous,NL,IDFULL,H,2021-02-15T04:00:00+01:00,2021-02-15T05:00:00+01:00,32.14,EUR,239.600,MWh
Power,Intraday,Continuous,NL,IDFULL,H,2021-02-15T05:00:00+01:00,2021-02-15T06:00:00+01:00,22.69,EUR,96.400,MWh
Power,Intraday,Continuous,NL,IDFULL,H,2021-02-15T06:00:00+01:00,2021-02-15T07:00:00+01:00,41.36,EUR,290.100,MWh
Power,Intraday,Continuous,NL,IDFULL,H,2021-02-15T07:00:00+01:00,2021-02-15T08:00:00+01:00,49.80,EUR,480.900,MWh
Power,Intraday,Continuous,NL,IDFULL,H,2021-02-15T08:00:00+01:00,2021-02-15T09:00:00+01:00,58.02,EUR,1016.800,MWh
Power,Intraday,Continuous,NL,IDFULL,H,2021-02-15T09:00:00+01:00,2021-02-15T10:00:00+01:00,58.36,EUR,1299.500,MWh
Power,Intraday,Continuous,NL,IDFULL,H,2021-02-15T10:00:00+01:00,2021-02-15T11:00:00+01:00,55.47,EUR,1675.200,MWh
Power,Intraday,Continuous,NL,IDFULL,H,2021-02-15T11:00:00+01:00,2021-02-15T12:00:00+01:00,55.94,EUR,1648.000,MWh
Power,Intraday,Continuous,NL,IDFULL,H,2021-02-15T12:00:00+01:00,2021-02-15T13:00:00+01:00,56.28,EUR,1766.600,MWh
Power,Intraday,Continuous,NL,IDFULL,H,2021-02-15T13:00:00+01:00,2021-02-15T14:00:00+01:00,57.77,EUR,1727.200,MWh
Power,Intraday,Continuous,NL,IDFULL,H,2021-02-15T14:00:00+01:00,2021-02-15T15:00:00+01:00,77.02,EUR,1374.100,MWh
Power,Intraday,Continuous,NL,IDFULL,H,2021-02-15T15:00:00+01:00,2021-02-15T16:00:00+01:00,57.70,EUR,1889.600,MWh
Power,Intraday,Continuous,NL,IDFULL,H,2021-02-15T16:00:00+01:00,2021-02-15T17:00:00+01:00,68.89,EUR,1238.500,MWh
Power,Intraday,Continuous,NL,IDFULL,H,2021-02-15T17:00:00+01:00,2021-02-15T18:00:00+01:00,71.94,EUR,1347.900,MWh
Power,Intraday,Continuous,NL,IDFULL,H,2021-02-15T18:00:00+01:00,2021-02-15T19:00:00+01:00,97.44,EUR,1019.600,MWh
Power,Intraday,Continuous,NL,IDFULL,H,2021-02-15T19:00:00+01:00,2021-02-15T20:00:00+01:00,72.72,EUR,1029.900,MWh
Power,Intraday,Continuous,NL,IDFULL,H,2021-02-15T20:00:00+01:00,2021-02-15T21:00:00+01:00,69.59,EUR,797.900,MWh
Power,Intraday,Continuous,NL,IDFULL,H,2021-02-15T21:00:00+01:00,2021-02-15T22:00:00+01:00,60.49,EUR,1118.700,MWh
Power,Intraday,Continuous,NL,IDFULL,H,2021-02-15T22:00:00+01:00,2021-02-15T23:00:00+01:00,58.97,EUR,986.100,MWh
Power,Intraday,Continuous,NL,IDFULL,H,2021-02-15T23:00:00+01:00,2021-02-16T00:00:00+01:00,52.85,EUR,1427.600,MWh
Power,Intraday,Continuous,NL,ID1,H,2021-02-15T00:00:00+01:00,2021-02-15T01:00:00+01:00,33.26,EUR,,MWh
Power,Intraday,Continuous,NL,ID1,H,2021-02-15T01:00:00+01:00,2021-02-15T02:00:00+01:00,31.42,EUR,,MWh
Power,Intraday,Continuous,NL,ID1,H,2021-02-15T02:00:00+01:00,2021-02-15T03:00:00+01:00,29.79,EUR,,MWh
Power,Intraday,Continuous,NL,ID1,H,2021-02-15T03:00:00+01:00,2021-02-15T04:00:00+01:00,32.13,EUR,,MWh
Power,Intraday,Continuous,NL,ID1,H,2021-02-15T04:00:00+01:00,2021-02-15T05:00:00+01:00,33.67,EUR,,MWh
Power,Intraday,Continuous,NL,ID1,H,2021-02-15T05:00:00+01:00,2021-02-15T06:00:00+01:00,9.99,EUR,40.300,MWh
Power,Intraday,Continuous,NL,ID1,H,2021-02-15T06:00:00+01:00,2021-02-15T07:00:00+01:00,73.51,EUR,30.700,MWh
Power,Intraday,Continuous,NL,ID1,H,2021-02-15T07:00:00+01:00,2021-02-15T08:00:00+01:00,66.16,EUR,67.000,MWh
Power,Intraday,Continuous,NL,ID1,H,2021-02-15T08:00:00+01:00,2021-02-15T09:00:00+01:00,70.83,EUR,90.600,MWh
Power,Intraday,Continuous,NL,ID1,H,2021-02-15T09:00:00+01:00,2021-02-15T10:00:00+01:00,70.88,EUR,54.100,MWh
Power,Intraday,Continuous,NL,ID1,H,2021-02-15T10:00:00+01:00,2021-02-15T11:00:00+01:00,54.20,EUR,33.600,MWh
Power,Intraday,Continuous,NL,ID1,H,2021-02-15T11:00:00+01:00,2021-02-15T12:00:00+01:00,54.40,EUR,43.500,MWh
Power,Intraday,Continuous,NL,ID1,H,2021-02-15T12:00:00+01:00,2021-02-15T13:00:00+01:00,67.44,EUR,33.000,MWh
Power,Intraday,Continuous,NL,ID1,H,2021-02-15T13:00:00+01:00,2021-02-15T14:00:00+01:00,66.07,EUR,38.400,MWh
Power,Intraday,Continuous,NL,ID1,H,2021-02-15T14:00:00+01:00,2021-02-15T15:00:00+01:00,156.21,EUR,171.100,MWh
Power,Intraday,Continuous,NL,ID1,H,2021-02-15T15:00:00+01:00,2021-02-15T16:00:00+01:00,67.21,EUR,63.800,MWh
Power,Intraday,Continuous,NL,ID1,H,2021-02-15T16:00:00+01:00,2021-02-15T17:00:00+01:00,78.47,EUR,40.500,MWh
Power,Intraday,Continuous,NL,ID1,H,2021-02-15T17:00:00+01:00,2021-02-15T18:00:00+01:00,63.30,EUR,100.800,MWh
Power,Intraday,Continuous,NL,ID1,H,2021-02-15T18:00:00+01:00,2021-02-15T19:00:00+01:00,124.47,EUR,39.100,MWh
Power,Intraday,Continuous,NL,ID1,H,2021-02-15T19:00:00+01:00,2021-02-15T20:00:00+01:00,73.13,EUR,,MWh
Power,Intraday,Continuous,NL,ID1,H,2021-02-15T20:00:00+01:00,2021-02-15T21:00:00+01:00,80.00,EUR,50.000,MWh
Power,Intraday,Continuous,NL,ID1,H,2021-02-15T21:00:00+01:00,2021-02-15T22:00:00+01:00,61.47,EUR,,MWh
Power,Intraday,Continuous,NL,ID1,H,2021-02-15T22:00:00+01:00,2021-02-15T23:00:00+01:00,62.49,EUR,65.600,MWh
Power,Intraday,Continuous,NL,ID1,H,2021-02-15T23:00:00+01:00,2021-02-16T00:00:00+01:00,52.58,EUR,,MWh
Power,Intraday,Continuous,NL,ID3,H,2021-02-15T00:00:00+01:00,2021-02-15T01:00:00+01:00,33.26,EUR,251.300,MWh
Power,Intraday,Continuous,NL,ID3,H,2021-02-15T01:00:00+01:00,2021-02-15T02:00:00+01:00,31.42,EUR,131.200,MWh
Power,Intraday,Continuous,NL,ID3,H,2021-02-15T02:00:00+01:00,2021-02-15T03:00:00+01:00,29.79,EUR,69.900,MWh
Power,Intraday,Continuous,NL,ID3,H,2021-02-15T03:00:00+01:00,2021-02-15T04:00:00+01:00,32.13,EUR,124.000,MWh
Power,Intraday,Continuous,NL,ID3,H,2021-02-15T04:00:00+01:00,2021-02-15T05:00:00+01:00,33.67,EUR,163.700,MWh
Power,Intraday,Continuous,NL,ID3,H,2021-02-15T05:00:00+01:00,2021-02-15T06:00:00+01:00,13.21,EUR,56.500,MWh
Power,Intraday,Continuous,NL,ID3,H,2021-02-15T06:00:00+01:00,2021-02-15T07:00:00+01:00,41.49,EUR,253.600,MWh
Power,Intraday,Continuous,NL,ID3,H,2021-02-15T07:00:00+01:00,2021-02-15T08:00:00+01:00,47.89,EUR,363.200,MWh
Power,Intraday,Continuous,NL,ID3,H,2021-02-15T08:00:00+01:00,2021-02-15T09:00:00+01:00,57.67,EUR,739.900,MWh
Power,Intraday,Continuous,NL,ID3,H,2021-02-15T09:00:00+01:00,2021-02-15T10:00:00+01:00,58.00,EUR,952.000,MWh
Power,Intraday,Continuous,NL,ID3,H,2021-02-15T10:00:00+01:00,2021-02-15T11:00:00+01:00,54.50,EUR,1328.000,MWh
Power,Intraday,Continuous,NL,ID3,H,2021-02-15T11:00:00+01:00,2021-02-15T12:00:00+01:00,55.29,EUR,1389.400,MWh
Power,Intraday,Continuous,NL,ID3,H,2021-02-15T12:00:00+01:00,2021-02-15T13:00:00+01:00,54.87,EUR,908.900,MWh
Power,Intraday,Continuous,NL,ID3,H,2021-02-15T13:00:00+01:00,2021-02-15T14:00:00+01:00,58.70,EUR,710.000,MWh
Power,Intraday,Continuous,NL,ID3,H,2021-02-15T14:00:00+01:00,2021-02-15T15:00:00+01:00,90.67,EUR,837.800,MWh
Power,Intraday,Continuous,NL,ID3,H,2021-02-15T15:00:00+01:00,2021-02-15T16:00:00+01:00,60.31,EUR,918.700,MWh
Power,Intraday,Continuous,NL,ID3,H,2021-02-15T16:00:00+01:00,2021-02-15T17:00:00+01:00,70.27,EUR,813.500,MWh
Power,Intraday,Continuous,NL,ID3,H,2021-02-15T17:00:00+01:00,2021-02-15T18:00:00+01:00,74.08,EUR,550.600,MWh
Power,Intraday,Continuous,NL,ID3,H,2021-02-15T18:00:00+01:00,2021-02-15T19:00:00+01:00,98.95,EUR,823.400,MWh
Power,Intraday,Continuous,NL,ID3,H,2021-02-15T19:00:00+01:00,2021-02-15T20:00:00+01:00,73.13,EUR,873.000,MWh
Power,Intraday,Continuous,NL,ID3,H,2021-02-15T20:00:00+01:00,2021-02-15T21:00:00+01:00,70.33,EUR,478.500,MWh
Power,Intraday,Continuous,NL,ID3,H,2021-02-15T21:00:00+01:00,2021-02-15T22:00:00+01:00,61.47,EUR,546.600,MWh
Power,Intraday,Continuous,NL,ID3,H,2021-02-15T22:00:00+01:00,2021-02-15T23:00:00+01:00,60.25,EUR,478.900,MWh
Power,Intraday,Continuous,NL,ID3,H,2021-02-15T23:00:00+01:00,2021-02-16T00:00:00+01:00,52.58,EUR,477.800,MWh
Power,Intraday,Continuous,NL,IDFULL,HH,2021-02-15T00:00:00+01:00,2021-02-15T00:30:00+01:00,34.28,EUR,,MWh
Power,Intraday,Continuous,NL,IDFULL,HH,2021-02-15T00:30:00+01:00,2021-02-15T01:00:00+01:00,34.28,EUR,,MWh
Power,Intraday,Continuous,NL,IDFULL,HH,2021-02-15T01:00:00+01:00,2021-02-15T01:30:00+01:00,32.45,EUR,,MWh
Power,Intraday,Continuous,NL,IDFULL,HH,2021-02-15T01:30:00+01:00,2021-02-15T02:00:00+01:00,32.45,EUR,,MWh
Power,Intraday,Continuous,NL,IDFULL,HH,2021-02-15T02:00:00+01:00,2021-02-15T02:30:00+01:00,32.31,EUR,,MWh
Power,Intraday,Continuous,NL,IDFULL,HH,2021-02-15T02:30:00+01:00,2021-02-15T03:00:00+01:00,32.31,EUR,,MWh
Power,Intraday,Continuous,NL,IDFULL,HH,2021-02-15T03:00:00+01:00,2021-02-15T03:30:00+01:00,31.60,EUR,,MWh
Power,Intraday,Continuous,NL,IDFULL,HH,2021-02-15T03:30:00+01:00,2021-02-15T04:00:00+01:00,31.60,EUR,,MWh
Power,Intraday,Continuous,NL,IDFULL,HH,2021-02-15T04:00:00+01:00,2021-02-15T04:30:00+01:00,32.14,EUR,,MWh
Power,Intraday,Continuous,NL,IDFULL,HH,2021-02-15T04:30:00+01:00,2021-02-15T05:00:00+01:00,32.14,EUR,,MWh
Power,Intraday,Continuous,NL,IDFULL,HH,2021-02-15T05:00:00+01:00,2021-02-15T05:30:00+01:00,22.69,EUR,,MWh
Power,Intraday,Continuous,NL,IDFULL,HH,2021-02-15T05:30:00+01:00,2021-02-15T06:00:00+01:00,22.69,EUR,,MWh
Power,Intraday,Continuous,NL,IDFULL,HH,2021-02-15T06:00:00+01:00,2021-02-15T06:30:00+01:00,41.36,EUR,,MWh
Power,Intraday,Continuous,NL,IDFULL,HH,2021-02-15T06:30:00+01:00,2021-02-15T07:00:00+01:00,41.36,EUR,,MWh
Power,Intraday,Continuous,NL,IDFULL,HH,2021-02-15T07:00:00+01:00,2021-02-15T07:30:00+01:00,49.80,EUR,,MWh
Power,Intraday,Continuous,NL,IDFULL,HH,2021-02-15T07:30:00+01:00,2021-02-15T08:00:00+01:00,49.80,EUR,,MWh
Power,Intraday,Continuous,NL,IDFULL,HH,2021-02-15T08:00:00+01:00,2021-02-15T08:30:00+01:00,58.02,EUR,,MWh
Power,Intraday,Continuous,NL,IDFULL,HH,2021-02-15T08:30:00+01:00,2021-02-15T09:00:00+01:00,58.02,EUR,,MWh
Power,Intraday,Continuous,NL,IDFULL,HH,2021-02-15T09:00:00+01:00,2021-02-15T09:30:00+01:00,58.36,EUR,,MWh
Power,Intraday,Continuous,NL,IDFULL,HH,2021-02-15T09:30:00+01:00,2021-02-15T10:00:00+01:00,58.36,EUR,,MWh
Power,Intraday,Continuous,NL,IDFULL,HH,2021-02-15T10:00:00+01:00,2021-02-15T10:30:00+01:00,55.47,EUR,,MWh
Power,Intraday,Continuous,NL,IDFULL,HH,2021-02-15T10:30:00+01:00,2021-02-15T11:00:00+01:00,55.47,EUR,,MWh
Power,Intraday,Continuous,NL,IDFULL,HH,2021-02-15T11:00:00+01:00,2021-02-15T11:30:00+01:00,55.94,EUR,,MWh
Power,Intraday,Continuous,NL,IDFULL,HH,2021-02-15T11:30:00+01:00,2021-02-15T12:00:00+01:00,55.94,EUR,,MWh
Power,Intraday,Continuous,NL,IDFULL,HH,2021-02-15T12:00:00+01:00,2021-02-15T12:30:00+01:00,56.28,EUR,,MWh
Power,Intraday,Continuous,NL,IDFULL,HH,2021-02-15T12:30:00+01:00,2021-02-15T13:00:00+01:00,56.28,EUR,,MWh
Power,Intraday,Continuous,NL,IDFULL,HH,2021-02-15T13:00:00+01:00,2021-02-15T13:30:00+01:00,57.77,EUR,,MWh
Power,Intraday,Continuous,NL,IDFULL,HH,2021-02-15T13:30:00+01:00,2021-02-15T14:00:00+01:00,57.77,EUR,,MWh
Power,Intraday,Continuous,NL,IDFULL,HH,2021-02-15T14:00:00+01:00,2021-02-15T14:30:00+01:00,77.02,EUR,,MWh
Power,Intraday,Continuous,NL,IDFULL,HH,2021-02-15T14:30:00+01:00,2021-02-15T15:00:00+01:00,77.02,EUR,,MWh
Power,Intraday,Continuous,NL,IDFULL,HH,2021-02-15T15:00:00+01:00,2021-02-15T15:30:00+01:00,57.70,EUR,,MWh
Power,Intraday,Continuous,NL,IDFULL,HH,2021-02-15T15:30:00+01:00,2021-02-15T16:00:00+01:00,57.70,EUR,,MWh
Power,Intraday,Continuous,NL,IDFULL,HH,2021-02-15T16:00:00+01:00,2021-02-15T16:30:00+01:00,68.89,EUR,,MWh
Power,Intraday,Continuous,NL,IDFULL,HH,2021-02-15T16:30:00+01:00,2021-02-15T17:00:00+01:00,68.89,EUR,,MWh
Power,Intraday,Continuous,NL,IDFULL,HH,2021-02-15T17:00:00+01:00,2021-02-15T17:30:00+01:00,71.94,EUR,,MWh
Power,Intraday,Continuous,NL,IDFULL,HH,2021-02-15T17:30:00+01:00,2021-02-15T18:00:00+01:00,71.94,EUR,,MWh
Power,Intraday,Continuous,NL,IDFULL,HH,2021-02-15T18:00:00+01:00,2021-02-15T18:30:00+01:00,97.44,EUR,,MWh
Power,Intraday,Continuous,NL,IDFULL,HH,2021-02-15T18:30:00+01:00,2021-02-15T19:00:00+01:00,97.44,EUR,,MWh
Power,Intraday,Continuous,NL,IDFULL,HH,2021-02-15T19:00:00+01:00,2021-02-15T19:30:00+01:00,72.72,EUR,,MWh
Power,Intraday,Continuous,NL,IDFULL,HH,2021-02-15T19:30:00+01:00,2021-02-15T20:00:00+01:00,72.72,EUR,,MWh
Power,Intraday,Continuous,NL,IDFULL,HH,2021-02-15T20:00:00+01:00,2021-02-15T20:30:00+01:00,69.59,EUR,,MWh
Power,Intraday,Continuous,NL,IDFULL,HH,2021-02-15T20:30:00+01:00,2021-02-15T21:00:00+01:00,69.59,EUR,,MWh
Power,Intraday,Continuous,NL,IDFULL,HH,2021-02-15T21:00:00+01:00,2021-02-15T21:30:00+01:00,60.49,EUR,,MWh
Power,Intraday,Continuous,NL,IDFULL,HH,2021-02-15T21:30:00+01:00,2021-02-15T22:00:00+01:00,60.49,EUR,,MWh
Power,Intraday,Continuous,NL,IDFULL,HH,2021-02-15T22:00:00+01:00,2021-02-15T22:30:00+01:00,58.97,EUR,,MWh
Power,Intraday,Continuous,NL,IDFULL,HH,2021-02-15T22:30:00+01:00,2021-02-15T23:00:00+01:00,58.97,EUR,,MWh
Power,Intraday,Continuous,NL,IDFULL,HH,2021-02-15T23:00:00+01:00,2021-02-15T23:30:00+01:00,52.85,EUR,,MWh
Power,Intraday,Continuous,NL,IDFULL,HH,2021-02-15T23:30:00+01:00,2021-02-16T00:00:00+01:00,52.85,EUR,,MWh
Power,Intraday,Continuous,NL,ID1,HH,2021-02-15T00:00:00+01:00,2021-02-15T00:30:00+01:00,34.28,EUR,,MWh
Power,Intraday,Continuous,NL,ID1,HH,2021-02-15T00:30:00+01:00,2021-02-15T01:00:00+01:00,34.28,EUR,,MWh
Power,Intraday,Continuous,NL,ID1,HH,2021-02-15T01:00:00+01:00,2021-02-15T01:30:00+01:00,32.45,EUR,,MWh
Power,Intraday,Continuous,NL,ID1,HH,2021-02-15T01:30:00+01:00,2021-02-15T02:00:00+01:00,32.45,EUR,,MWh
Power,Intraday,Continuous,NL,ID1,HH,2021-02-15T02:00:00+01:00,2021-02-15T02:30:00+01:00,32.31,EUR,,MWh
Power,Intraday,Continuous,NL,ID1,HH,2021-02-15T02:30:00+01:00,2021-02-15T03:00:00+01:00,32.31,EUR,,MWh
Power,Intraday,Continuous,NL,ID1,HH,2021-02-15T03:00:00+01:00,2021-02-15T03:30:00+01:00,31.60,EUR,,MWh
Power,Intraday,Continuous,NL,ID1,HH,2021-02-15T03:30:00+01:00,2021-02-15T04:00:00+01:00,31.60,EUR,,MWh
Power,Intraday,Continuous,NL,ID1,HH,2021-02-15T04:00:00+01:00,2021-02-15T04:30:00+01:00,32.14,EUR,,MWh
Power,Intraday,Continuous,NL,ID1,HH,2021-02-15T04:30:00+01:00,2021-02-15T05:00:00+01:00,32.14,EUR,,MWh
Power,Intraday,Continuous,NL,ID1,HH,2021-02-15T05:00:00+01:00,2021-02-15T05:30:00+01:00,22.69,EUR,,MWh
Power,Intraday,Continuous,NL,ID1,HH,2021-02-15T05:30:00+01:00,2021-02-15T06:00:00+01:00,22.69,EUR,,MWh
Power,Intraday,Continuous,NL,ID1,HH,2021-02-15T06:00:00+01:00,2021-02-15T06:30:00+01:00,41.36,EUR,,MWh
Power,Intraday,Continuous,NL,ID1,HH,2021-02-15T06:30:00+01:00,2021-02-15T07:00:00+01:00,41.36,EUR,,MWh
Power,Intraday,Continuous,NL,ID1,HH,2021-02-15T07:00:00+01:00,2021-02-15T07:30:00+01:00,49.80,EUR,,MWh
Power,Intraday,Continuous,NL,ID1,HH,2021-02-15T07:30:00+01:00,2021-02-15T08:00:00+01:00,49.80,EUR,,MWh
Power,Intraday,Continuous,NL,ID1,HH,2021-02-15T08:00:00+01:00,2021-02-15T08:30:00+01:00,58.02,EUR,,MWh
Power,Intraday,Continuous,NL,ID1,HH,2021-02-15T08:30:00+01:00,2021-02-15T09:00:00+01:00,58.02,EUR,,MWh
Power,Intraday,Continuous,NL,ID1,HH,2021-02-15T09:00:00+01:00,2021-02-15T09:30:00+01:00,58.36,EUR,,MWh
Power,Intraday,Continuous,NL,ID1,HH,2021-02-15T09:30:00+01:00,2021-02-15T10:00:00+01:00,58.36,EUR,,MWh
Power,Intraday,Continuous,NL,ID1,HH,2021-02-15T10:00:00+01:00,2021-02-15T10:30:00+01:00,55.47,EUR,,MWh
Power,Intraday,Continuous,NL,ID1,HH,2021-02-15T10:30:00+01:00,2021-02-15T11:00:00+01:00,55.47,EUR,,MWh
Power,Intraday,Continuous,NL,ID1,HH,2021-02-15T11:00:00+01:00,2021-02-15T11:30:00+01:00,55.94,EUR,,MWh
Power,Intraday,Continuous,NL,ID1,HH,2021-02-15T11:30:00+01:00,2021-02-15T12:00:00+01:00,55.94,EUR,,MWh
Power,Intraday,Continuous,NL,ID1,HH,2021-02-15T12:00:00+01:00,2021-02-15T12:30:00+01:00,56.28,EUR,,MWh
Power,Intraday,Continuous,NL,ID1,HH,2021-02-15T12:30:00+01:00,2021-02-15T13:00:00+01:00,56.28,EUR,,MWh
Power,Intraday,Continuous,NL,ID1,HH,2021-02-15T13:00:00+01:00,2021-02-15T13:30:00+01:00,57.77,EUR,,MWh
Power,Intraday,Continuous,NL,ID1,HH,2021-02-15T13:30:00+01:00,2021-02-15T14:00:00+01:00,57.77,EUR,,MWh
Power,Intraday,Continuous,NL,ID1,HH,2021-02-15T14:00:00+01:00,2021-02-15T14:30:00+01:00,77.02,EUR,,MWh
Power,Intraday,Continuous,NL,ID1,HH,2021-02-15T14:30:00+01:00,2021-02-15T15:00:00+01:00,77.02,EUR,,MWh
Power,Intraday,Continuous,NL,ID1,HH,2021-02-15T15:00:00+01:00,2021-02-15T15:30:00+01:00,57.70,EUR,,MWh
Power,Intraday,Continuous,NL,ID1,HH,2021-02-15T15:30:00+01:00,2021-02-15T16:00:00+01:00,57.70,EUR,,MWh
Power,Intraday,Continuous,NL,ID1,HH,2021-02-15T16:00:00+01:00,2021-02-15T16:30:00+01:00,68.89,EUR,,MWh
Power,Intraday,Continuous,NL,ID1,HH,2021-02-15T16:30:00+01:00,2021-02-15T17:00:00+01:00,68.89,EUR,,MWh
Power,Intraday,Continuous,NL,ID1,HH,2021-02-15T17:00:00+01:00,2021-02-15T17:30:00+01:00,71.94,EUR,,MWh
Power,Intraday,Continuous,NL,ID1,HH,2021-02-15T17:30:00+01:00,2021-02-15T18:00:00+01:00,71.94,EUR,,MWh
Power,Intraday,Continuous,NL,ID1,HH,2021-02-15T18:00:00+01:00,2021-02-15T18:30:00+01:00,97.44,EUR,,MWh
Power,Intraday,Continuous,NL,ID1,HH,2021-02-15T18:30:00+01:00,2021-02-15T19:00:00+01:00,97.44,EUR,,MWh
Power,Intraday,Continuous,NL,ID1,HH,2021-02-15T19:00:00+01:00,2021-02-15T19:30:00+01:00,72.72,EUR,,MWh
Power,Intraday,Continuous,NL,ID1,HH,2021-02-15T19:30:00+01:00,2021-02-15T20:00:00+01:00,72.72,EUR,,MWh
Power,Intraday,Continuous,NL,ID1,HH,2021-02-15T20:00:00+01:00,2021-02-15T20:30:00+01:00,69.59,EUR,,MWh
Power,Intraday,Continuous,NL,ID1,HH,2021-02-15T20:30:00+01:00,2021-02-15T21:00:00+01:00,69.59,EUR,,MWh
Power,Intraday,Continuous,NL,ID1,HH,2021-02-15T21:00:00+01:00,2021-02-15T21:30:00+01:00,60.49,EUR,,MWh
Power,Intraday,Continuous,NL,ID1,HH,2021-02-15T21:30:00+01:00,2021-02-15T22:00:00+01:00,60.49,EUR,,MWh
Power,Intraday,Continuous,NL,ID1,HH,2021-02-15T22:00:00+01:00,2021-02-15T22:30:00+01:00,58.97,EUR,,MWh
Power,Intraday,Continuous,NL,ID1,HH,2021-02-15T22:30:00+01:00,2021-02-15T23:00:00+01:00,58.97,EUR,,MWh
Power,Intraday,Continuous,NL,ID1,HH,2021-02-15T23:00:00+01:00,2021-02-15T23:30:00+01:00,52.85,EUR,,MWh
Power,Intraday,Continuous,NL,ID1,HH,2021-02-15T23:30:00+01:00,2021-02-16T00:00:00+01:00,52.85,EUR,,MWh
Power,Intraday,Continuous,NL,ID3,HH,2021-02-15T00:00:00+01:00,2021-02-15T00:30:00+01:00,34.28,EUR,,MWh
Power,Intraday,Continuous,NL,ID3,HH,2021-02-15T00:30:00+01:00,2021-02-15T01:00:00+01:00,34.28,EUR,,MWh
Power,Intraday,Continuous,NL,ID3,HH,2021-02-15T01:00:00+01:00,2021-02-15T01:30:00+01:00,32.45,EUR,,MWh
Power,Intraday,Continuous,NL,ID3,HH,2021-02-15T01:30:00+01:00,2021-02-15T02:00:00+01:00,32.45,EUR,,MWh
Power,Intraday,Continuous,NL,ID3,HH,2021-02-15T02:00:00+01:00,2021-02-15T02:30:00+01:00,32.31,EUR,,MWh
Power,Intraday,Continuous,NL,ID3,HH,2021-02-15T02:30:00+01:00,2021-02-15T03:00:00+01:00,32.31,EUR,,MWh
Power,Intraday,Continuous,NL,ID3,HH,2021-02-15T03:00:00+01:00,2021-02-15T03:30:00+01:00,31.60,EUR,,MWh
Power,Intraday,Continuous,NL,ID3,HH,2021-02-15T03:30:00+01:00,2021-02-15T04:00:00+01:00,31.60,EUR,,MWh
Power,Intraday,Continuous,NL,ID3,HH,2021-02-15T04:00:00+01:00,2021-02-15T04:30:00+01:00,32.14,EUR,,MWh
Power,Intraday,Continuous,NL,ID3,HH,2021-02-15T04:30:00+01:00,2021-02-15T05:00:00+01:00,32.14,EUR,,MWh
Power,Intraday,Continuous,NL,ID3,HH,2021-02-15T05:00:00+01:00,2021-02-15T05:30:00+01:00,22.69,EUR,,MWh
Power,Intraday,Continuous,NL,ID3,HH,2021-02-15T05:30:00+01:00,2021-02-15T06:00:00+01:00,22.69,EUR,,MWh
Power,Intraday,Continuous,NL,ID3,HH,2021-02-15T06:00:00+01:00,2021-02-15T06:30:00+01:00,41.36,EUR,,MWh
Power,Intraday,Continuous,NL,ID3,HH,2021-02-15T06:30:00+01:00,2021-02-15T07:00:00+01:00,41.36,EUR,,MWh
Power,Intraday,Continuous,NL,ID3,HH,2021-02-15T07:00:00+01:00,2021-02-15T07:30:00+01:00,49.80,EUR,,MWh
Power,Intraday,Continuous,NL,ID3,HH,2021-02-15T07:30:00+01:00,2021-02-15T08:00:00+01:00,49.80,EUR,,MWh
Power,Intraday,Continuous,NL,ID3,HH,2021-02-15T08:00:00+01:00,2021-02-15T08:30:00+01:00,58.02,EUR,,MWh
Power,Intraday,Continuous,NL,ID3,HH,2021-02-15T08:30:00+01:00,2021-02-15T09:00:00+01:00,58.02,EUR,,MWh
Power,Intraday,Continuous,NL,ID3,HH,2021-02-15T09:00:00+01:00,2021-02-15T09:30:00+01:00,58.36,EUR,,MWh
Power,Intraday,Continuous,NL,ID3,HH,2021-02-15T09:30:00+01:00,2021-02-15T10:00:00+01:00,58.36,EUR,,MWh
Power,Intraday,Continuous,NL,ID3,HH,2021-02-15T10:00:00+01:00,2021-02-15T10:30:00+01:00,55.47,EUR,,MWh
Power,Intraday,Continuous,NL,ID3,HH,2021-02-15T10:30:00+01:00,2021-02-15T11:00:00+01:00,55.47,EUR,,MWh
Power,Intraday,Continuous,NL,ID3,HH,2021-02-15T11:00:00+01:00,2021-02-15T11:30:00+01:00,55.94,EUR,,MWh
Power,Intraday,Continuous,NL,ID3,HH,2021-02-15T11:30:00+01:00,2021-02-15T12:00:00+01:00,55.94,EUR,,MWh
Power,Intraday,Continuous,NL,ID3,HH,2021-02-15T12:00:00+01:00,2021-02-15T12:30:00+01:00,56.28,EUR,,MWh
Power,Intraday,Continuous,NL,ID3,HH,2021-02-15T12:30:00+01:00,2021-02-15T13:00:00+01:00,56.28,EUR,,MWh
Power,Intraday,Continuous,NL,ID3,HH,2021-02-15T13:00:00+01:00,2021-02-15T13:30:00+01:00,57.77,EUR,,MWh
Power,Intraday,Continuous,NL,ID3,HH,2021-02-15T13:30:00+01:00,2021-02-15T14:00:00+01:00,57.77,EUR,,MWh
Power,Intraday,Continuous,NL,ID3,HH,2021-02-15T14:00:00+01:00,2021-02-15T14:30:00+01:00,77.02,EUR,,MWh
Power,Intraday,Continuous,NL,ID3,HH,2021-02-15T14:30:00+01:00,2021-02-15T15:00:00+01:00,77.02,EUR,,MWh
Power,Intraday,Continuous,NL,ID3,HH,2021-02-15T15:00:00+01:00,2021-02-15T15:30:00+01:00,57.70,EUR,,MWh
Power,Intraday,Continuous,NL,ID3,HH,2021-02-15T15:30:00+01:00,2021-02-15T16:00:00+01:00,57.70,EUR,,MWh
Power,Intraday,Continuous,NL,ID3,HH,2021-02-15T16:00:00+01:00,2021-02-15T16:30:00+01:00,68.89,EUR,,MWh
Power,Intraday,Continuous,NL,ID3,HH,2021-02-15T16:30:00+01:00,2021-02-15T17:00:00+01:00,68.89,EUR,,MWh
Power,Intraday,Continuous,NL,ID3,HH,2021-02-15T17:00:00+01:00,2021-02-15T17:30:00+01:00,71.94,EUR,,MWh
Power,Intraday,Continuous,NL,ID3,HH,2021-02-15T17:30:00+01:00,2021-02-15T18:00:00+01:00,71.94,EUR,,MWh
Power,Intraday,Continuous,NL,ID3,HH,2021-02-15T18:00:00+01:00,2021-02-15T18:30:00+01:00,97.44,EUR,,MWh
Power,Intraday,Continuous,NL,ID3,HH,2021-02-15T18:30:00+01:00,2021-02-15T19:00:00+01:00,97.44,EUR,,MWh
Power,Intraday,Continuous,NL,ID3,HH,2021-02-15T19:00:00+01:00,2021-02-15T19:30:00+01:00,72.72,EUR,,MWh
Power,Intraday,Continuous,NL,ID3,HH,2021-02-15T19:30:00+01:00,2021-02-15T20:00:00+01:00,72.72,EUR,,MWh
Power,Intraday,Continuous,NL,ID3,HH,2021-02-15T20:00:00+01:00,2021-02-15T20:30:00+01:00,69.59,EUR,,MWh
Power,Intraday,Continuous,NL,ID3,HH,2021-02-15T20:30:00+01:00,2021-02-15T21:00:00+01:00,69.59,EUR,,MWh
Power,Intraday,Continuous,NL,ID3,HH,2021-02-15T21:00:00+01:00,2021-02-15T21:30:00+01:00,60.49,EUR,,MWh
Power,Intraday,Continuous,NL,ID3,HH,2021-02-15T21:30:00+01:00,2021-02-15T22:00:00+01:00,60.49,EUR,,MWh
Power,Intraday,Continuous,NL,ID3,HH,2021-02-15T22:00:00+01:00,2021-02-15T22:30:00+01:00,58.97,EUR,,MWh
Power,Intraday,Continuous,NL,ID3,HH,2021-02-15T22:30:00+01:00,2021-02-15T23:00:00+01:00,58.97,EUR,,MWh
Power,Intraday,Continuous,NL,ID3,HH,2021-02-15T23:00:00+01:00,2021-02-15T23:30:00+01:00,52.85,EUR,,MWh
Power,Intraday,Continuous,NL,ID3,HH,2021-02-15T23:30:00+01:00,2021-02-16T00:00:00+01:00,52.85,EUR,,MWh
Power,Intraday,Continuous,NL,IDFULL,QH,2021-02-15T00:00:00+01:00,2021-02-15T00:15:00+01:00,42.03,EUR,10.280,MWh
Power,Intraday,Continuous,NL,IDFULL,QH,2021-02-15T00:15:00+01:00,2021-02-15T00:30:00+01:00,41.79,EUR,8.430,MWh
Power,Intraday,Continuous,NL,IDFULL,QH,2021-02-15T00:30:00+01:00,2021-02-15T00:45:00+01:00,32.17,EUR,4.250,MWh
Power,Intraday,Continuous,NL,IDFULL,QH,2021-02-15T00:45:00+01:00,2021-02-15T01:00:00+01:00,24.40,EUR,6.330,MWh
Power,Intraday,Continuous,NL,IDFULL,QH,2021-02-15T01:00:00+01:00,2021-02-15T01:15:00+01:00,38.15,EUR,10.750,MWh
Power,Intraday,Continuous,NL,IDFULL,QH,2021-02-15T01:15:00+01:00,2021-02-15T01:30:00+01:00,31.41,EUR,10.850,MWh
Power,Intraday,Continuous,NL,IDFULL,QH,2021-02-15T01:30:00+01:00,2021-02-15T01:45:00+01:00,30.47,EUR,10.650,MWh
Power,Intraday,Continuous,NL,IDFULL,QH,2021-02-15T01:45:00+01:00,2021-02-15T02:00:00+01:00,26.67,EUR,10.200,MWh
Power,Intraday,Continuous,NL,IDFULL,QH,2021-02-15T02:00:00+01:00,2021-02-15T02:15:00+01:00,34.36,EUR,14.850,MWh
Power,Intraday,Continuous,NL,IDFULL,QH,2021-02-15T02:15:00+01:00,2021-02-15T02:30:00+01:00,31.79,EUR,16.930,MWh
Power,Intraday,Continuous,NL,IDFULL,QH,2021-02-15T02:30:00+01:00,2021-02-15T02:45:00+01:00,27.74,EUR,14.530,MWh
Power,Intraday,Continuous,NL,IDFULL,QH,2021-02-15T02:45:00+01:00,2021-02-15T03:00:00+01:00,27.74,EUR,15.200,MWh
Power,Intraday,Continuous,NL,IDFULL,QH,2021-02-15T03:00:00+01:00,2021-02-15T03:15:00+01:00,35.10,EUR,16.650,MWh
Power,Intraday,Continuous,NL,IDFULL,QH,2021-02-15T03:15:00+01:00,2021-02-15T03:30:00+01:00,33.43,EUR,24.980,MWh
Power,Intraday,Continuous,NL,IDFULL,QH,2021-02-15T03:30:00+01:00,2021-02-15T03:45:00+01:00,30.12,EUR,12.780,MWh
Power,Intraday,Continuous,NL,IDFULL,QH,2021-02-15T03:45:00+01:00,2021-02-15T04:00:00+01:00,26.09,EUR,11.680,MWh
Power,Intraday,Continuous,NL,IDFULL,QH,2021-02-15T04:00:00+01:00,2021-02-15T04:15:00+01:00,24.62,EUR,14.350,MWh
Power,Intraday,Continuous,NL,IDFULL,QH,2021-02-15T04:15:00+01:00,2021-02-15T04:30:00+01:00,31.11,EUR,13.930,MWh
Power,Intraday,Continuous,NL,IDFULL,QH,2021-02-15T04:30:00+01:00,2021-02-15T04:45:00+01:00,33.33,EUR,14.180,MWh
Power,Intraday,Continuous,NL,IDFULL,QH,2021-02-15T04:45:00+01:00,2021-02-15T05:00:00+01:00,34.83,EUR,16.280,MWh
Power,Intraday,Continuous,NL,IDFULL,QH,2021-02-15T05:00:00+01:00,2021-02-15T05:15:00+01:00,22.69,EUR,,MWh
Power,Intraday,Continuous,NL,IDFULL,QH,2021-02-15T05:15:00+01:00,2021-02-15T05:30:00+01:00,22.69,EUR,,MWh
Power,Intraday,Continuous,NL,IDFULL,QH,2021-02-15T05:30:00+01:00,2021-02-15T05:45:00+01:00,22.69,EUR,,MWh
Power,Intraday,Continuous,NL,IDFULL,QH,2021-02-15T05:45:00+01:00,2021-02-15T06:00:00+01:00,22.69,EUR,,MWh
Power,Intraday,Continuous,NL,IDFULL,QH,2021-02-15T06:00:00+01:00,2021-02-15T06:15:00+01:00,21.46,EUR,21.950,MWh
Power,Intraday,Continuous,NL,IDFULL,QH,2021-02-15T06:15:00+01:00,2021-02-15T06:30:00+01:00,33.18,EUR,8.600,MWh
Power,Intraday,Continuous,NL,IDFULL,QH,2021-02-15T06:30:00+01:00,2021-02-15T06:45:00+01:00,55.40,EUR,,MWh
Power,Intraday,Continuous,NL,IDFULL,QH,2021-02-15T06:45:00+01:00,2021-02-15T07:00:00+01:00,55.40,EUR,,MWh
Power,Intraday,Continuous,NL,IDFULL,QH,2021-02-15T07:00:00+01:00,2021-02-15T07:15:00+01:00,43.33,EUR,,MWh
Power,Intraday,Continuous,NL,IDFULL,QH,2021-02-15T07:15:00+01:00,2021-02-15T07:30:00+01:00,43.33,EUR,,MWh
Power,Intraday,Continuous,NL,IDFULL,QH,2021-02-15T07:30:00+01:00,2021-02-15T07:45:00+01:00,43.33,EUR,,MWh
Power,Intraday,Continuous,NL,IDFULL,QH,2021-02-15T07:45:00+01:00,2021-02-15T08:00:00+01:00,69.20,EUR,5.030,MWh
Power,Intraday,Continuous,NL,IDFULL,QH,2021-02-15T08:00:00+01:00,2021-02-15T08:15:00+01:00,84.69,EUR,5.430,MWh
Power,Intraday,Continuous,NL,IDFULL,QH,2021-02-15T08:15:00+01:00,2021-02-15T08:30:00+01:00,49.92,EUR,13.680,MWh
Power,Intraday,Continuous,NL,IDFULL,QH,2021-02-15T08:30:00+01:00,2021-02-15T08:45:00+01:00,66.73,EUR,10.950,MWh
Power,Intraday,Continuous,NL,IDFULL,QH,2021-02-15T08:45:00+01:00,2021-02-15T09:00:00+01:00,61.73,EUR,4.580,MWh
Power,Intraday,Continuous,NL,IDFULL,QH,2021-02-15T09:00:00+01:00,2021-02-15T09:15:00+01:00,56.50,EUR,25.730,MWh
Power,Intraday,Continuous,NL,IDFULL,QH,2021-02-15T09:15:00+01:00,2021-02-15T09:30:00+01:00,55.20,EUR,9.600,MWh
Power,Intraday,Continuous,NL,IDFULL,QH,2021-02-15T09:30:00+01:00,2021-02-15T09:45:00+01:00,54.90,EUR,13.950,MWh
Power,Intraday,Continuous,NL,IDFULL,QH,2021-02-15T09:45:00+01:00,2021-02-15T10:00:00+01:00,51.31,EUR,41.130,MWh
Power,Intraday,Continuous,NL,IDFULL,QH,2021-02-15T10:00:00+01:00,2021-02-15T10:15:00+01:00,52.92,EUR,58.200,MWh
Power,Intraday,Continuous,NL,IDFULL,QH,2021-02-15T10:15:00+01:00,2021-02-15T10:30:00+01:00,48.23,EUR,25.380,MWh
Power,Intraday,Continuous,NL,IDFULL,QH,2021-02-15T10:30:00+01:00,2021-02-15T10:45:00+01:00,52.14,EUR,24.830,MWh
Power,Intraday,Continuous,NL,IDFULL,QH,2021-02-15T10:45:00+01:00,2021-02-15T11:00:00+01:00,53.09,EUR,34.180,MWh
Power,Intraday,Continuous,NL,IDFULL,QH,2021-02-15T11:00:00+01:00,2021-02-15T11:15:00+01:00,43.65,EUR,65.380,MWh
Power,Intraday,Continuous,NL,IDFULL,QH,2021-02-15T11:15:00+01:00,2021-02-15T11:30:00+01:00,50.86,EUR,19.080,MWh
Power,Intraday,Continuous,NL,IDFULL,QH,2021-02-15T11:30:00+01:00,2021-02-15T11:45:00+01:00,63.09,EUR,19.550,MWh
Power,Intraday,Continuous,NL,IDFULL,QH,2021-02-15T11:45:00+01:00,2021-02-15T12:00:00+01:00,65.07,EUR,34.150,MWh
Power,Intraday,Continuous,NL,IDFULL,QH,2021-02-15T12:00:00+01:00,2021-02-15T12:15:00+01:00,59.53,EUR,21.050,MWh
Power,Intraday,Continuous,NL,IDFULL,QH,2021-02-15T12:15:00+01:00,2021-02-15T12:30:00+01:00,55.84,EUR,5.280,MWh
Power,Intraday,Continuous,NL,IDFULL,QH,2021-02-15T12:30:00+01:00,2021-02-15T12:45:00+01:00,57.74,EUR,15.700,MWh
Power,Intraday,Continuous,NL,IDFULL,QH,2021-02-15T12:45:00+01:00,2021-02-15T13:00:00+01:00,53.25,EUR,40.600,MWh
Power,Intraday,Continuous,NL,IDFULL,QH,2021-02-15T13:00:00+01:00,2021-02-15T13:15:00+01:00,67.28,EUR,12.130,MWh
Power,Intraday,Continuous,NL,IDFULL,QH,2021-02-15T13:15:00+01:00,2021-02-15T13:30:00+01:00,68.63,EUR,21.430,MWh
Power,Intraday,Continuous,NL,IDFULL,QH,2021-02-15T13:30:00+01:00,2021-02-15T13:45:00+01:00,61.22,EUR,16.650,MWh
Power,Intraday,Continuous,NL,IDFULL,QH,2021-02-15T13:45:00+01:00,2021-02-15T14:00:00+01:00,49.55,EUR,16.630,MWh
Power,Intraday,Continuous,NL,IDFULL,QH,2021-02-15T14:00:00+01:00,2021-02-15T14:15:00+01:00,64.75,EUR,,MWh
Power,Intraday,Continuous,NL,IDFULL,QH,2021-02-15T14:15:00+01:00,2021-02-15T14:30:00+01:00,66.84,EUR,3.330,MWh
Power,Intraday,Continuous,NL,IDFULL,QH,2021-02-15T14:30:00+01:00,2021-02-15T14:45:00+01:00,111.74,EUR,3.180,MWh
Power,Intraday,Continuous,NL,IDFULL,QH,2021-02-15T14:45:00+01:00,2021-02-15T15:00:00+01:00,64.75,EUR,,MWh
Power,Intraday,Continuous,NL,IDFULL,QH,2021-02-15T15:00:00+01:00,2021-02-15T15:15:00+01:00,59.64,EUR,16.500,MWh
Power,Intraday,Continuous,NL,IDFULL,QH,2021-02-15T15:15:00+01:00,2021-02-15T15:30:00+01:00,58.70,EUR,13.950,MWh
Power,Intraday,Continuous,NL,IDFULL,QH,2021-02-15T15:30:00+01:00,2021-02-15T15:45:00+01:00,63.05,EUR,3.750,MWh
Power,Intraday,Continuous,NL,IDFULL,QH,2021-02-15T15:45:00+01:00,2021-02-15T16:00:00+01:00,55.75,EUR,2.800,MWh
Power,Intraday,Continuous,NL,IDFULL,QH,2021-02-15T16:00:00+01:00,2021-02-15T16:15:00+01:00,52.34,EUR,35.600,MWh
Power,Intraday,Continuous,NL,IDFULL,QH,2021-02-15T16:15:00+01:00,2021-02-15T16:30:00+01:00,62.01,EUR,15.930,MWh
Power,Intraday,Continuous,NL,IDFULL,QH,2021-02-15T16:30:00+01:00,2021-02-15T16:45:00+01:00,71.59,EUR,40.930,MWh
Power,Intraday,Continuous,NL,IDFULL,QH,2021-02-15T16:45:00+01:00,2021-02-15T17:00:00+01:00,78.60,EUR,56.400,MWh
Power,Intraday,Continuous,NL,IDFULL,QH,2021-02-15T17:00:00+01:00,2021-02-15T17:15:00+01:00,48.08,EUR,39.130,MWh
Power,Intraday,Continuous,NL,IDFULL,QH,2021-02-15T17:15:00+01:00,2021-02-15T17:30:00+01:00,71.69,EUR,18.850,MWh
Power,Intraday,Continuous,NL,IDFULL,QH,2021-02-15T17:30:00+01:00,2021-02-15T17:45:00+01:00,73.76,EUR,54.830,MWh
Power,Intraday,Continuous,NL,IDFULL,QH,2021-02-15T17:45:00+01:00,2021-02-15T18:00:00+01:00,109.46,EUR,79.880,MWh
Power,Intraday,Continuous,NL,IDFULL,QH,2021-02-15T18:00:00+01:00,2021-02-15T18:15:00+01:00,97.44,EUR,,MWh
Power,Intraday,Continuous,NL,IDFULL,QH,2021-02-15T18:15:00+01:00,2021-02-15T18:30:00+01:00,97.44,EUR,,MWh
Power,Intraday,Continuous,NL,IDFULL,QH,2021-02-15T18:30:00+01:00,2021-02-15T18:45:00+01:00,97.44,EUR,,MWh
Power,Intraday,Continuous,NL,IDFULL,QH,2021-02-15T18:45:00+01:00,2021-02-15T19:00:00+01:00,97.44,EUR,,MWh
Power,Intraday,Continuous,NL,IDFULL,QH,2021-02-15T19:00:00+01:00,2021-02-15T19:15:00+01:00,72.58,EUR,,MWh
Power,Intraday,Continuous,NL,IDFULL,QH,2021-02-15T19:15:00+01:00,2021-02-15T19:30:00+01:00,73.15,EUR,14.100,MWh
Power,Intraday,Continuous,NL,IDFULL,QH,2021-02-15T19:30:00+01:00,2021-02-15T19:45:00+01:00,72.58,EUR,,MWh
Power,Intraday,Continuous,NL,IDFULL,QH,2021-02-15T19:45:00+01:00,2021-02-15T20:00:00+01:00,72.58,EUR,,MWh
Power,Intraday,Continuous,NL,IDFULL,QH,2021-02-15T20:00:00+01:00,2021-02-15T20:15:00+01:00,69.59,EUR,,MWh
Power,Intraday,Continuous,NL,IDFULL,QH,2021-02-15T20:15:00+01:00,2021-02-15T20:30:00+01:00,69.59,EUR,,MWh
Power,Intraday,Continuous,NL,IDFULL,QH,2021-02-15T20:30:00+01:00,2021-02-15T20:45:00+01:00,69.59,EUR,,MWh
Power,Intraday,Continuous,NL,IDFULL,QH,2021-02-15T20:45:00+01:00,2021-02-15T21:00:00+01:00,69.59,EUR,,MWh
Power,Intraday,Continuous,NL,IDFULL,QH,2021-02-15T21:00:00+01:00,2021-02-15T21:15:00+01:00,71.91,EUR,59.900,MWh
Power,Intraday,Continuous,NL,IDFULL,QH,2021-02-15T21:15:00+01:00,2021-02-15T21:30:00+01:00,64.99,EUR,29.250,MWh
Power,Intraday,Continuous,NL,IDFULL,QH,2021-02-15T21:30:00+01:00,2021-02-15T21:45:00+01:00,55.54,EUR,20.900,MWh
Power,Intraday,Continuous,NL,IDFULL,QH,2021-02-15T21:45:00+01:00,2021-02-15T22:00:00+01:00,48.20,EUR,23.180,MWh
Power,Intraday,Continuous,NL,IDFULL,QH,2021-02-15T22:00:00+01:00,2021-02-15T22:15:00+01:00,67.00,EUR,64.680,MWh
Power,Intraday,Continuous,NL,IDFULL,QH,2021-02-15T22:15:00+01:00,2021-02-15T22:30:00+01:00,60.21,EUR,37.100,MWh
Power,Intraday,Continuous,NL,IDFULL,QH,2021-02-15T22:30:00+01:00,2021-02-15T22:45:00+01:00,63.16,EUR,32.880,MWh
Power,Intraday,Continuous,NL,IDFULL,QH,2021-02-15T22:45:00+01:00,2021-02-15T23:00:00+01:00,48.62,EUR,24.630,MWh
Power,Intraday,Continuous,NL,IDFULL,QH,2021-02-15T23:00:00+01:00,2021-02-15T23:15:00+01:00,64.69,EUR,64.000,MWh
Power,Intraday,Continuous,NL,IDFULL,QH,2021-02-15T23:15:00+01:00,2021-02-15T23:30:00+01:00,54.91,EUR,59.430,MWh
Power,Intraday,Continuous,NL,IDFULL,QH,2021-02-15T23:30:00+01:00,2021-02-15T23:45:00+01:00,48.40,EUR,18.180,MWh
Power,Intraday,Continuous,NL,IDFULL,QH,2021-02-15T23:45:00+01:00,2021-02-16T00:00:00+01:00,46.47,EUR,29.200,MWh
Power,Intraday,Continuous,NL,ID1,QH,2021-02-15T00:00:00+01:00,2021-02-15T00:15:00+01:00,41.79,EUR,,MWh
Power,Intraday,Continuous,NL,ID1,QH,2021-02-15T00:15:00+01:00,2021-02-15T00:30:00+01:00,41.46,EUR,,MWh
Power,Intraday,Continuous,NL,ID1,QH,2021-02-15T00:30:00+01:00,2021-02-15T00:45:00+01:00,32.17,EUR,,MWh
Power,Intraday,Continuous,NL,ID1,QH,2021-02-15T00:45:00+01:00,2021-02-15T01:00:00+01:00,23.60,EUR,,MWh
Power,Intraday,Continuous,NL,ID1,QH,2021-02-15T01:00:00+01:00,2021-02-15T01:15:00+01:00,38.74,EUR,,MWh
Power,Intraday,Continuous,NL,ID1,QH,2021-02-15T01:15:00+01:00,2021-02-15T01:30:00+01:00,31.27,EUR,,MWh
Power,Intraday,Continuous,NL,ID1,QH,2021-02-15T01:30:00+01:00,2021-02-15T01:45:00+01:00,28.14,EUR,,MWh
Power,Intraday,Continuous,NL,ID1,QH,2021-02-15T01:45:00+01:00,2021-02-15T02:00:00+01:00,26.67,EUR,,MWh
Power,Intraday,Continuous,NL,ID1,QH,2021-02-15T02:00:00+01:00,2021-02-15T02:15:00+01:00,34.37,EUR,,MWh
Power,Intraday,Continuous,NL,ID1,QH,2021-02-15T02:15:00+01:00,2021-02-15T02:30:00+01:00,31.92,EUR,,MWh
Power,Intraday,Continuous,NL,ID1,QH,2021-02-15T02:30:00+01:00,2021-02-15T02:45:00+01:00,27.95,EUR,,MWh
Power,Intraday,Continuous,NL,ID1,QH,2021-02-15T02:45:00+01:00,2021-02-15T03:00:00+01:00,26.54,EUR,,MWh
Power,Intraday,Continuous,NL,ID1,QH,2021-02-15T03:00:00+01:00,2021-02-15T03:15:00+01:00,35.75,EUR,,MWh
Power,Intraday,Continuous,NL,ID1,QH,2021-02-15T03:15:00+01:00,2021-02-15T03:30:00+01:00,33.83,EUR,,MWh
Power,Intraday,Continuous,NL,ID1,QH,2021-02-15T03:30:00+01:00,2021-02-15T03:45:00+01:00,29.95,EUR,,MWh
Power,Intraday,Continuous,NL,ID1,QH,2021-02-15T03:45:00+01:00,2021-02-15T04:00:00+01:00,25.31,EUR,,MWh
Power,Intraday,Continuous,NL,ID1,QH,2021-02-15T04:00:00+01:00,2021-02-15T04:15:00+01:00,26.10,EUR,,MWh
Power,Intraday,Continuous,NL,ID1,QH,2021-02-15T04:15:00+01:00,2021-02-15T04:30:00+01:00,35.87,EUR,,MWh
Power,Intraday,Continuous,NL,ID1,QH,2021-02-15T04:30:00+01:00,2021-02-15T04:45:00+01:00,37.78,EUR,,MWh
Power,Intraday,Continuous,NL,ID1,QH,2021-02-15T04:45:00+01:00,2021-02-15T05:00:00+01:00,38.03,EUR,,MWh
Power,Intraday,Continuous,NL,ID1,QH,2021-02-15T05:00:00+01:00,2021-02-15T05:15:00+01:00,22.69,EUR,,MWh
Power,Intraday,Continuous,NL,ID1,QH,2021-02-15T05:15:00+01:00,2021-02-15T05:30:00+01:00,22.69,EUR,,MWh
Power,Intraday,Continuous,NL,ID1,QH,2021-02-15T05:30:00+01:00,2021-02-15T05:45:00+01:00,22.69,EUR,,MWh
Power,Intraday,Continuous,NL,ID1,QH,2021-02-15T05:45:00+01:00,2021-02-15T06:00:00+01:00,22.69,EUR,,MWh
Power,Intraday,Continuous,NL,ID1,QH,2021-02-15T06:00:00+01:00,2021-02-15T06:15:00+01:00,18.61,EUR,,MWh
Power,Intraday,Continuous,NL,ID1,QH,2021-02-15T06:15:00+01:00,2021-02-15T06:30:00+01:00,33.18,EUR,,MWh
Power,Intraday,Continuous,NL,ID1,QH,2021-02-15T06:30:00+01:00,2021-02-15T06:45:00+01:00,55.40,EUR,,MWh
Power,Intraday,Continuous,NL,ID1,QH,2021-02-15T06:45:00+01:00,2021-02-15T07:00:00+01:00,55.40,EUR,,MWh
Power,Intraday,Continuous,NL,ID1,QH,2021-02-15T07:00:00+01:00,2021-02-15T07:15:00+01:00,43.33,EUR,,MWh
Power,Intraday,Continuous,NL,ID1,QH,2021-02-15T07:15:00+01:00,2021-02-15T07:30:00+01:00,43.33,EUR,,MWh
Power,Intraday,Continuous,NL,ID1,QH,2021-02-15T07:30:00+01:00,2021-02-15T07:45:00+01:00,43.33,EUR,,MWh
Power,Intraday,Continuous,NL,ID1,QH,2021-02-15T07:45:00+01:00,2021-02-15T08:00:00+01:00,69.20,EUR,5.030,MWh
Power,Intraday,Continuous,NL,ID1,QH,2021-02-15T08:00:00+01:00,2021-02-15T08:15:00+01:00,89.62,EUR,4.750,MWh
Power,Intraday,Continuous,NL,ID1,QH,2021-02-15T08:15:00+01:00,2021-02-15T08:30:00+01:00,48.90,EUR,12.500,MWh
Power,Intraday,Continuous,NL,ID1,QH,2021-02-15T08:30:00+01:00,2021-02-15T08:45:00+01:00,66.97,EUR,10.280,MWh
Power,Intraday,Continuous,NL,ID1,QH,2021-02-15T08:45:00+01:00,2021-02-15T09:00:00+01:00,60.97,EUR,3.900,MWh
Power,Intraday,Continuous,NL,ID1,QH,2021-02-15T09:00:00+01:00,2021-02-15T09:15:00+01:00,56.29,EUR,,MWh
Power,Intraday,Continuous,NL,ID1,QH,2021-02-15T09:15:00+01:00,2021-02-15T09:30:00+01:00,54.27,EUR,,MWh
Power,Intraday,Continuous,NL,ID1,QH,2021-02-15T09:30:00+01:00,2021-02-15T09:45:00+01:00,53.43,EUR,,MWh
Power,Intraday,Continuous,NL,ID1,QH,2021-02-15T09:45:00+01:00,2021-02-15T10:00:00+01:00,50.85,EUR,,MWh
Power,Intraday,Continuous,NL,ID1,QH,2021-02-15T10:00:00+01:00,2021-02-15T10:15:00+01:00,52.95,EUR,,MWh
Power,Intraday,Continuous,NL,ID1,QH,2021-02-15T10:15:00+01:00,2021-02-15T10:30:00+01:00,47.83,EUR,,MWh
Power,Intraday,Continuous,NL,ID1,QH,2021-02-15T10:30:00+01:00,2021-02-15T10:45:00+01:00,30.02,EUR,4.880,MWh
Power,Intraday,Continuous,NL,ID1,QH,2021-02-15T10:45:00+01:00,2021-02-15T11:00:00+01:00,30.02,EUR,4.880,MWh
Power,Intraday,Continuous,NL,ID1,QH,2021-02-15T11:00:00+01:00,2021-02-15T11:15:00+01:00,55.52,EUR,2.630,MWh
Power,Intraday,Continuous,NL,ID1,QH,2021-02-15T11:15:00+01:00,2021-02-15T11:30:00+01:00,50.86,EUR,,MWh
Power,Intraday,Continuous,NL,ID1,QH,2021-02-15T11:30:00+01:00,2021-02-15T11:45:00+01:00,63.12,EUR,,MWh
Power,Intraday,Continuous,NL,ID1,QH,2021-02-15T11:45:00+01:00,2021-02-15T12:00:00+01:00,64.92,EUR,,MWh
Power,Intraday,Continuous,NL,ID1,QH,2021-02-15T12:00:00+01:00,2021-02-15T12:15:00+01:00,59.48,EUR,,MWh
Power,Intraday,Continuous,NL,ID1,QH,2021-02-15T12:15:00+01:00,2021-02-15T12:30:00+01:00,55.67,EUR,,MWh
Power,Intraday,Continuous,NL,ID1,QH,2021-02-15T12:30:00+01:00,2021-02-15T12:45:00+01:00,57.70,EUR,,MWh
Power,Intraday,Continuous,NL,ID1,QH,2021-02-15T12:45:00+01:00,2021-02-15T13:00:00+01:00,53.04,EUR,,MWh
Power,Intraday,Continuous,NL,ID1,QH,2021-02-15T13:00:00+01:00,2021-02-15T13:15:00+01:00,66.23,EUR,,MWh
Power,Intraday,Continuous,NL,ID1,QH,2021-02-15T13:15:00+01:00,2021-02-15T13:30:00+01:00,69.19,EUR,,MWh
Power,Intraday,Continuous,NL,ID1,QH,2021-02-15T13:30:00+01:00,2021-02-15T13:45:00+01:00,63.53,EUR,,MWh
Power,Intraday,Continuous,NL,ID1,QH,2021-02-15T13:45:00+01:00,2021-02-15T14:00:00+01:00,50.46,EUR,,MWh
Power,Intraday,Continuous,NL,ID1,QH,2021-02-15T14:00:00+01:00,2021-02-15T14:15:00+01:00,64.75,EUR,,MWh
Power,Intraday,Continuous,NL,ID1,QH,2021-02-15T14:15:00+01:00,2021-02-15T14:30:00+01:00,66.84,EUR,3.330,MWh
Power,Intraday,Continuous,NL,ID1,QH,2021-02-15T14:30:00+01:00,2021-02-15T14:45:00+01:00,111.74,EUR,3.180,MWh
Power,Intraday,Continuous,NL,ID1,QH,2021-02-15T14:45:00+01:00,2021-02-15T15:00:00+01:00,64.75,EUR,,MWh
Power,Intraday,Continuous,NL,ID1,QH,2021-02-15T15:00:00+01:00,2021-02-15T15:15:00+01:00,59.64,EUR,,MWh
Power,Intraday,Continuous,NL,ID1,QH,2021-02-15T15:15:00+01:00,2021-02-15T15:30:00+01:00,58.70,EUR,,MWh
Power,Intraday,Continuous,NL,ID1,QH,2021-02-15T15:30:00+01:00,2021-02-15T15:45:00+01:00,63.05,EUR,,MWh
Power,Intraday,Continuous,NL,ID1,QH,2021-02-15T15:45:00+01:00,2021-02-15T16:00:00+01:00,55.75,EUR,,MWh
Power,Intraday,Continuous,NL,ID1,QH,2021-02-15T16:00:00+01:00,2021-02-15T16:15:00+01:00,55.85,EUR,,MWh
Power,Intraday,Continuous,NL,ID1,QH,2021-02-15T16:15:00+01:00,2021-02-15T16:30:00+01:00,62.01,EUR,,MWh
Power,Intraday,Continuous,NL,ID1,QH,2021-02-15T16:30:00+01:00,2021-02-15T16:45:00+01:00,71.59,EUR,,MWh
Power,Intraday,Continuous,NL,ID1,QH,2021-02-15T16:45:00+01:00,2021-02-15T17:00:00+01:00,78.60,EUR,,MWh
Power,Intraday,Continuous,NL,ID1,QH,2021-02-15T17:00:00+01:00,2021-02-15T17:15:00+01:00,48.52,EUR,,MWh
Power,Intraday,Continuous,NL,ID1,QH,2021-02-15T17:15:00+01:00,2021-02-15T17:30:00+01:00,73.83,EUR,,MWh
Power,Intraday,Continuous,NL,ID1,QH,2021-02-15T17:30:00+01:00,2021-02-15T17:45:00+01:00,75.01,EUR,,MWh
Power,Intraday,Continuous,NL,ID1,QH,2021-02-15T17:45:00+01:00,2021-02-15T18:00:00+01:00,116.89,EUR,,MWh
Power,Intraday,Continuous,NL,ID1,QH,2021-02-15T18:00:00+01:00,2021-02-15T18:15:00+01:00,97.44,EUR,,MWh
Power,Intraday,Continuous,NL,ID1,QH,2021-02-15T18:15:00+01:00,2021-02-15T18:30:00+01:00,97.44,EUR,,MWh
Power,Intraday,Continuous,NL,ID1,QH,2021-02-15T18:30:00+01:00,2021-02-15T18:45:00+01:00,97.44,EUR,,MWh
Power,Intraday,Continuous,NL,ID1,QH,2021-02-15T18:45:00+01:00,2021-02-15T19:00:00+01:00,97.44,EUR,,MWh
Power,Intraday,Continuous,NL,ID1,QH,2021-02-15T19:00:00+01:00,2021-02-15T19:15:00+01:00,72.58,EUR,,MWh
Power,Intraday,Continuous,NL,ID1,QH,2021-02-15T19:15:00+01:00,2021-02-15T19:30:00+01:00,73.15,EUR,14.100,MWh
Power,Intraday,Continuous,NL,ID1,QH,2021-02-15T19:30:00+01:00,2021-02-15T19:45:00+01:00,72.58,EUR,,MWh
Power,Intraday,Continuous,NL,ID1,QH,2021-02-15T19:45:00+01:00,2021-02-15T20:00:00+01:00,72.58,EUR,,MWh
Power,Intraday,Continuous,NL,ID1,QH,2021-02-15T20:00:00+01:00,2021-02-15T20:15:00+01:00,69.59,EUR,,MWh
Power,Intraday,Continuous,NL,ID1,QH,2021-02-15T20:15:00+01:00,2021-02-15T20:30:00+01:00,69.59,EUR,,MWh
Power,Intraday,Continuous,NL,ID1,QH,2021-02-15T20:30:00+01:00,2021-02-15T20:45:00+01:00,69.59,EUR,,MWh
Power,Intraday,Continuous,NL,ID1,QH,2021-02-15T20:45:00+01:00,2021-02-15T21:00:00+01:00,69.59,EUR,,MWh
Power,Intraday,Continuous,NL,ID1,QH,2021-02-15T21:00:00+01:00,2021-02-15T21:15:00+01:00,72.15,EUR,,MWh
Power,Intraday,Continuous,NL,ID1,QH,2021-02-15T21:15:00+01:00,2021-02-15T21:30:00+01:00,61.96,EUR,,MWh
Power,Intraday,Continuous,NL,ID1,QH,2021-02-15T21:30:00+01:00,2021-02-15T21:45:00+01:00,57.58,EUR,,MWh
Power,Intraday,Continuous,NL,ID1,QH,2021-02-15T21:45:00+01:00,2021-02-15T22:00:00+01:00,51.25,EUR,,MWh
Power,Intraday,Continuous,NL,ID1,QH,2021-02-15T22:00:00+01:00,2021-02-15T22:15:00+01:00,67.43,EUR,,MWh
Power,Intraday,Continuous,NL,ID1,QH,2021-02-15T22:15:00+01:00,2021-02-15T22:30:00+01:00,58.94,EUR,,MWh
Power,Intraday,Continuous,NL,ID1,QH,2021-02-15T22:30:00+01:00,2021-02-15T22:45:00+01:00,66.19,EUR,,MWh
Power,Intraday,Continuous,NL,ID1,QH,2021-02-15T22:45:00+01:00,2021-02-15T23:00:00+01:00,51.50,EUR,,MWh
Power,Intraday,Continuous,NL,ID1,QH,2021-02-15T23:00:00+01:00,2021-02-15T23:15:00+01:00,65.16,EUR,,MWh
Power,Intraday,Continuous,NL,ID1,QH,2021-02-15T23:15:00+01:00,2021-02-15T23:30:00+01:00,55.34,EUR,,MWh
Power,Intraday,Continuous,NL,ID1,QH,2021-02-15T23:30:00+01:00,2021-02-15T23:45:00+01:00,48.24,EUR,,MWh
Power,Intraday,Continuous,NL,ID1,QH,2021-02-15T23:45:00+01:00,2021-02-16T00:00:00+01:00,47.51,EUR,,MWh
Power,Intraday,Continuous,NL,ID3,QH,2021-02-15T00:00:00+01:00,2021-02-15T00:15:00+01:00,41.79,EUR,9.530,MWh
Power,Intraday,Continuous,NL,ID3,QH,2021-02-15T00:15:00+01:00,2021-02-15T00:30:00+01:00,41.46,EUR,6.930,MWh
Power,Intraday,Continuous,NL,ID3,QH,2021-02-15T00:30:00+01:00,2021-02-15T00:45:00+01:00,32.17,EUR,,MWh
Power,Intraday,Continuous,NL,ID3,QH,2021-02-15T00:45:00+01:00,2021-02-15T01:00:00+01:00,23.60,EUR,4.350,MWh
Power,Intraday,Continuous,NL,ID3,QH,2021-02-15T01:00:00+01:00,2021-02-15T01:15:00+01:00,38.74,EUR,5.950,MWh
Power,Intraday,Continuous,NL,ID3,QH,2021-02-15T01:15:00+01:00,2021-02-15T01:30:00+01:00,31.27,EUR,4.800,MWh
Power,Intraday,Continuous,NL,ID3,QH,2021-02-15T01:30:00+01:00,2021-02-15T01:45:00+01:00,28.14,EUR,3.080,MWh
Power,Intraday,Continuous,NL,ID3,QH,2021-02-15T01:45:00+01:00,2021-02-15T02:00:00+01:00,26.67,EUR,,MWh
Power,Intraday,Continuous,NL,ID3,QH,2021-02-15T02:00:00+01:00,2021-02-15T02:15:00+01:00,34.37,EUR,9.800,MWh
Power,Intraday,Continuous,NL,ID3,QH,2021-02-15T02:15:00+01:00,2021-02-15T02:30:00+01:00,31.92,EUR,11.450,MWh
Power,Intraday,Continuous,NL,ID3,QH,2021-02-15T02:30:00+01:00,2021-02-15T02:45:00+01:00,27.95,EUR,7.580,MWh
Power,Intraday,Continuous,NL,ID3,QH,2021-02-15T02:45:00+01:00,2021-02-15T03:00:00+01:00,26.54,EUR,6.700,MWh
Power,Intraday,Continuous,NL,ID3,QH,2021-02-15T03:00:00+01:00,2021-02-15T03:15:00+01:00,35.75,EUR,14.450,MWh
Power,Intraday,Continuous,NL,ID3,QH,2021-02-15T03:15:00+01:00,2021-02-15T03:30:00+01:00,33.83,EUR,21.980,MWh
Power,Intraday,Continuous,NL,ID3,QH,2021-02-15T03:30:00+01:00,2021-02-15T03:45:00+01:00,29.95,EUR,8.550,MWh
Power,Intraday,Continuous,NL,ID3,QH,2021-02-15T03:45:00+01:00,2021-02-15T04:00:00+01:00,25.31,EUR,7.230,MWh
Power,Intraday,Continuous,NL,ID3,QH,2021-02-15T04:00:00+01:00,2021-02-15T04:15:00+01:00,26.10,EUR,5.050,MWh
Power,Intraday,Continuous,NL,ID3,QH,2021-02-15T04:15:00+01:00,2021-02-15T04:30:00+01:00,35.87,EUR,5.000,MWh
Power,Intraday,Continuous,NL,ID3,QH,2021-02-15T04:30:00+01:00,2021-02-15T04:45:00+01:00,37.78,EUR,5.000,MWh
Power,Intraday,Continuous,NL,ID3,QH,2021-02-15T04:45:00+01:00,2021-02-15T05:00:00+01:00,38.03,EUR,4.750,MWh
Power,Intraday,Continuous,NL,ID3,QH,2021-02-15T05:00:00+01:00,2021-02-15T05:15:00+01:00,22.69,EUR,,MWh
Power,Intraday,Continuous,NL,ID3,QH,2021-02-15T05:15:00+01:00,2021-02-15T05:30:00+01:00,22.69,EUR,,MWh
Power,Intraday,Continuous,NL,ID3,QH,2021-02-15T05:30:00+01:00,2021-02-15T05:45:00+01:00,22.69,EUR,,MWh
Power,Intraday,Continuous,NL,ID3,QH,2021-02-15T05:45:00+01:00,2021-02-15T06:00:00+01:00,22.69,EUR,,MWh
Power,Intraday,Continuous,NL,ID3,QH,2021-02-15T06:00:00+01:00,2021-02-15T06:15:00+01:00,18.61,EUR,15.700,MWh
Power,Intraday,Continuous,NL,ID3,QH,2021-02-15T06:15:00+01:00,2021-02-15T06:30:00+01:00,33.18,EUR,8.600,MWh
Power,Intraday,Continuous,NL,ID3,QH,2021-02-15T06:30:00+01:00,2021-02-15T06:45:00+01:00,55.40,EUR,,MWh
Power,Intraday,Continuous,NL,ID3,QH,2021-02-15T06:45:00+01:00,2021-02-15T07:00:00+01:00,55.40,EUR,,MWh
Power,Intraday,Continuous,NL,ID3,QH,2021-02-15T07:00:00+01:00,2021-02-15T07:15:00+01:00,43.33,EUR,,MWh
Power,Intraday,Continuous,NL,ID3,QH,2021-02-15T07:15:00+01:00,2021-02-15T07:30:00+01:00,43.33,EUR,,MWh
Power,Intraday,Continuous,NL,ID3,QH,2021-02-15T07:30:00+01:00,2021-02-15T07:45:00+01:00,43.33,EUR,,MWh
Power,Intraday,Continuous,NL,ID3,QH,2021-02-15T07:45:00+01:00,2021-02-15T08:00:00+01:00,69.20,EUR,5.030,MWh
Power,Intraday,Continuous,NL,ID3,QH,2021-02-15T08:00:00+01:00,2021-02-15T08:15:00+01:00,89.62,EUR,4.750,MWh
Power,Intraday,Continuous,NL,ID3,QH,2021-02-15T08:15:00+01:00,2021-02-15T08:30:00+01:00,49.36,EUR,13.000,MWh
Power,Intraday,Continuous,NL,ID3,QH,2021-02-15T08:30:00+01:00,2021-02-15T08:45:00+01:00,66.97,EUR,10.280,MWh
Power,Intraday,Continuous,NL,ID3,QH,2021-02-15T08:45:00+01:00,2021-02-15T09:00:00+01:00,60.97,EUR,3.900,MWh
Power,Intraday,Continuous,NL,ID3,QH,2021-02-15T09:00:00+01:00,2021-02-15T09:15:00+01:00,56.29,EUR,23.980,MWh
Power,Intraday,Continuous,NL,ID3,QH,2021-02-15T09:15:00+01:00,2021-02-15T09:30:00+01:00,54.27,EUR,7.430,MWh
Power,Intraday,Continuous,NL,ID3,QH,2021-02-15T09:30:00+01:00,2021-02-15T09:45:00+01:00,53.43,EUR,10.850,MWh
Power,Intraday,Continuous,NL,ID3,QH,2021-02-15T09:45:00+01:00,2021-02-15T10:00:00+01:00,50.85,EUR,38.030,MWh
Power,Intraday,Continuous,NL,ID3,QH,2021-02-15T10:00:00+01:00,2021-02-15T10:15:00+01:00,52.95,EUR,56.180,MWh
Power,Intraday,Continuous,NL,ID3,QH,2021-02-15T10:15:00+01:00,2021-02-15T10:30:00+01:00,47.83,EUR,23.350,MWh
Power,Intraday,Continuous,NL,ID3,QH,2021-02-15T10:30:00+01:00,2021-02-15T10:45:00+01:00,50.01,EUR,20.830,MWh
Power,Intraday,Continuous,NL,ID3,QH,2021-02-15T10:45:00+01:00,2021-02-15T11:00:00+01:00,51.38,EUR,30.180,MWh
Power,Intraday,Continuous,NL,ID3,QH,2021-02-15T11:00:00+01:00,2021-02-15T11:15:00+01:00,42.95,EUR,58.150,MWh
Power,Intraday,Continuous,NL,ID3,QH,2021-02-15T11:15:00+01:00,2021-02-15T11:30:00+01:00,50.86,EUR,19.080,MWh
Power,Intraday,Continuous,NL,ID3,QH,2021-02-15T11:30:00+01:00,2021-02-15T11:45:00+01:00,63.12,EUR,18.950,MWh
Power,Intraday,Continuous,NL,ID3,QH,2021-02-15T11:45:00+01:00,2021-02-15T12:00:00+01:00,64.92,EUR,28.080,MWh
Power,Intraday,Continuous,NL,ID3,QH,2021-02-15T12:00:00+01:00,2021-02-15T12:15:00+01:00,59.48,EUR,20.080,MWh
Power,Intraday,Continuous,NL,ID3,QH,2021-02-15T12:15:00+01:00,2021-02-15T12:30:00+01:00,55.67,EUR,3.300,MWh
Power,Intraday,Continuous,NL,ID3,QH,2021-02-15T12:30:00+01:00,2021-02-15T12:45:00+01:00,57.70,EUR,13.830,MWh
Power,Intraday,Continuous,NL,ID3,QH,2021-02-15T12:45:00+01:00,2021-02-15T13:00:00+01:00,53.04,EUR,37.930,MWh
Power,Intraday,Continuous,NL,ID3,QH,2021-02-15T13:00:00+01:00,2021-02-15T13:15:00+01:00,66.23,EUR,6.680,MWh
Power,Intraday,Continuous,NL,ID3,QH,2021-02-15T13:15:00+01:00,2021-02-15T13:30:00+01:00,69.19,EUR,16.680,MWh
Power,Intraday,Continuous,NL,ID3,QH,2021-02-15T13:30:00+01:00,2021-02-15T13:45:00+01:00,63.53,EUR,11.780,MWh
Power,Intraday,Continuous,NL,ID3,QH,2021-02-15T13:45:00+01:00,2021-02-15T14:00:00+01:00,50.46,EUR,11.100,MWh
Power,Intraday,Continuous,NL,ID3,QH,2021-02-15T14:00:00+01:00,2021-02-15T14:15:00+01:00,64.75,EUR,,MWh
Power,Intraday,Continuous,NL,ID3,QH,2021-02-15T14:15:00+01:00,2021-02-15T14:30:00+01:00,66.84,EUR,3.330,MWh
Power,Intraday,Continuous,NL,ID3,QH,2021-02-15T14:30:00+01:00,2021-02-15T14:45:00+01:00,111.74,EUR,3.180,MWh
Power,Intraday,Continuous,NL,ID3,QH,2021-02-15T14:45:00+01:00,2021-02-15T15:00:00+01:00,64.75,EUR,,MWh
Power,Intraday,Continuous,NL,ID3,QH,2021-02-15T15:00:00+01:00,2021-02-15T15:15:00+01:00,59.64,EUR,16.500,MWh
Power,Intraday,Continuous,NL,ID3,QH,2021-02-15T15:15:00+01:00,2021-02-15T15:30:00+01:00,58.70,EUR,13.950,MWh
Power,Intraday,Continuous,NL,ID3,QH,2021-02-15T15:30:00+01:00,2021-02-15T15:45:00+01:00,63.05,EUR,3.750,MWh
Power,Intraday,Continuous,NL,ID3,QH,2021-02-15T15:45:00+01:00,2021-02-15T16:00:00+01:00,55.75,EUR,2.800,MWh
Power,Intraday,Continuous,NL,ID3,QH,2021-02-15T16:00:00+01:00,2021-02-15T16:15:00+01:00,55.85,EUR,16.580,MWh
Power,Intraday,Continuous,NL,ID3,QH,2021-02-15T16:15:00+01:00,2021-02-15T16:30:00+01:00,62.01,EUR,15.930,MWh
Power,Intraday,Continuous,NL,ID3,QH,2021-02-15T16:30:00+01:00,2021-02-15T16:45:00+01:00,71.59,EUR,40.930,MWh
Power,Intraday,Continuous,NL,ID3,QH,2021-02-15T16:45:00+01:00,2021-02-15T17:00:00+01:00,78.60,EUR,56.400,MWh
Power,Intraday,Continuous,NL,ID3,QH,2021-02-15T17:00:00+01:00,2021-02-15T17:15:00+01:00,48.52,EUR,34.030,MWh
Power,Intraday,Continuous,NL,ID3,QH,2021-02-15T17:15:00+01:00,2021-02-15T17:30:00+01:00,73.83,EUR,12.780,MWh
Power,Intraday,Continuous,NL,ID3,QH,2021-02-15T17:30:00+01:00,2021-02-15T17:45:00+01:00,75.01,EUR,35.180,MWh
Power,Intraday,Continuous,NL,ID3,QH,2021-02-15T17:45:00+01:00,2021-02-15T18:00:00+01:00,116.89,EUR,39.700,MWh
Power,Intraday,Continuous,NL,ID3,QH,2021-02-15T18:00:00+01:00,2021-02-15T18:15:00+01:00,97.44,EUR,,MWh
Power,Intraday,Continuous,NL,ID3,QH,2021-02-15T18:15:00+01:00,2021-02-15T18:30:00+01:00,97.44,EUR,,MWh
Power,Intraday,Continuous,NL,ID3,QH,2021-02-15T18:30:00+01:00,2021-02-15T18:45:00+01:00,97.44,EUR,,MWh
Power,Intraday,Continuous,NL,ID3,QH,2021-02-15T18:45:00+01:00,2021-02-15T19:00:00+01:00,97.44,EUR,,MWh
Power,Intraday,Continuous,NL,ID3,QH,2021-02-15T19:00:00+01:00,2021-02-15T19:15:00+01:00,72.58,EUR,,MWh
Power,Intraday,Continuous,NL,ID3,QH,2021-02-15T19:15:00+01:00,2021-02-15T19:30:00+01:00,73.15,EUR,14.100,MWh
Power,Intraday,Continuous,NL,ID3,QH,2021-02-15T19:30:00+01:00,2021-02-15T19:45:00+01:00,72.58,EUR,,MWh
Power,Intraday,Continuous,NL,ID3,QH,2021-02-15T19:45:00+01:00,2021-02-15T20:00:00+01:00,72.58,EUR,,MWh
Power,Intraday,Continuous,NL,ID3,QH,2021-02-15T20:00:00+01:00,2021-02-15T20:15:00+01:00,69.59,EUR,,MWh
Power,Intraday,Continuous,NL,ID3,QH,2021-02-15T20:15:00+01:00,2021-02-15T20:30:00+01:00,69.59,EUR,,MWh
Power,Intraday,Continuous,NL,ID3,QH,2021-02-15T20:30:00+01:00,2021-02-15T20:45:00+01:00,69.59,EUR,,MWh
Power,Intraday,Continuous,NL,ID3,QH,2021-02-15T20:45:00+01:00,2021-02-15T21:00:00+01:00,69.59,EUR,,MWh
Power,Intraday,Continuous,NL,ID3,QH,2021-02-15T21:00:00+01:00,2021-02-15T21:15:00+01:00,72.15,EUR,40.600,MWh
Power,Intraday,Continuous,NL,ID3,QH,2021-02-15T21:15:00+01:00,2021-02-15T21:30:00+01:00,61.96,EUR,8.230,MWh
Power,Intraday,Continuous,NL,ID3,QH,2021-02-15T21:30:00+01:00,2021-02-15T21:45:00+01:00,57.58,EUR,10.080,MWh
Power,Intraday,Continuous,NL,ID3,QH,2021-02-15T21:45:00+01:00,2021-02-15T22:00:00+01:00,51.25,EUR,8.600,MWh
Power,Intraday,Continuous,NL,ID3,QH,2021-02-15T22:00:00+01:00,2021-02-15T22:15:00+01:00,67.43,EUR,37.930,MWh
Power,Intraday,Continuous,NL,ID3,QH,2021-02-15T22:15:00+01:00,2021-02-15T22:30:00+01:00,58.94,EUR,11.200,MWh
Power,Intraday,Continuous,NL,ID3,QH,2021-02-15T22:30:00+01:00,2021-02-15T22:45:00+01:00,66.19,EUR,20.150,MWh
Power,Intraday,Continuous,NL,ID3,QH,2021-02-15T22:45:00+01:00,2021-02-15T23:00:00+01:00,51.50,EUR,14.000,MWh
Power,Intraday,Continuous,NL,ID3,QH,2021-02-15T23:00:00+01:00,2021-02-15T23:15:00+01:00,65.16,EUR,44.750,MWh
Power,Intraday,Continuous,NL,ID3,QH,2021-02-15T23:15:00+01:00,2021-02-15T23:30:00+01:00,55.34,EUR,46.430,MWh
Power,Intraday,Continuous,NL,ID3,QH,2021-02-15T23:30:00+01:00,2021-02-15T23:45:00+01:00,48.24,EUR,15.050,MWh
Power,Intraday,Continuous,NL,ID3,QH,2021-02-15T23:45:00+01:00,2021-02-16T00:00:00+01:00,47.51,EUR,23.580,MWh
Power,Intraday,Continuous,NL,IDFULL,BASE,2021-02-15T00:00:00+01:00,2021-02-16T00:00:00+01:00,54.42,EUR,23611.900,MWh
Power,Intraday,Continuous,NL,IDFULL,PEAK,2021-02-15T08:00:00+01:00,2021-02-15T20:00:00+01:00,65.63,EUR,17032.900,MWh
