Commodity,NominationModality,TradingModality,MarketArea,IndexName,TimeResolution,DeliveryStart,DeliveryEnd,IndexPrice,Currency,Volume,VolumeUnit
Power,Intraday,Continuous,NL,IDFULL,H,2021-07-18T00:00:00+02:00,2021-07-18T01:00:00+02:00,76.09,EUR,436.800,MWh
Power,Intraday,Continuous,NL,IDFULL,H,2021-07-18T01:00:00+02:00,2021-07-18T02:00:00+02:00,57.18,EUR,236.500,MWh
Power,Intraday,Continuous,NL,IDFULL,H,2021-07-18T02:00:00+02:00,2021-07-18T03:00:00+02:00,50.48,EUR,204.900,MWh
Power,Intraday,Continuous,NL,IDFULL,H,2021-07-18T03:00:00+02:00,2021-07-18T04:00:00+02:00,48.70,EUR,172.600,MWh
Power,Intraday,Continuous,NL,IDFULL,H,2021-07-18T04:00:00+02:00,2021-07-18T05:00:00+02:00,42.51,EUR,215.900,MWh
Power,Intraday,Continuous,NL,IDFULL,H,2021-07-18T05:00:00+02:00,2021-07-18T06:00:00+02:00,41.02,EUR,258.400,MWh
Power,Intraday,Continuous,NL,IDFULL,H,2021-07-18T06:00:00+02:00,2021-07-18T07:00:00+02:00,37.63,EUR,331.400,MWh
Power,Intraday,Continuous,NL,IDFULL,H,2021-07-18T07:00:00+02:00,2021-07-18T08:00:00+02:00,41.52,EUR,198.400,MWh
Power,Intraday,Continuous,NL,IDFULL,H,2021-07-18T08:00:00+02:00,2021-07-18T09:00:00+02:00,41.86,EUR,741.400,MWh
Power,Intraday,Continuous,NL,IDFULL,H,2021-07-18T09:00:00+02:00,2021-07-18T10:00:00+02:00,31.00,EUR,707.000,MWh
Power,Intraday,Continuous,NL,IDFULL,H,2021-07-18T10:00:00+02:00,2021-07-18T11:00:00+02:00,21.78,EUR,741.700,MWh
Power,Intraday,Continuous,NL,IDFULL,H,2021-07-18T11:00:00+02:00,2021-07-18T12:00:00+02:00,20.19,EUR,751.200,MWh
Power,Intraday,Continuous,NL,IDFULL,H,2021-07-18T12:00:00+02:00,2021-07-18T13:00:00+02:00,6.53,EUR,1009.000,MWh
Power,Intraday,Continuous,NL,IDFULL,H,2021-07-18T13:00:00+02:00,2021-07-18T14:00:00+02:00,-22.72,EUR,1179.600,MWh
Power,Intraday,Continuous,NL,IDFULL,H,2021-07-18T14:00:00+02:00,2021-07-18T15:00:00+02:00,-25.99,EUR,1292.500,MWh
Power,Intraday,Continuous,NL,IDFULL,H,2021-07-18T15:00:00+02:00,2021-07-18T16:00:00+02:00,-26.40,EUR,1360.800,MWh
Power,Intraday,Continuous,NL,IDFULL,H,2021-07-18T16:00:00+02:00,2021-07-18T17:00:00+02:00,-24.46,EUR,1211.000,MWh
Power,Intraday,Continuous,NL,IDFULL,H,2021-07-18T17:00:00+02:00,2021-07-18T18:00:00+02:00,10.16,EUR,647.600,MWh
Power,Intraday,Continuous,NL,IDFULL,H,2021-07-18T18:00:00+02:00,2021-07-18T19:00:00+02:00,55.51,EUR,925.400,MWh
Power,Intraday,Continuous,NL,IDFULL,H,2021-07-18T19:00:00+02:00,2021-07-18T20:00:00+02:00,74.64,EUR,1058.500,MWh
Power,Intraday,Continuous,NL,IDFULL,H,2021-07-18T20:00:00+02:00,2021-07-18T21:00:00+02:00,84.19,EUR,618.700,MWh
Power,Intraday,Continuous,NL,IDFULL,H,2021-07-18T21:00:00+02:00,2021-07-18T22:00:00+02:00,86.12,EUR,318.200,MWh
Power,Intraday,Continuous,NL,IDFULL,H,2021-07-18T22:00:00+02:00,2021-07-18T23:00:00+02:00,90.87,EUR,582.500,MWh
Power,Intraday,Continuous,NL,IDFULL,H,2021-07-18T23:00:00+02:00,2021-07-19T00:00:00+02:00,88.83,EUR,487.000,MWh
Power,Intraday,Continuous,NL,ID1,H,2021-07-18T00:00:00+02:00,2021-07-18T01:00:00+02:00,76.79,EUR,32.300,MWh
Power,Intraday,Continuous,NL,ID1,H,2021-07-18T01:00:00+02:00,2021-07-18T02:00:00+02:00,56.61,EUR,,MWh
Power,Intraday,Continuous,NL,ID1,H,2021-07-18T02:00:00+02:00,2021-07-18T03:00:00+02:00,49.01,EUR,,MWh
Power,Intraday,Continuous,NL,ID1,H,2021-07-18T03:00:00+02:00,2021-07-18T04:00:00+02:00,47.17,EUR,,MWh
Power,Intraday,Continuous,NL,ID1,H,2021-07-18T04:00:00+02:00,2021-07-18T05:00:00+02:00,39.74,EUR,,MWh
Power,Intraday,Continuous,NL,ID1,H,2021-07-18T05:00:00+02:00,2021-07-18T06:00:00+02:00,37.81,EUR,,MWh
Power,Intraday,Continuous,NL,ID1,H,2021-07-18T06:00:00+02:00,2021-07-18T07:00:00+02:00,34.38,EUR,,MWh
Power,Intraday,Continuous,NL,ID1,H,2021-07-18T07:00:00+02:00,2021-07-18T08:00:00+02:00,47.59,EUR,29.100,MWh
Power,Intraday,Continuous,NL,ID1,H,2021-07-18T08:00:00+02:00,2021-07-18T09:00:00+02:00,45.07,EUR,83.400,MWh
Power,Intraday,Continuous,NL,ID1,H,2021-07-18T09:00:00+02:00,2021-07-18T10:00:00+02:00,29.27,EUR,44.900,MWh
Power,Intraday,Continuous,NL,ID1,H,2021-07-18T10:00:00+02:00,2021-07-18T11:00:00+02:00,21.23,EUR,85.500,MWh
Power,Intraday,Continuous,NL,ID1,H,2021-07-18T11:00:00+02:00,2021-07-18T12:00:00+02:00,1.04,EUR,28.400,MWh
Power,Intraday,Continuous,NL,ID1,H,2021-07-18T12:00:00+02:00,2021-07-18T13:00:00+02:00,9.42,EUR,40.000,MWh
Power,Intraday,Continuous,NL,ID1,H,2021-07-18T13:00:00+02:00,2021-07-18T14:00:00+02:00,-101.13,EUR,22.000,MWh
Power,Intraday,Continuous,NL,ID1,H,2021-07-18T14:00:00+02:00,2021-07-18T15:00:00+02:00,-86.56,EUR,10.200,MWh
Power,Intraday,Continuous,NL,ID1,H,2021-07-18T15:00:00+02:00,2021-07-18T16:00:00+02:00,-35.00,EUR,30.000,MWh
Power,Intraday,Continuous,NL,ID1,H,2021-07-18T16:00:00+02:00,2021-07-18T17:00:00+02:00,-27.77,EUR,,MWh
Power,Intraday,Continuous,NL,ID1,H,2021-07-18T17:00:00+02:00,2021-07-18T18:00:00+02:00,-30.00,EUR,10.000,MWh
Power,Intraday,Continuous,NL,ID1,H,2021-07-18T18:00:00+02:00,2021-07-18T19:00:00+02:00,54.39,EUR,,MWh
Power,Intraday,Continuous,NL,ID1,H,2021-07-18T19:00:00+02:00,2021-07-18T20:00:00+02:00,70.82,EUR,78.800,MWh
Power,Intraday,Continuous,NL,ID1,H,2021-07-18T20:00:00+02:00,2021-07-18T21:00:00+02:00,80.00,EUR,20.000,MWh
Power,Intraday,Continuous,NL,ID1,H,2021-07-18T21:00:00+02:00,2021-07-18T22:00:00+02:00,85.95,EUR,,MWh
Power,Intraday,Continuous,NL,ID1,H,2021-07-18T22:00:00+02:00,2021-07-18T23:00:00+02:00,89.77,EUR,,MWh
Power,Intraday,Continuous,NL,ID1,H,2021-07-18T23:00:00+02:00,2021-07-19T00:00:00+02:00,90.96,EUR,,MWh
Power,Intraday,Continuous,NL,ID3,H,2021-07-18T00:00:00+02:00,2021-07-18T01:00:00+02:00,76.09,EUR,426.900,MWh
Power,Intraday,Continuous,NL,ID3,H,2021-07-18T01:00:00+02:00,2021-07-18T02:00:00+02:00,56.61,EUR,203.800,MWh
Power,Intraday,Continuous,NL,ID3,H,2021-07-18T02:00:00+02:00,2021-07-18T03:00:00+02:00,49.01,EUR,120.200,MWh
Power,Intraday,Continuous,NL,ID3,H,2021-07-18T03:00:00+02:00,2021-07-18T04:00:00+02:00,47.17,EUR,79.700,MWh
Power,Intraday,Continuous,NL,ID3,H,2021-07-18T04:00:00+02:00,2021-07-18T05:00:00+02:00,39.74,EUR,50.600,MWh
Power,Intraday,Continuous,NL,ID3,H,2021-07-18T05:00:00+02:00,2021-07-18T06:00:00+02:00,37.81,EUR,117.300,MWh
Power,Intraday,Continuous,NL,ID3,H,2021-07-18T06:00:00+02:00,2021-07-18T07:00:00+02:00,34.38,EUR,251.400,MWh
Power,Intraday,Continuous,NL,ID3,H,2021-07-18T07:00:00+02:00,2021-07-18T08:00:00+02:00,38.11,EUR,68.700,MWh
Power,Intraday,Continuous,NL,ID3,H,2021-07-18T08:00:00+02:00,2021-07-18T09:00:00+02:00,38.83,EUR,481.600,MWh
Power,Intraday,Continuous,NL,ID3,H,2021-07-18T09:00:00+02:00,2021-07-18T10:00:00+02:00,24.89,EUR,463.200,MWh
Power,Intraday,Continuous,NL,ID3,H,2021-07-18T10:00:00+02:00,2021-07-18T11:00:00+02:00,20.88,EUR,585.300,MWh
Power,Intraday,Continuous,NL,ID3,H,2021-07-18T11:00:00+02:00,2021-07-18T12:00:00+02:00,20.98,EUR,558.500,MWh
Power,Intraday,Continuous,NL,ID3,H,2021-07-18T12:00:00+02:00,2021-07-18T13:00:00+02:00,6.93,EUR,730.900,MWh
Power,Intraday,Continuous,NL,ID3,H,2021-07-18T13:00:00+02:00,2021-07-18T14:00:00+02:00,-29.72,EUR,507.800,MWh
Power,Intraday,Continuous,NL,ID3,H,2021-07-18T14:00:00+02:00,2021-07-18T15:00:00+02:00,-36.01,EUR,509.100,MWh
Power,Intraday,Continuous,NL,ID3,H,2021-07-18T15:00:00+02:00,2021-07-18T16:00:00+02:00,-33.59,EUR,656.900,MWh
Power,Intraday,Continuous,NL,ID3,H,2021-07-18T16:00:00+02:00,2021-07-18T17:00:00+02:00,-27.77,EUR,691.200,MWh
Power,Intraday,Continuous,NL,ID3,H,2021-07-18T17:00:00+02:00,2021-07-18T18:00:00+02:00,7.48,EUR,296.500,MWh
Power,Intraday,Continuous,NL,ID3,H,2021-07-18T18:00:00+02:00,2021-07-18T19:00:00+02:00,54.39,EUR,593.600,MWh
Power,Intraday,Continuous,NL,ID3,H,2021-07-18T19:00:00+02:00,2021-07-18T20:00:00+02:00,73.68,EUR,719.600,MWh
Power,Intraday,Continuous,NL,ID3,H,2021-07-18T20:00:00+02:00,2021-07-18T21:00:00+02:00,83.94,EUR,426.000,MWh
Power,Intraday,Continuous,NL,ID3,H,2021-07-18T21:00:00+02:00,2021-07-18T22:00:00+02:00,85.95,EUR,214.700,MWh
Power,Intraday,Continuous,NL,ID3,H,2021-07-18T22:00:00+02:00,2021-07-18T23:00:00+02:00,89.77,EUR,297.500,MWh
Power,Intraday,Continuous,NL,ID3,H,2021-07-18T23:00:00+02:00,2021-07-19T00:00:00+02:00,90.96,EUR,242.500,MWh
Power,Intraday,Continuous,NL,IDFULL,HH,2021-07-18T00:00:00+02:00,2021-07-18T00:30:00+02:00,76.09,EUR,,MWh
Power,Intraday,Continuous,NL,IDFULL,HH,2021-07-18T00:30:00+02:00,2021-07-18T01:00:00+02:00,76.09,EUR,,MWh
Power,Intraday,Continuous,NL,IDFULL,HH,2021-07-18T01:00:00+02:00,2021-07-18T01:30:00+02:00,57.18,EUR,,MWh
Power,Intraday,Continuous,NL,IDFULL,HH,2021-07-18T01:30:00+02:00,2021-07-18T02:00:00+02:00,57.18,EUR,,MWh
Power,Intraday,Continuous,NL,IDFULL,HH,2021-07-18T02:00:00+02:00,2021-07-18T02:30:00+02:00,50.48,EUR,,MWh
Power,Intraday,Continuous,NL,IDFULL,HH,2021-07-18T02:30:00+02:00,2021-07-18T03:00:00+02:00,50.48,EUR,,MWh
Power,Intraday,Continuous,NL,IDFULL,HH,2021-07-18T03:00:00+02:00,2021-07-18T03:30:00+02:00,48.70,EUR,,MWh
Power,Intraday,Continuous,NL,IDFULL,HH,2021-07-18T03:30:00+02:00,2021-07-18T04:00:00+02:00,48.70,EUR,,MWh
Power,Intraday,Continuous,NL,IDFULL,HH,2021-07-18T04:00:00+02:00,2021-07-18T04:30:00+02:00,42.51,EUR,,MWh
Power,Intraday,Continuous,NL,IDFULL,HH,2021-07-18T04:30:00+02:00,2021-07-18T05:00:00+02:00,42.51,EUR,,MWh
Power,Intraday,Continuous,NL,IDFULL,HH,2021-07-18T05:00:00+02:00,2021-07-18T05:30:00+02:00,41.02,EUR,,MWh
Power,Intraday,Continuous,NL,IDFULL,HH,2021-07-18T05:30:00+02:00,2021-07-18T06:00:00+02:00,41.02,EUR,,MWh
Power,Intraday,Continuous,NL,IDFULL,HH,2021-07-18T06:00:00+02:00,2021-07-18T06:30:00+02:00,37.63,EUR,,MWh
Power,Intraday,Continuous,NL,IDFULL,HH,2021-07-18T06:30:00+02:00,2021-07-18T07:00:00+02:00,37.63,EUR,,MWh
Power,Intraday,Continuous,NL,IDFULL,HH,2021-07-18T07:00:00+02:00,2021-07-18T07:30:00+02:00,41.52,EUR,,MWh
Power,Intraday,Continuous,NL,IDFULL,HH,2021-07-18T07:30:00+02:00,2021-07-18T08:00:00+02:00,41.52,EUR,,MWh
Power,Intraday,Continuous,NL,IDFULL,HH,2021-07-18T08:00:00+02:00,2021-07-18T08:30:00+02:00,41.86,EUR,,MWh
Power,Intraday,Continuous,NL,IDFULL,HH,2021-07-18T08:30:00+02:00,2021-07-18T09:00:00+02:00,41.86,EUR,,MWh
Power,Intraday,Continuous,NL,IDFULL,HH,2021-07-18T09:00:00+02:00,2021-07-18T09:30:00+02:00,31.00,EUR,,MWh
Power,Intraday,Continuous,NL,IDFULL,HH,2021-07-18T09:30:00+02:00,2021-07-18T10:00:00+02:00,31.00,EUR,,MWh
Power,Intraday,Continuous,NL,IDFULL,HH,2021-07-18T10:00:00+02:00,2021-07-18T10:30:00+02:00,21.78,EUR,,MWh
Power,Intraday,Continuous,NL,IDFULL,HH,2021-07-18T10:30:00+02:00,2021-07-18T11:00:00+02:00,21.78,EUR,,MWh
Power,Intraday,Continuous,NL,IDFULL,HH,2021-07-18T11:00:00+02:00,2021-07-18T11:30:00+02:00,20.19,EUR,,MWh
Power,Intraday,Continuous,NL,IDFULL,HH,2021-07-18T11:30:00+02:00,2021-07-18T12:00:00+02:00,20.19,EUR,,MWh
Power,Intraday,Continuous,NL,IDFULL,HH,2021-07-18T12:00:00+02:00,2021-07-18T12:30:00+02:00,6.53,EUR,,MWh
Power,Intraday,Continuous,NL,IDFULL,HH,2021-07-18T12:30:00+02:00,2021-07-18T13:00:00+02:00,6.53,EUR,,MWh
Power,Intraday,Continuous,NL,IDFULL,HH,2021-07-18T13:00:00+02:00,2021-07-18T13:30:00+02:00,-22.72,EUR,,MWh
Power,Intraday,Continuous,NL,IDFULL,HH,2021-07-18T13:30:00+02:00,2021-07-18T14:00:00+02:00,-22.72,EUR,,MWh
Power,Intraday,Continuous,NL,IDFULL,HH,2021-07-18T14:00:00+02:00,2021-07-18T14:30:00+02:00,-25.99,EUR,,MWh
Power,Intraday,Continuous,NL,IDFULL,HH,2021-07-18T14:30:00+02:00,2021-07-18T15:00:00+02:00,-25.99,EUR,,MWh
Power,Intraday,Continuous,NL,IDFULL,HH,2021-07-18T15:00:00+02:00,2021-07-18T15:30:00+02:00,-26.40,EUR,,MWh
Power,Intraday,Continuous,NL,IDFULL,HH,2021-07-18T15:30:00+02:00,2021-07-18T16:00:00+02:00,-26.40,EUR,,MWh
Power,Intraday,Continuous,NL,IDFULL,HH,2021-07-18T16:00:00+02:00,2021-07-18T16:30:00+02:00,-24.46,EUR,,MWh
Power,Intraday,Continuous,NL,IDFULL,HH,2021-07-18T16:30:00+02:00,2021-07-18T17:00:00+02:00,-24.46,EUR,,MWh
Power,Intraday,Continuous,NL,IDFULL,HH,2021-07-18T17:00:00+02:00,2021-07-18T17:30:00+02:00,10.16,EUR,,MWh
Power,Intraday,Continuous,NL,IDFULL,HH,2021-07-18T17:30:00+02:00,2021-07-18T18:00:00+02:00,10.16,EUR,,MWh
Power,Intraday,Continuous,NL,IDFULL,HH,2021-07-18T18:00:00+02:00,2021-07-18T18:30:00+02:00,55.51,EUR,,MWh
Power,Intraday,Continuous,NL,IDFULL,HH,2021-07-18T18:30:00+02:00,2021-07-18T19:00:00+02:00,55.51,EUR,,MWh
Power,Intraday,Continuous,NL,IDFULL,HH,2021-07-18T19:00:00+02:00,2021-07-18T19:30:00+02:00,74.64,EUR,,MWh
Power,Intraday,Continuous,NL,IDFULL,HH,2021-07-18T19:30:00+02:00,2021-07-18T20:00:00+02:00,74.64,EUR,,MWh
Power,Intraday,Continuous,NL,IDFULL,HH,2021-07-18T20:00:00+02:00,2021-07-18T20:30:00+02:00,84.19,EUR,,MWh
Power,Intraday,Continuous,NL,IDFULL,HH,2021-07-18T20:30:00+02:00,2021-07-18T21:00:00+02:00,84.19,EUR,,MWh
Power,Intraday,Continuous,NL,IDFULL,HH,2021-07-18T21:00:00+02:00,2021-07-18T21:30:00+02:00,86.12,EUR,,MWh
Power,Intraday,Continuous,NL,IDFULL,HH,2021-07-18T21:30:00+02:00,2021-07-18T22:00:00+02:00,86.12,EUR,,MWh
Power,Intraday,Continuous,NL,IDFULL,HH,2021-07-18T22:00:00+02:00,2021-07-18T22:30:00+02:00,90.87,EUR,,MWh
Power,Intraday,Continuous,NL,IDFULL,HH,2021-07-18T22:30:00+02:00,2021-07-18T23:00:00+02:00,90.87,EUR,,MWh
Power,Intraday,Continuous,NL,IDFULL,HH,2021-07-18T23:00:00+02:00,2021-07-18T23:30:00+02:00,88.83,EUR,,MWh
Power,Intraday,Continuous,NL,IDFULL,HH,2021-07-18T23:30:00+02:00,2021-07-19T00:00:00+02:00,88.83,EUR,,MWh
Power,Intraday,Continuous,NL,ID1,HH,2021-07-18T00:00:00+02:00,2021-07-18T00:30:00+02:00,76.09,EUR,,MWh
Power,Intraday,Continuous,NL,ID1,HH,2021-07-18T00:30:00+02:00,2021-07-18T01:00:00+02:00,76.09,EUR,,MWh
Power,Intraday,Continuous,NL,ID1,HH,2021-07-18T01:00:00+02:00,2021-07-18T01:30:00+02:00,57.18,EUR,,MWh
Power,Intraday,Continuous,NL,ID1,HH,2021-07-18T01:30:00+02:00,2021-07-18T02:00:00+02:00,57.18,EUR,,MWh
Power,Intraday,Continuous,NL,ID1,HH,2021-07-18T02:00:00+02:00,2021-07-18T02:30:00+02:00,50.48,EUR,,MWh
Power,Intraday,Continuous,NL,ID1,HH,2021-07-18T02:30:00+02:00,2021-07-18T03:00:00+02:00,50.48,EUR,,MWh
Power,Intraday,Continuous,NL,ID1,HH,2021-07-18T03:00:00+02:00,2021-07-18T03:30:00+02:00,48.70,EUR,,MWh
Power,Intraday,Continuous,NL,ID1,HH,2021-07-18T03:30:00+02:00,2021-07-18T04:00:00+02:00,48.70,EUR,,MWh
Power,Intraday,Continuous,NL,ID1,HH,2021-07-18T04:00:00+02:00,2021-07-18T04:30:00+02:00,42.51,EUR,,MWh
Power,Intraday,Continuous,NL,ID1,HH,2021-07-18T04:30:00+02:00,2021-07-18T05:00:00+02:00,42.51,EUR,,MWh
Power,Intraday,Continuous,NL,ID1,HH,2021-07-18T05:00:00+02:00,2021-07-18T05:30:00+02:00,41.02,EUR,,MWh
Power,Intraday,Continuous,NL,ID1,HH,2021-07-18T05:30:00+02:00,2021-07-18T06:00:00+02:00,41.02,EUR,,MWh
Power,Intraday,Continuous,NL,ID1,HH,2021-07-18T06:00:00+02:00,2021-07-18T06:30:00+02:00,37.63,EUR,,MWh
Power,Intraday,Continuous,NL,ID1,HH,2021-07-18T06:30:00+02:00,2021-07-18T07:00:00+02:00,37.63,EUR,,MWh
Power,Intraday,Continuous,NL,ID1,HH,2021-07-18T07:00:00+02:00,2021-07-18T07:30:00+02:00,41.52,EUR,,MWh
Power,Intraday,Continuous,NL,ID1,HH,2021-07-18T07:30:00+02:00,2021-07-18T08:00:00+02:00,41.52,EUR,,MWh
Power,Intraday,Continuous,NL,ID1,HH,2021-07-18T08:00:00+02:00,2021-07-18T08:30:00+02:00,41.86,EUR,,MWh
Power,Intraday,Continuous,NL,ID1,HH,2021-07-18T08:30:00+02:00,2021-07-18T09:00:00+02:00,41.86,EUR,,MWh
Power,Intraday,Continuous,NL,ID1,HH,2021-07-18T09:00:00+02:00,2021-07-18T09:30:00+02:00,31.00,EUR,,MWh
Power,Intraday,Continuous,NL,ID1,HH,2021-07-18T09:30:00+02:00,2021-07-18T10:00:00+02:00,31.00,EUR,,MWh
Power,Intraday,Continuous,NL,ID1,HH,2021-07-18T10:00:00+02:00,2021-07-18T10:30:00+02:00,21.78,EUR,,MWh
Power,Intraday,Continuous,NL,ID1,HH,2021-07-18T10:30:00+02:00,2021-07-18T11:00:00+02:00,21.78,EUR,,MWh
Power,Intraday,Continuous,NL,ID1,HH,2021-07-18T11:00:00+02:00,2021-07-18T11:30:00+02:00,20.19,EUR,,MWh
Power,Intraday,Continuous,NL,ID1,HH,2021-07-18T11:30:00+02:00,2021-07-18T12:00:00+02:00,20.19,EUR,,MWh
Power,Intraday,Continuous,NL,ID1,HH,2021-07-18T12:00:00+02:00,2021-07-18T12:30:00+02:00,6.53,EUR,,MWh
Power,Intraday,Continuous,NL,ID1,HH,2021-07-18T12:30:00+02:00,2021-07-18T13:00:00+02:00,6.53,EUR,,MWh
Power,Intraday,Continuous,NL,ID1,HH,2021-07-18T13:00:00+02:00,2021-07-18T13:30:00+02:00,-22.72,EUR,,MWh
Power,Intraday,Continuous,NL,ID1,HH,2021-07-18T13:30:00+02:00,2021-07-18T14:00:00+02:00,-22.72,EUR,,MWh
Power,Intraday,Continuous,NL,ID1,HH,2021-07-18T14:00:00+02:00,2021-07-18T14:30:00+02:00,-25.99,EUR,,MWh
Power,Intraday,Continuous,NL,ID1,HH,2021-07-18T14:30:00+02:00,2021-07-18T15:00:00+02:00,-25.99,EUR,,MWh
Power,Intraday,Continuous,NL,ID1,HH,2021-07-18T15:00:00+02:00,2021-07-18T15:30:00+02:00,-26.40,EUR,,MWh
Power,Intraday,Continuous,NL,ID1,HH,2021-07-18T15:30:00+02:00,2021-07-18T16:00:00+02:00,-26.40,EUR,,MWh
Power,Intraday,Continuous,NL,ID1,HH,2021-07-18T16:00:00+02:00,2021-07-18T16:30:00+02:00,-24.46,EUR,,MWh
Power,Intraday,Continuous,NL,ID1,HH,2021-07-18T16:30:00+02:00,2021-07-18T17:00:00+02:00,-24.46,EUR,,MWh
Power,Intraday,Continuous,NL,ID1,HH,2021-07-18T17:00:00+02:00,2021-07-18T17:30:00+02:00,10.16,EUR,,MWh
Power,Intraday,Continuous,NL,ID1,HH,2021-07-18T17:30:00+02:00,2021-07-18T18:00:00+02:00,10.16,EUR,,MWh
Power,Intraday,Continuous,NL,ID1,HH,2021-07-18T18:00:00+02:00,2021-07-18T18:30:00+02:00,55.51,EUR,,MWh
Power,Intraday,Continuous,NL,ID1,HH,2021-07-18T18:30:00+02:00,2021-07-18T19:00:00+02:00,55.51,EUR,,MWh
Power,Intraday,Continuous,NL,ID1,HH,2021-07-18T19:00:00+02:00,2021-07-18T19:30:00+02:00,74.64,EUR,,MWh
Power,Intraday,Continuous,NL,ID1,HH,2021-07-18T19:30:00+02:00,2021-07-18T20:00:00+02:00,74.64,EUR,,MWh
Power,Intraday,Continuous,NL,ID1,HH,2021-07-18T20:00:00+02:00,2021-07-18T20:30:00+02:00,84.19,EUR,,MWh
Power,Intraday,Continuous,NL,ID1,HH,2021-07-18T20:30:00+02:00,2021-07-18T21:00:00+02:00,84.19,EUR,,MWh
Power,Intraday,Continuous,NL,ID1,HH,2021-07-18T21:00:00+02:00,2021-07-18T21:30:00+02:00,86.12,EUR,,MWh
Power,Intraday,Continuous,NL,ID1,HH,2021-07-18T21:30:00+02:00,2021-07-18T22:00:00+02:00,86.12,EUR,,MWh
Power,Intraday,Continuous,NL,ID1,HH,2021-07-18T22:00:00+02:00,2021-07-18T22:30:00+02:00,90.87,EUR,,MWh
Power,Intraday,Continuous,NL,ID1,HH,2021-07-18T22:30:00+02:00,2021-07-18T23:00:00+02:00,90.87,EUR,,MWh
Power,Intraday,Continuous,NL,ID1,HH,2021-07-18T23:00:00+02:00,2021-07-18T23:30:00+02:00,88.83,EUR,,MWh
Power,Intraday,Continuous,NL,ID1,HH,2021-07-18T23:30:00+02:00,2021-07-19T00:00:00+02:00,88.83,EUR,,MWh
Power,Intraday,Continuous,NL,ID3,HH,2021-07-18T00:00:00+02:00,2021-07-18T00:30:00+02:00,76.09,EUR,,MWh
Power,Intraday,Continuous,NL,ID3,HH,2021-07-18T00:30:00+02:00,2021-07-18T01:00:00+02:00,76.09,EUR,,MWh
Power,Intraday,Continuous,NL,ID3,HH,2021-07-18T01:00:00+02:00,2021-07-18T01:30:00+02:00,57.18,EUR,,MWh
Power,Intraday,Continuous,NL,ID3,HH,2021-07-18T01:30:00+02:00,2021-07-18T02:00:00+02:00,57.18,EUR,,MWh
Power,Intraday,Continuous,NL,ID3,HH,2021-07-18T02:00:00+02:00,2021-07-18T02:30:00+02:00,50.48,EUR,,MWh
Power,Intraday,Continuous,NL,ID3,HH,2021-07-18T02:30:00+02:00,2021-07-18T03:00:00+02:00,50.48,EUR,,MWh
Power,Intraday,Continuous,NL,ID3,HH,2021-07-18T03:00:00+02:00,2021-07-18T03:30:00+02:00,48.70,EUR,,MWh
Power,Intraday,Continuous,NL,ID3,HH,2021-07-18T03:30:00+02:00,2021-07-18T04:00:00+02:00,48.70,EUR,,MWh
Power,Intraday,Continuous,NL,ID3,HH,2021-07-18T04:00:00+02:00,2021-07-18T04:30:00+02:00,42.51,EUR,,MWh
Power,Intraday,Continuous,NL,ID3,HH,2021-07-18T04:30:00+02:00,2021-07-18T05:00:00+02:00,42.51,EUR,,MWh
Power,Intraday,Continuous,NL,ID3,HH,2021-07-18T05:00:00+02:00,2021-07-18T05:30:00+02:00,41.02,EUR,,MWh
Power,Intraday,Continuous,NL,ID3,HH,2021-07-18T05:30:00+02:00,2021-07-18T06:00:00+02:00,41.02,EUR,,MWh
Power,Intraday,Continuous,NL,ID3,HH,2021-07-18T06:00:00+02:00,2021-07-18T06:30:00+02:00,37.63,EUR,,MWh
Power,Intraday,Continuous,NL,ID3,HH,2021-07-18T06:30:00+02:00,2021-07-18T07:00:00+02:00,37.63,EUR,,MWh
Power,Intraday,Continuous,NL,ID3,HH,2021-07-18T07:00:00+02:00,2021-07-18T07:30:00+02:00,41.52,EUR,,MWh
Power,Intraday,Continuous,NL,ID3,HH,2021-07-18T07:30:00+02:00,2021-07-18T08:00:00+02:00,41.52,EUR,,MWh
Power,Intraday,Continuous,NL,ID3,HH,2021-07-18T08:00:00+02:00,2021-07-18T08:30:00+02:00,41.86,EUR,,MWh
Power,Intraday,Continuous,NL,ID3,HH,2021-07-18T08:30:00+02:00,2021-07-18T09:00:00+02:00,41.86,EUR,,MWh
Power,Intraday,Continuous,NL,ID3,HH,2021-07-18T09:00:00+02:00,2021-07-18T09:30:00+02:00,31.00,EUR,,MWh
Power,Intraday,Continuous,NL,ID3,HH,2021-07-18T09:30:00+02:00,2021-07-18T10:00:00+02:00,31.00,EUR,,MWh
Power,Intraday,Continuous,NL,ID3,HH,2021-07-18T10:00:00+02:00,2021-07-18T10:30:00+02:00,21.78,EUR,,MWh
Power,Intraday,Continuous,NL,ID3,HH,2021-07-18T10:30:00+02:00,2021-07-18T11:00:00+02:00,21.78,EUR,,MWh
Power,Intraday,Continuous,NL,ID3,HH,2021-07-18T11:00:00+02:00,2021-07-18T11:30:00+02:00,20.19,EUR,,MWh
Power,Intraday,Continuous,NL,ID3,HH,2021-07-18T11:30:00+02:00,2021-07-18T12:00:00+02:00,20.19,EUR,,MWh
Power,Intraday,Continuous,NL,ID3,HH,2021-07-18T12:00:00+02:00,2021-07-18T12:30:00+02:00,6.53,EUR,,MWh
Power,Intraday,Continuous,NL,ID3,HH,2021-07-18T12:30:00+02:00,2021-07-18T13:00:00+02:00,6.53,EUR,,MWh
Power,Intraday,Continuous,NL,ID3,HH,2021-07-18T13:00:00+02:00,2021-07-18T13:30:00+02:00,-22.72,EUR,,MWh
Power,Intraday,Continuous,NL,ID3,HH,2021-07-18T13:30:00+02:00,2021-07-18T14:00:00+02:00,-22.72,EUR,,MWh
Power,Intraday,Continuous,NL,ID3,HH,2021-07-18T14:00:00+02:00,2021-07-18T14:30:00+02:00,-25.99,EUR,,MWh
Power,Intraday,Continuous,NL,ID3,HH,2021-07-18T14:30:00+02:00,2021-07-18T15:00:00+02:00,-25.99,EUR,,MWh
Power,Intraday,Continuous,NL,ID3,HH,2021-07-18T15:00:00+02:00,2021-07-18T15:30:00+02:00,-26.40,EUR,,MWh
Power,Intraday,Continuous,NL,ID3,HH,2021-07-18T15:30:00+02:00,2021-07-18T16:00:00+02:00,-26.40,EUR,,MWh
Power,Intraday,Continuous,NL,ID3,HH,2021-07-18T16:00:00+02:00,2021-07-18T16:30:00+02:00,-24.46,EUR,,MWh
Power,Intraday,Continuous,NL,ID3,HH,2021-07-18T16:30:00+02:00,2021-07-18T17:00:00+02:00,-24.46,EUR,,MWh
Power,Intraday,Continuous,NL,ID3,HH,2021-07-18T17:00:00+02:00,2021-07-18T17:30:00+02:00,10.16,EUR,,MWh
Power,Intraday,Continuous,NL,ID3,HH,2021-07-18T17:30:00+02:00,2021-07-18T18:00:00+02:00,10.16,EUR,,MWh
Power,Intraday,Continuous,NL,ID3,HH,2021-07-18T18:00:00+02:00,2021-07-18T18:30:00+02:00,55.51,EUR,,MWh
Power,Intraday,Continuous,NL,ID3,HH,2021-07-18T18:30:00+02:00,2021-07-18T19:00:00+02:00,55.51,EUR,,MWh
Power,Intraday,Continuous,NL,ID3,HH,2021-07-18T19:00:00+02:00,2021-07-18T19:30:00+02:00,74.64,EUR,,MWh
Power,Intraday,Continuous,NL,ID3,HH,2021-07-18T19:30:00+02:00,2021-07-18T20:00:00+02:00,74.64,EUR,,MWh
Power,Intraday,Continuous,NL,ID3,HH,2021-07-18T20:00:00+02:00,2021-07-18T20:30:00+02:00,84.19,EUR,,MWh
Power,Intraday,Continuous,NL,ID3,HH,2021-07-18T20:30:00+02:00,2021-07-18T21:00:00+02:00,84.19,EUR,,MWh
Power,Intraday,Continuous,NL,ID3,HH,2021-07-18T21:00:00+02:00,2021-07-18T21:30:00+02:00,86.12,EUR,,MWh
Power,Intraday,Continuous,NL,ID3,HH,2021-07-18T21:30:00+02:00,2021-07-18T22:00:00+02:00,86.12,EUR,,MWh
Power,Intraday,Continuous,NL,ID3,HH,2021-07-18T22:00:00+02:00,2021-07-18T22:30:00+02:00,90.87,EUR,,MWh
Power,Intraday,Continuous,NL,ID3,HH,2021-07-18T22:30:00+02:00,2021-07-18T23:00:00+02:00,90.87,EUR,,MWh
Power,Intraday,Continuous,NL,ID3,HH,2021-07-18T23:00:00+02:00,2021-07-18T23:30:00+02:00,88.83,EUR,,MWh
Power,Intraday,Continuous,NL,ID3,HH,2021-07-18T23:30:00+02:00,2021-07-19T00:00:00+02:00,88.83,EUR,,MWh
Power,Intraday,Continuous,NL,IDFULL,QH,2021-07-18T00:00:00+02:00,2021-07-18T00:15:00+02:00,83.47,EUR,14.450,MWh
Power,Intraday,Continuous,NL,IDFULL,QH,2021-07-18T00:15:00+02:00,2021-07-18T00:30:00+02:00,73.63,EUR,,MWh
Power,Intraday,Continuous,NL,IDFULL,QH,2021-07-18T00:30:00+02:00,2021-07-18T00:45:00+02:00,73.63,EUR,,MWh
Power,Intraday,Continuous,NL,IDFULL,QH,2021-07-18T00:45:00+02:00,2021-07-18T01:00:00+02:00,73.63,EUR,,MWh
Power,Intraday,Continuous,NL,IDFULL,QH,2021-07-18T01:00:00+02:00,2021-07-18T01:15:00+02:00,69.11,EUR,20.080,MWh
Power,Intraday,Continuous,NL,IDFULL,QH,2021-07-18T01:15:00+02:00,2021-07-18T01:30:00+02:00,55.22,EUR,12.430,MWh
Power,Intraday,Continuous,NL,IDFULL,QH,2021-07-18T01:30:00+02:00,2021-07-18T01:45:00+02:00,49.94,EUR,13.250,MWh
Power,Intraday,Continuous,NL,IDFULL,QH,2021-07-18T01:45:00+02:00,2021-07-18T02:00:00+02:00,51.69,EUR,23.250,MWh
Power,Intraday,Continuous,NL,IDFULL,QH,2021-07-18T02:00:00+02:00,2021-07-18T02:15:00+02:00,50.46,EUR,6.500,MWh
Power,Intraday,Continuous,NL,IDFULL,QH,2021-07-18T02:15:00+02:00,2021-07-18T02:30:00+02:00,51.74,EUR,,MWh
Power,Intraday,Continuous,NL,IDFULL,QH,2021-07-18T02:30:00+02:00,2021-07-18T02:45:00+02:00,51.74,EUR,,MWh
Power,Intraday,Continuous,NL,IDFULL,QH,2021-07-18T02:45:00+02:00,2021-07-18T03:00:00+02:00,47.99,EUR,6.130,MWh
Power,Intraday,Continuous,NL,IDFULL,QH,2021-07-18T03:00:00+02:00,2021-07-18T03:15:00+02:00,51.47,EUR,6.230,MWh
Power,Intraday,Continuous,NL,IDFULL,QH,2021-07-18T03:15:00+02:00,2021-07-18T03:30:00+02:00,48.13,EUR,3.330,MWh
Power,Intraday,Continuous,NL,IDFULL,QH,2021-07-18T03:30:00+02:00,2021-07-18T03:45:00+02:00,51.06,EUR,3.400,MWh
Power,Intraday,Continuous,NL,IDFULL,QH,2021-07-18T03:45:00+02:00,2021-07-18T04:00:00+02:00,51.16,EUR,5.450,MWh
Power,Intraday,Continuous,NL,IDFULL,QH,2021-07-18T04:00:00+02:00,2021-07-18T04:15:00+02:00,46.38,EUR,6.050,MWh
Power,Intraday,Continuous,NL,IDFULL,QH,2021-07-18T04:15:00+02:00,2021-07-18T04:30:00+02:00,48.24,EUR,4.580,MWh
Power,Intraday,Continuous,NL,IDFULL,QH,2021-07-18T04:30:00+02:00,2021-07-18T04:45:00+02:00,51.30,EUR,4.600,MWh
Power,Intraday,Continuous,NL,IDFULL,QH,2021-07-18T04:45:00+02:00,2021-07-18T05:00:00+02:00,34.97,EUR,4.100,MWh
Power,Intraday,Continuous,NL,IDFULL,QH,2021-07-18T05:00:00+02:00,2021-07-18T05:15:00+02:00,45.18,EUR,17.230,MWh
Power,Intraday,Continuous,NL,IDFULL,QH,2021-07-18T05:15:00+02:00,2021-07-18T05:30:00+02:00,39.44,EUR,8.380,MWh
Power,Intraday,Continuous,NL,IDFULL,QH,2021-07-18T05:30:00+02:00,2021-07-18T05:45:00+02:00,44.15,EUR,9.900,MWh
Power,Intraday,Continuous,NL,IDFULL,QH,2021-07-18T05:45:00+02:00,2021-07-18T06:00:00+02:00,40.97,EUR,13.100,MWh
Power,Intraday,Continuous,NL,IDFULL,QH,2021-07-18T06:00:00+02:00,2021-07-18T06:15:00+02:00,47.31,EUR,7.100,MWh
Power,Intraday,Continuous,NL,IDFULL,QH,2021-07-18T06:15:00+02:00,2021-07-18T06:30:00+02:00,46.49,EUR,5.830,MWh
Power,Intraday,Continuous,NL,IDFULL,QH,2021-07-18T06:30:00+02:00,2021-07-18T06:45:00+02:00,50.17,EUR,3.450,MWh
Power,Intraday,Continuous,NL,IDFULL,QH,2021-07-18T06:45:00+02:00,2021-07-18T07:00:00+02:00,48.81,EUR,3.450,MWh
Power,Intraday,Continuous,NL,IDFULL,QH,2021-07-18T07:00:00+02:00,2021-07-18T07:15:00+02:00,41.52,EUR,,MWh
Power,Intraday,Continuous,NL,IDFULL,QH,2021-07-18T07:15:00+02:00,2021-07-18T07:30:00+02:00,41.52,EUR,,MWh
Power,Intraday,Continuous,NL,IDFULL,QH,2021-07-18T07:30:00+02:00,2021-07-18T07:45:00+02:00,41.52,EUR,,MWh
Power,Intraday,Continuous,NL,IDFULL,QH,2021-07-18T07:45:00+02:00,2021-07-18T08:00:00+02:00,41.52,EUR,,MWh
Power,Intraday,Continuous,NL,IDFULL,QH,2021-07-18T08:00:00+02:00,2021-07-18T08:15:00+02:00,62.60,EUR,47.980,MWh
Power,Intraday,Continuous,NL,IDFULL,QH,2021-07-18T08:15:00+02:00,2021-07-18T08:30:00+02:00,54.10,EUR,34.830,MWh
Power,Intraday,Continuous,NL,IDFULL,QH,2021-07-18T08:30:00+02:00,2021-07-18T08:45:00+02:00,38.30,EUR,31.150,MWh
Power,Intraday,Continuous,NL,IDFULL,QH,2021-07-18T08:45:00+02:00,2021-07-18T09:00:00+02:00,5.18,EUR,31.650,MWh
Power,Intraday,Continuous,NL,IDFULL,QH,2021-07-18T09:00:00+02:00,2021-07-18T09:15:00+02:00,57.72,EUR,73.450,MWh
Power,Intraday,Continuous,NL,IDFULL,QH,2021-07-18T09:15:00+02:00,2021-07-18T09:30:00+02:00,30.10,EUR,33.530,MWh
Power,Intraday,Continuous,NL,IDFULL,QH,2021-07-18T09:30:00+02:00,2021-07-18T09:45:00+02:00,29.10,EUR,61.880,MWh
Power,Intraday,Continuous,NL,IDFULL,QH,2021-07-18T09:45:00+02:00,2021-07-18T10:00:00+02:00,-1.00,EUR,82.180,MWh
Power,Intraday,Continuous,NL,IDFULL,QH,2021-07-18T10:00:00+02:00,2021-07-18T10:15:00+02:00,58.37,EUR,86.900,MWh
Power,Intraday,Continuous,NL,IDFULL,QH,2021-07-18T10:15:00+02:00,2021-07-18T10:30:00+02:00,21.97,EUR,40.150,MWh
Power,Intraday,Continuous,NL,IDFULL,QH,2021-07-18T10:30:00+02:00,2021-07-18T10:45:00+02:00,21.33,EUR,62.680,MWh
Power,Intraday,Continuous,NL,IDFULL,QH,2021-07-18T10:45:00+02:00,2021-07-18T11:00:00+02:00,0.38,EUR,98.800,MWh
Power,Intraday,Continuous,NL,IDFULL,QH,2021-07-18T11:00:00+02:00,2021-07-18T11:15:00+02:00,42.49,EUR,38.580,MWh
Power,Intraday,Continuous,NL,IDFULL,QH,2021-07-18T11:15:00+02:00,2021-07-18T11:30:00+02:00,21.66,EUR,28.150,MWh
Power,Intraday,Continuous,NL,IDFULL,QH,2021-07-18T11:30:00+02:00,2021-07-18T11:45:00+02:00,23.73,EUR,70.350,MWh
Power,Intraday,Continuous,NL,IDFULL,QH,2021-07-18T11:45:00+02:00,2021-07-18T12:00:00+02:00,-13.20,EUR,123.400,MWh
Power,Intraday,Continuous,NL,IDFULL,QH,2021-07-18T12:00:00+02:00,2021-07-18T12:15:00+02:00,32.33,EUR,65.780,MWh
Power,Intraday,Continuous,NL,IDFULL,QH,2021-07-18T12:15:00+02:00,2021-07-18T12:30:00+02:00,-1.56,EUR,51.250,MWh
Power,Intraday,Continuous,NL,IDFULL,QH,2021-07-18T12:30:00+02:00,2021-07-18T12:45:00+02:00,9.33,EUR,38.080,MWh
Power,Intraday,Continuous,NL,IDFULL,QH,2021-07-18T12:45:00+02:00,2021-07-18T13:00:00+02:00,-13.41,EUR,43.680,MWh
Power,Intraday,Continuous,NL,IDFULL,QH,2021-07-18T13:00:00+02:00,2021-07-18T13:15:00+02:00,15.89,EUR,45.300,MWh
Power,Intraday,Continuous,NL,IDFULL,QH,2021-07-18T13:15:00+02:00,2021-07-18T13:30:00+02:00,-24.51,EUR,38.630,MWh
Power,Intraday,Continuous,NL,IDFULL,QH,2021-07-18T13:30:00+02:00,2021-07-18T13:45:00+02:00,-43.74,EUR,40.630,MWh
Power,Intraday,Continuous,NL,IDFULL,QH,2021-07-18T13:45:00+02:00,2021-07-18T14:00:00+02:00,-59.17,EUR,42.850,MWh
Power,Intraday,Continuous,NL,IDFULL,QH,2021-07-18T14:00:00+02:00,2021-07-18T14:15:00+02:00,-8.06,EUR,52.480,MWh
Power,Intraday,Continuous,NL,IDFULL,QH,2021-07-18T14:15:00+02:00,2021-07-18T14:30:00+02:00,-36.75,EUR,42.850,MWh
Power,Intraday,Continuous,NL,IDFULL,QH,2021-07-18T14:30:00+02:00,2021-07-18T14:45:00+02:00,-37.52,EUR,36.800,MWh
Power,Intraday,Continuous,NL,IDFULL,QH,2021-07-18T14:45:00+02:00,2021-07-18T15:00:00+02:00,-38.65,EUR,46.830,MWh
Power,Intraday,Continuous,NL,IDFULL,QH,2021-07-18T15:00:00+02:00,2021-07-18T15:15:00+02:00,-37.35,EUR,65.850,MWh
Power,Intraday,Continuous,NL,IDFULL,QH,2021-07-18T15:15:00+02:00,2021-07-18T15:30:00+02:00,-25.50,EUR,58.650,MWh
Power,Intraday,Continuous,NL,IDFULL,QH,2021-07-18T15:30:00+02:00,2021-07-18T15:45:00+02:00,-45.37,EUR,49.830,MWh
Power,Intraday,Continuous,NL,IDFULL,QH,2021-07-18T15:45:00+02:00,2021-07-18T16:00:00+02:00,-0.37,EUR,59.680,MWh
Power,Intraday,Continuous,NL,IDFULL,QH,2021-07-18T16:00:00+02:00,2021-07-18T16:15:00+02:00,-60.16,EUR,68.480,MWh
Power,Intraday,Continuous,NL,IDFULL,QH,2021-07-18T16:15:00+02:00,2021-07-18T16:30:00+02:00,-33.88,EUR,50.400,MWh
Power,Intraday,Continuous,NL,IDFULL,QH,2021-07-18T16:30:00+02:00,2021-07-18T16:45:00+02:00,-29.20,EUR,44.130,MWh
Power,Intraday,Continuous,NL,IDFULL,QH,2021-07-18T16:45:00+02:00,2021-07-18T17:00:00+02:00,30.40,EUR,140.300,MWh
Power,Intraday,Continuous,NL,IDFULL,QH,2021-07-18T17:00:00+02:00,2021-07-18T17:15:00+02:00,-46.98,EUR,123.830,MWh
Power,Intraday,Continuous,NL,IDFULL,QH,2021-07-18T17:15:00+02:00,2021-07-18T17:30:00+02:00,6.95,EUR,113.030,MWh
Power,Intraday,Continuous,NL,IDFULL,QH,2021-07-18T17:30:00+02:00,2021-07-18T17:45:00+02:00,20.56,EUR,72.530,MWh
Power,Intraday,Continuous,NL,IDFULL,QH,2021-07-18T17:45:00+02:00,2021-07-18T18:00:00+02:00,52.54,EUR,109.780,MWh
Power,Intraday,Continuous,NL,IDFULL,QH,2021-07-18T18:00:00+02:00,2021-07-18T18:15:00+02:00,31.84,EUR,165.230,MWh
Power,Intraday,Continuous,NL,IDFULL,QH,2021-07-18T18:15:00+02:00,2021-07-18T18:30:00+02:00,48.69,EUR,140.650,MWh
Power,Intraday,Continuous,NL,IDFULL,QH,2021-07-18T18:30:00+02:00,2021-07-18T18:45:00+02:00,68.55,EUR,84.650,MWh
Power,Intraday,Continuous,NL,IDFULL,QH,2021-07-18T18:45:00+02:00,2021-07-18T19:00:00+02:00,83.96,EUR,58.150,MWh
Power,Intraday,Continuous,NL,IDFULL,QH,2021-07-18T19:00:00+02:00,2021-07-18T19:15:00+02:00,41.72,EUR,99.950,MWh
Power,Intraday,Continuous,NL,IDFULL,QH,2021-07-18T19:15:00+02:00,2021-07-18T19:30:00+02:00,71.20,EUR,85.100,MWh
Power,Intraday,Continuous,NL,IDFULL,QH,2021-07-18T19:30:00+02:00,2021-07-18T19:45:00+02:00,87.77,EUR,24.700,MWh
Power,Intraday,Continuous,NL,IDFULL,QH,2021-07-18T19:45:00+02:00,2021-07-18T20:00:00+02:00,99.25,EUR,55.100,MWh
Power,Intraday,Continuous,NL,IDFULL,QH,2021-07-18T20:00:00+02:00,2021-07-18T20:15:00+02:00,64.45,EUR,45.950,MWh
Power,Intraday,Continuous,NL,IDFULL,QH,2021-07-18T20:15:00+02:00,2021-07-18T20:30:00+02:00,89.38,EUR,42.100,MWh
Power,Intraday,Continuous,NL,IDFULL,QH,2021-07-18T20:30:00+02:00,2021-07-18T20:45:00+02:00,92.90,EUR,59.550,MWh
Power,Intraday,Continuous,NL,IDFULL,QH,2021-07-18T20:45:00+02:00,2021-07-18T21:00:00+02:00,97.28,EUR,66.850,MWh
Power,Intraday,Continuous,NL,IDFULL,QH,2021-07-18T21:00:00+02:00,2021-07-18T21:15:00+02:00,80.94,EUR,56.730,MWh
Power,Intraday,Continuous,NL,IDFULL,QH,2021-07-18T21:15:00+02:00,2021-07-18T21:30:00+02:00,83.32,EUR,7.930,MWh
Power,Intraday,Continuous,NL,IDFULL,QH,2021-07-18T21:30:00+02:00,2021-07-18T21:45:00+02:00,84.25,EUR,13.680,MWh
Power,Intraday,Continuous,NL,IDFULL,QH,2021-07-18T21:45:00+02:00,2021-07-18T22:00:00+02:00,92.62,EUR,18.380,MWh
Power,Intraday,Continuous,NL,IDFULL,QH,2021-07-18T22:00:00+02:00,2021-07-18T22:15:00+02:00,98.48,EUR,28.330,MWh
Power,Intraday,Continuous,NL,IDFULL,QH,2021-07-18T22:15:00+02:00,2021-07-18T22:30:00+02:00,95.11,EUR,18.580,MWh
Power,Intraday,Continuous,NL,IDFULL,QH,2021-07-18T22:30:00+02:00,2021-07-18T22:45:00+02:00,94.86,EUR,19.750,MWh
Power,Intraday,Continuous,NL,IDFULL,QH,2021-07-18T22:45:00+02:00,2021-07-18T23:00:00+02:00,80.88,EUR,26.330,MWh
Power,Intraday,Continuous,NL,IDFULL,QH,2021-07-18T23:00:00+02:00,2021-07-18T23:15:00+02:00,97.40,EUR,58.850,MWh
Power,Intraday,Continuous,NL,IDFULL,QH,2021-07-18T23:15:00+02:00,2021-07-18T23:30:00+02:00,90.05,EUR,32.630,MWh
Power,Intraday,Continuous,NL,IDFULL,QH,2021-07-18T23:30:00+02:00,2021-07-18T23:45:00+02:00,89.02,EUR,26.030,MWh
Power,Intraday,Continuous,NL,IDFULL,QH,2021-07-18T23:45:00+02:00,2021-07-19T00:00:00+02:00,76.25,EUR,37.800,MWh
Power,Intraday,Continuous,NL,ID1,QH,2021-07-18T00:00:00+02:00,2021-07-18T00:15:00+02:00,83.47,EUR,,MWh
Power,Intraday,Continuous,NL,ID1,QH,2021-07-18T00:15:00+02:00,2021-07-18T00:30:00+02:00,73.63,EUR,,MWh
Power,Intraday,Continuous,NL,ID1,QH,2021-07-18T00:30:00+02:00,2021-07-18T00:45:00+02:00,73.63,EUR,,MWh
Power,Intraday,Continuous,NL,ID1,QH,2021-07-18T00:45:00+02:00,2021-07-18T01:00:00+02:00,73.63,EUR,,MWh
Power,Intraday,Continuous,NL,ID1,QH,2021-07-18T01:00:00+02:00,2021-07-18T01:15:00+02:00,61.18,EUR,,MWh
Power,Intraday,Continuous,NL,ID1,QH,2021-07-18T01:15:00+02:00,2021-07-18T01:30:00+02:00,50.96,EUR,,MWh
Power,Intraday,Continuous,NL,ID1,QH,2021-07-18T01:30:00+02:00,2021-07-18T01:45:00+02:00,45.40,EUR,,MWh
Power,Intraday,Continuous,NL,ID1,QH,2021-07-18T01:45:00+02:00,2021-07-18T02:00:00+02:00,48.43,EUR,,MWh
Power,Intraday,Continuous,NL,ID1,QH,2021-07-18T02:00:00+02:00,2021-07-18T02:15:00+02:00,50.46,EUR,,MWh
Power,Intraday,Continuous,NL,ID1,QH,2021-07-18T02:15:00+02:00,2021-07-18T02:30:00+02:00,51.74,EUR,,MWh
Power,Intraday,Continuous,NL,ID1,QH,2021-07-18T02:30:00+02:00,2021-07-18T02:45:00+02:00,51.74,EUR,,MWh
Power,Intraday,Continuous,NL,ID1,QH,2021-07-18T02:45:00+02:00,2021-07-18T03:00:00+02:00,47.99,EUR,,MWh
Power,Intraday,Continuous,NL,ID1,QH,2021-07-18T03:00:00+02:00,2021-07-18T03:15:00+02:00,51.47,EUR,,MWh
Power,Intraday,Continuous,NL,ID1,QH,2021-07-18T03:15:00+02:00,2021-07-18T03:30:00+02:00,48.13,EUR,,MWh
Power,Intraday,Continuous,NL,ID1,QH,2021-07-18T03:30:00+02:00,2021-07-18T03:45:00+02:00,51.06,EUR,,MWh
Power,Intraday,Continuous,NL,ID1,QH,2021-07-18T03:45:00+02:00,2021-07-18T04:00:00+02:00,51.16,EUR,,MWh
Power,Intraday,Continuous,NL,ID1,QH,2021-07-18T04:00:00+02:00,2021-07-18T04:15:00+02:00,46.38,EUR,,MWh
Power,Intraday,Continuous,NL,ID1,QH,2021-07-18T04:15:00+02:00,2021-07-18T04:30:00+02:00,48.24,EUR,,MWh
Power,Intraday,Continuous,NL,ID1,QH,2021-07-18T04:30:00+02:00,2021-07-18T04:45:00+02:00,51.30,EUR,,MWh
Power,Intraday,Continuous,NL,ID1,QH,2021-07-18T04:45:00+02:00,2021-07-18T05:00:00+02:00,34.97,EUR,,MWh
Power,Intraday,Continuous,NL,ID1,QH,2021-07-18T05:00:00+02:00,2021-07-18T05:15:00+02:00,41.06,EUR,,MWh
Power,Intraday,Continuous,NL,ID1,QH,2021-07-18T05:15:00+02:00,2021-07-18T05:30:00+02:00,36.05,EUR,,MWh
Power,Intraday,Continuous,NL,ID1,QH,2021-07-18T05:30:00+02:00,2021-07-18T05:45:00+02:00,44.15,EUR,,MWh
Power,Intraday,Continuous,NL,ID1,QH,2021-07-18T05:45:00+02:00,2021-07-18T06:00:00+02:00,39.88,EUR,,MWh
Power,Intraday,Continuous,NL,ID1,QH,2021-07-18T06:00:00+02:00,2021-07-18T06:15:00+02:00,47.31,EUR,,MWh
Power,Intraday,Continuous,NL,ID1,QH,2021-07-18T06:15:00+02:00,2021-07-18T06:30:00+02:00,46.49,EUR,,MWh
Power,Intraday,Continuous,NL,ID1,QH,2021-07-18T06:30:00+02:00,2021-07-18T06:45:00+02:00,50.17,EUR,,MWh
Power,Intraday,Continuous,NL,ID1,QH,2021-07-18T06:45:00+02:00,2021-07-18T07:00:00+02:00,48.81,EUR,,MWh
Power,Intraday,Continuous,NL,ID1,QH,2021-07-18T07:00:00+02:00,2021-07-18T07:15:00+02:00,41.52,EUR,,MWh
Power,Intraday,Continuous,NL,ID1,QH,2021-07-18T07:15:00+02:00,2021-07-18T07:30:00+02:00,41.52,EUR,,MWh
Power,Intraday,Continuous,NL,ID1,QH,2021-07-18T07:30:00+02:00,2021-07-18T07:45:00+02:00,41.52,EUR,,MWh
Power,Intraday,Continuous,NL,ID1,QH,2021-07-18T07:45:00+02:00,2021-07-18T08:00:00+02:00,41.52,EUR,,MWh
Power,Intraday,Continuous,NL,ID1,QH,2021-07-18T08:00:00+02:00,2021-07-18T08:15:00+02:00,62.74,EUR,,MWh
Power,Intraday,Continuous,NL,ID1,QH,2021-07-18T08:15:00+02:00,2021-07-18T08:30:00+02:00,54.67,EUR,,MWh
Power,Intraday,Continuous,NL,ID1,QH,2021-07-18T08:30:00+02:00,2021-07-18T08:45:00+02:00,36.50,EUR,,MWh
Power,Intraday,Continuous,NL,ID1,QH,2021-07-18T08:45:00+02:00,2021-07-18T09:00:00+02:00,0.39,EUR,,MWh
Power,Intraday,Continuous,NL,ID1,QH,2021-07-18T09:00:00+02:00,2021-07-18T09:15:00+02:00,58.38,EUR,,MWh
Power,Intraday,Continuous,NL,ID1,QH,2021-07-18T09:15:00+02:00,2021-07-18T09:30:00+02:00,22.79,EUR,,MWh
Power,Intraday,Continuous,NL,ID1,QH,2021-07-18T09:30:00+02:00,2021-07-18T09:45:00+02:00,26.84,EUR,,MWh
Power,Intraday,Continuous,NL,ID1,QH,2021-07-18T09:45:00+02:00,2021-07-18T10:00:00+02:00,-2.49,EUR,,MWh
Power,Intraday,Continuous,NL,ID1,QH,2021-07-18T10:00:00+02:00,2021-07-18T10:15:00+02:00,49.81,EUR,3.930,MWh
Power,Intraday,Continuous,NL,ID1,QH,2021-07-18T10:15:00+02:00,2021-07-18T10:30:00+02:00,21.30,EUR,,MWh
Power,Intraday,Continuous,NL,ID1,QH,2021-07-18T10:30:00+02:00,2021-07-18T10:45:00+02:00,29.56,EUR,,MWh
Power,Intraday,Continuous,NL,ID1,QH,2021-07-18T10:45:00+02:00,2021-07-18T11:00:00+02:00,6.19,EUR,,MWh
Power,Intraday,Continuous,NL,ID1,QH,2021-07-18T11:00:00+02:00,2021-07-18T11:15:00+02:00,43.72,EUR,,MWh
Power,Intraday,Continuous,NL,ID1,QH,2021-07-18T11:15:00+02:00,2021-07-18T11:30:00+02:00,21.23,EUR,,MWh
Power,Intraday,Continuous,NL,ID1,QH,2021-07-18T11:30:00+02:00,2021-07-18T11:45:00+02:00,23.97,EUR,,MWh
Power,Intraday,Continuous,NL,ID1,QH,2021-07-18T11:45:00+02:00,2021-07-18T12:00:00+02:00,-21.64,EUR,8.980,MWh
Power,Intraday,Continuous,NL,ID1,QH,2021-07-18T12:00:00+02:00,2021-07-18T12:15:00+02:00,30.84,EUR,,MWh
Power,Intraday,Continuous,NL,ID1,QH,2021-07-18T12:15:00+02:00,2021-07-18T12:30:00+02:00,-0.01,EUR,,MWh
Power,Intraday,Continuous,NL,ID1,QH,2021-07-18T12:30:00+02:00,2021-07-18T12:45:00+02:00,3.76,EUR,,MWh
Power,Intraday,Continuous,NL,ID1,QH,2021-07-18T12:45:00+02:00,2021-07-18T13:00:00+02:00,-13.07,EUR,,MWh
Power,Intraday,Continuous,NL,ID1,QH,2021-07-18T13:00:00+02:00,2021-07-18T13:15:00+02:00,12.69,EUR,,MWh
Power,Intraday,Continuous,NL,ID1,QH,2021-07-18T13:15:00+02:00,2021-07-18T13:30:00+02:00,-36.32,EUR,,MWh
Power,Intraday,Continuous,NL,ID1,QH,2021-07-18T13:30:00+02:00,2021-07-18T13:45:00+02:00,-150.00,EUR,7.250,MWh
Power,Intraday,Continuous,NL,ID1,QH,2021-07-18T13:45:00+02:00,2021-07-18T14:00:00+02:00,-65.61,EUR,,MWh
Power,Intraday,Continuous,NL,ID1,QH,2021-07-18T14:00:00+02:00,2021-07-18T14:15:00+02:00,-15.19,EUR,,MWh
Power,Intraday,Continuous,NL,ID1,QH,2021-07-18T14:15:00+02:00,2021-07-18T14:30:00+02:00,-43.58,EUR,,MWh
Power,Intraday,Continuous,NL,ID1,QH,2021-07-18T14:30:00+02:00,2021-07-18T14:45:00+02:00,-51.18,EUR,,MWh
Power,Intraday,Continuous,NL,ID1,QH,2021-07-18T14:45:00+02:00,2021-07-18T15:00:00+02:00,-44.30,EUR,,MWh
Power,Intraday,Continuous,NL,ID1,QH,2021-07-18T15:00:00+02:00,2021-07-18T15:15:00+02:00,-48.05,EUR,,MWh
Power,Intraday,Continuous,NL,ID1,QH,2021-07-18T15:15:00+02:00,2021-07-18T15:30:00+02:00,-24.58,EUR,,MWh
Power,Intraday,Continuous,NL,ID1,QH,2021-07-18T15:30:00+02:00,2021-07-18T15:45:00+02:00,-59.51,EUR,,MWh
Power,Intraday,Continuous,NL,ID1,QH,2021-07-18T15:45:00+02:00,2021-07-18T16:00:00+02:00,-4.82,EUR,,MWh
Power,Intraday,Continuous,NL,ID1,QH,2021-07-18T16:00:00+02:00,2021-07-18T16:15:00+02:00,-70.22,EUR,,MWh
Power,Intraday,Continuous,NL,ID1,QH,2021-07-18T16:15:00+02:00,2021-07-18T16:30:00+02:00,-36.70,EUR,,MWh
Power,Intraday,Continuous,NL,ID1,QH,2021-07-18T16:30:00+02:00,2021-07-18T16:45:00+02:00,-12.27,EUR,13.750,MWh
Power,Intraday,Continuous,NL,ID1,QH,2021-07-18T16:45:00+02:00,2021-07-18T17:00:00+02:00,22.00,EUR,2.730,MWh
Power,Intraday,Continuous,NL,ID1,QH,2021-07-18T17:00:00+02:00,2021-07-18T17:15:00+02:00,-46.42,EUR,,MWh
Power,Intraday,Continuous,NL,ID1,QH,2021-07-18T17:15:00+02:00,2021-07-18T17:30:00+02:00,2.16,EUR,,MWh
Power,Intraday,Continuous,NL,ID1,QH,2021-07-18T17:30:00+02:00,2021-07-18T17:45:00+02:00,13.14,EUR,7.750,MWh
Power,Intraday,Continuous,NL,ID1,QH,2021-07-18T17:45:00+02:00,2021-07-18T18:00:00+02:00,27.73,EUR,5.000,MWh
Power,Intraday,Continuous,NL,ID1,QH,2021-07-18T18:00:00+02:00,2021-07-18T18:15:00+02:00,21.97,EUR,,MWh
Power,Intraday,Continuous,NL,ID1,QH,2021-07-18T18:15:00+02:00,2021-07-18T18:30:00+02:00,39.34,EUR,,MWh
Power,Intraday,Continuous,NL,ID1,QH,2021-07-18T18:30:00+02:00,2021-07-18T18:45:00+02:00,67.07,EUR,,MWh
Power,Intraday,Continuous,NL,ID1,QH,2021-07-18T18:45:00+02:00,2021-07-18T19:00:00+02:00,84.80,EUR,,MWh
Power,Intraday,Continuous,NL,ID1,QH,2021-07-18T19:00:00+02:00,2021-07-18T19:15:00+02:00,7.57,EUR,9.000,MWh
Power,Intraday,Continuous,NL,ID1,QH,2021-07-18T19:15:00+02:00,2021-07-18T19:30:00+02:00,71.41,EUR,,MWh
Power,Intraday,Continuous,NL,ID1,QH,2021-07-18T19:30:00+02:00,2021-07-18T19:45:00+02:00,86.43,EUR,,MWh
Power,Intraday,Continuous,NL,ID1,QH,2021-07-18T19:45:00+02:00,2021-07-18T20:00:00+02:00,100.15,EUR,,MWh
Power,Intraday,Continuous,NL,ID1,QH,2021-07-18T20:00:00+02:00,2021-07-18T20:15:00+02:00,69.92,EUR,,MWh
Power,Intraday,Continuous,NL,ID1,QH,2021-07-18T20:15:00+02:00,2021-07-18T20:30:00+02:00,90.12,EUR,,MWh
Power,Intraday,Continuous,NL,ID1,QH,2021-07-18T20:30:00+02:00,2021-07-18T20:45:00+02:00,93.87,EUR,,MWh
Power,Intraday,Continuous,NL,ID1,QH,2021-07-18T20:45:00+02:00,2021-07-18T21:00:00+02:00,98.05,EUR,,MWh
Power,Intraday,Continuous,NL,ID1,QH,2021-07-18T21:00:00+02:00,2021-07-18T21:15:00+02:00,80.82,EUR,,MWh
Power,Intraday,Continuous,NL,ID1,QH,2021-07-18T21:15:00+02:00,2021-07-18T21:30:00+02:00,83.18,EUR,,MWh
Power,Intraday,Continuous,NL,ID1,QH,2021-07-18T21:30:00+02:00,2021-07-18T21:45:00+02:00,81.88,EUR,,MWh
Power,Intraday,Continuous,NL,ID1,QH,2021-07-18T21:45:00+02:00,2021-07-18T22:00:00+02:00,92.70,EUR,,MWh
Power,Intraday,Continuous,NL,ID1,QH,2021-07-18T22:00:00+02:00,2021-07-18T22:15:00+02:00,97.89,EUR,,MWh
Power,Intraday,Continuous,NL,ID1,QH,2021-07-18T22:15:00+02:00,2021-07-18T22:30:00+02:00,94.80,EUR,,MWh
Power,Intraday,Continuous,NL,ID1,QH,2021-07-18T22:30:00+02:00,2021-07-18T22:45:00+02:00,94.71,EUR,,MWh
Power,Intraday,Continuous,NL,ID1,QH,2021-07-18T22:45:00+02:00,2021-07-18T23:00:00+02:00,83.05,EUR,,MWh
Power,Intraday,Continuous,NL,ID1,QH,2021-07-18T23:00:00+02:00,2021-07-18T23:15:00+02:00,98.23,EUR,,MWh
Power,Intraday,Continuous,NL,ID1,QH,2021-07-18T23:15:00+02:00,2021-07-18T23:30:00+02:00,89.05,EUR,,MWh
Power,Intraday,Continuous,NL,ID1,QH,2021-07-18T23:30:00+02:00,2021-07-18T23:45:00+02:00,91.76,EUR,,MWh
Power,Intraday,Continuous,NL,ID1,QH,2021-07-18T23:45:00+02:00,2021-07-19T00:00:00+02:00,82.43,EUR,,MWh
Power,Intraday,Continuous,NL,ID3,QH,2021-07-18T00:00:00+02:00,2021-07-18T00:15:00+02:00,83.47,EUR,14.450,MWh
Power,Intraday,Continuous,NL,ID3,QH,2021-07-18T00:15:00+02:00,2021-07-18T00:30:00+02:00,73.63,EUR,,MWh
Power,Intraday,Continuous,NL,ID3,QH,2021-07-18T00:30:00+02:00,2021-07-18T00:45:00+02:00,73.63,EUR,,MWh
Power,Intraday,Continuous,NL,ID3,QH,2021-07-18T00:45:00+02:00,2021-07-18T01:00:00+02:00,73.63,EUR,,MWh
Power,Intraday,Continuous,NL,ID3,QH,2021-07-18T01:00:00+02:00,2021-07-18T01:15:00+02:00,61.18,EUR,4.250,MWh
Power,Intraday,Continuous,NL,ID3,QH,2021-07-18T01:15:00+02:00,2021-07-18T01:30:00+02:00,50.96,EUR,7.330,MWh
Power,Intraday,Continuous,NL,ID3,QH,2021-07-18T01:30:00+02:00,2021-07-18T01:45:00+02:00,45.40,EUR,6.750,MWh
Power,Intraday,Continuous,NL,ID3,QH,2021-07-18T01:45:00+02:00,2021-07-18T02:00:00+02:00,48.43,EUR,13.030,MWh
Power,Intraday,Continuous,NL,ID3,QH,2021-07-18T02:00:00+02:00,2021-07-18T02:15:00+02:00,50.46,EUR,,MWh
Power,Intraday,Continuous,NL,ID3,QH,2021-07-18T02:15:00+02:00,2021-07-18T02:30:00+02:00,51.74,EUR,,MWh
Power,Intraday,Continuous,NL,ID3,QH,2021-07-18T02:30:00+02:00,2021-07-18T02:45:00+02:00,51.74,EUR,,MWh
Power,Intraday,Continuous,NL,ID3,QH,2021-07-18T02:45:00+02:00,2021-07-18T03:00:00+02:00,47.99,EUR,,MWh
Power,Intraday,Continuous,NL,ID3,QH,2021-07-18T03:00:00+02:00,2021-07-18T03:15:00+02:00,51.47,EUR,,MWh
Power,Intraday,Continuous,NL,ID3,QH,2021-07-18T03:15:00+02:00,2021-07-18T03:30:00+02:00,48.13,EUR,,MWh
Power,Intraday,Continuous,NL,ID3,QH,2021-07-18T03:30:00+02:00,2021-07-18T03:45:00+02:00,51.06,EUR,,MWh
Power,Intraday,Continuous,NL,ID3,QH,2021-07-18T03:45:00+02:00,2021-07-18T04:00:00+02:00,51.16,EUR,,MWh
Power,Intraday,Continuous,NL,ID3,QH,2021-07-18T04:00:00+02:00,2021-07-18T04:15:00+02:00,46.38,EUR,,MWh
Power,Intraday,Continuous,NL,ID3,QH,2021-07-18T04:15:00+02:00,2021-07-18T04:30:00+02:00,48.24,EUR,,MWh
Power,Intraday,Continuous,NL,ID3,QH,2021-07-18T04:30:00+02:00,2021-07-18T04:45:00+02:00,51.30,EUR,,MWh
Power,Intraday,Continuous,NL,ID3,QH,2021-07-18T04:45:00+02:00,2021-07-18T05:00:00+02:00,34.97,EUR,,MWh
Power,Intraday,Continuous,NL,ID3,QH,2021-07-18T05:00:00+02:00,2021-07-18T05:15:00+02:00,41.06,EUR,7.300,MWh
Power,Intraday,Continuous,NL,ID3,QH,2021-07-18T05:15:00+02:00,2021-07-18T05:30:00+02:00,36.05,EUR,2.950,MWh
Power,Intraday,Continuous,NL,ID3,QH,2021-07-18T05:30:00+02:00,2021-07-18T05:45:00+02:00,44.15,EUR,,MWh
Power,Intraday,Continuous,NL,ID3,QH,2021-07-18T05:45:00+02:00,2021-07-18T06:00:00+02:00,39.88,EUR,3.630,MWh
Power,Intraday,Continuous,NL,ID3,QH,2021-07-18T06:00:00+02:00,2021-07-18T06:15:00+02:00,47.31,EUR,,MWh
Power,Intraday,Continuous,NL,ID3,QH,2021-07-18T06:15:00+02:00,2021-07-18T06:30:00+02:00,46.49,EUR,,MWh
Power,Intraday,Continuous,NL,ID3,QH,2021-07-18T06:30:00+02:00,2021-07-18T06:45:00+02:00,50.17,EUR,,MWh
Power,Intraday,Continuous,NL,ID3,QH,2021-07-18T06:45:00+02:00,2021-07-18T07:00:00+02:00,48.81,EUR,,MWh
Power,Intraday,Continuous,NL,ID3,QH,2021-07-18T07:00:00+02:00,2021-07-18T07:15:00+02:00,41.52,EUR,,MWh
Power,Intraday,Continuous,NL,ID3,QH,2021-07-18T07:15:00+02:00,2021-07-18T07:30:00+02:00,41.52,EUR,,MWh
Power,Intraday,Continuous,NL,ID3,QH,2021-07-18T07:30:00+02:00,2021-07-18T07:45:00+02:00,41.52,EUR,,MWh
Power,Intraday,Continuous,NL,ID3,QH,2021-07-18T07:45:00+02:00,2021-07-18T08:00:00+02:00,41.52,EUR,,MWh
Power,Intraday,Continuous,NL,ID3,QH,2021-07-18T08:00:00+02:00,2021-07-18T08:15:00+02:00,62.74,EUR,38.700,MWh
Power,Intraday,Continuous,NL,ID3,QH,2021-07-18T08:15:00+02:00,2021-07-18T08:30:00+02:00,54.67,EUR,27.700,MWh
Power,Intraday,Continuous,NL,ID3,QH,2021-07-18T08:30:00+02:00,2021-07-18T08:45:00+02:00,36.50,EUR,24.830,MWh
Power,Intraday,Continuous,NL,ID3,QH,2021-07-18T08:45:00+02:00,2021-07-18T09:00:00+02:00,0.39,EUR,24.900,MWh
Power,Intraday,Continuous,NL,ID3,QH,2021-07-18T09:00:00+02:00,2021-07-18T09:15:00+02:00,58.38,EUR,63.080,MWh
Power,Intraday,Continuous,NL,ID3,QH,2021-07-18T09:15:00+02:00,2021-07-18T09:30:00+02:00,22.79,EUR,23.530,MWh
Power,Intraday,Continuous,NL,ID3,QH,2021-07-18T09:30:00+02:00,2021-07-18T09:45:00+02:00,26.84,EUR,51.280,MWh
Power,Intraday,Continuous,NL,ID3,QH,2021-07-18T09:45:00+02:00,2021-07-18T10:00:00+02:00,-2.49,EUR,72.580,MWh
Power,Intraday,Continuous,NL,ID3,QH,2021-07-18T10:00:00+02:00,2021-07-18T10:15:00+02:00,56.62,EUR,68.750,MWh
Power,Intraday,Continuous,NL,ID3,QH,2021-07-18T10:15:00+02:00,2021-07-18T10:30:00+02:00,21.30,EUR,30.600,MWh
Power,Intraday,Continuous,NL,ID3,QH,2021-07-18T10:30:00+02:00,2021-07-18T10:45:00+02:00,29.56,EUR,40.600,MWh
Power,Intraday,Continuous,NL,ID3,QH,2021-07-18T10:45:00+02:00,2021-07-18T11:00:00+02:00,6.19,EUR,71.280,MWh
Power,Intraday,Continuous,NL,ID3,QH,2021-07-18T11:00:00+02:00,2021-07-18T11:15:00+02:00,43.72,EUR,32.980,MWh
Power,Intraday,Continuous,NL,ID3,QH,2021-07-18T11:15:00+02:00,2021-07-18T11:30:00+02:00,21.23,EUR,25.450,MWh
Power,Intraday,Continuous,NL,ID3,QH,2021-07-18T11:30:00+02:00,2021-07-18T11:45:00+02:00,23.97,EUR,52.580,MWh
Power,Intraday,Continuous,NL,ID3,QH,2021-07-18T11:45:00+02:00,2021-07-18T12:00:00+02:00,-10.79,EUR,106.580,MWh
Power,Intraday,Continuous,NL,ID3,QH,2021-07-18T12:00:00+02:00,2021-07-18T12:15:00+02:00,30.84,EUR,55.650,MWh
Power,Intraday,Continuous,NL,ID3,QH,2021-07-18T12:15:00+02:00,2021-07-18T12:30:00+02:00,-0.01,EUR,41.500,MWh
Power,Intraday,Continuous,NL,ID3,QH,2021-07-18T12:30:00+02:00,2021-07-18T12:45:00+02:00,3.76,EUR,23.230,MWh
Power,Intraday,Continuous,NL,ID3,QH,2021-07-18T12:45:00+02:00,2021-07-18T13:00:00+02:00,-13.07,EUR,33.680,MWh
Power,Intraday,Continuous,NL,ID3,QH,2021-07-18T13:00:00+02:00,2021-07-18T13:15:00+02:00,12.69,EUR,25.130,MWh
Power,Intraday,Continuous,NL,ID3,QH,2021-07-18T13:15:00+02:00,2021-07-18T13:30:00+02:00,-36.32,EUR,19.880,MWh
Power,Intraday,Continuous,NL,ID3,QH,2021-07-18T13:30:00+02:00,2021-07-18T13:45:00+02:00,-54.89,EUR,25.400,MWh
Power,Intraday,Continuous,NL,ID3,QH,2021-07-18T13:45:00+02:00,2021-07-18T14:00:00+02:00,-65.61,EUR,16.400,MWh
Power,Intraday,Continuous,NL,ID3,QH,2021-07-18T14:00:00+02:00,2021-07-18T14:15:00+02:00,-15.19,EUR,22.030,MWh
Power,Intraday,Continuous,NL,ID3,QH,2021-07-18T14:15:00+02:00,2021-07-18T14:30:00+02:00,-43.58,EUR,27.650,MWh
Power,Intraday,Continuous,NL,ID3,QH,2021-07-18T14:30:00+02:00,2021-07-18T14:45:00+02:00,-51.18,EUR,14.980,MWh
Power,Intraday,Continuous,NL,ID3,QH,2021-07-18T14:45:00+02:00,2021-07-18T15:00:00+02:00,-44.30,EUR,25.750,MWh
Power,Intraday,Continuous,NL,ID3,QH,2021-07-18T15:00:00+02:00,2021-07-18T15:15:00+02:00,-48.05,EUR,35.180,MWh
Power,Intraday,Continuous,NL,ID3,QH,2021-07-18T15:15:00+02:00,2021-07-18T15:30:00+02:00,-24.58,EUR,39.980,MWh
Power,Intraday,Continuous,NL,ID3,QH,2021-07-18T15:30:00+02:00,2021-07-18T15:45:00+02:00,-59.51,EUR,23.130,MWh
Power,Intraday,Continuous,NL,ID3,QH,2021-07-18T15:45:00+02:00,2021-07-18T16:00:00+02:00,-4.82,EUR,20.980,MWh
Power,Intraday,Continuous,NL,ID3,QH,2021-07-18T16:00:00+02:00,2021-07-18T16:15:00+02:00,-70.22,EUR,34.650,MWh
Power,Intraday,Continuous,NL,ID3,QH,2021-07-18T16:15:00+02:00,2021-07-18T16:30:00+02:00,-36.70,EUR,30.750,MWh
Power,Intraday,Continuous,NL,ID3,QH,2021-07-18T16:30:00+02:00,2021-07-18T16:45:00+02:00,-25.89,EUR,36.130,MWh
Power,Intraday,Continuous,NL,ID3,QH,2021-07-18T16:45:00+02:00,2021-07-18T17:00:00+02:00,27.59,EUR,100.530,MWh
Power,Intraday,Continuous,NL,ID3,QH,2021-07-18T17:00:00+02:00,2021-07-18T17:15:00+02:00,-46.42,EUR,91.330,MWh
Power,Intraday,Continuous,NL,ID3,QH,2021-07-18T17:15:00+02:00,2021-07-18T17:30:00+02:00,2.16,EUR,81.100,MWh
Power,Intraday,Continuous,NL,ID3,QH,2021-07-18T17:30:00+02:00,2021-07-18T17:45:00+02:00,18.45,EUR,47.950,MWh
Power,Intraday,Continuous,NL,ID3,QH,2021-07-18T17:45:00+02:00,2021-07-18T18:00:00+02:00,51.65,EUR,45.850,MWh
Power,Intraday,Continuous,NL,ID3,QH,2021-07-18T18:00:00+02:00,2021-07-18T18:15:00+02:00,21.97,EUR,31.430,MWh
Power,Intraday,Continuous,NL,ID3,QH,2021-07-18T18:15:00+02:00,2021-07-18T18:30:00+02:00,39.34,EUR,40.950,MWh
Power,Intraday,Continuous,NL,ID3,QH,2021-07-18T18:30:00+02:00,2021-07-18T18:45:00+02:00,67.07,EUR,47.900,MWh
Power,Intraday,Continuous,NL,ID3,QH,2021-07-18T18:45:00+02:00,2021-07-18T19:00:00+02:00,84.80,EUR,42.100,MWh
Power,Intraday,Continuous,NL,ID3,QH,2021-07-18T19:00:00+02:00,2021-07-18T19:15:00+02:00,39.81,EUR,81.550,MWh
Power,Intraday,Continuous,NL,ID3,QH,2021-07-18T19:15:00+02:00,2021-07-18T19:30:00+02:00,71.41,EUR,72.530,MWh
Power,Intraday,Continuous,NL,ID3,QH,2021-07-18T19:30:00+02:00,2021-07-18T19:45:00+02:00,86.43,EUR,17.250,MWh
Power,Intraday,Continuous,NL,ID3,QH,2021-07-18T19:45:00+02:00,2021-07-18T20:00:00+02:00,100.15,EUR,44.550,MWh
Power,Intraday,Continuous,NL,ID3,QH,2021-07-18T20:00:00+02:00,2021-07-18T20:15:00+02:00,69.92,EUR,24.400,MWh
Power,Intraday,Continuous,NL,ID3,QH,2021-07-18T20:15:00+02:00,2021-07-18T20:30:00+02:00,90.12,EUR,34.550,MWh
Power,Intraday,Continuous,NL,ID3,QH,2021-07-18T20:30:00+02:00,2021-07-18T20:45:00+02:00,93.87,EUR,49.600,MWh
Power,Intraday,Continuous,NL,ID3,QH,2021-07-18T20:45:00+02:00,2021-07-18T21:00:00+02:00,98.05,EUR,57.580,MWh
Power,Intraday,Continuous,NL,ID3,QH,2021-07-18T21:00:00+02:00,2021-07-18T21:15:00+02:00,80.82,EUR,41.630,MWh
Power,Intraday,Continuous,NL,ID3,QH,2021-07-18T21:15:00+02:00,2021-07-18T21:30:00+02:00,83.18,EUR,2.800,MWh
Power,Intraday,Continuous,NL,ID3,QH,2021-07-18T21:30:00+02:00,2021-07-18T21:45:00+02:00,81.88,EUR,8.930,MWh
Power,Intraday,Continuous,NL,ID3,QH,2021-07-18T21:45:00+02:00,2021-07-18T22:00:00+02:00,92.70,EUR,14.630,MWh
Power,Intraday,Continuous,NL,ID3,QH,2021-07-18T22:00:00+02:00,2021-07-18T22:15:00+02:00,97.89,EUR,21.980,MWh
Power,Intraday,Continuous,NL,ID3,QH,2021-07-18T22:15:00+02:00,2021-07-18T22:30:00+02:00,94.80,EUR,12.050,MWh
Power,Intraday,Continuous,NL,ID3,QH,2021-07-18T22:30:00+02:00,2021-07-18T22:45:00+02:00,94.71,EUR,12.380,MWh
Power,Intraday,Continuous,NL,ID3,QH,2021-07-18T22:45:00+02:00,2021-07-18T23:00:00+02:00,83.05,EUR,15.650,MWh
Power,Intraday,Continuous,NL,ID3,QH,2021-07-18T23:00:00+02:00,2021-07-18T23:15:00+02:00,98.23,EUR,46.130,MWh
Power,Intraday,Continuous,NL,ID3,QH,2021-07-18T23:15:00+02:00,2021-07-18T23:30:00+02:00,89.05,EUR,15.480,MWh
Power,Intraday,Continuous,NL,ID3,QH,2021-07-18T23:30:00+02:00,2021-07-18T23:45:00+02:00,91.76,EUR,9.850,MWh
Power,Intraday,Continuous,NL,ID3,QH,2021-07-18T23:45:00+02:00,2021-07-19T00:00:00+02:00,82.43,EUR,14.780,MWh
Power,Intraday,Continuous,NL,IDFULL,BASE,2021-07-18T00:00:00+02:00,2021-07-19T00:00:00+02:00,37.80,EUR,15687.000,MWh
Power,Intraday,Continuous,NL,IDFULL,PEAK,2021-07-18T08:00:00+02:00,2021-07-18T20:00:00+02:00,13.51,EUR,11625.700,MWh
