Commodity,NominationModality,TradingModality,MarketArea,IndexName,TimeResolution,DeliveryStart,DeliveryEnd,IndexPrice,Currency,Volume,VolumeUnit
Power,Intraday,Continuous,NL,IDFULL,H,2021-02-03T00:00:00+01:00,2021-02-03T01:00:00+01:00,35.18,EUR,351.100,MWh
Power,Intraday,Continuous,NL,IDFULL,H,2021-02-03T01:00:00+01:00,2021-02-03T02:00:00+01:00,27.58,EUR,199.400,MWh
Power,Intraday,Continuous,NL,IDFULL,H,2021-02-03T02:00:00+01:00,2021-02-03T03:00:00+01:00,28.26,EUR,120.700,MWh
Power,Intraday,Continuous,NL,IDFULL,H,2021-02-03T03:00:00+01:00,2021-02-03T04:00:00+01:00,28.64,EUR,382.400,MWh
Power,Intraday,Continuous,NL,IDFULL,H,2021-02-03T04:00:00+01:00,2021-02-03T05:00:00+01:00,31.69,EUR,530.600,MWh
Power,Intraday,Continuous,NL,IDFULL,H,2021-02-03T05:00:00+01:00,2021-02-03T06:00:00+01:00,30.38,EUR,708.900,MWh
Power,Intraday,Continuous,NL,IDFULL,H,2021-02-03T06:00:00+01:00,2021-02-03T07:00:00+01:00,38.13,EUR,860.200,MWh
Power,Intraday,Continuous,NL,IDFULL,H,2021-02-03T07:00:00+01:00,2021-02-03T08:00:00+01:00,52.13,EUR,367.500,MWh
Power,Intraday,Continuous,NL,IDFULL,H,2021-02-03T08:00:00+01:00,2021-02-03T09:00:00+01:00,67.13,EUR,466.600,MWh
Power,Intraday,Continuous,NL,IDFULL,H,2021-02-03T09:00:00+01:00,2021-02-03T10:00:00+01:00,57.66,EUR,529.300,MWh
Power,Intraday,Continuous,NL,IDFULL,H,2021-02-03T10:00:00+01:00,2021-02-03T11:00:00+01:00,60.42,EUR,677.000,MWh
Power,Intraday,Continuous,NL,IDFULL,H,2021-02-03T11:00:00+01:00,2021-02-03T12:00:00+01:00,63.34,EUR,699.900,MWh
Power,Intraday,Continuous,NL,IDFULL,H,2021-02-03T12:00:00+01:00,2021-02-03T13:00:00+01:00,61.97,EUR,839.100,MWh
Power,Intraday,Continuous,NL,IDFULL,H,2021-02-03T13:00:00+01:00,2021-02-03T14:00:00+01:00,58.51,EUR,572.100,MWh
Power,Intraday,Continuous,NL,IDFULL,H,2021-02-03T14:00:00+01:00,2021-02-03T15:00:00+01:00,58.83,EUR,155.600,MWh
Power,Intraday,Continuous,NL,IDFULL,H,2021-02-03T15:00:00+01:00,2021-02-03T16:00:00+01:00,59.31,EUR,215.000,MWh
Power,Intraday,Continuous,NL,IDFULL,H,2021-02-03T16:00:00+01:00,2021-02-03T17:00:00+01:00,52.94,EUR,969.600,MWh
Power,Intraday,Continuous,NL,IDFULL,H,2021-02-03T17:00:00+01:00,2021-02-03T18:00:00+01:00,50.46,EUR,791.100,MWh
Power,Intraday,Continuous,NL,IDFULL,H,2021-02-03T18:00:00+01:00,2021-02-03T19:00:00+01:00,64.93,EUR,844.300,MWh
Power,Intraday,Continuous,NL,IDFULL,H,2021-02-03T19:00:00+01:00,2021-02-03T20:00:00+01:00,101.71,EUR,256.600,MWh
Power,Intraday,Continuous,NL,IDFULL,H,2021-02-03T20:00:00+01:00,2021-02-03T21:00:00+01:00,66.90,EUR,475.900,MWh
Power,Intraday,Continuous,NL,IDFULL,H,2021-02-03T21:00:00+01:00,2021-02-03T22:00:00+01:00,53.17,EUR,1074.700,MWh
Power,Intraday,Continuous,NL,IDFULL,H,2021-02-03T22:00:00+01:00,2021-02-03T23:00:00+01:00,48.27,EUR,702.700,MWh
Power,Intraday,Continuous,NL,IDFULL,H,2021-02-03T23:00:00+01:00,2021-02-04T00:00:00+01:00,42.78,EUR,408.800,MWh
Power,Intraday,Continuous,NL,ID1,H,2021-02-03T00:00:00+01:00,2021-02-03T01:00:00+01:00,35.19,EUR,,MWh
Power,Intraday,Continuous,NL,ID1,H,2021-02-03T01:00:00+01:00,2021-02-03T02:00:00+01:00,27.32,EUR,,MWh
Power,Intraday,Continuous,NL,ID1,H,2021-02-03T02:00:00+01:00,2021-02-03T03:00:00+01:00,26.10,EUR,,MWh
Power,Intraday,Continuous,NL,ID1,H,2021-02-03T03:00:00+01:00,2021-02-03T04:00:00+01:00,42.54,EUR,31.000,MWh
Power,Intraday,Continuous,NL,ID1,H,2021-02-03T04:00:00+01:00,2021-02-03T05:00:00+01:00,31.72,EUR,,MWh
Power,Intraday,Continuous,NL,ID1,H,2021-02-03T05:00:00+01:00,2021-02-03T06:00:00+01:00,32.13,EUR,,MWh
Power,Intraday,Continuous,NL,ID1,H,2021-02-03T06:00:00+01:00,2021-02-03T07:00:00+01:00,38.26,EUR,,MWh
Power,Intraday,Continuous,NL,ID1,H,2021-02-03T07:00:00+01:00,2021-02-03T08:00:00+01:00,52.54,EUR,,MWh
Power,Intraday,Continuous,NL,ID1,H,2021-02-03T08:00:00+01:00,2021-02-03T09:00:00+01:00,108.89,EUR,76.000,MWh
Power,Intraday,Continuous,NL,ID1,H,2021-02-03T09:00:00+01:00,2021-02-03T10:00:00+01:00,61.92,EUR,41.200,MWh
Power,Intraday,Continuous,NL,ID1,H,2021-02-03T10:00:00+01:00,2021-02-03T11:00:00+01:00,67.73,EUR,61.000,MWh
Power,Intraday,Continuous,NL,ID1,H,2021-02-03T11:00:00+01:00,2021-02-03T12:00:00+01:00,66.59,EUR,112.700,MWh
Power,Intraday,Continuous,NL,ID1,H,2021-02-03T12:00:00+01:00,2021-02-03T13:00:00+01:00,63.53,EUR,,MWh
Power,Intraday,Continuous,NL,ID1,H,2021-02-03T13:00:00+01:00,2021-02-03T14:00:00+01:00,54.33,EUR,60.000,MWh
Power,Intraday,Continuous,NL,ID1,H,2021-02-03T14:00:00+01:00,2021-02-03T15:00:00+01:00,64.29,EUR,,MWh
Power,Intraday,Continuous,NL,ID1,H,2021-02-03T15:00:00+01:00,2021-02-03T16:00:00+01:00,66.73,EUR,37.800,MWh
Power,Intraday,Continuous,NL,ID1,H,2021-02-03T16:00:00+01:00,2021-02-03T17:00:00+01:00,56.12,EUR,99.000,MWh
Power,Intraday,Continuous,NL,ID1,H,2021-02-03T17:00:00+01:00,2021-02-03T18:00:00+01:00,45.78,EUR,112.400,MWh
Power,Intraday,Continuous,NL,ID1,H,2021-02-03T18:00:00+01:00,2021-02-03T19:00:00+01:00,77.46,EUR,35.100,MWh
Power,Intraday,Continuous,NL,ID1,H,2021-02-03T19:00:00+01:00,2021-02-03T20:00:00+01:00,160.79,EUR,69.400,MWh
Power,Intraday,Continuous,NL,ID1,H,2021-02-03T20:00:00+01:00,2021-02-03T21:00:00+01:00,69.28,EUR,83.900,MWh
Power,Intraday,Continuous,NL,ID1,H,2021-02-03T21:00:00+01:00,2021-02-03T22:00:00+01:00,36.77,EUR,12.100,MWh
Power,Intraday,Continuous,NL,ID1,H,2021-02-03T22:00:00+01:00,2021-02-03T23:00:00+01:00,41.16,EUR,29.100,MWh
Power,Intraday,Continuous,NL,ID1,H,2021-02-03T23:00:00+01:00,2021-02-04T00:00:00+01:00,41.14,EUR,,MWh
Power,Intraday,Continuous,NL,ID3,H,2021-02-03T00:00:00+01:00,2021-02-03T01:00:00+01:00,35.19,EUR,339.200,MWh
Power,Intraday,Continuous,NL,ID3,H,2021-02-03T01:00:00+01:00,2021-02-03T02:00:00+01:00,27.32,EUR,186.800,MWh
Power,Intraday,Continuous,NL,ID3,H,2021-02-03T02:00:00+01:00,2021-02-03T03:00:00+01:00,26.10,EUR,38.400,MWh
Power,Intraday,Continuous,NL,ID3,H,2021-02-03T03:00:00+01:00,2021-02-03T04:00:00+01:00,28.80,EUR,306.200,MWh
Power,Intraday,Continuous,NL,ID3,H,2021-02-03T04:00:00+01:00,2021-02-03T05:00:00+01:00,31.72,EUR,438.300,MWh
Power,Intraday,Continuous,NL,ID3,H,2021-02-03T05:00:00+01:00,2021-02-03T06:00:00+01:00,32.13,EUR,484.700,MWh
Power,Intraday,Continuous,NL,ID3,H,2021-02-03T06:00:00+01:00,2021-02-03T07:00:00+01:00,38.26,EUR,308.700,MWh
Power,Intraday,Continuous,NL,ID3,H,2021-02-03T07:00:00+01:00,2021-02-03T08:00:00+01:00,52.54,EUR,205.300,MWh
Power,Intraday,Continuous,NL,ID3,H,2021-02-03T08:00:00+01:00,2021-02-03T09:00:00+01:00,68.63,EUR,394.700,MWh
Power,Intraday,Continuous,NL,ID3,H,2021-02-03T09:00:00+01:00,2021-02-03T10:00:00+01:00,57.65,EUR,437.000,MWh
Power,Intraday,Continuous,NL,ID3,H,2021-02-03T10:00:00+01:00,2021-02-03T11:00:00+01:00,61.57,EUR,535.500,MWh
Power,Intraday,Continuous,NL,ID3,H,2021-02-03T11:00:00+01:00,2021-02-03T12:00:00+01:00,65.06,EUR,534.100,MWh
Power,Intraday,Continuous,NL,ID3,H,2021-02-03T12:00:00+01:00,2021-02-03T13:00:00+01:00,63.53,EUR,566.000,MWh
Power,Intraday,Continuous,NL,ID3,H,2021-02-03T13:00:00+01:00,2021-02-03T14:00:00+01:00,59.28,EUR,485.800,MWh
Power,Intraday,Continuous,NL,ID3,H,2021-02-03T14:00:00+01:00,2021-02-03T15:00:00+01:00,64.29,EUR,84.800,MWh
Power,Intraday,Continuous,NL,ID3,H,2021-02-03T15:00:00+01:00,2021-02-03T16:00:00+01:00,63.71,EUR,116.600,MWh
Power,Intraday,Continuous,NL,ID3,H,2021-02-03T16:00:00+01:00,2021-02-03T17:00:00+01:00,53.00,EUR,727.300,MWh
Power,Intraday,Continuous,NL,ID3,H,2021-02-03T17:00:00+01:00,2021-02-03T18:00:00+01:00,49.65,EUR,637.400,MWh
Power,Intraday,Continuous,NL,ID3,H,2021-02-03T18:00:00+01:00,2021-02-03T19:00:00+01:00,69.50,EUR,493.700,MWh
Power,Intraday,Continuous,NL,ID3,H,2021-02-03T19:00:00+01:00,2021-02-03T20:00:00+01:00,142.16,EUR,113.400,MWh
Power,Intraday,Continuous,NL,ID3,H,2021-02-03T20:00:00+01:00,2021-02-03T21:00:00+01:00,74.60,EUR,203.100,MWh
Power,Intraday,Continuous,NL,ID3,H,2021-02-03T21:00:00+01:00,2021-02-03T22:00:00+01:00,55.01,EUR,537.400,MWh
Power,Intraday,Continuous,NL,ID3,H,2021-02-03T22:00:00+01:00,2021-02-03T23:00:00+01:00,46.33,EUR,373.600,MWh
Power,Intraday,Continuous,NL,ID3,H,2021-02-03T23:00:00+01:00,2021-02-04T00:00:00+01:00,41.14,EUR,239.800,MWh
Power,Intraday,Continuous,NL,IDFULL,HH,2021-02-03T00:00:00+01:00,2021-02-03T00:30:00+01:00,35.18,EUR,,MWh
Power,Intraday,Continuous,NL,IDFULL,HH,2021-02-03T00:30:00+01:00,2021-02-03T01:00:00+01:00,35.18,EUR,,MWh
Power,Intraday,Continuous,NL,IDFULL,HH,2021-02-03T01:00:00+01:00,2021-02-03T01:30:00+01:00,27.58,EUR,,MWh
Power,Intraday,Continuous,NL,IDFULL,HH,2021-02-03T01:30:00+01:00,2021-02-03T02:00:00+01:00,27.58,EUR,,MWh
Power,Intraday,Continuous,NL,IDFULL,HH,2021-02-03T02:00:00+01:00,2021-02-03T02:30:00+01:00,28.26,EUR,,MWh
Power,Intraday,Continuous,NL,IDFULL,HH,2021-02-03T02:30:00+01:00,2021-02-03T03:00:00+01:00,28.26,EUR,,MWh
Power,Intraday,Continuous,NL,IDFULL,HH,2021-02-03T03:00:00+01:00,2021-02-03T03:30:00+01:00,28.64,EUR,,MWh
Power,Intraday,Continuous,NL,IDFULL,HH,2021-02-03T03:30:00+01:00,2021-02-03T04:00:00+01:00,28.64,EUR,,MWh
Power,Intraday,Continuous,NL,IDFULL,HH,2021-02-03T04:00:00+01:00,2021-02-03T04:30:00+01:00,31.69,EUR,,MWh
Power,Intraday,Continuous,NL,IDFULL,HH,2021-02-03T04:30:00+01:00,2021-02-03T05:00:00+01:00,31.69,EUR,,MWh
Power,Intraday,Continuous,NL,IDFULL,HH,2021-02-03T05:00:00+01:00,2021-02-03T05:30:00+01:00,30.38,EUR,,MWh
Power,Intraday,Continuous,NL,IDFULL,HH,2021-02-03T05:30:00+01:00,2021-02-03T06:00:00+01:00,30.38,EUR,,MWh
Power,Intraday,Continuous,NL,IDFULL,HH,2021-02-03T06:00:00+01:00,2021-02-03T06:30:00+01:00,38.13,EUR,,MWh
Power,Intraday,Continuous,NL,IDFULL,HH,2021-02-03T06:30:00+01:00,2021-02-03T07:00:00+01:00,38.13,EUR,,MWh
Power,Intraday,Continuous,NL,IDFULL,HH,2021-02-03T07:00:00+01:00,2021-02-03T07:30:00+01:00,52.13,EUR,,MWh
Power,Intraday,Continuous,NL,IDFULL,HH,2021-02-03T07:30:00+01:00,2021-02-03T08:00:00+01:00,52.13,EUR,,MWh
Power,Intraday,Continuous,NL,IDFULL,HH,2021-02-03T08:00:00+01:00,2021-02-03T08:30:00+01:00,67.13,EUR,,MWh
Power,Intraday,Continuous,NL,IDFULL,HH,2021-02-03T08:30:00+01:00,2021-02-03T09:00:00+01:00,67.13,EUR,,MWh
Power,Intraday,Continuous,NL,IDFULL,HH,2021-02-03T09:00:00+01:00,2021-02-03T09:30:00+01:00,57.66,EUR,,MWh
Power,Intraday,Continuous,NL,IDFULL,HH,2021-02-03T09:30:00+01:00,2021-02-03T10:00:00+01:00,57.66,EUR,,MWh
Power,Intraday,Continuous,NL,IDFULL,HH,2021-02-03T10:00:00+01:00,2021-02-03T10:30:00+01:00,60.42,EUR,,MWh
Power,Intraday,Continuous,NL,IDFULL,HH,2021-02-03T10:30:00+01:00,2021-02-03T11:00:00+01:00,60.42,EUR,,MWh
Power,Intraday,Continuous,NL,IDFULL,HH,2021-02-03T11:00:00+01:00,2021-02-03T11:30:00+01:00,63.34,EUR,,MWh
Power,Intraday,Continuous,NL,IDFULL,HH,2021-02-03T11:30:00+01:00,2021-02-03T12:00:00+01:00,63.34,EUR,,MWh
Power,Intraday,Continuous,NL,IDFULL,HH,2021-02-03T12:00:00+01:00,2021-02-03T12:30:00+01:00,61.97,EUR,,MWh
Power,Intraday,Continuous,NL,IDFULL,HH,2021-02-03T12:30:00+01:00,2021-02-03T13:00:00+01:00,61.97,EUR,,MWh
Power,Intraday,Continuous,NL,IDFULL,HH,2021-02-03T13:00:00+01:00,2021-02-03T13:30:00+01:00,58.51,EUR,,MWh
Power,Intraday,Continuous,NL,IDFULL,HH,2021-02-03T13:30:00+01:00,2021-02-03T14:00:00+01:00,58.51,EUR,,MWh
Power,Intraday,Continuous,NL,IDFULL,HH,2021-02-03T14:00:00+01:00,2021-02-03T14:30:00+01:00,58.83,EUR,,MWh
Power,Intraday,Continuous,NL,IDFULL,HH,2021-02-03T14:30:00+01:00,2021-02-03T15:00:00+01:00,58.83,EUR,,MWh
Power,Intraday,Continuous,NL,IDFULL,HH,2021-02-03T15:00:00+01:00,2021-02-03T15:30:00+01:00,59.31,EUR,,MWh
Power,Intraday,Continuous,NL,IDFULL,HH,2021-02-03T15:30:00+01:00,2021-02-03T16:00:00+01:00,59.31,EUR,,MWh
Power,Intraday,Continuous,NL,IDFULL,HH,2021-02-03T16:00:00+01:00,2021-02-03T16:30:00+01:00,52.94,EUR,,MWh
Power,Intraday,Continuous,NL,IDFULL,HH,2021-02-03T16:30:00+01:00,2021-02-03T17:00:00+01:00,52.94,EUR,,MWh
Power,Intraday,Continuous,NL,IDFULL,HH,2021-02-03T17:00:00+01:00,2021-02-03T17:30:00+01:00,50.46,EUR,,MWh
Power,Intraday,Continuous,NL,IDFULL,HH,2021-02-03T17:30:00+01:00,2021-02-03T18:00:00+01:00,50.46,EUR,,MWh
Power,Intraday,Continuous,NL,IDFULL,HH,2021-02-03T18:00:00+01:00,2021-02-03T18:30:00+01:00,64.93,EUR,,MWh
Power,Intraday,Continuous,NL,IDFULL,HH,2021-02-03T18:30:00+01:00,2021-02-03T19:00:00+01:00,64.93,EUR,,MWh
Power,Intraday,Continuous,NL,IDFULL,HH,2021-02-03T19:00:00+01:00,2021-02-03T19:30:00+01:00,101.71,EUR,,MWh
Power,Intraday,Continuous,NL,IDFULL,HH,2021-02-03T19:30:00+01:00,2021-02-03T20:00:00+01:00,101.71,EUR,,MWh
Power,Intraday,Continuous,NL,IDFULL,HH,2021-02-03T20:00:00+01:00,2021-02-03T20:30:00+01:00,66.90,EUR,,MWh
Power,Intraday,Continuous,NL,IDFULL,HH,2021-02-03T20:30:00+01:00,2021-02-03T21:00:00+01:00,66.90,EUR,,MWh
Power,Intraday,Continuous,NL,IDFULL,HH,2021-02-03T21:00:00+01:00,2021-02-03T21:30:00+01:00,53.17,EUR,,MWh
Power,Intraday,Continuous,NL,IDFULL,HH,2021-02-03T21:30:00+01:00,2021-02-03T22:00:00+01:00,53.17,EUR,,MWh
Power,Intraday,Continuous,NL,IDFULL,HH,2021-02-03T22:00:00+01:00,2021-02-03T22:30:00+01:00,48.27,EUR,,MWh
Power,Intraday,Continuous,NL,IDFULL,HH,2021-02-03T22:30:00+01:00,2021-02-03T23:00:00+01:00,48.27,EUR,,MWh
Power,Intraday,Continuous,NL,IDFULL,HH,2021-02-03T23:00:00+01:00,2021-02-03T23:30:00+01:00,42.78,EUR,,MWh
Power,Intraday,Continuous,NL,IDFULL,HH,2021-02-03T23:30:00+01:00,2021-02-04T00:00:00+01:00,42.78,EUR,,MWh
Power,Intraday,Continuous,NL,ID1,HH,2021-02-03T00:00:00+01:00,2021-02-03T00:30:00+01:00,35.18,EUR,,MWh
Power,Intraday,Continuous,NL,ID1,HH,2021-02-03T00:30:00+01:00,2021-02-03T01:00:00+01:00,35.18,EUR,,MWh
Power,Intraday,Continuous,NL,ID1,HH,2021-02-03T01:00:00+01:00,2021-02-03T01:30:00+01:00,27.58,EUR,,MWh
Power,Intraday,Continuous,NL,ID1,HH,2021-02-03T01:30:00+01:00,2021-02-03T02:00:00+01:00,27.58,EUR,,MWh
Power,Intraday,Continuous,NL,ID1,HH,2021-02-03T02:00:00+01:00,2021-02-03T02:30:00+01:00,28.26,EUR,,MWh
Power,Intraday,Continuous,NL,ID1,HH,2021-02-03T02:30:00+01:00,2021-02-03T03:00:00+01:00,28.26,EUR,,MWh
Power,Intraday,Continuous,NL,ID1,HH,2021-02-03T03:00:00+01:00,2021-02-03T03:30:00+01:00,28.64,EUR,,MWh
Power,Intraday,Continuous,NL,ID1,HH,2021-02-03T03:30:00+01:00,2021-02-03T04:00:00+01:00,28.64,EUR,,MWh
Power,Intraday,Continuous,NL,ID1,HH,2021-02-03T04:00:00+01:00,2021-02-03T04:30:00+01:00,31.69,EUR,,MWh
Power,Intraday,Continuous,NL,ID1,HH,2021-02-03T04:30:00+01:00,2021-02-03T05:00:00+01:00,31.69,EUR,,MWh
Power,Intraday,Continuous,NL,ID1,HH,2021-02-03T05:00:00+01:00,2021-02-03T05:30:00+01:00,30.38,EUR,,MWh
Power,Intraday,Continuous,NL,ID1,HH,2021-02-03T05:30:00+01:00,2021-02-03T06:00:00+01:00,30.38,EUR,,MWh
Power,Intraday,Continuous,NL,ID1,HH,2021-02-03T06:00:00+01:00,2021-02-03T06:30:00+01:00,38.13,EUR,,MWh
Power,Intraday,Continuous,NL,ID1,HH,2021-02-03T06:30:00+01:00,2021-02-03T07:00:00+01:00,38.13,EUR,,MWh
Power,Intraday,Continuous,NL,ID1,HH,2021-02-03T07:00:00+01:00,2021-02-03T07:30:00+01:00,52.13,EUR,,MWh
Power,Intraday,Continuous,NL,ID1,HH,2021-02-03T07:30:00+01:00,2021-02-03T08:00:00+01:00,52.13,EUR,,MWh
Power,Intraday,Continuous,NL,ID1,HH,2021-02-03T08:00:00+01:00,2021-02-03T08:30:00+01:00,67.13,EUR,,MWh
Power,Intraday,Continuous,NL,ID1,HH,2021-02-03T08:30:00+01:00,2021-02-03T09:00:00+01:00,67.13,EUR,,MWh
Power,Intraday,Continuous,NL,ID1,HH,2021-02-03T09:00:00+01:00,2021-02-03T09:30:00+01:00,57.66,EUR,,MWh
Power,Intraday,Continuous,NL,ID1,HH,2021-02-03T09:30:00+01:00,2021-02-03T10:00:00+01:00,57.66,EUR,,MWh
Power,Intraday,Continuous,NL,ID1,HH,2021-02-03T10:00:00+01:00,2021-02-03T10:30:00+01:00,60.42,EUR,,MWh
Power,Intraday,Continuous,NL,ID1,HH,2021-02-03T10:30:00+01:00,2021-02-03T11:00:00+01:00,60.42,EUR,,MWh
Power,Intraday,Continuous,NL,ID1,HH,2021-02-03T11:00:00+01:00,2021-02-03T11:30:00+01:00,63.34,EUR,,MWh
Power,Intraday,Continuous,NL,ID1,HH,2021-02-03T11:30:00+01:00,2021-02-03T12:00:00+01:00,63.34,EUR,,MWh
Power,Intraday,Continuous,NL,ID1,HH,2021-02-03T12:00:00+01:00,2021-02-03T12:30:00+01:00,61.97,EUR,,MWh
Power,Intraday,Continuous,NL,ID1,HH,2021-02-03T12:30:00+01:00,2021-02-03T13:00:00+01:00,61.97,EUR,,MWh
Power,Intraday,Continuous,NL,ID1,HH,2021-02-03T13:00:00+01:00,2021-02-03T13:30:00+01:00,58.51,EUR,,MWh
Power,Intraday,Continuous,NL,ID1,HH,2021-02-03T13:30:00+01:00,2021-02-03T14:00:00+01:00,58.51,EUR,,MWh
Power,Intraday,Continuous,NL,ID1,HH,2021-02-03T14:00:00+01:00,2021-02-03T14:30:00+01:00,58.83,EUR,,MWh
Power,Intraday,Continuous,NL,ID1,HH,2021-02-03T14:30:00+01:00,2021-02-03T15:00:00+01:00,58.83,EUR,,MWh
Power,Intraday,Continuous,NL,ID1,HH,2021-02-03T15:00:00+01:00,2021-02-03T15:30:00+01:00,59.31,EUR,,MWh
Power,Intraday,Continuous,NL,ID1,HH,2021-02-03T15:30:00+01:00,2021-02-03T16:00:00+01:00,59.31,EUR,,MWh
Power,Intraday,Continuous,NL,ID1,HH,2021-02-03T16:00:00+01:00,2021-02-03T16:30:00+01:00,52.94,EUR,,MWh
Power,Intraday,Continuous,NL,ID1,HH,2021-02-03T16:30:00+01:00,2021-02-03T17:00:00+01:00,52.94,EUR,,MWh
Power,Intraday,Continuous,NL,ID1,HH,2021-02-03T17:00:00+01:00,2021-02-03T17:30:00+01:00,50.46,EUR,,MWh
Power,Intraday,Continuous,NL,ID1,HH,2021-02-03T17:30:00+01:00,2021-02-03T18:00:00+01:00,50.46,EUR,,MWh
Power,Intraday,Continuous,NL,ID1,HH,2021-02-03T18:00:00+01:00,2021-02-03T18:30:00+01:00,64.93,EUR,,MWh
Power,Intraday,Continuous,NL,ID1,HH,2021-02-03T18:30:00+01:00,2021-02-03T19:00:00+01:00,64.93,EUR,,MWh
Power,Intraday,Continuous,NL,ID1,HH,2021-02-03T19:00:00+01:00,2021-02-03T19:30:00+01:00,101.71,EUR,,MWh
Power,Intraday,Continuous,NL,ID1,HH,2021-02-03T19:30:00+01:00,2021-02-03T20:00:00+01:00,101.71,EUR,,MWh
Power,Intraday,Continuous,NL,ID1,HH,2021-02-03T20:00:00+01:00,2021-02-03T20:30:00+01:00,66.90,EUR,,MWh
Power,Intraday,Continuous,NL,ID1,HH,2021-02-03T20:30:00+01:00,2021-02-03T21:00:00+01:00,66.90,EUR,,MWh
Power,Intraday,Continuous,NL,ID1,HH,2021-02-03T21:00:00+01:00,2021-02-03T21:30:00+01:00,53.17,EUR,,MWh
Power,Intraday,Continuous,NL,ID1,HH,2021-02-03T21:30:00+01:00,2021-02-03T22:00:00+01:00,53.17,EUR,,MWh
Power,Intraday,Continuous,NL,ID1,HH,2021-02-03T22:00:00+01:00,2021-02-03T22:30:00+01:00,48.27,EUR,,MWh
Power,Intraday,Continuous,NL,ID1,HH,2021-02-03T22:30:00+01:00,2021-02-03T23:00:00+01:00,48.27,EUR,,MWh
Power,Intraday,Continuous,NL,ID1,HH,2021-02-03T23:00:00+01:00,2021-02-03T23:30:00+01:00,42.78,EUR,,MWh
Power,Intraday,Continuous,NL,ID1,HH,2021-02-03T23:30:00+01:00,2021-02-04T00:00:00+01:00,42.78,EUR,,MWh
Power,Intraday,Continuous,NL,ID3,HH,2021-02-03T00:00:00+01:00,2021-02-03T00:30:00+01:00,35.18,EUR,,MWh
Power,Intraday,Continuous,NL,ID3,HH,2021-02-03T00:30:00+01:00,2021-02-03T01:00:00+01:00,35.18,EUR,,MWh
Power,Intraday,Continuous,NL,ID3,HH,2021-02-03T01:00:00+01:00,2021-02-03T01:30:00+01:00,27.58,EUR,,MWh
Power,Intraday,Continuous,NL,ID3,HH,2021-02-03T01:30:00+01:00,2021-02-03T02:00:00+01:00,27.58,EUR,,MWh
Power,Intraday,Continuous,NL,ID3,HH,2021-02-03T02:00:00+01:00,2021-02-03T02:30:00+01:00,28.26,EUR,,MWh
Power,Intraday,Continuous,NL,ID3,HH,2021-02-03T02:30:00+01:00,2021-02-03T03:00:00+01:00,28.26,EUR,,MWh
Power,Intraday,Continuous,NL,ID3,HH,2021-02-03T03:00:00+01:00,2021-02-03T03:30:00+01:00,28.64,EUR,,MWh
Power,Intraday,Continuous,NL,ID3,HH,2021-02-03T03:30:00+01:00,2021-02-03T04:00:00+01:00,28.64,EUR,,MWh
Power,Intraday,Continuous,NL,ID3,HH,2021-02-03T04:00:00+01:00,2021-02-03T04:30:00+01:00,31.69,EUR,,MWh
Power,Intraday,Continuous,NL,ID3,HH,2021-02-03T04:30:00+01:00,2021-02-03T05:00:00+01:00,31.69,EUR,,MWh
Power,Intraday,Continuous,NL,ID3,HH,2021-02-03T05:00:00+01:00,2021-02-03T05:30:00+01:00,30.38,EUR,,MWh
Power,Intraday,Continuous,NL,ID3,HH,2021-02-03T05:30:00+01:00,2021-02-03T06:00:00+01:00,30.38,EUR,,MWh
Power,Intraday,Continuous,NL,ID3,HH,2021-02-03T06:00:00+01:00,2021-02-03T06:30:00+01:00,38.13,EUR,,MWh
Power,Intraday,Continuous,NL,ID3,HH,2021-02-03T06:30:00+01:00,2021-02-03T07:00:00+01:00,38.13,EUR,,MWh
Power,Intraday,Continuous,NL,ID3,HH,2021-02-03T07:00:00+01:00,2021-02-03T07:30:00+01:00,52.13,EUR,,MWh
Power,Intraday,Continuous,NL,ID3,HH,2021-02-03T07:30:00+01:00,2021-02-03T08:00:00+01:00,52.13,EUR,,MWh
Power,Intraday,Continuous,NL,ID3,HH,2021-02-03T08:00:00+01:00,2021-02-03T08:30:00+01:00,67.13,EUR,,MWh
Power,Intraday,Continuous,NL,ID3,HH,2021-02-03T08:30:00+01:00,2021-02-03T09:00:00+01:00,67.13,EUR,,MWh
Power,Intraday,Continuous,NL,ID3,HH,2021-02-03T09:00:00+01:00,2021-02-03T09:30:00+01:00,57.66,EUR,,MWh
Power,Intraday,Continuous,NL,ID3,HH,2021-02-03T09:30:00+01:00,2021-02-03T10:00:00+01:00,57.66,EUR,,MWh
Power,Intraday,Continuous,NL,ID3,HH,2021-02-03T10:00:00+01:00,2021-02-03T10:30:00+01:00,60.42,EUR,,MWh
Power,Intraday,Continuous,NL,ID3,HH,2021-02-03T10:30:00+01:00,2021-02-03T11:00:00+01:00,60.42,EUR,,MWh
Power,Intraday,Continuous,NL,ID3,HH,2021-02-03T11:00:00+01:00,2021-02-03T11:30:00+01:00,63.34,EUR,,MWh
Power,Intraday,Continuous,NL,ID3,HH,2021-02-03T11:30:00+01:00,2021-02-03T12:00:00+01:00,63.34,EUR,,MWh
Power,Intraday,Continuous,NL,ID3,HH,2021-02-03T12:00:00+01:00,2021-02-03T12:30:00+01:00,61.97,EUR,,MWh
Power,Intraday,Continuous,NL,ID3,HH,2021-02-03T12:30:00+01:00,2021-02-03T13:00:00+01:00,61.97,EUR,,MWh
Power,Intraday,Continuous,NL,ID3,HH,2021-02-03T13:00:00+01:00,2021-02-03T13:30:00+01:00,58.51,EUR,,MWh
Power,Intraday,Continuous,NL,ID3,HH,2021-02-03T13:30:00+01:00,2021-02-03T14:00:00+01:00,58.51,EUR,,MWh
Power,Intraday,Continuous,NL,ID3,HH,2021-02-03T14:00:00+01:00,2021-02-03T14:30:00+01:00,58.83,EUR,,MWh
Power,Intraday,Continuous,NL,ID3,HH,2021-02-03T14:30:00+01:00,2021-02-03T15:00:00+01:00,58.83,EUR,,MWh
Power,Intraday,Continuous,NL,ID3,HH,2021-02-03T15:00:00+01:00,2021-02-03T15:30:00+01:00,59.31,EUR,,MWh
Power,Intraday,Continuous,NL,ID3,HH,2021-02-03T15:30:00+01:00,2021-02-03T16:00:00+01:00,59.31,EUR,,MWh
Power,Intraday,Continuous,NL,ID3,HH,2021-02-03T16:00:00+01:00,2021-02-03T16:30:00+01:00,52.94,EUR,,MWh
Power,Intraday,Continuous,NL,ID3,HH,2021-02-03T16:30:00+01:00,2021-02-03T17:00:00+01:00,52.94,EUR,,MWh
Power,Intraday,Continuous,NL,ID3,HH,2021-02-03T17:00:00+01:00,2021-02-03T17:30:00+01:00,50.46,EUR,,MWh
Power,Intraday,Continuous,NL,ID3,HH,2021-02-03T17:30:00+01:00,2021-02-03T18:00:00+01:00,50.46,EUR,,MWh
Power,Intraday,Continuous,NL,ID3,HH,2021-02-03T18:00:00+01:00,2021-02-03T18:30:00+01:00,64.93,EUR,,MWh
Power,Intraday,Continuous,NL,ID3,HH,2021-02-03T18:30:00+01:00,2021-02-03T19:00:00+01:00,64.93,EUR,,MWh
Power,Intraday,Continuous,NL,ID3,HH,2021-02-03T19:00:00+01:00,2021-02-03T19:30:00+01:00,101.71,EUR,,MWh
Power,Intraday,Continuous,NL,ID3,HH,2021-02-03T19:30:00+01:00,2021-02-03T20:00:00+01:00,101.71,EUR,,MWh
Power,Intraday,Continuous,NL,ID3,HH,2021-02-03T20:00:00+01:00,2021-02-03T20:30:00+01:00,66.90,EUR,,MWh
Power,Intraday,Continuous,NL,ID3,HH,2021-02-03T20:30:00+01:00,2021-02-03T21:00:00+01:00,66.90,EUR,,MWh
Power,Intraday,Continuous,NL,ID3,HH,2021-02-03T21:00:00+01:00,2021-02-03T21:30:00+01:00,53.17,EUR,,MWh
Power,Intraday,Continuous,NL,ID3,HH,2021-02-03T21:30:00+01:00,2021-02-03T22:00:00+01:00,53.17,EUR,,MWh
Power,Intraday,Continuous,NL,ID3,HH,2021-02-03T22:00:00+01:00,2021-02-03T22:30:00+01:00,48.27,EUR,,MWh
Power,Intraday,Continuous,NL,ID3,HH,2021-02-03T22:30:00+01:00,2021-02-03T23:00:00+01:00,48.27,EUR,,MWh
Power,Intraday,Continuous,NL,ID3,HH,2021-02-03T23:00:00+01:00,2021-02-03T23:30:00+01:00,42.78,EUR,,MWh
Power,Intraday,Continuous,NL,ID3,HH,2021-02-03T23:30:00+01:00,2021-02-04T00:00:00+01:00,42.78,EUR,,MWh
Power,Intraday,Continuous,NL,IDFULL,QH,2021-02-03T00:00:00+01:00,2021-02-03T00:15:00+01:00,37.47,EUR,34.600,MWh
Power,Intraday,Continuous,NL,IDFULL,QH,2021-02-03T00:15:00+01:00,2021-02-03T00:30:00+01:00,38.60,EUR,5.500,MWh
Power,Intraday,Continuous,NL,IDFULL,QH,2021-02-03T00:30:00+01:00,2021-02-03T00:45:00+01:00,35.74,EUR,15.950,MWh
Power,Intraday,Continuous,NL,IDFULL,QH,2021-02-03T00:45:00+01:00,2021-02-03T01:00:00+01:00,25.67,EUR,7.750,MWh
Power,Intraday,Continuous,NL,IDFULL,QH,2021-02-03T01:00:00+01:00,2021-02-03T01:15:00+01:00,27.58,EUR,,MWh
Power,Intraday,Continuous,NL,IDFULL,QH,2021-02-03T01:15:00+01:00,2021-02-03T01:30:00+01:00,27.58,EUR,,MWh
Power,Intraday,Continuous,NL,IDFULL,QH,2021-02-03T01:30:00+01:00,2021-02-03T01:45:00+01:00,27.58,EUR,,MWh
Power,Intraday,Continuous,NL,IDFULL,QH,2021-02-03T01:45:00+01:00,2021-02-03T02:00:00+01:00,27.58,EUR,,MWh
Power,Intraday,Continuous,NL,IDFULL,QH,2021-02-03T02:00:00+01:00,2021-02-03T02:15:00+01:00,36.19,EUR,11.430,MWh
Power,Intraday,Continuous,NL,IDFULL,QH,2021-02-03T02:15:00+01:00,2021-02-03T02:30:00+01:00,34.30,EUR,13.800,MWh
Power,Intraday,Continuous,NL,IDFULL,QH,2021-02-03T02:30:00+01:00,2021-02-03T02:45:00+01:00,21.28,EUR,,MWh
Power,Intraday,Continuous,NL,IDFULL,QH,2021-02-03T02:45:00+01:00,2021-02-03T03:00:00+01:00,21.28,EUR,,MWh
Power,Intraday,Continuous,NL,IDFULL,QH,2021-02-03T03:00:00+01:00,2021-02-03T03:15:00+01:00,28.64,EUR,,MWh
Power,Intraday,Continuous,NL,IDFULL,QH,2021-02-03T03:15:00+01:00,2021-02-03T03:30:00+01:00,28.64,EUR,,MWh
Power,Intraday,Continuous,NL,IDFULL,QH,2021-02-03T03:30:00+01:00,2021-02-03T03:45:00+01:00,28.64,EUR,,MWh
Power,Intraday,Continuous,NL,IDFULL,QH,2021-02-03T03:45:00+01:00,2021-02-03T04:00:00+01:00,28.64,EUR,,MWh
Power,Intraday,Continuous,NL,IDFULL,QH,2021-02-03T04:00:00+01:00,2021-02-03T04:15:00+01:00,22.92,EUR,7.400,MWh
Power,Intraday,Continuous,NL,IDFULL,QH,2021-02-03T04:15:00+01:00,2021-02-03T04:30:00+01:00,34.61,EUR,,MWh
Power,Intraday,Continuous,NL,IDFULL,QH,2021-02-03T04:30:00+01:00,2021-02-03T04:45:00+01:00,34.61,EUR,,MWh
Power,Intraday,Continuous,NL,IDFULL,QH,2021-02-03T04:45:00+01:00,2021-02-03T05:00:00+01:00,34.61,EUR,,MWh
Power,Intraday,Continuous,NL,IDFULL,QH,2021-02-03T05:00:00+01:00,2021-02-03T05:15:00+01:00,21.48,EUR,15.530,MWh
Power,Intraday,Continuous,NL,IDFULL,QH,2021-02-03T05:15:00+01:00,2021-02-03T05:30:00+01:00,27.77,EUR,8.850,MWh
Power,Intraday,Continuous,NL,IDFULL,QH,2021-02-03T05:30:00+01:00,2021-02-03T05:45:00+01:00,36.82,EUR,4.780,MWh
Power,Intraday,Continuous,NL,IDFULL,QH,2021-02-03T05:45:00+01:00,2021-02-03T06:00:00+01:00,36.33,EUR,16.700,MWh
Power,Intraday,Continuous,NL,IDFULL,QH,2021-02-03T06:00:00+01:00,2021-02-03T06:15:00+01:00,29.55,EUR,50.230,MWh
Power,Intraday,Continuous,NL,IDFULL,QH,2021-02-03T06:15:00+01:00,2021-02-03T06:30:00+01:00,38.32,EUR,26.230,MWh
Power,Intraday,Continuous,NL,IDFULL,QH,2021-02-03T06:30:00+01:00,2021-02-03T06:45:00+01:00,38.30,EUR,26.930,MWh
Power,Intraday,Continuous,NL,IDFULL,QH,2021-02-03T06:45:00+01:00,2021-02-03T07:00:00+01:00,55.90,EUR,59.380,MWh
Power,Intraday,Continuous,NL,IDFULL,QH,2021-02-03T07:00:00+01:00,2021-02-03T07:15:00+01:00,38.21,EUR,26.700,MWh
Power,Intraday,Continuous,NL,IDFULL,QH,2021-02-03T07:15:00+01:00,2021-02-03T07:30:00+01:00,51.03,EUR,23.700,MWh
Power,Intraday,Continuous,NL,IDFULL,QH,2021-02-03T07:30:00+01:00,2021-02-03T07:45:00+01:00,57.10,EUR,37.750,MWh
Power,Intraday,Continuous,NL,IDFULL,QH,2021-02-03T07:45:00+01:00,2021-02-03T08:00:00+01:00,60.65,EUR,137.280,MWh
Power,Intraday,Continuous,NL,IDFULL,QH,2021-02-03T08:00:00+01:00,2021-02-03T08:15:00+01:00,53.92,EUR,77.330,MWh
Power,Intraday,Continuous,NL,IDFULL,QH,2021-02-03T08:15:00+01:00,2021-02-03T08:30:00+01:00,58.89,EUR,36.080,MWh
Power,Intraday,Continuous,NL,IDFULL,QH,2021-02-03T08:30:00+01:00,2021-02-03T08:45:00+01:00,60.78,EUR,66.800,MWh
Power,Intraday,Continuous,NL,IDFULL,QH,2021-02-03T08:45:00+01:00,2021-02-03T09:00:00+01:00,65.64,EUR,137.400,MWh
Power,Intraday,Continuous,NL,IDFULL,QH,2021-02-03T09:00:00+01:00,2021-02-03T09:15:00+01:00,56.20,EUR,70.280,MWh
Power,Intraday,Continuous,NL,IDFULL,QH,2021-02-03T09:15:00+01:00,2021-02-03T09:30:00+01:00,59.35,EUR,32.500,MWh
Power,Intraday,Continuous,NL,IDFULL,QH,2021-02-03T09:30:00+01:00,2021-02-03T09:45:00+01:00,58.84,EUR,26.500,MWh
Power,Intraday,Continuous,NL,IDFULL,QH,2021-02-03T09:45:00+01:00,2021-02-03T10:00:00+01:00,61.73,EUR,46.750,MWh
Power,Intraday,Continuous,NL,IDFULL,QH,2021-02-03T10:00:00+01:00,2021-02-03T10:15:00+01:00,59.69,EUR,40.250,MWh
Power,Intraday,Continuous,NL,IDFULL,QH,2021-02-03T10:15:00+01:00,2021-02-03T10:30:00+01:00,58.12,EUR,13.330,MWh
Power,Intraday,Continuous,NL,IDFULL,QH,2021-02-03T10:30:00+01:00,2021-02-03T10:45:00+01:00,56.34,EUR,16.680,MWh
Power,Intraday,Continuous,NL,IDFULL,QH,2021-02-03T10:45:00+01:00,2021-02-03T11:00:00+01:00,59.63,EUR,19.100,MWh
Power,Intraday,Continuous,NL,IDFULL,QH,2021-02-03T11:00:00+01:00,2021-02-03T11:15:00+01:00,63.27,EUR,15.050,MWh
Power,Intraday,Continuous,NL,IDFULL,QH,2021-02-03T11:15:00+01:00,2021-02-03T11:30:00+01:00,58.88,EUR,,MWh
Power,Intraday,Continuous,NL,IDFULL,QH,2021-02-03T11:30:00+01:00,2021-02-03T11:45:00+01:00,58.88,EUR,,MWh
Power,Intraday,Continuous,NL,IDFULL,QH,2021-02-03T11:45:00+01:00,2021-02-03T12:00:00+01:00,72.33,EUR,15.980,MWh
Power,Intraday,Continuous,NL,IDFULL,QH,2021-02-03T12:00:00+01:00,2021-02-03T12:15:00+01:00,64.13,EUR,40.300,MWh
Power,Intraday,Continuous,NL,IDFULL,QH,2021-02-03T12:15:00+01:00,2021-02-03T12:30:00+01:00,62.41,EUR,25.230,MWh
Power,Intraday,Continuous,NL,IDFULL,QH,2021-02-03T12:30:00+01:00,2021-02-03T12:45:00+01:00,58.80,EUR,16.880,MWh
Power,Intraday,Continuous,NL,IDFULL,QH,2021-02-03T12:45:00+01:00,2021-02-03T13:00:00+01:00,63.78,EUR,20.650,MWh
Power,Intraday,Continuous,NL,IDFULL,QH,2021-02-03T13:00:00+01:00,2021-02-03T13:15:00+01:00,66.73,EUR,5.930,MWh
Power,Intraday,Continuous,NL,IDFULL,QH,2021-02-03T13:15:00+01:00,2021-02-03T13:30:00+01:00,68.01,EUR,4.850,MWh
Power,Intraday,Continuous,NL,IDFULL,QH,2021-02-03T13:30:00+01:00,2021-02-03T13:45:00+01:00,61.15,EUR,4.630,MWh
Power,Intraday,Continuous,NL,IDFULL,QH,2021-02-03T13:45:00+01:00,2021-02-03T14:00:00+01:00,65.27,EUR,8.000,MWh
Power,Intraday,Continuous,NL,IDFULL,QH,2021-02-03T14:00:00+01:00,2021-02-03T14:15:00+01:00,58.83,EUR,,MWh
Power,Intraday,Continuous,NL,IDFULL,QH,2021-02-03T14:15:00+01:00,2021-02-03T14:30:00+01:00,58.83,EUR,,MWh
Power,Intraday,Continuous,NL,IDFULL,QH,2021-02-03T14:30:00+01:00,2021-02-03T14:45:00+01:00,58.83,EUR,,MWh
Power,Intraday,Continuous,NL,IDFULL,QH,2021-02-03T14:45:00+01:00,2021-02-03T15:00:00+01:00,58.83,EUR,,MWh
Power,Intraday,Continuous,NL,IDFULL,QH,2021-02-03T15:00:00+01:00,2021-02-03T15:15:00+01:00,59.31,EUR,,MWh
Power,Intraday,Continuous,NL,IDFULL,QH,2021-02-03T15:15:00+01:00,2021-02-03T15:30:00+01:00,59.31,EUR,,MWh
Power,Intraday,Continuous,NL,IDFULL,QH,2021-02-03T15:30:00+01:00,2021-02-03T15:45:00+01:00,59.31,EUR,,MWh
Power,Intraday,Continuous,NL,IDFULL,QH,2021-02-03T15:45:00+01:00,2021-02-03T16:00:00+01:00,59.31,EUR,,MWh
Power,Intraday,Continuous,NL,IDFULL,QH,2021-02-03T16:00:00+01:00,2021-02-03T16:15:00+01:00,43.01,EUR,64.830,MWh
Power,Intraday,Continuous,NL,IDFULL,QH,2021-02-03T16:15:00+01:00,2021-02-03T16:30:00+01:00,48.35,EUR,29.280,MWh
Power,Intraday,Continuous,NL,IDFULL,QH,2021-02-03T16:30:00+01:00,2021-02-03T16:45:00+01:00,51.43,EUR,20.480,MWh
Power,Intraday,Continuous,NL,IDFULL,QH,2021-02-03T16:45:00+01:00,2021-02-03T17:00:00+01:00,57.79,EUR,31.300,MWh
Power,Intraday,Continuous,NL,IDFULL,QH,2021-02-03T17:00:00+01:00,2021-02-03T17:15:00+01:00,38.01,EUR,70.380,MWh
Power,Intraday,Continuous,NL,IDFULL,QH,2021-02-03T17:15:00+01:00,2021-02-03T17:30:00+01:00,53.90,EUR,36.350,MWh
Power,Intraday,Continuous,NL,IDFULL,QH,2021-02-03T17:30:00+01:00,2021-02-03T17:45:00+01:00,57.98,EUR,39.230,MWh
Power,Intraday,Continuous,NL,IDFULL,QH,2021-02-03T17:45:00+01:00,2021-02-03T18:00:00+01:00,60.56,EUR,47.500,MWh
Power,Intraday,Continuous,NL,IDFULL,QH,2021-02-03T18:00:00+01:00,2021-02-03T18:15:00+01:00,78.04,EUR,,MWh
Power,Intraday,Continuous,NL,IDFULL,QH,2021-02-03T18:15:00+01:00,2021-02-03T18:30:00+01:00,62.22,EUR,25.480,MWh
Power,Intraday,Continuous,NL,IDFULL,QH,2021-02-03T18:30:00+01:00,2021-02-03T18:45:00+01:00,56.62,EUR,43.350,MWh
Power,Intraday,Continuous,NL,IDFULL,QH,2021-02-03T18:45:00+01:00,2021-02-03T19:00:00+01:00,62.84,EUR,40.300,MWh
Power,Intraday,Continuous,NL,IDFULL,QH,2021-02-03T19:00:00+01:00,2021-02-03T19:15:00+01:00,101.71,EUR,,MWh
Power,Intraday,Continuous,NL,IDFULL,QH,2021-02-03T19:15:00+01:00,2021-02-03T19:30:00+01:00,101.71,EUR,,MWh
Power,Intraday,Continuous,NL,IDFULL,QH,2021-02-03T19:30:00+01:00,2021-02-03T19:45:00+01:00,101.71,EUR,,MWh
Power,Intraday,Continuous,NL,IDFULL,QH,2021-02-03T19:45:00+01:00,2021-02-03T20:00:00+01:00,101.71,EUR,,MWh
Power,Intraday,Continuous,NL,IDFULL,QH,2021-02-03T20:00:00+01:00,2021-02-03T20:15:00+01:00,67.20,EUR,11.600,MWh
Power,Intraday,Continuous,NL,IDFULL,QH,2021-02-03T20:15:00+01:00,2021-02-03T20:30:00+01:00,82.11,EUR,,MWh
Power,Intraday,Continuous,NL,IDFULL,QH,2021-02-03T20:30:00+01:00,2021-02-03T20:45:00+01:00,36.19,EUR,3.750,MWh
Power,Intraday,Continuous,NL,IDFULL,QH,2021-02-03T20:45:00+01:00,2021-02-03T21:00:00+01:00,82.11,EUR,,MWh
Power,Intraday,Continuous,NL,IDFULL,QH,2021-02-03T21:00:00+01:00,2021-02-03T21:15:00+01:00,50.58,EUR,2.950,MWh
Power,Intraday,Continuous,NL,IDFULL,QH,2021-02-03T21:15:00+01:00,2021-02-03T21:30:00+01:00,57.56,EUR,,MWh
Power,Intraday,Continuous,NL,IDFULL,QH,2021-02-03T21:30:00+01:00,2021-02-03T21:45:00+01:00,46.98,EUR,2.730,MWh
Power,Intraday,Continuous,NL,IDFULL,QH,2021-02-03T21:45:00+01:00,2021-02-03T22:00:00+01:00,57.56,EUR,,MWh
Power,Intraday,Continuous,NL,IDFULL,QH,2021-02-03T22:00:00+01:00,2021-02-03T22:15:00+01:00,54.49,EUR,13.250,MWh
Power,Intraday,Continuous,NL,IDFULL,QH,2021-02-03T22:15:00+01:00,2021-02-03T22:30:00+01:00,54.57,EUR,,MWh
Power,Intraday,Continuous,NL,IDFULL,QH,2021-02-03T22:30:00+01:00,2021-02-03T22:45:00+01:00,54.57,EUR,,MWh
Power,Intraday,Continuous,NL,IDFULL,QH,2021-02-03T22:45:00+01:00,2021-02-03T23:00:00+01:00,29.45,EUR,26.430,MWh
Power,Intraday,Continuous,NL,IDFULL,QH,2021-02-03T23:00:00+01:00,2021-02-03T23:15:00+01:00,53.39,EUR,,MWh
Power,Intraday,Continuous,NL,IDFULL,QH,2021-02-03T23:15:00+01:00,2021-02-03T23:30:00+01:00,53.39,EUR,,MWh
Power,Intraday,Continuous,NL,IDFULL,QH,2021-02-03T23:30:00+01:00,2021-02-03T23:45:00+01:00,53.39,EUR,,MWh
Power,Intraday,Continuous,NL,IDFULL,QH,2021-02-03T23:45:00+01:00,2021-02-04T00:00:00+01:00,10.95,EUR,7.500,MWh
Power,Intraday,Continuous,NL,ID1,QH,2021-02-03T00:00:00+01:00,2021-02-03T00:15:00+01:00,37.47,EUR,,MWh
Power,Intraday,Continuous,NL,ID1,QH,2021-02-03T00:15:00+01:00,2021-02-03T00:30:00+01:00,38.60,EUR,,MWh
Power,Intraday,Continuous,NL,ID1,QH,2021-02-03T00:30:00+01:00,2021-02-03T00:45:00+01:00,36.31,EUR,,MWh
Power,Intraday,Continuous,NL,ID1,QH,2021-02-03T00:45:00+01:00,2021-02-03T01:00:00+01:00,27.02,EUR,,MWh
Power,Intraday,Continuous,NL,ID1,QH,2021-02-03T01:00:00+01:00,2021-02-03T01:15:00+01:00,27.58,EUR,,MWh
Power,Intraday,Continuous,NL,ID1,QH,2021-02-03T01:15:00+01:00,2021-02-03T01:30:00+01:00,27.58,EUR,,MWh
Power,Intraday,Continuous,NL,ID1,QH,2021-02-03T01:30:00+01:00,2021-02-03T01:45:00+01:00,27.58,EUR,,MWh
Power,Intraday,Continuous,NL,ID1,QH,2021-02-03T01:45:00+01:00,2021-02-03T02:00:00+01:00,27.58,EUR,,MWh
Power,Intraday,Continuous,NL,ID1,QH,2021-02-03T02:00:00+01:00,2021-02-03T02:15:00+01:00,36.19,EUR,,MWh
Power,Intraday,Continuous,NL,ID1,QH,2021-02-03T02:15:00+01:00,2021-02-03T02:30:00+01:00,34.30,EUR,,MWh
Power,Intraday,Continuous,NL,ID1,QH,2021-02-03T02:30:00+01:00,2021-02-03T02:45:00+01:00,21.28,EUR,,MWh
Power,Intraday,Continuous,NL,ID1,QH,2021-02-03T02:45:00+01:00,2021-02-03T03:00:00+01:00,21.28,EUR,,MWh
Power,Intraday,Continuous,NL,ID1,QH,2021-02-03T03:00:00+01:00,2021-02-03T03:15:00+01:00,28.64,EUR,,MWh
Power,Intraday,Continuous,NL,ID1,QH,2021-02-03T03:15:00+01:00,2021-02-03T03:30:00+01:00,28.64,EUR,,MWh
Power,Intraday,Continuous,NL,ID1,QH,2021-02-03T03:30:00+01:00,2021-02-03T03:45:00+01:00,28.64,EUR,,MWh
Power,Intraday,Continuous,NL,ID1,QH,2021-02-03T03:45:00+01:00,2021-02-03T04:00:00+01:00,28.64,EUR,,MWh
Power,Intraday,Continuous,NL,ID1,QH,2021-02-03T04:00:00+01:00,2021-02-03T04:15:00+01:00,22.92,EUR,,MWh
Power,Intraday,Continuous,NL,ID1,QH,2021-02-03T04:15:00+01:00,2021-02-03T04:30:00+01:00,34.61,EUR,,MWh
Power,Intraday,Continuous,NL,ID1,QH,2021-02-03T04:30:00+01:00,2021-02-03T04:45:00+01:00,34.61,EUR,,MWh
Power,Intraday,Continuous,NL,ID1,QH,2021-02-03T04:45:00+01:00,2021-02-03T05:00:00+01:00,34.61,EUR,,MWh
Power,Intraday,Continuous,NL,ID1,QH,2021-02-03T05:00:00+01:00,2021-02-03T05:15:00+01:00,25.01,EUR,,MWh
Power,Intraday,Continuous,NL,ID1,QH,2021-02-03T05:15:00+01:00,2021-02-03T05:30:00+01:00,29.07,EUR,,MWh
Power,Intraday,Continuous,NL,ID1,QH,2021-02-03T05:30:00+01:00,2021-02-03T05:45:00+01:00,36.82,EUR,,MWh
Power,Intraday,Continuous,NL,ID1,QH,2021-02-03T05:45:00+01:00,2021-02-03T06:00:00+01:00,36.35,EUR,,MWh
Power,Intraday,Continuous,NL,ID1,QH,2021-02-03T06:00:00+01:00,2021-02-03T06:15:00+01:00,31.65,EUR,,MWh
Power,Intraday,Continuous,NL,ID1,QH,2021-02-03T06:15:00+01:00,2021-02-03T06:30:00+01:00,36.25,EUR,,MWh
Power,Intraday,Continuous,NL,ID1,QH,2021-02-03T06:30:00+01:00,2021-02-03T06:45:00+01:00,37.50,EUR,,MWh
Power,Intraday,Continuous,NL,ID1,QH,2021-02-03T06:45:00+01:00,2021-02-03T07:00:00+01:00,70.94,EUR,12.850,MWh
Power,Intraday,Continuous,NL,ID1,QH,2021-02-03T07:00:00+01:00,2021-02-03T07:15:00+01:00,38.56,EUR,,MWh
Power,Intraday,Continuous,NL,ID1,QH,2021-02-03T07:15:00+01:00,2021-02-03T07:30:00+01:00,54.44,EUR,,MWh
Power,Intraday,Continuous,NL,ID1,QH,2021-02-03T07:30:00+01:00,2021-02-03T07:45:00+01:00,57.08,EUR,,MWh
Power,Intraday,Continuous,NL,ID1,QH,2021-02-03T07:45:00+01:00,2021-02-03T08:00:00+01:00,61.95,EUR,7.500,MWh
Power,Intraday,Continuous,NL,ID1,QH,2021-02-03T08:00:00+01:00,2021-02-03T08:15:00+01:00,74.97,EUR,10.250,MWh
Power,Intraday,Continuous,NL,ID1,QH,2021-02-03T08:15:00+01:00,2021-02-03T08:30:00+01:00,57.03,EUR,,MWh
Power,Intraday,Continuous,NL,ID1,QH,2021-02-03T08:30:00+01:00,2021-02-03T08:45:00+01:00,60.69,EUR,,MWh
Power,Intraday,Continuous,NL,ID1,QH,2021-02-03T08:45:00+01:00,2021-02-03T09:00:00+01:00,66.17,EUR,,MWh
Power,Intraday,Continuous,NL,ID1,QH,2021-02-03T09:00:00+01:00,2021-02-03T09:15:00+01:00,43.50,EUR,5.000,MWh
Power,Intraday,Continuous,NL,ID1,QH,2021-02-03T09:15:00+01:00,2021-02-03T09:30:00+01:00,59.24,EUR,,MWh
Power,Intraday,Continuous,NL,ID1,QH,2021-02-03T09:30:00+01:00,2021-02-03T09:45:00+01:00,58.12,EUR,,MWh
Power,Intraday,Continuous,NL,ID1,QH,2021-02-03T09:45:00+01:00,2021-02-03T10:00:00+01:00,62.58,EUR,,MWh
Power,Intraday,Continuous,NL,ID1,QH,2021-02-03T10:00:00+01:00,2021-02-03T10:15:00+01:00,59.97,EUR,,MWh
Power,Intraday,Continuous,NL,ID1,QH,2021-02-03T10:15:00+01:00,2021-02-03T10:30:00+01:00,58.90,EUR,,MWh
Power,Intraday,Continuous,NL,ID1,QH,2021-02-03T10:30:00+01:00,2021-02-03T10:45:00+01:00,54.03,EUR,2.500,MWh
Power,Intraday,Continuous,NL,ID1,QH,2021-02-03T10:45:00+01:00,2021-02-03T11:00:00+01:00,62.82,EUR,,MWh
Power,Intraday,Continuous,NL,ID1,QH,2021-02-03T11:00:00+01:00,2021-02-03T11:15:00+01:00,63.91,EUR,,MWh
Power,Intraday,Continuous,NL,ID1,QH,2021-02-03T11:15:00+01:00,2021-02-03T11:30:00+01:00,58.88,EUR,,MWh
Power,Intraday,Continuous,NL,ID1,QH,2021-02-03T11:30:00+01:00,2021-02-03T11:45:00+01:00,58.88,EUR,,MWh
Power,Intraday,Continuous,NL,ID1,QH,2021-02-03T11:45:00+01:00,2021-02-03T12:00:00+01:00,72.42,EUR,,MWh
Power,Intraday,Continuous,NL,ID1,QH,2021-02-03T12:00:00+01:00,2021-02-03T12:15:00+01:00,66.95,EUR,,MWh
Power,Intraday,Continuous,NL,ID1,QH,2021-02-03T12:15:00+01:00,2021-02-03T12:30:00+01:00,63.74,EUR,,MWh
Power,Intraday,Continuous,NL,ID1,QH,2021-02-03T12:30:00+01:00,2021-02-03T12:45:00+01:00,60.68,EUR,,MWh
Power,Intraday,Continuous,NL,ID1,QH,2021-02-03T12:45:00+01:00,2021-02-03T13:00:00+01:00,69.93,EUR,,MWh
Power,Intraday,Continuous,NL,ID1,QH,2021-02-03T13:00:00+01:00,2021-02-03T13:15:00+01:00,66.66,EUR,,MWh
Power,Intraday,Continuous,NL,ID1,QH,2021-02-03T13:15:00+01:00,2021-02-03T13:30:00+01:00,68.65,EUR,,MWh
Power,Intraday,Continuous,NL,ID1,QH,2021-02-03T13:30:00+01:00,2021-02-03T13:45:00+01:00,60.85,EUR,,MWh
Power,Intraday,Continuous,NL,ID1,QH,2021-02-03T13:45:00+01:00,2021-02-03T14:00:00+01:00,69.05,EUR,4.480,MWh
Power,Intraday,Continuous,NL,ID1,QH,2021-02-03T14:00:00+01:00,2021-02-03T14:15:00+01:00,58.83,EUR,,MWh
Power,Intraday,Continuous,NL,ID1,QH,2021-02-03T14:15:00+01:00,2021-02-03T14:30:00+01:00,58.83,EUR,,MWh
Power,Intraday,Continuous,NL,ID1,QH,2021-02-03T14:30:00+01:00,2021-02-03T14:45:00+01:00,58.83,EUR,,MWh
Power,Intraday,Continuous,NL,ID1,QH,2021-02-03T14:45:00+01:00,2021-02-03T15:00:00+01:00,58.83,EUR,,MWh
Power,Intraday,Continuous,NL,ID1,QH,2021-02-03T15:00:00+01:00,2021-02-03T15:15:00+01:00,59.31,EUR,,MWh
Power,Intraday,Continuous,NL,ID1,QH,2021-02-03T15:15:00+01:00,2021-02-03T15:30:00+01:00,59.31,EUR,,MWh
Power,Intraday,Continuous,NL,ID1,QH,2021-02-03T15:30:00+01:00,2021-02-03T15:45:00+01:00,59.31,EUR,,MWh
Power,Intraday,Continuous,NL,ID1,QH,2021-02-03T15:45:00+01:00,2021-02-03T16:00:00+01:00,59.31,EUR,,MWh
Power,Intraday,Continuous,NL,ID1,QH,2021-02-03T16:00:00+01:00,2021-02-03T16:15:00+01:00,37.35,EUR,2.750,MWh
Power,Intraday,Continuous,NL,ID1,QH,2021-02-03T16:15:00+01:00,2021-02-03T16:30:00+01:00,41.15,EUR,4.950,MWh
Power,Intraday,Continuous,NL,ID1,QH,2021-02-03T16:30:00+01:00,2021-02-03T16:45:00+01:00,51.08,EUR,,MWh
Power,Intraday,Continuous,NL,ID1,QH,2021-02-03T16:45:00+01:00,2021-02-03T17:00:00+01:00,55.56,EUR,,MWh
Power,Intraday,Continuous,NL,ID1,QH,2021-02-03T17:00:00+01:00,2021-02-03T17:15:00+01:00,35.20,EUR,,MWh
Power,Intraday,Continuous,NL,ID1,QH,2021-02-03T17:15:00+01:00,2021-02-03T17:30:00+01:00,53.82,EUR,,MWh
Power,Intraday,Continuous,NL,ID1,QH,2021-02-03T17:30:00+01:00,2021-02-03T17:45:00+01:00,57.20,EUR,,MWh
Power,Intraday,Continuous,NL,ID1,QH,2021-02-03T17:45:00+01:00,2021-02-03T18:00:00+01:00,59.72,EUR,,MWh
Power,Intraday,Continuous,NL,ID1,QH,2021-02-03T18:00:00+01:00,2021-02-03T18:15:00+01:00,78.04,EUR,,MWh
Power,Intraday,Continuous,NL,ID1,QH,2021-02-03T18:15:00+01:00,2021-02-03T18:30:00+01:00,83.25,EUR,4.730,MWh
Power,Intraday,Continuous,NL,ID1,QH,2021-02-03T18:30:00+01:00,2021-02-03T18:45:00+01:00,83.25,EUR,5.730,MWh
Power,Intraday,Continuous,NL,ID1,QH,2021-02-03T18:45:00+01:00,2021-02-03T19:00:00+01:00,127.64,EUR,4.250,MWh
Power,Intraday,Continuous,NL,ID1,QH,2021-02-03T19:00:00+01:00,2021-02-03T19:15:00+01:00,101.71,EUR,,MWh
Power,Intraday,Continuous,NL,ID1,QH,2021-02-03T19:15:00+01:00,2021-02-03T19:30:00+01:00,101.71,EUR,,MWh
Power,Intraday,Continuous,NL,ID1,QH,2021-02-03T19:30:00+01:00,2021-02-03T19:45:00+01:00,101.71,EUR,,MWh
Power,Intraday,Continuous,NL,ID1,QH,2021-02-03T19:45:00+01:00,2021-02-03T20:00:00+01:00,101.71,EUR,,MWh
Power,Intraday,Continuous,NL,ID1,QH,2021-02-03T20:00:00+01:00,2021-02-03T20:15:00+01:00,67.20,EUR,,MWh
Power,Intraday,Continuous,NL,ID1,QH,2021-02-03T20:15:00+01:00,2021-02-03T20:30:00+01:00,82.11,EUR,,MWh
Power,Intraday,Continuous,NL,ID1,QH,2021-02-03T20:30:00+01:00,2021-02-03T20:45:00+01:00,36.19,EUR,3.750,MWh
Power,Intraday,Continuous,NL,ID1,QH,2021-02-03T20:45:00+01:00,2021-02-03T21:00:00+01:00,82.11,EUR,,MWh
Power,Intraday,Continuous,NL,ID1,QH,2021-02-03T21:00:00+01:00,2021-02-03T21:15:00+01:00,50.58,EUR,,MWh
Power,Intraday,Continuous,NL,ID1,QH,2021-02-03T21:15:00+01:00,2021-02-03T21:30:00+01:00,57.56,EUR,,MWh
Power,Intraday,Continuous,NL,ID1,QH,2021-02-03T21:30:00+01:00,2021-02-03T21:45:00+01:00,46.98,EUR,2.730,MWh
Power,Intraday,Continuous,NL,ID1,QH,2021-02-03T21:45:00+01:00,2021-02-03T22:00:00+01:00,57.56,EUR,,MWh
Power,Intraday,Continuous,NL,ID1,QH,2021-02-03T22:00:00+01:00,2021-02-03T22:15:00+01:00,56.26,EUR,,MWh
Power,Intraday,Continuous,NL,ID1,QH,2021-02-03T22:15:00+01:00,2021-02-03T22:30:00+01:00,54.57,EUR,,MWh
Power,Intraday,Continuous,NL,ID1,QH,2021-02-03T22:30:00+01:00,2021-02-03T22:45:00+01:00,54.57,EUR,,MWh
Power,Intraday,Continuous,NL,ID1,QH,2021-02-03T22:45:00+01:00,2021-02-03T23:00:00+01:00,23.29,EUR,,MWh
Power,Intraday,Continuous,NL,ID1,QH,2021-02-03T23:00:00+01:00,2021-02-03T23:15:00+01:00,53.39,EUR,,MWh
Power,Intraday,Continuous,NL,ID1,QH,2021-02-03T23:15:00+01:00,2021-02-03T23:30:00+01:00,53.39,EUR,,MWh
Power,Intraday,Continuous,NL,ID1,QH,2021-02-03T23:30:00+01:00,2021-02-03T23:45:00+01:00,53.39,EUR,,MWh
Power,Intraday,Continuous,NL,ID1,QH,2021-02-03T23:45:00+01:00,2021-02-04T00:00:00+01:00,10.95,EUR,,MWh
Power,Intraday,Continuous,NL,ID3,QH,2021-02-03T00:00:00+01:00,2021-02-03T00:15:00+01:00,37.47,EUR,34.600,MWh
Power,Intraday,Continuous,NL,ID3,QH,2021-02-03T00:15:00+01:00,2021-02-03T00:30:00+01:00,38.60,EUR,,MWh
Power,Intraday,Continuous,NL,ID3,QH,2021-02-03T00:30:00+01:00,2021-02-03T00:45:00+01:00,36.31,EUR,12.250,MWh
Power,Intraday,Continuous,NL,ID3,QH,2021-02-03T00:45:00+01:00,2021-02-03T01:00:00+01:00,27.02,EUR,2.930,MWh
Power,Intraday,Continuous,NL,ID3,QH,2021-02-03T01:00:00+01:00,2021-02-03T01:15:00+01:00,27.58,EUR,,MWh
Power,Intraday,Continuous,NL,ID3,QH,2021-02-03T01:15:00+01:00,2021-02-03T01:30:00+01:00,27.58,EUR,,MWh
Power,Intraday,Continuous,NL,ID3,QH,2021-02-03T01:30:00+01:00,2021-02-03T01:45:00+01:00,27.58,EUR,,MWh
Power,Intraday,Continuous,NL,ID3,QH,2021-02-03T01:45:00+01:00,2021-02-03T02:00:00+01:00,27.58,EUR,,MWh
Power,Intraday,Continuous,NL,ID3,QH,2021-02-03T02:00:00+01:00,2021-02-03T02:15:00+01:00,36.19,EUR,11.430,MWh
Power,Intraday,Continuous,NL,ID3,QH,2021-02-03T02:15:00+01:00,2021-02-03T02:30:00+01:00,34.30,EUR,13.800,MWh
Power,Intraday,Continuous,NL,ID3,QH,2021-02-03T02:30:00+01:00,2021-02-03T02:45:00+01:00,21.28,EUR,,MWh
Power,Intraday,Continuous,NL,ID3,QH,2021-02-03T02:45:00+01:00,2021-02-03T03:00:00+01:00,21.28,EUR,,MWh
Power,Intraday,Continuous,NL,ID3,QH,2021-02-03T03:00:00+01:00,2021-02-03T03:15:00+01:00,28.64,EUR,,MWh
Power,Intraday,Continuous,NL,ID3,QH,2021-02-03T03:15:00+01:00,2021-02-03T03:30:00+01:00,28.64,EUR,,MWh
Power,Intraday,Continuous,NL,ID3,QH,2021-02-03T03:30:00+01:00,2021-02-03T03:45:00+01:00,28.64,EUR,,MWh
Power,Intraday,Continuous,NL,ID3,QH,2021-02-03T03:45:00+01:00,2021-02-03T04:00:00+01:00,28.64,EUR,,MWh
Power,Intraday,Continuous,NL,ID3,QH,2021-02-03T04:00:00+01:00,2021-02-03T04:15:00+01:00,22.92,EUR,,MWh
Power,Intraday,Continuous,NL,ID3,QH,2021-02-03T04:15:00+01:00,2021-02-03T04:30:00+01:00,34.61,EUR,,MWh
Power,Intraday,Continuous,NL,ID3,QH,2021-02-03T04:30:00+01:00,2021-02-03T04:45:00+01:00,34.61,EUR,,MWh
Power,Intraday,Continuous,NL,ID3,QH,2021-02-03T04:45:00+01:00,2021-02-03T05:00:00+01:00,34.61,EUR,,MWh
Power,Intraday,Continuous,NL,ID3,QH,2021-02-03T05:00:00+01:00,2021-02-03T05:15:00+01:00,25.01,EUR,6.280,MWh
Power,Intraday,Continuous,NL,ID3,QH,2021-02-03T05:15:00+01:00,2021-02-03T05:30:00+01:00,29.07,EUR,7.630,MWh
Power,Intraday,Continuous,NL,ID3,QH,2021-02-03T05:30:00+01:00,2021-02-03T05:45:00+01:00,36.82,EUR,4.780,MWh
Power,Intraday,Continuous,NL,ID3,QH,2021-02-03T05:45:00+01:00,2021-02-03T06:00:00+01:00,36.35,EUR,14.830,MWh
Power,Intraday,Continuous,NL,ID3,QH,2021-02-03T06:00:00+01:00,2021-02-03T06:15:00+01:00,31.65,EUR,25.280,MWh
Power,Intraday,Continuous,NL,ID3,QH,2021-02-03T06:15:00+01:00,2021-02-03T06:30:00+01:00,36.25,EUR,8.700,MWh
Power,Intraday,Continuous,NL,ID3,QH,2021-02-03T06:30:00+01:00,2021-02-03T06:45:00+01:00,37.50,EUR,8.030,MWh
Power,Intraday,Continuous,NL,ID3,QH,2021-02-03T06:45:00+01:00,2021-02-03T07:00:00+01:00,60.97,EUR,26.450,MWh
Power,Intraday,Continuous,NL,ID3,QH,2021-02-03T07:00:00+01:00,2021-02-03T07:15:00+01:00,38.56,EUR,22.380,MWh
Power,Intraday,Continuous,NL,ID3,QH,2021-02-03T07:15:00+01:00,2021-02-03T07:30:00+01:00,54.44,EUR,7.330,MWh
Power,Intraday,Continuous,NL,ID3,QH,2021-02-03T07:30:00+01:00,2021-02-03T07:45:00+01:00,57.08,EUR,22.980,MWh
Power,Intraday,Continuous,NL,ID3,QH,2021-02-03T07:45:00+01:00,2021-02-03T08:00:00+01:00,58.84,EUR,105.150,MWh
Power,Intraday,Continuous,NL,ID3,QH,2021-02-03T08:00:00+01:00,2021-02-03T08:15:00+01:00,58.05,EUR,30.330,MWh
Power,Intraday,Continuous,NL,ID3,QH,2021-02-03T08:15:00+01:00,2021-02-03T08:30:00+01:00,57.03,EUR,17.450,MWh
Power,Intraday,Continuous,NL,ID3,QH,2021-02-03T08:30:00+01:00,2021-02-03T08:45:00+01:00,60.69,EUR,54.100,MWh
Power,Intraday,Continuous,NL,ID3,QH,2021-02-03T08:45:00+01:00,2021-02-03T09:00:00+01:00,66.17,EUR,120.700,MWh
Power,Intraday,Continuous,NL,ID3,QH,2021-02-03T09:00:00+01:00,2021-02-03T09:15:00+01:00,56.81,EUR,48.080,MWh
Power,Intraday,Continuous,NL,ID3,QH,2021-02-03T09:15:00+01:00,2021-02-03T09:30:00+01:00,59.24,EUR,22.530,MWh
Power,Intraday,Continuous,NL,ID3,QH,2021-02-03T09:30:00+01:00,2021-02-03T09:45:00+01:00,58.12,EUR,17.330,MWh
Power,Intraday,Continuous,NL,ID3,QH,2021-02-03T09:45:00+01:00,2021-02-03T10:00:00+01:00,62.58,EUR,36.950,MWh
Power,Intraday,Continuous,NL,ID3,QH,2021-02-03T10:00:00+01:00,2021-02-03T10:15:00+01:00,59.97,EUR,27.180,MWh
Power,Intraday,Continuous,NL,ID3,QH,2021-02-03T10:15:00+01:00,2021-02-03T10:30:00+01:00,58.90,EUR,3.880,MWh
Power,Intraday,Continuous,NL,ID3,QH,2021-02-03T10:30:00+01:00,2021-02-03T10:45:00+01:00,56.43,EUR,6.750,MWh
Power,Intraday,Continuous,NL,ID3,QH,2021-02-03T10:45:00+01:00,2021-02-03T11:00:00+01:00,62.82,EUR,8.150,MWh
Power,Intraday,Continuous,NL,ID3,QH,2021-02-03T11:00:00+01:00,2021-02-03T11:15:00+01:00,63.91,EUR,13.800,MWh
Power,Intraday,Continuous,NL,ID3,QH,2021-02-03T11:15:00+01:00,2021-02-03T11:30:00+01:00,58.88,EUR,,MWh
Power,Intraday,Continuous,NL,ID3,QH,2021-02-03T11:30:00+01:00,2021-02-03T11:45:00+01:00,58.88,EUR,,MWh
Power,Intraday,Continuous,NL,ID3,QH,2021-02-03T11:45:00+01:00,2021-02-03T12:00:00+01:00,72.42,EUR,15.880,MWh
Power,Intraday,Continuous,NL,ID3,QH,2021-02-03T12:00:00+01:00,2021-02-03T12:15:00+01:00,66.95,EUR,23.250,MWh
Power,Intraday,Continuous,NL,ID3,QH,2021-02-03T12:15:00+01:00,2021-02-03T12:30:00+01:00,63.74,EUR,17.630,MWh
Power,Intraday,Continuous,NL,ID3,QH,2021-02-03T12:30:00+01:00,2021-02-03T12:45:00+01:00,60.68,EUR,6.580,MWh
Power,Intraday,Continuous,NL,ID3,QH,2021-02-03T12:45:00+01:00,2021-02-03T13:00:00+01:00,69.93,EUR,9.480,MWh
Power,Intraday,Continuous,NL,ID3,QH,2021-02-03T13:00:00+01:00,2021-02-03T13:15:00+01:00,66.66,EUR,5.330,MWh
Power,Intraday,Continuous,NL,ID3,QH,2021-02-03T13:15:00+01:00,2021-02-03T13:30:00+01:00,68.65,EUR,4.250,MWh
Power,Intraday,Continuous,NL,ID3,QH,2021-02-03T13:30:00+01:00,2021-02-03T13:45:00+01:00,60.85,EUR,4.030,MWh
Power,Intraday,Continuous,NL,ID3,QH,2021-02-03T13:45:00+01:00,2021-02-03T14:00:00+01:00,66.78,EUR,7.400,MWh
Power,Intraday,Continuous,NL,ID3,QH,2021-02-03T14:00:00+01:00,2021-02-03T14:15:00+01:00,58.83,EUR,,MWh
Power,Intraday,Continuous,NL,ID3,QH,2021-02-03T14:15:00+01:00,2021-02-03T14:30:00+01:00,58.83,EUR,,MWh
Power,Intraday,Continuous,NL,ID3,QH,2021-02-03T14:30:00+01:00,2021-02-03T14:45:00+01:00,58.83,EUR,,MWh
Power,Intraday,Continuous,NL,ID3,QH,2021-02-03T14:45:00+01:00,2021-02-03T15:00:00+01:00,58.83,EUR,,MWh
Power,Intraday,Continuous,NL,ID3,QH,2021-02-03T15:00:00+01:00,2021-02-03T15:15:00+01:00,59.31,EUR,,MWh
Power,Intraday,Continuous,NL,ID3,QH,2021-02-03T15:15:00+01:00,2021-02-03T15:30:00+01:00,59.31,EUR,,MWh
Power,Intraday,Continuous,NL,ID3,QH,2021-02-03T15:30:00+01:00,2021-02-03T15:45:00+01:00,59.31,EUR,,MWh
Power,Intraday,Continuous,NL,ID3,QH,2021-02-03T15:45:00+01:00,2021-02-03T16:00:00+01:00,59.31,EUR,,MWh
Power,Intraday,Continuous,NL,ID3,QH,2021-02-03T16:00:00+01:00,2021-02-03T16:15:00+01:00,39.14,EUR,40.350,MWh
Power,Intraday,Continuous,NL,ID3,QH,2021-02-03T16:15:00+01:00,2021-02-03T16:30:00+01:00,43.74,EUR,10.000,MWh
Power,Intraday,Continuous,NL,ID3,QH,2021-02-03T16:30:00+01:00,2021-02-03T16:45:00+01:00,51.08,EUR,4.300,MWh
Power,Intraday,Continuous,NL,ID3,QH,2021-02-03T16:45:00+01:00,2021-02-03T17:00:00+01:00,55.56,EUR,6.030,MWh
Power,Intraday,Continuous,NL,ID3,QH,2021-02-03T17:00:00+01:00,2021-02-03T17:15:00+01:00,35.20,EUR,43.080,MWh
Power,Intraday,Continuous,NL,ID3,QH,2021-02-03T17:15:00+01:00,2021-02-03T17:30:00+01:00,53.82,EUR,16.930,MWh
Power,Intraday,Continuous,NL,ID3,QH,2021-02-03T17:30:00+01:00,2021-02-03T17:45:00+01:00,57.20,EUR,25.750,MWh
Power,Intraday,Continuous,NL,ID3,QH,2021-02-03T17:45:00+01:00,2021-02-03T18:00:00+01:00,59.72,EUR,21.000,MWh
Power,Intraday,Continuous,NL,ID3,QH,2021-02-03T18:00:00+01:00,2021-02-03T18:15:00+01:00,78.04,EUR,,MWh
Power,Intraday,Continuous,NL,ID3,QH,2021-02-03T18:15:00+01:00,2021-02-03T18:30:00+01:00,64.65,EUR,15.630,MWh
Power,Intraday,Continuous,NL,ID3,QH,2021-02-03T18:30:00+01:00,2021-02-03T18:45:00+01:00,59.45,EUR,19.180,MWh
Power,Intraday,Continuous,NL,ID3,QH,2021-02-03T18:45:00+01:00,2021-02-03T19:00:00+01:00,77.21,EUR,15.530,MWh
Power,Intraday,Continuous,NL,ID3,QH,2021-02-03T19:00:00+01:00,2021-02-03T19:15:00+01:00,101.71,EUR,,MWh
Power,Intraday,Continuous,NL,ID3,QH,2021-02-03T19:15:00+01:00,2021-02-03T19:30:00+01:00,101.71,EUR,,MWh
Power,Intraday,Continuous,NL,ID3,QH,2021-02-03T19:30:00+01:00,2021-02-03T19:45:00+01:00,101.71,EUR,,MWh
Power,Intraday,Continuous,NL,ID3,QH,2021-02-03T19:45:00+01:00,2021-02-03T20:00:00+01:00,101.71,EUR,,MWh
Power,Intraday,Continuous,NL,ID3,QH,2021-02-03T20:00:00+01:00,2021-02-03T20:15:00+01:00,67.20,EUR,,MWh
Power,Intraday,Continuous,NL,ID3,QH,2021-02-03T20:15:00+01:00,2021-02-03T20:30:00+01:00,82.11,EUR,,MWh
Power,Intraday,Continuous,NL,ID3,QH,2021-02-03T20:30:00+01:00,2021-02-03T20:45:00+01:00,36.19,EUR,3.750,MWh
Power,Intraday,Continuous,NL,ID3,QH,2021-02-03T20:45:00+01:00,2021-02-03T21:00:00+01:00,82.11,EUR,,MWh
Power,Intraday,Continuous,NL,ID3,QH,2021-02-03T21:00:00+01:00,2021-02-03T21:15:00+01:00,50.58,EUR,,MWh
Power,Intraday,Continuous,NL,ID3,QH,2021-02-03T21:15:00+01:00,2021-02-03T21:30:00+01:00,57.56,EUR,,MWh
Power,Intraday,Continuous,NL,ID3,QH,2021-02-03T21:30:00+01:00,2021-02-03T21:45:00+01:00,46.98,EUR,2.730,MWh
Power,Intraday,Continuous,NL,ID3,QH,2021-02-03T21:45:00+01:00,2021-02-03T22:00:00+01:00,57.56,EUR,,MWh
Power,Intraday,Continuous,NL,ID3,QH,2021-02-03T22:00:00+01:00,2021-02-03T22:15:00+01:00,56.26,EUR,9.500,MWh
Power,Intraday,Continuous,NL,ID3,QH,2021-02-03T22:15:00+01:00,2021-02-03T22:30:00+01:00,54.57,EUR,,MWh
Power,Intraday,Continuous,NL,ID3,QH,2021-02-03T22:30:00+01:00,2021-02-03T22:45:00+01:00,54.57,EUR,,MWh
Power,Intraday,Continuous,NL,ID3,QH,2021-02-03T22:45:00+01:00,2021-02-03T23:00:00+01:00,23.29,EUR,18.930,MWh
Power,Intraday,Continuous,NL,ID3,QH,2021-02-03T23:00:00+01:00,2021-02-03T23:15:00+01:00,53.39,EUR,,MWh
Power,Intraday,Continuous,NL,ID3,QH,2021-02-03T23:15:00+01:00,2021-02-03T23:30:00+01:00,53.39,EUR,,MWh
Power,Intraday,Continuous,NL,ID3,QH,2021-02-03T23:30:00+01:00,2021-02-03T23:45:00+01:00,53.39,EUR,,MWh
Power,Intraday,Continuous,NL,ID3,QH,2021-02-03T23:45:00+01:00,2021-02-04T00:00:00+01:00,10.95,EUR,7.500,MWh
Power,Intraday,Continuous,NL,IDFULL,BASE,2021-02-03T00:00:00+01:00,2021-02-04T00:00:00+01:00,51.68,EUR,13199.100,MWh
Power,Intraday,Continuous,NL,IDFULL,PEAK,2021-02-03T08:00:00+01:00,2021-02-03T20:00:00+01:00,63.10,EUR,7016.200,MWh
