Commodity,NominationModality,TradingModality,MarketArea,IndexName,TimeResolution,DeliveryStart,DeliveryEnd,IndexPrice,Currency,Volume,VolumeUnit
Power,Intraday,Continuous,NL,IDFULL,H,2021-11-23T00:00:00+01:00,2021-11-23T01:00:00+01:00,171.64,EUR,118.100,MWh
Power,Intraday,Continuous,NL,IDFULL,H,2021-11-23T01:00:00+01:00,2021-11-23T02:00:00+01:00,161.05,EUR,46.600,MWh
Power,Intraday,Continuous,NL,IDFULL,H,2021-11-23T02:00:00+01:00,2021-11-23T03:00:00+01:00,170.92,EUR,83.000,MWh
Power,Intraday,Continuous,NL,IDFULL,H,2021-11-23T03:00:00+01:00,2021-11-23T04:00:00+01:00,174.06,EUR,167.800,MWh
Power,Intraday,Continuous,NL,IDFULL,H,2021-11-23T04:00:00+01:00,2021-11-23T05:00:00+01:00,148.09,EUR,239.500,MWh
Power,Intraday,Continuous,NL,IDFULL,H,2021-11-23T05:00:00+01:00,2021-11-23T06:00:00+01:00,148.69,EUR,342.700,MWh
Power,Intraday,Continuous,NL,IDFULL,H,2021-11-23T06:00:00+01:00,2021-11-23T07:00:00+01:00,150.96,EUR,656.800,MWh
Power,Intraday,Continuous,NL,IDFULL,H,2021-11-23T07:00:00+01:00,2021-11-23T08:00:00+01:00,208.20,EUR,623.600,MWh
Power,Intraday,Continuous,NL,IDFULL,H,2021-11-23T08:00:00+01:00,2021-11-23T09:00:00+01:00,305.76,EUR,206.800,MWh
Power,Intraday,Continuous,NL,IDFULL,H,2021-11-23T09:00:00+01:00,2021-11-23T10:00:00+01:00,276.49,EUR,612.100,MWh
Power,Intraday,Continuous,NL,IDFULL,H,2021-11-23T10:00:00+01:00,2021-11-23T11:00:00+01:00,246.80,EUR,867.200,MWh
Power,Intraday,Continuous,NL,IDFULL,H,2021-11-23T11:00:00+01:00,2021-11-23T12:00:00+01:00,259.12,EUR,955.400,MWh
Power,Intraday,Continuous,NL,IDFULL,H,2021-11-23T12:00:00+01:00,2021-11-23T13:00:00+01:00,335.90,EUR,1521.400,MWh
Power,Intraday,Continuous,NL,IDFULL,H,2021-11-23T13:00:00+01:00,2021-11-23T14:00:00+01:00,367.37,EUR,1391.500,MWh
Power,Intraday,Continuous,NL,IDFULL,H,2021-11-23T14:00:00+01:00,2021-11-23T15:00:00+01:00,391.51,EUR,1468.100,MWh
Power,Intraday,Continuous,NL,IDFULL,H,2021-11-23T15:00:00+01:00,2021-11-23T16:00:00+01:00,297.64,EUR,2440.200,MWh
Power,Intraday,Continuous,NL,IDFULL,H,2021-11-23T16:00:00+01:00,2021-11-23T17:00:00+01:00,317.65,EUR,2175.100,MWh
Power,Intraday,Continuous,NL,IDFULL,H,2021-11-23T17:00:00+01:00,2021-11-23T18:00:00+01:00,345.79,EUR,2402.000,MWh
Power,Intraday,Continuous,NL,IDFULL,H,2021-11-23T18:00:00+01:00,2021-11-23T19:00:00+01:00,337.71,EUR,816.500,MWh
Power,Intraday,Continuous,NL,IDFULL,H,2021-11-23T19:00:00+01:00,2021-11-23T20:00:00+01:00,303.83,EUR,1223.600,MWh
Power,Intraday,Continuous,NL,IDFULL,H,2021-11-23T20:00:00+01:00,2021-11-23T21:00:00+01:00,270.86,EUR,365.100,MWh
Power,Intraday,Continuous,NL,IDFULL,H,2021-11-23T21:00:00+01:00,2021-11-23T22:00:00+01:00,216.61,EUR,379.800,MWh
Power,Intraday,Continuous,NL,IDFULL,H,2021-11-23T22:00:00+01:00,2021-11-23T23:00:00+01:00,212.68,EUR,276.100,MWh
Power,Intraday,Continuous,NL,IDFULL,H,2021-11-23T23:00:00+01:00,2021-11-24T00:00:00+01:00,112.68,EUR,334.300,MWh
Power,Intraday,Continuous,NL,ID1,H,2021-11-23T00:00:00+01:00,2021-11-23T01:00:00+01:00,171.83,EUR,,MWh
Power,Intraday,Continuous,NL,ID1,H,2021-11-23T01:00:00+01:00,2021-11-23T02:00:00+01:00,164.95,EUR,20.000,MWh
Power,Intraday,Continuous,NL,ID1,H,2021-11-23T02:00:00+01:00,2021-11-23T03:00:00+01:00,194.65,EUR,20.000,MWh
Power,Intraday,Continuous,NL,ID1,H,2021-11-23T03:00:00+01:00,2021-11-23T04:00:00+01:00,174.83,EUR,,MWh
Power,Intraday,Continuous,NL,ID1,H,2021-11-23T04:00:00+01:00,2021-11-23T05:00:00+01:00,150.01,EUR,,MWh
Power,Intraday,Continuous,NL,ID1,H,2021-11-23T05:00:00+01:00,2021-11-23T06:00:00+01:00,204.42,EUR,65.000,MWh
Power,Intraday,Continuous,NL,ID1,H,2021-11-23T06:00:00+01:00,2021-11-23T07:00:00+01:00,150.07,EUR,,MWh
Power,Intraday,Continuous,NL,ID1,H,2021-11-23T07:00:00+01:00,2021-11-23T08:00:00+01:00,208.67,EUR,,MWh
Power,Intraday,Continuous,NL,ID1,H,2021-11-23T08:00:00+01:00,2021-11-23T09:00:00+01:00,359.56,EUR,52.900,MWh
Power,Intraday,Continuous,NL,ID1,H,2021-11-23T09:00:00+01:00,2021-11-23T10:00:00+01:00,346.55,EUR,33.700,MWh
Power,Intraday,Continuous,NL,ID1,H,2021-11-23T10:00:00+01:00,2021-11-23T11:00:00+01:00,206.99,EUR,145.500,MWh
Power,Intraday,Continuous,NL,ID1,H,2021-11-23T11:00:00+01:00,2021-11-23T12:00:00+01:00,175.17,EUR,53.800,MWh
Power,Intraday,Continuous,NL,ID1,H,2021-11-23T12:00:00+01:00,2021-11-23T13:00:00+01:00,427.25,EUR,47.100,MWh
Power,Intraday,Continuous,NL,ID1,H,2021-11-23T13:00:00+01:00,2021-11-23T14:00:00+01:00,379.50,EUR,177.100,MWh
Power,Intraday,Continuous,NL,ID1,H,2021-11-23T14:00:00+01:00,2021-11-23T15:00:00+01:00,330.92,EUR,120.000,MWh
Power,Intraday,Continuous,NL,ID1,H,2021-11-23T15:00:00+01:00,2021-11-23T16:00:00+01:00,211.87,EUR,265.500,MWh
Power,Intraday,Continuous,NL,ID1,H,2021-11-23T16:00:00+01:00,2021-11-23T17:00:00+01:00,238.99,EUR,95.400,MWh
Power,Intraday,Continuous,NL,ID1,H,2021-11-23T17:00:00+01:00,2021-11-23T18:00:00+01:00,328.94,EUR,,MWh
Power,Intraday,Continuous,NL,ID1,H,2021-11-23T18:00:00+01:00,2021-11-23T19:00:00+01:00,314.95,EUR,10.000,MWh
Power,Intraday,Continuous,NL,ID1,H,2021-11-23T19:00:00+01:00,2021-11-23T20:00:00+01:00,264.23,EUR,,MWh
Power,Intraday,Continuous,NL,ID1,H,2021-11-23T20:00:00+01:00,2021-11-23T21:00:00+01:00,260.39,EUR,,MWh
Power,Intraday,Continuous,NL,ID1,H,2021-11-23T21:00:00+01:00,2021-11-23T22:00:00+01:00,208.26,EUR,31.200,MWh
Power,Intraday,Continuous,NL,ID1,H,2021-11-23T22:00:00+01:00,2021-11-23T23:00:00+01:00,223.70,EUR,137.600,MWh
Power,Intraday,Continuous,NL,ID1,H,2021-11-23T23:00:00+01:00,2021-11-24T00:00:00+01:00,109.99,EUR,88.800,MWh
Power,Intraday,Continuous,NL,ID3,H,2021-11-23T00:00:00+01:00,2021-11-23T01:00:00+01:00,171.83,EUR,116.900,MWh
Power,Intraday,Continuous,NL,ID3,H,2021-11-23T01:00:00+01:00,2021-11-23T02:00:00+01:00,162.19,EUR,42.400,MWh
Power,Intraday,Continuous,NL,ID3,H,2021-11-23T02:00:00+01:00,2021-11-23T03:00:00+01:00,172.61,EUR,78.400,MWh
Power,Intraday,Continuous,NL,ID3,H,2021-11-23T03:00:00+01:00,2021-11-23T04:00:00+01:00,174.83,EUR,163.900,MWh
Power,Intraday,Continuous,NL,ID3,H,2021-11-23T04:00:00+01:00,2021-11-23T05:00:00+01:00,150.01,EUR,210.300,MWh
Power,Intraday,Continuous,NL,ID3,H,2021-11-23T05:00:00+01:00,2021-11-23T06:00:00+01:00,146.45,EUR,277.600,MWh
Power,Intraday,Continuous,NL,ID3,H,2021-11-23T06:00:00+01:00,2021-11-23T07:00:00+01:00,150.07,EUR,590.300,MWh
Power,Intraday,Continuous,NL,ID3,H,2021-11-23T07:00:00+01:00,2021-11-23T08:00:00+01:00,208.67,EUR,600.400,MWh
Power,Intraday,Continuous,NL,ID3,H,2021-11-23T08:00:00+01:00,2021-11-23T09:00:00+01:00,308.79,EUR,197.900,MWh
Power,Intraday,Continuous,NL,ID3,H,2021-11-23T09:00:00+01:00,2021-11-23T10:00:00+01:00,283.35,EUR,535.700,MWh
Power,Intraday,Continuous,NL,ID3,H,2021-11-23T10:00:00+01:00,2021-11-23T11:00:00+01:00,249.72,EUR,811.300,MWh
Power,Intraday,Continuous,NL,ID3,H,2021-11-23T11:00:00+01:00,2021-11-23T12:00:00+01:00,260.82,EUR,621.900,MWh
Power,Intraday,Continuous,NL,ID3,H,2021-11-23T12:00:00+01:00,2021-11-23T13:00:00+01:00,397.15,EUR,895.900,MWh
Power,Intraday,Continuous,NL,ID3,H,2021-11-23T13:00:00+01:00,2021-11-23T14:00:00+01:00,409.87,EUR,789.300,MWh
Power,Intraday,Continuous,NL,ID3,H,2021-11-23T14:00:00+01:00,2021-11-23T15:00:00+01:00,451.85,EUR,840.500,MWh
Power,Intraday,Continuous,NL,ID3,H,2021-11-23T15:00:00+01:00,2021-11-23T16:00:00+01:00,267.43,EUR,885.900,MWh
Power,Intraday,Continuous,NL,ID3,H,2021-11-23T16:00:00+01:00,2021-11-23T17:00:00+01:00,303.29,EUR,932.600,MWh
Power,Intraday,Continuous,NL,ID3,H,2021-11-23T17:00:00+01:00,2021-11-23T18:00:00+01:00,328.94,EUR,941.000,MWh
Power,Intraday,Continuous,NL,ID3,H,2021-11-23T18:00:00+01:00,2021-11-23T19:00:00+01:00,313.98,EUR,245.300,MWh
Power,Intraday,Continuous,NL,ID3,H,2021-11-23T19:00:00+01:00,2021-11-23T20:00:00+01:00,264.23,EUR,346.500,MWh
Power,Intraday,Continuous,NL,ID3,H,2021-11-23T20:00:00+01:00,2021-11-23T21:00:00+01:00,260.39,EUR,173.500,MWh
Power,Intraday,Continuous,NL,ID3,H,2021-11-23T21:00:00+01:00,2021-11-23T22:00:00+01:00,213.80,EUR,302.400,MWh
Power,Intraday,Continuous,NL,ID3,H,2021-11-23T22:00:00+01:00,2021-11-23T23:00:00+01:00,215.49,EUR,245.900,MWh
Power,Intraday,Continuous,NL,ID3,H,2021-11-23T23:00:00+01:00,2021-11-24T00:00:00+01:00,112.32,EUR,313.500,MWh
Power,Intraday,Continuous,NL,IDFULL,HH,2021-11-23T00:00:00+01:00,2021-11-23T00:30:00+01:00,171.64,EUR,,MWh
Power,Intraday,Continuous,NL,IDFULL,HH,2021-11-23T00:30:00+01:00,2021-11-23T01:00:00+01:00,171.64,EUR,,MWh
Power,Intraday,Continuous,NL,IDFULL,HH,2021-11-23T01:00:00+01:00,2021-11-23T01:30:00+01:00,161.05,EUR,,MWh
Power,Intraday,Continuous,NL,IDFULL,HH,2021-11-23T01:30:00+01:00,2021-11-23T02:00:00+01:00,161.05,EUR,,MWh
Power,Intraday,Continuous,NL,IDFULL,HH,2021-11-23T02:00:00+01:00,2021-11-23T02:30:00+01:00,170.92,EUR,,MWh
Power,Intraday,Continuous,NL,IDFULL,HH,2021-11-23T02:30:00+01:00,2021-11-23T03:00:00+01:00,170.92,EUR,,MWh
Power,Intraday,Continuous,NL,IDFULL,HH,2021-11-23T03:00:00+01:00,2021-11-23T03:30:00+01:00,174.06,EUR,,MWh
Power,Intraday,Continuous,NL,IDFULL,HH,2021-11-23T03:30:00+01:00,2021-11-23T04:00:00+01:00,174.06,EUR,,MWh
Power,Intraday,Continuous,NL,IDFULL,HH,2021-11-23T04:00:00+01:00,2021-11-23T04:30:00+01:00,148.09,EUR,,MWh
Power,Intraday,Continuous,NL,IDFULL,HH,2021-11-23T04:30:00+01:00,2021-11-23T05:00:00+01:00,148.09,EUR,,MWh
Power,Intraday,Continuous,NL,IDFULL,HH,2021-11-23T05:00:00+01:00,2021-11-23T05:30:00+01:00,148.69,EUR,,MWh
Power,Intraday,Continuous,NL,IDFULL,HH,2021-11-23T05:30:00+01:00,2021-11-23T06:00:00+01:00,148.69,EUR,,MWh
Power,Intraday,Continuous,NL,IDFULL,HH,2021-11-23T06:00:00+01:00,2021-11-23T06:30:00+01:00,150.96,EUR,,MWh
Power,Intraday,Continuous,NL,IDFULL,HH,2021-11-23T06:30:00+01:00,2021-11-23T07:00:00+01:00,150.96,EUR,,MWh
Power,Intraday,Continuous,NL,IDFULL,HH,2021-11-23T07:00:00+01:00,2021-11-23T07:30:00+01:00,208.20,EUR,,MWh
Power,Intraday,Continuous,NL,IDFULL,HH,2021-11-23T07:30:00+01:00,2021-11-23T08:00:00+01:00,208.20,EUR,,MWh
Power,Intraday,Continuous,NL,IDFULL,HH,2021-11-23T08:00:00+01:00,2021-11-23T08:30:00+01:00,305.76,EUR,,MWh
Power,Intraday,Continuous,NL,IDFULL,HH,2021-11-23T08:30:00+01:00,2021-11-23T09:00:00+01:00,305.76,EUR,,MWh
Power,Intraday,Continuous,NL,IDFULL,HH,2021-11-23T09:00:00+01:00,2021-11-23T09:30:00+01:00,276.49,EUR,,MWh
Power,Intraday,Continuous,NL,IDFULL,HH,2021-11-23T09:30:00+01:00,2021-11-23T10:00:00+01:00,276.49,EUR,,MWh
Power,Intraday,Continuous,NL,IDFULL,HH,2021-11-23T10:00:00+01:00,2021-11-23T10:30:00+01:00,246.80,EUR,,MWh
Power,Intraday,Continuous,NL,IDFULL,HH,2021-11-23T10:30:00+01:00,2021-11-23T11:00:00+01:00,246.80,EUR,,MWh
Power,Intraday,Continuous,NL,IDFULL,HH,2021-11-23T11:00:00+01:00,2021-11-23T11:30:00+01:00,259.12,EUR,,MWh
Power,Intraday,Continuous,NL,IDFULL,HH,2021-11-23T11:30:00+01:00,2021-11-23T12:00:00+01:00,259.12,EUR,,MWh
Power,Intraday,Continuous,NL,IDFULL,HH,2021-11-23T12:00:00+01:00,2021-11-23T12:30:00+01:00,335.90,EUR,,MWh
Power,Intraday,Continuous,NL,IDFULL,HH,2021-11-23T12:30:00+01:00,2021-11-23T13:00:00+01:00,335.90,EUR,,MWh
Power,Intraday,Continuous,NL,IDFULL,HH,2021-11-23T13:00:00+01:00,2021-11-23T13:30:00+01:00,367.37,EUR,,MWh
Power,Intraday,Continuous,NL,IDFULL,HH,2021-11-23T13:30:00+01:00,2021-11-23T14:00:00+01:00,367.37,EUR,,MWh
Power,Intraday,Continuous,NL,IDFULL,HH,2021-11-23T14:00:00+01:00,2021-11-23T14:30:00+01:00,391.51,EUR,,MWh
Power,Intraday,Continuous,NL,IDFULL,HH,2021-11-23T14:30:00+01:00,2021-11-23T15:00:00+01:00,391.51,EUR,,MWh
Power,Intraday,Continuous,NL,IDFULL,HH,2021-11-23T15:00:00+01:00,2021-11-23T15:30:00+01:00,297.64,EUR,,MWh
Power,Intraday,Continuous,NL,IDFULL,HH,2021-11-23T15:30:00+01:00,2021-11-23T16:00:00+01:00,297.64,EUR,,MWh
Power,Intraday,Continuous,NL,IDFULL,HH,2021-11-23T16:00:00+01:00,2021-11-23T16:30:00+01:00,317.65,EUR,,MWh
Power,Intraday,Continuous,NL,IDFULL,HH,2021-11-23T16:30:00+01:00,2021-11-23T17:00:00+01:00,317.65,EUR,,MWh
Power,Intraday,Continuous,NL,IDFULL,HH,2021-11-23T17:00:00+01:00,2021-11-23T17:30:00+01:00,345.79,EUR,,MWh
Power,Intraday,Continuous,NL,IDFULL,HH,2021-11-23T17:30:00+01:00,2021-11-23T18:00:00+01:00,345.79,EUR,,MWh
Power,Intraday,Continuous,NL,IDFULL,HH,2021-11-23T18:00:00+01:00,2021-11-23T18:30:00+01:00,337.71,EUR,,MWh
Power,Intraday,Continuous,NL,IDFULL,HH,2021-11-23T18:30:00+01:00,2021-11-23T19:00:00+01:00,337.71,EUR,,MWh
Power,Intraday,Continuous,NL,IDFULL,HH,2021-11-23T19:00:00+01:00,2021-11-23T19:30:00+01:00,303.83,EUR,,MWh
Power,Intraday,Continuous,NL,IDFULL,HH,2021-11-23T19:30:00+01:00,2021-11-23T20:00:00+01:00,303.83,EUR,,MWh
Power,Intraday,Continuous,NL,IDFULL,HH,2021-11-23T20:00:00+01:00,2021-11-23T20:30:00+01:00,270.86,EUR,,MWh
Power,Intraday,Continuous,NL,IDFULL,HH,2021-11-23T20:30:00+01:00,2021-11-23T21:00:00+01:00,270.86,EUR,,MWh
Power,Intraday,Continuous,NL,IDFULL,HH,2021-11-23T21:00:00+01:00,2021-11-23T21:30:00+01:00,216.61,EUR,,MWh
Power,Intraday,Continuous,NL,IDFULL,HH,2021-11-23T21:30:00+01:00,2021-11-23T22:00:00+01:00,216.61,EUR,,MWh
Power,Intraday,Continuous,NL,IDFULL,HH,2021-11-23T22:00:00+01:00,2021-11-23T22:30:00+01:00,212.68,EUR,,MWh
Power,Intraday,Continuous,NL,IDFULL,HH,2021-11-23T22:30:00+01:00,2021-11-23T23:00:00+01:00,212.68,EUR,,MWh
Power,Intraday,Continuous,NL,IDFULL,HH,2021-11-23T23:00:00+01:00,2021-11-23T23:30:00+01:00,112.68,EUR,,MWh
Power,Intraday,Continuous,NL,IDFULL,HH,2021-11-23T23:30:00+01:00,2021-11-24T00:00:00+01:00,112.68,EUR,,MWh
Power,Intraday,Continuous,NL,ID1,HH,2021-11-23T00:00:00+01:00,2021-11-23T00:30:00+01:00,171.64,EUR,,MWh
Power,Intraday,Continuous,NL,ID1,HH,2021-11-23T00:30:00+01:00,2021-11-23T01:00:00+01:00,171.64,EUR,,MWh
Power,Intraday,Continuous,NL,ID1,HH,2021-11-23T01:00:00+01:00,2021-11-23T01:30:00+01:00,161.05,EUR,,MWh
Power,Intraday,Continuous,NL,ID1,HH,2021-11-23T01:30:00+01:00,2021-11-23T02:00:00+01:00,161.05,EUR,,MWh
Power,Intraday,Continuous,NL,ID1,HH,2021-11-23T02:00:00+01:00,2021-11-23T02:30:00+01:00,170.92,EUR,,MWh
Power,Intraday,Continuous,NL,ID1,HH,2021-11-23T02:30:00+01:00,2021-11-23T03:00:00+01:00,170.92,EUR,,MWh
Power,Intraday,Continuous,NL,ID1,HH,2021-11-23T03:00:00+01:00,2021-11-23T03:30:00+01:00,174.06,EUR,,MWh
Power,Intraday,Continuous,NL,ID1,HH,2021-11-23T03:30:00+01:00,2021-11-23T04:00:00+01:00,174.06,EUR,,MWh
Power,Intraday,Continuous,NL,ID1,HH,2021-11-23T04:00:00+01:00,2021-11-23T04:30:00+01:00,148.09,EUR,,MWh
Power,Intraday,Continuous,NL,ID1,HH,2021-11-23T04:30:00+01:00,2021-11-23T05:00:00+01:00,148.09,EUR,,MWh
Power,Intraday,Continuous,NL,ID1,HH,2021-11-23T05:00:00+01:00,2021-11-23T05:30:00+01:00,148.69,EUR,,MWh
Power,Intraday,Continuous,NL,ID1,HH,2021-11-23T05:30:00+01:00,2021-11-23T06:00:00+01:00,148.69,EUR,,MWh
Power,Intraday,Continuous,NL,ID1,HH,2021-11-23T06:00:00+01:00,2021-11-23T06:30:00+01:00,150.96,EUR,,MWh
Power,Intraday,Continuous,NL,ID1,HH,2021-11-23T06:30:00+01:00,2021-11-23T07:00:00+01:00,150.96,EUR,,MWh
Power,Intraday,Continuous,NL,ID1,HH,2021-11-23T07:00:00+01:00,2021-11-23T07:30:00+01:00,208.20,EUR,,MWh
Power,Intraday,Continuous,NL,ID1,HH,2021-11-23T07:30:00+01:00,2021-11-23T08:00:00+01:00,208.20,EUR,,MWh
Power,Intraday,Continuous,NL,ID1,HH,2021-11-23T08:00:00+01:00,2021-11-23T08:30:00+01:00,305.76,EUR,,MWh
Power,Intraday,Continuous,NL,ID1,HH,2021-11-23T08:30:00+01:00,2021-11-23T09:00:00+01:00,305.76,EUR,,MWh
Power,Intraday,Continuous,NL,ID1,HH,2021-11-23T09:00:00+01:00,2021-11-23T09:30:00+01:00,276.49,EUR,,MWh
Power,Intraday,Continuous,NL,ID1,HH,2021-11-23T09:30:00+01:00,2021-11-23T10:00:00+01:00,276.49,EUR,,MWh
Power,Intraday,Continuous,NL,ID1,HH,2021-11-23T10:00:00+01:00,2021-11-23T10:30:00+01:00,246.80,EUR,,MWh
Power,Intraday,Continuous,NL,ID1,HH,2021-11-23T10:30:00+01:00,2021-11-23T11:00:00+01:00,246.80,EUR,,MWh
Power,Intraday,Continuous,NL,ID1,HH,2021-11-23T11:00:00+01:00,2021-11-23T11:30:00+01:00,259.12,EUR,,MWh
Power,Intraday,Continuous,NL,ID1,HH,2021-11-23T11:30:00+01:00,2021-11-23T12:00:00+01:00,259.12,EUR,,MWh
Power,Intraday,Continuous,NL,ID1,HH,2021-11-23T12:00:00+01:00,2021-11-23T12:30:00+01:00,335.90,EUR,,MWh
Power,Intraday,Continuous,NL,ID1,HH,2021-11-23T12:30:00+01:00,2021-11-23T13:00:00+01:00,335.90,EUR,,MWh
Power,Intraday,Continuous,NL,ID1,HH,2021-11-23T13:00:00+01:00,2021-11-23T13:30:00+01:00,367.37,EUR,,MWh
Power,Intraday,Continuous,NL,ID1,HH,2021-11-23T13:30:00+01:00,2021-11-23T14:00:00+01:00,367.37,EUR,,MWh
Power,Intraday,Continuous,NL,ID1,HH,2021-11-23T14:00:00+01:00,2021-11-23T14:30:00+01:00,391.51,EUR,,MWh
Power,Intraday,Continuous,NL,ID1,HH,2021-11-23T14:30:00+01:00,2021-11-23T15:00:00+01:00,391.51,EUR,,MWh
Power,Intraday,Continuous,NL,ID1,HH,2021-11-23T15:00:00+01:00,2021-11-23T15:30:00+01:00,297.64,EUR,,MWh
Power,Intraday,Continuous,NL,ID1,HH,2021-11-23T15:30:00+01:00,2021-11-23T16:00:00+01:00,297.64,EUR,,MWh
Power,Intraday,Continuous,NL,ID1,HH,2021-11-23T16:00:00+01:00,2021-11-23T16:30:00+01:00,317.65,EUR,,MWh
Power,Intraday,Continuous,NL,ID1,HH,2021-11-23T16:30:00+01:00,2021-11-23T17:00:00+01:00,317.65,EUR,,MWh
Power,Intraday,Continuous,NL,ID1,HH,2021-11-23T17:00:00+01:00,2021-11-23T17:30:00+01:00,345.79,EUR,,MWh
Power,Intraday,Continuous,NL,ID1,HH,2021-11-23T17:30:00+01:00,2021-11-23T18:00:00+01:00,345.79,EUR,,MWh
Power,Intraday,Continuous,NL,ID1,HH,2021-11-23T18:00:00+01:00,2021-11-23T18:30:00+01:00,337.71,EUR,,MWh
Power,Intraday,Continuous,NL,ID1,HH,2021-11-23T18:30:00+01:00,2021-11-23T19:00:00+01:00,337.71,EUR,,MWh
Power,Intraday,Continuous,NL,ID1,HH,2021-11-23T19:00:00+01:00,2021-11-23T19:30:00+01:00,303.83,EUR,,MWh
Power,Intraday,Continuous,NL,ID1,HH,2021-11-23T19:30:00+01:00,2021-11-23T20:00:00+01:00,303.83,EUR,,MWh
Power,Intraday,Continuous,NL,ID1,HH,2021-11-23T20:00:00+01:00,2021-11-23T20:30:00+01:00,270.86,EUR,,MWh
Power,Intraday,Continuous,NL,ID1,HH,2021-11-23T20:30:00+01:00,2021-11-23T21:00:00+01:00,270.86,EUR,,MWh
Power,Intraday,Continuous,NL,ID1,HH,2021-11-23T21:00:00+01:00,2021-11-23T21:30:00+01:00,216.61,EUR,,MWh
Power,Intraday,Continuous,NL,ID1,HH,2021-11-23T21:30:00+01:00,2021-11-23T22:00:00+01:00,216.61,EUR,,MWh
Power,Intraday,Continuous,NL,ID1,HH,2021-11-23T22:00:00+01:00,2021-11-23T22:30:00+01:00,212.68,EUR,,MWh
Power,Intraday,Continuous,NL,ID1,HH,2021-11-23T22:30:00+01:00,2021-11-23T23:00:00+01:00,212.68,EUR,,MWh
Power,Intraday,Continuous,NL,ID1,HH,2021-11-23T23:00:00+01:00,2021-11-23T23:30:00+01:00,112.68,EUR,,MWh
Power,Intraday,Continuous,NL,ID1,HH,2021-11-23T23:30:00+01:00,2021-11-24T00:00:00+01:00,112.68,EUR,,MWh
Power,Intraday,Continuous,NL,ID3,HH,2021-11-23T00:00:00+01:00,2021-11-23T00:30:00+01:00,171.64,EUR,,MWh
Power,Intraday,Continuous,NL,ID3,HH,2021-11-23T00:30:00+01:00,2021-11-23T01:00:00+01:00,171.64,EUR,,MWh
Power,Intraday,Continuous,NL,ID3,HH,2021-11-23T01:00:00+01:00,2021-11-23T01:30:00+01:00,161.05,EUR,,MWh
Power,Intraday,Continuous,NL,ID3,HH,2021-11-23T01:30:00+01:00,2021-11-23T02:00:00+01:00,161.05,EUR,,MWh
Power,Intraday,Continuous,NL,ID3,HH,2021-11-23T02:00:00+01:00,2021-11-23T02:30:00+01:00,170.92,EUR,,MWh
Power,Intraday,Continuous,NL,ID3,HH,2021-11-23T02:30:00+01:00,2021-11-23T03:00:00+01:00,170.92,EUR,,MWh
Power,Intraday,Continuous,NL,ID3,HH,2021-11-23T03:00:00+01:00,2021-11-23T03:30:00+01:00,174.06,EUR,,MWh
Power,Intraday,Continuous,NL,ID3,HH,2021-11-23T03:30:00+01:00,2021-11-23T04:00:00+01:00,174.06,EUR,,MWh
Power,Intraday,Continuous,NL,ID3,HH,2021-11-23T04:00:00+01:00,2021-11-23T04:30:00+01:00,148.09,EUR,,MWh
Power,Intraday,Continuous,NL,ID3,HH,2021-11-23T04:30:00+01:00,2021-11-23T05:00:00+01:00,148.09,EUR,,MWh
Power,Intraday,Continuous,NL,ID3,HH,2021-11-23T05:00:00+01:00,2021-11-23T05:30:00+01:00,148.69,EUR,,MWh
Power,Intraday,Continuous,NL,ID3,HH,2021-11-23T05:30:00+01:00,2021-11-23T06:00:00+01:00,148.69,EUR,,MWh
Power,Intraday,Continuous,NL,ID3,HH,2021-11-23T06:00:00+01:00,2021-11-23T06:30:00+01:00,150.96,EUR,,MWh
Power,Intraday,Continuous,NL,ID3,HH,2021-11-23T06:30:00+01:00,2021-11-23T07:00:00+01:00,150.96,EUR,,MWh
Power,Intraday,Continuous,NL,ID3,HH,2021-11-23T07:00:00+01:00,2021-11-23T07:30:00+01:00,208.20,EUR,,MWh
Power,Intraday,Continuous,NL,ID3,HH,2021-11-23T07:30:00+01:00,2021-11-23T08:00:00+01:00,208.20,EUR,,MWh
Power,Intraday,Continuous,NL,ID3,HH,2021-11-23T08:00:00+01:00,2021-11-23T08:30:00+01:00,305.76,EUR,,MWh
Power,Intraday,Continuous,NL,ID3,HH,2021-11-23T08:30:00+01:00,2021-11-23T09:00:00+01:00,305.76,EUR,,MWh
Power,Intraday,Continuous,NL,ID3,HH,2021-11-23T09:00:00+01:00,2021-11-23T09:30:00+01:00,276.49,EUR,,MWh
Power,Intraday,Continuous,NL,ID3,HH,2021-11-23T09:30:00+01:00,2021-11-23T10:00:00+01:00,276.49,EUR,,MWh
Power,Intraday,Continuous,NL,ID3,HH,2021-11-23T10:00:00+01:00,2021-11-23T10:30:00+01:00,246.80,EUR,,MWh
Power,Intraday,Continuous,NL,ID3,HH,2021-11-23T10:30:00+01:00,2021-11-23T11:00:00+01:00,246.80,EUR,,MWh
Power,Intraday,Continuous,NL,ID3,HH,2021-11-23T11:00:00+01:00,2021-11-23T11:30:00+01:00,259.12,EUR,,MWh
Power,Intraday,Continuous,NL,ID3,HH,2021-11-23T11:30:00+01:00,2021-11-23T12:00:00+01:00,259.12,EUR,,MWh
Power,Intraday,Continuous,NL,ID3,HH,2021-11-23T12:00:00+01:00,2021-11-23T12:30:00+01:00,335.90,EUR,,MWh
Power,Intraday,Continuous,NL,ID3,HH,2021-11-23T12:30:00+01:00,2021-11-23T13:00:00+01:00,335.90,EUR,,MWh
Power,Intraday,Continuous,NL,ID3,HH,2021-11-23T13:00:00+01:00,2021-11-23T13:30:00+01:00,367.37,EUR,,MWh
Power,Intraday,Continuous,NL,ID3,HH,2021-11-23T13:30:00+01:00,2021-11-23T14:00:00+01:00,367.37,EUR,,MWh
Power,Intraday,Continuous,NL,ID3,HH,2021-11-23T14:00:00+01:00,2021-11-23T14:30:00+01:00,391.51,EUR,,MWh
Power,Intraday,Continuous,NL,ID3,HH,2021-11-23T14:30:00+01:00,2021-11-23T15:00:00+01:00,391.51,EUR,,MWh
Power,Intraday,Continuous,NL,ID3,HH,2021-11-23T15:00:00+01:00,2021-11-23T15:30:00+01:00,297.64,EUR,,MWh
Power,Intraday,Continuous,NL,ID3,HH,2021-11-23T15:30:00+01:00,2021-11-23T16:00:00+01:00,297.64,EUR,,MWh
Power,Intraday,Continuous,NL,ID3,HH,2021-11-23T16:00:00+01:00,2021-11-23T16:30:00+01:00,317.65,EUR,,MWh
Power,Intraday,Continuous,NL,ID3,HH,2021-11-23T16:30:00+01:00,2021-11-23T17:00:00+01:00,317.65,EUR,,MWh
Power,Intraday,Continuous,NL,ID3,HH,2021-11-23T17:00:00+01:00,2021-11-23T17:30:00+01:00,345.79,EUR,,MWh
Power,Intraday,Continuous,NL,ID3,HH,2021-11-23T17:30:00+01:00,2021-11-23T18:00:00+01:00,345.79,EUR,,MWh
Power,Intraday,Continuous,NL,ID3,HH,2021-11-23T18:00:00+01:00,2021-11-23T18:30:00+01:00,337.71,EUR,,MWh
Power,Intraday,Continuous,NL,ID3,HH,2021-11-23T18:30:00+01:00,2021-11-23T19:00:00+01:00,337.71,EUR,,MWh
Power,Intraday,Continuous,NL,ID3,HH,2021-11-23T19:00:00+01:00,2021-11-23T19:30:00+01:00,303.83,EUR,,MWh
Power,Intraday,Continuous,NL,ID3,HH,2021-11-23T19:30:00+01:00,2021-11-23T20:00:00+01:00,303.83,EUR,,MWh
Power,Intraday,Continuous,NL,ID3,HH,2021-11-23T20:00:00+01:00,2021-11-23T20:30:00+01:00,270.86,EUR,,MWh
Power,Intraday,Continuous,NL,ID3,HH,2021-11-23T20:30:00+01:00,2021-11-23T21:00:00+01:00,270.86,EUR,,MWh
Power,Intraday,Continuous,NL,ID3,HH,2021-11-23T21:00:00+01:00,2021-11-23T21:30:00+01:00,216.61,EUR,,MWh
Power,Intraday,Continuous,NL,ID3,HH,2021-11-23T21:30:00+01:00,2021-11-23T22:00:00+01:00,216.61,EUR,,MWh
Power,Intraday,Continuous,NL,ID3,HH,2021-11-23T22:00:00+01:00,2021-11-23T22:30:00+01:00,212.68,EUR,,MWh
Power,Intraday,Continuous,NL,ID3,HH,2021-11-23T22:30:00+01:00,2021-11-23T23:00:00+01:00,212.68,EUR,,MWh
Power,Intraday,Continuous,NL,ID3,HH,2021-11-23T23:00:00+01:00,2021-11-23T23:30:00+01:00,112.68,EUR,,MWh
Power,Intraday,Continuous,NL,ID3,HH,2021-11-23T23:30:00+01:00,2021-11-24T00:00:00+01:00,112.68,EUR,,MWh
Power,Intraday,Continuous,NL,IDFULL,QH,2021-11-23T00:00:00+01:00,2021-11-23T00:15:00+01:00,171.64,EUR,,MWh
Power,Intraday,Continuous,NL,IDFULL,QH,2021-11-23T00:15:00+01:00,2021-11-23T00:30:00+01:00,171.64,EUR,,MWh
Power,Intraday,Continuous,NL,IDFULL,QH,2021-11-23T00:30:00+01:00,2021-11-23T00:45:00+01:00,171.64,EUR,,MWh
Power,Intraday,Continuous,NL,IDFULL,QH,2021-11-23T00:45:00+01:00,2021-11-23T01:00:00+01:00,171.64,EUR,,MWh
Power,Intraday,Continuous,NL,IDFULL,QH,2021-11-23T01:00:00+01:00,2021-11-23T01:15:00+01:00,162.73,EUR,,MWh
Power,Intraday,Continuous,NL,IDFULL,QH,2021-11-23T01:15:00+01:00,2021-11-23T01:30:00+01:00,162.73,EUR,,MWh
Power,Intraday,Continuous,NL,IDFULL,QH,2021-11-23T01:30:00+01:00,2021-11-23T01:45:00+01:00,150.00,EUR,3.750,MWh
Power,Intraday,Continuous,NL,IDFULL,QH,2021-11-23T01:45:00+01:00,2021-11-23T02:00:00+01:00,168.74,EUR,5.000,MWh
Power,Intraday,Continuous,NL,IDFULL,QH,2021-11-23T02:00:00+01:00,2021-11-23T02:15:00+01:00,177.89,EUR,,MWh
Power,Intraday,Continuous,NL,IDFULL,QH,2021-11-23T02:15:00+01:00,2021-11-23T02:30:00+01:00,177.89,EUR,,MWh
Power,Intraday,Continuous,NL,IDFULL,QH,2021-11-23T02:30:00+01:00,2021-11-23T02:45:00+01:00,150.00,EUR,2.500,MWh
Power,Intraday,Continuous,NL,IDFULL,QH,2021-11-23T02:45:00+01:00,2021-11-23T03:00:00+01:00,177.89,EUR,,MWh
Power,Intraday,Continuous,NL,IDFULL,QH,2021-11-23T03:00:00+01:00,2021-11-23T03:15:00+01:00,187.20,EUR,,MWh
Power,Intraday,Continuous,NL,IDFULL,QH,2021-11-23T03:15:00+01:00,2021-11-23T03:30:00+01:00,187.20,EUR,,MWh
Power,Intraday,Continuous,NL,IDFULL,QH,2021-11-23T03:30:00+01:00,2021-11-23T03:45:00+01:00,187.20,EUR,,MWh
Power,Intraday,Continuous,NL,IDFULL,QH,2021-11-23T03:45:00+01:00,2021-11-23T04:00:00+01:00,134.64,EUR,3.650,MWh
Power,Intraday,Continuous,NL,IDFULL,QH,2021-11-23T04:00:00+01:00,2021-11-23T04:15:00+01:00,110.68,EUR,,MWh
Power,Intraday,Continuous,NL,IDFULL,QH,2021-11-23T04:15:00+01:00,2021-11-23T04:30:00+01:00,110.68,EUR,,MWh
Power,Intraday,Continuous,NL,IDFULL,QH,2021-11-23T04:30:00+01:00,2021-11-23T04:45:00+01:00,166.37,EUR,2.730,MWh
Power,Intraday,Continuous,NL,IDFULL,QH,2021-11-23T04:45:00+01:00,2021-11-23T05:00:00+01:00,204.64,EUR,3.080,MWh
Power,Intraday,Continuous,NL,IDFULL,QH,2021-11-23T05:00:00+01:00,2021-11-23T05:15:00+01:00,89.48,EUR,34.250,MWh
Power,Intraday,Continuous,NL,IDFULL,QH,2021-11-23T05:15:00+01:00,2021-11-23T05:30:00+01:00,115.89,EUR,50.950,MWh
Power,Intraday,Continuous,NL,IDFULL,QH,2021-11-23T05:30:00+01:00,2021-11-23T05:45:00+01:00,141.42,EUR,38.930,MWh
Power,Intraday,Continuous,NL,IDFULL,QH,2021-11-23T05:45:00+01:00,2021-11-23T06:00:00+01:00,190.73,EUR,53.980,MWh
Power,Intraday,Continuous,NL,IDFULL,QH,2021-11-23T06:00:00+01:00,2021-11-23T06:15:00+01:00,82.70,EUR,57.230,MWh
Power,Intraday,Continuous,NL,IDFULL,QH,2021-11-23T06:15:00+01:00,2021-11-23T06:30:00+01:00,117.03,EUR,33.230,MWh
Power,Intraday,Continuous,NL,IDFULL,QH,2021-11-23T06:30:00+01:00,2021-11-23T06:45:00+01:00,181.08,EUR,41.200,MWh
Power,Intraday,Continuous,NL,IDFULL,QH,2021-11-23T06:45:00+01:00,2021-11-23T07:00:00+01:00,195.07,EUR,65.580,MWh
Power,Intraday,Continuous,NL,IDFULL,QH,2021-11-23T07:00:00+01:00,2021-11-23T07:15:00+01:00,132.57,EUR,56.350,MWh
Power,Intraday,Continuous,NL,IDFULL,QH,2021-11-23T07:15:00+01:00,2021-11-23T07:30:00+01:00,188.09,EUR,39.880,MWh
Power,Intraday,Continuous,NL,IDFULL,QH,2021-11-23T07:30:00+01:00,2021-11-23T07:45:00+01:00,233.06,EUR,33.250,MWh
Power,Intraday,Continuous,NL,IDFULL,QH,2021-11-23T07:45:00+01:00,2021-11-23T08:00:00+01:00,270.49,EUR,17.550,MWh
Power,Intraday,Continuous,NL,IDFULL,QH,2021-11-23T08:00:00+01:00,2021-11-23T08:15:00+01:00,305.76,EUR,,MWh
Power,Intraday,Continuous,NL,IDFULL,QH,2021-11-23T08:15:00+01:00,2021-11-23T08:30:00+01:00,305.76,EUR,,MWh
Power,Intraday,Continuous,NL,IDFULL,QH,2021-11-23T08:30:00+01:00,2021-11-23T08:45:00+01:00,305.76,EUR,,MWh
Power,Intraday,Continuous,NL,IDFULL,QH,2021-11-23T08:45:00+01:00,2021-11-23T09:00:00+01:00,305.76,EUR,,MWh
Power,Intraday,Continuous,NL,IDFULL,QH,2021-11-23T09:00:00+01:00,2021-11-23T09:15:00+01:00,316.38,EUR,7.380,MWh
Power,Intraday,Continuous,NL,IDFULL,QH,2021-11-23T09:15:00+01:00,2021-11-23T09:30:00+01:00,297.03,EUR,12.030,MWh
Power,Intraday,Continuous,NL,IDFULL,QH,2021-11-23T09:30:00+01:00,2021-11-23T09:45:00+01:00,258.38,EUR,15.830,MWh
Power,Intraday,Continuous,NL,IDFULL,QH,2021-11-23T09:45:00+01:00,2021-11-23T10:00:00+01:00,236.39,EUR,18.180,MWh
Power,Intraday,Continuous,NL,IDFULL,QH,2021-11-23T10:00:00+01:00,2021-11-23T10:15:00+01:00,283.04,EUR,29.650,MWh
Power,Intraday,Continuous,NL,IDFULL,QH,2021-11-23T10:15:00+01:00,2021-11-23T10:30:00+01:00,256.90,EUR,21.450,MWh
Power,Intraday,Continuous,NL,IDFULL,QH,2021-11-23T10:30:00+01:00,2021-11-23T10:45:00+01:00,245.94,EUR,22.980,MWh
Power,Intraday,Continuous,NL,IDFULL,QH,2021-11-23T10:45:00+01:00,2021-11-23T11:00:00+01:00,233.17,EUR,33.080,MWh
Power,Intraday,Continuous,NL,IDFULL,QH,2021-11-23T11:00:00+01:00,2021-11-23T11:15:00+01:00,252.68,EUR,19.050,MWh
Power,Intraday,Continuous,NL,IDFULL,QH,2021-11-23T11:15:00+01:00,2021-11-23T11:30:00+01:00,245.49,EUR,22.380,MWh
Power,Intraday,Continuous,NL,IDFULL,QH,2021-11-23T11:30:00+01:00,2021-11-23T11:45:00+01:00,217.34,EUR,49.000,MWh
Power,Intraday,Continuous,NL,IDFULL,QH,2021-11-23T11:45:00+01:00,2021-11-23T12:00:00+01:00,224.08,EUR,39.050,MWh
Power,Intraday,Continuous,NL,IDFULL,QH,2021-11-23T12:00:00+01:00,2021-11-23T12:15:00+01:00,380.15,EUR,4.780,MWh
Power,Intraday,Continuous,NL,IDFULL,QH,2021-11-23T12:15:00+01:00,2021-11-23T12:30:00+01:00,285.02,EUR,11.450,MWh
Power,Intraday,Continuous,NL,IDFULL,QH,2021-11-23T12:30:00+01:00,2021-11-23T12:45:00+01:00,283.57,EUR,14.880,MWh
Power,Intraday,Continuous,NL,IDFULL,QH,2021-11-23T12:45:00+01:00,2021-11-23T13:00:00+01:00,240.06,EUR,25.280,MWh
Power,Intraday,Continuous,NL,IDFULL,QH,2021-11-23T13:00:00+01:00,2021-11-23T13:15:00+01:00,244.61,EUR,15.700,MWh
Power,Intraday,Continuous,NL,IDFULL,QH,2021-11-23T13:15:00+01:00,2021-11-23T13:30:00+01:00,243.05,EUR,5.830,MWh
Power,Intraday,Continuous,NL,IDFULL,QH,2021-11-23T13:30:00+01:00,2021-11-23T13:45:00+01:00,280.80,EUR,5.180,MWh
Power,Intraday,Continuous,NL,IDFULL,QH,2021-11-23T13:45:00+01:00,2021-11-23T14:00:00+01:00,282.60,EUR,2.530,MWh
Power,Intraday,Continuous,NL,IDFULL,QH,2021-11-23T14:00:00+01:00,2021-11-23T14:15:00+01:00,288.15,EUR,14.330,MWh
Power,Intraday,Continuous,NL,IDFULL,QH,2021-11-23T14:15:00+01:00,2021-11-23T14:30:00+01:00,301.55,EUR,7.850,MWh
Power,Intraday,Continuous,NL,IDFULL,QH,2021-11-23T14:30:00+01:00,2021-11-23T14:45:00+01:00,342.54,EUR,5.550,MWh
Power,Intraday,Continuous,NL,IDFULL,QH,2021-11-23T14:45:00+01:00,2021-11-23T15:00:00+01:00,363.78,EUR,3.050,MWh
Power,Intraday,Continuous,NL,IDFULL,QH,2021-11-23T15:00:00+01:00,2021-11-23T15:15:00+01:00,248.82,EUR,61.400,MWh
Power,Intraday,Continuous,NL,IDFULL,QH,2021-11-23T15:15:00+01:00,2021-11-23T15:30:00+01:00,276.92,EUR,57.230,MWh
Power,Intraday,Continuous,NL,IDFULL,QH,2021-11-23T15:30:00+01:00,2021-11-23T15:45:00+01:00,305.12,EUR,44.880,MWh
Power,Intraday,Continuous,NL,IDFULL,QH,2021-11-23T15:45:00+01:00,2021-11-23T16:00:00+01:00,330.68,EUR,68.180,MWh
Power,Intraday,Continuous,NL,IDFULL,QH,2021-11-23T16:00:00+01:00,2021-11-23T16:15:00+01:00,260.11,EUR,81.600,MWh
Power,Intraday,Continuous,NL,IDFULL,QH,2021-11-23T16:15:00+01:00,2021-11-23T16:30:00+01:00,283.00,EUR,53.630,MWh
Power,Intraday,Continuous,NL,IDFULL,QH,2021-11-23T16:30:00+01:00,2021-11-23T16:45:00+01:00,324.17,EUR,21.080,MWh
Power,Intraday,Continuous,NL,IDFULL,QH,2021-11-23T16:45:00+01:00,2021-11-23T17:00:00+01:00,349.39,EUR,35.600,MWh
Power,Intraday,Continuous,NL,IDFULL,QH,2021-11-23T17:00:00+01:00,2021-11-23T17:15:00+01:00,280.61,EUR,34.180,MWh
Power,Intraday,Continuous,NL,IDFULL,QH,2021-11-23T17:15:00+01:00,2021-11-23T17:30:00+01:00,342.19,EUR,11.530,MWh
Power,Intraday,Continuous,NL,IDFULL,QH,2021-11-23T17:30:00+01:00,2021-11-23T17:45:00+01:00,344.13,EUR,2.900,MWh
Power,Intraday,Continuous,NL,IDFULL,QH,2021-11-23T17:45:00+01:00,2021-11-23T18:00:00+01:00,359.55,EUR,7.900,MWh
Power,Intraday,Continuous,NL,IDFULL,QH,2021-11-23T18:00:00+01:00,2021-11-23T18:15:00+01:00,365.37,EUR,60.750,MWh
Power,Intraday,Continuous,NL,IDFULL,QH,2021-11-23T18:15:00+01:00,2021-11-23T18:30:00+01:00,329.27,EUR,27.200,MWh
Power,Intraday,Continuous,NL,IDFULL,QH,2021-11-23T18:30:00+01:00,2021-11-23T18:45:00+01:00,325.43,EUR,43.800,MWh
Power,Intraday,Continuous,NL,IDFULL,QH,2021-11-23T18:45:00+01:00,2021-11-23T19:00:00+01:00,287.36,EUR,60.450,MWh
Power,Intraday,Continuous,NL,IDFULL,QH,2021-11-23T19:00:00+01:00,2021-11-23T19:15:00+01:00,347.78,EUR,48.350,MWh
Power,Intraday,Continuous,NL,IDFULL,QH,2021-11-23T19:15:00+01:00,2021-11-23T19:30:00+01:00,270.70,EUR,39.830,MWh
Power,Intraday,Continuous,NL,IDFULL,QH,2021-11-23T19:30:00+01:00,2021-11-23T19:45:00+01:00,248.15,EUR,68.250,MWh
Power,Intraday,Continuous,NL,IDFULL,QH,2021-11-23T19:45:00+01:00,2021-11-23T20:00:00+01:00,238.99,EUR,76.280,MWh
Power,Intraday,Continuous,NL,IDFULL,QH,2021-11-23T20:00:00+01:00,2021-11-23T20:15:00+01:00,315.30,EUR,33.330,MWh
Power,Intraday,Continuous,NL,IDFULL,QH,2021-11-23T20:15:00+01:00,2021-11-23T20:30:00+01:00,262.85,EUR,21.630,MWh
Power,Intraday,Continuous,NL,IDFULL,QH,2021-11-23T20:30:00+01:00,2021-11-23T20:45:00+01:00,248.47,EUR,48.030,MWh
Power,Intraday,Continuous,NL,IDFULL,QH,2021-11-23T20:45:00+01:00,2021-11-23T21:00:00+01:00,204.22,EUR,60.830,MWh
Power,Intraday,Continuous,NL,IDFULL,QH,2021-11-23T21:00:00+01:00,2021-11-23T21:15:00+01:00,275.08,EUR,39.700,MWh
Power,Intraday,Continuous,NL,IDFULL,QH,2021-11-23T21:15:00+01:00,2021-11-23T21:30:00+01:00,256.50,EUR,13.900,MWh
Power,Intraday,Continuous,NL,IDFULL,QH,2021-11-23T21:30:00+01:00,2021-11-23T21:45:00+01:00,198.27,EUR,25.380,MWh
Power,Intraday,Continuous,NL,IDFULL,QH,2021-11-23T21:45:00+01:00,2021-11-23T22:00:00+01:00,175.79,EUR,16.930,MWh
Power,Intraday,Continuous,NL,IDFULL,QH,2021-11-23T22:00:00+01:00,2021-11-23T22:15:00+01:00,270.25,EUR,7.550,MWh
Power,Intraday,Continuous,NL,IDFULL,QH,2021-11-23T22:15:00+01:00,2021-11-23T22:30:00+01:00,204.92,EUR,,MWh
Power,Intraday,Continuous,NL,IDFULL,QH,2021-11-23T22:30:00+01:00,2021-11-23T22:45:00+01:00,204.92,EUR,,MWh
Power,Intraday,Continuous,NL,IDFULL,QH,2021-11-23T22:45:00+01:00,2021-11-23T23:00:00+01:00,170.63,EUR,19.680,MWh
Power,Intraday,Continuous,NL,IDFULL,QH,2021-11-23T23:00:00+01:00,2021-11-23T23:15:00+01:00,240.96,EUR,16.750,MWh
Power,Intraday,Continuous,NL,IDFULL,QH,2021-11-23T23:15:00+01:00,2021-11-23T23:30:00+01:00,69.92,EUR,,MWh
Power,Intraday,Continuous,NL,IDFULL,QH,2021-11-23T23:30:00+01:00,2021-11-23T23:45:00+01:00,69.92,EUR,,MWh
Power,Intraday,Continuous,NL,IDFULL,QH,2021-11-23T23:45:00+01:00,2021-11-24T00:00:00+01:00,69.92,EUR,,MWh
Power,Intraday,Continuous,NL,ID1,QH,2021-11-23T00:00:00+01:00,2021-11-23T00:15:00+01:00,171.64,EUR,,MWh
Power,Intraday,Continuous,NL,ID1,QH,2021-11-23T00:15:00+01:00,2021-11-23T00:30:00+01:00,171.64,EUR,,MWh
Power,Intraday,Continuous,NL,ID1,QH,2021-11-23T00:30:00+01:00,2021-11-23T00:45:00+01:00,171.64,EUR,,MWh
Power,Intraday,Continuous,NL,ID1,QH,2021-11-23T00:45:00+01:00,2021-11-23T01:00:00+01:00,171.64,EUR,,MWh
Power,Intraday,Continuous,NL,ID1,QH,2021-11-23T01:00:00+01:00,2021-11-23T01:15:00+01:00,162.73,EUR,,MWh
Power,Intraday,Continuous,NL,ID1,QH,2021-11-23T01:15:00+01:00,2021-11-23T01:30:00+01:00,162.73,EUR,,MWh
Power,Intraday,Continuous,NL,ID1,QH,2021-11-23T01:30:00+01:00,2021-11-23T01:45:00+01:00,150.00,EUR,3.750,MWh
Power,Intraday,Continuous,NL,ID1,QH,2021-11-23T01:45:00+01:00,2021-11-23T02:00:00+01:00,168.74,EUR,,MWh
Power,Intraday,Continuous,NL,ID1,QH,2021-11-23T02:00:00+01:00,2021-11-23T02:15:00+01:00,177.89,EUR,,MWh
Power,Intraday,Continuous,NL,ID1,QH,2021-11-23T02:15:00+01:00,2021-11-23T02:30:00+01:00,177.89,EUR,,MWh
Power,Intraday,Continuous,NL,ID1,QH,2021-11-23T02:30:00+01:00,2021-11-23T02:45:00+01:00,150.00,EUR,2.500,MWh
Power,Intraday,Continuous,NL,ID1,QH,2021-11-23T02:45:00+01:00,2021-11-23T03:00:00+01:00,177.89,EUR,,MWh
Power,Intraday,Continuous,NL,ID1,QH,2021-11-23T03:00:00+01:00,2021-11-23T03:15:00+01:00,187.20,EUR,,MWh
Power,Intraday,Continuous,NL,ID1,QH,2021-11-23T03:15:00+01:00,2021-11-23T03:30:00+01:00,187.20,EUR,,MWh
Power,Intraday,Continuous,NL,ID1,QH,2021-11-23T03:30:00+01:00,2021-11-23T03:45:00+01:00,187.20,EUR,,MWh
Power,Intraday,Continuous,NL,ID1,QH,2021-11-23T03:45:00+01:00,2021-11-23T04:00:00+01:00,134.64,EUR,,MWh
Power,Intraday,Continuous,NL,ID1,QH,2021-11-23T04:00:00+01:00,2021-11-23T04:15:00+01:00,110.68,EUR,,MWh
Power,Intraday,Continuous,NL,ID1,QH,2021-11-23T04:15:00+01:00,2021-11-23T04:30:00+01:00,110.68,EUR,,MWh
Power,Intraday,Continuous,NL,ID1,QH,2021-11-23T04:30:00+01:00,2021-11-23T04:45:00+01:00,166.37,EUR,,MWh
Power,Intraday,Continuous,NL,ID1,QH,2021-11-23T04:45:00+01:00,2021-11-23T05:00:00+01:00,204.64,EUR,,MWh
Power,Intraday,Continuous,NL,ID1,QH,2021-11-23T05:00:00+01:00,2021-11-23T05:15:00+01:00,88.14,EUR,,MWh
Power,Intraday,Continuous,NL,ID1,QH,2021-11-23T05:15:00+01:00,2021-11-23T05:30:00+01:00,115.19,EUR,,MWh
Power,Intraday,Continuous,NL,ID1,QH,2021-11-23T05:30:00+01:00,2021-11-23T05:45:00+01:00,120.34,EUR,,MWh
Power,Intraday,Continuous,NL,ID1,QH,2021-11-23T05:45:00+01:00,2021-11-23T06:00:00+01:00,184.84,EUR,,MWh
Power,Intraday,Continuous,NL,ID1,QH,2021-11-23T06:00:00+01:00,2021-11-23T06:15:00+01:00,82.70,EUR,,MWh
Power,Intraday,Continuous,NL,ID1,QH,2021-11-23T06:15:00+01:00,2021-11-23T06:30:00+01:00,116.77,EUR,,MWh
Power,Intraday,Continuous,NL,ID1,QH,2021-11-23T06:30:00+01:00,2021-11-23T06:45:00+01:00,180.93,EUR,,MWh
Power,Intraday,Continuous,NL,ID1,QH,2021-11-23T06:45:00+01:00,2021-11-23T07:00:00+01:00,194.95,EUR,,MWh
Power,Intraday,Continuous,NL,ID1,QH,2021-11-23T07:00:00+01:00,2021-11-23T07:15:00+01:00,132.57,EUR,,MWh
Power,Intraday,Continuous,NL,ID1,QH,2021-11-23T07:15:00+01:00,2021-11-23T07:30:00+01:00,188.09,EUR,,MWh
Power,Intraday,Continuous,NL,ID1,QH,2021-11-23T07:30:00+01:00,2021-11-23T07:45:00+01:00,233.06,EUR,,MWh
Power,Intraday,Continuous,NL,ID1,QH,2021-11-23T07:45:00+01:00,2021-11-23T08:00:00+01:00,269.87,EUR,,MWh
Power,Intraday,Continuous,NL,ID1,QH,2021-11-23T08:00:00+01:00,2021-11-23T08:15:00+01:00,305.76,EUR,,MWh
Power,Intraday,Continuous,NL,ID1,QH,2021-11-23T08:15:00+01:00,2021-11-23T08:30:00+01:00,305.76,EUR,,MWh
Power,Intraday,Continuous,NL,ID1,QH,2021-11-23T08:30:00+01:00,2021-11-23T08:45:00+01:00,305.76,EUR,,MWh
Power,Intraday,Continuous,NL,ID1,QH,2021-11-23T08:45:00+01:00,2021-11-23T09:00:00+01:00,305.76,EUR,,MWh
Power,Intraday,Continuous,NL,ID1,QH,2021-11-23T09:00:00+01:00,2021-11-23T09:15:00+01:00,316.38,EUR,,MWh
Power,Intraday,Continuous,NL,ID1,QH,2021-11-23T09:15:00+01:00,2021-11-23T09:30:00+01:00,286.37,EUR,4.130,MWh
Power,Intraday,Continuous,NL,ID1,QH,2021-11-23T09:30:00+01:00,2021-11-23T09:45:00+01:00,258.38,EUR,,MWh
Power,Intraday,Continuous,NL,ID1,QH,2021-11-23T09:45:00+01:00,2021-11-23T10:00:00+01:00,236.39,EUR,,MWh
Power,Intraday,Continuous,NL,ID1,QH,2021-11-23T10:00:00+01:00,2021-11-23T10:15:00+01:00,283.04,EUR,,MWh
Power,Intraday,Continuous,NL,ID1,QH,2021-11-23T10:15:00+01:00,2021-11-23T10:30:00+01:00,256.90,EUR,,MWh
Power,Intraday,Continuous,NL,ID1,QH,2021-11-23T10:30:00+01:00,2021-11-23T10:45:00+01:00,260.00,EUR,3.750,MWh
Power,Intraday,Continuous,NL,ID1,QH,2021-11-23T10:45:00+01:00,2021-11-23T11:00:00+01:00,260.00,EUR,6.250,MWh
Power,Intraday,Continuous,NL,ID1,QH,2021-11-23T11:00:00+01:00,2021-11-23T11:15:00+01:00,248.23,EUR,,MWh
Power,Intraday,Continuous,NL,ID1,QH,2021-11-23T11:15:00+01:00,2021-11-23T11:30:00+01:00,238.76,EUR,,MWh
Power,Intraday,Continuous,NL,ID1,QH,2021-11-23T11:30:00+01:00,2021-11-23T11:45:00+01:00,159.01,EUR,11.250,MWh
Power,Intraday,Continuous,NL,ID1,QH,2021-11-23T11:45:00+01:00,2021-11-23T12:00:00+01:00,159.01,EUR,3.750,MWh
Power,Intraday,Continuous,NL,ID1,QH,2021-11-23T12:00:00+01:00,2021-11-23T12:15:00+01:00,380.15,EUR,,MWh
Power,Intraday,Continuous,NL,ID1,QH,2021-11-23T12:15:00+01:00,2021-11-23T12:30:00+01:00,300.00,EUR,3.750,MWh
Power,Intraday,Continuous,NL,ID1,QH,2021-11-23T12:30:00+01:00,2021-11-23T12:45:00+01:00,300.00,EUR,6.950,MWh
Power,Intraday,Continuous,NL,ID1,QH,2021-11-23T12:45:00+01:00,2021-11-23T13:00:00+01:00,258.33,EUR,2.700,MWh
Power,Intraday,Continuous,NL,ID1,QH,2021-11-23T13:00:00+01:00,2021-11-23T13:15:00+01:00,222.00,EUR,5.680,MWh
Power,Intraday,Continuous,NL,ID1,QH,2021-11-23T13:15:00+01:00,2021-11-23T13:30:00+01:00,217.70,EUR,,MWh
Power,Intraday,Continuous,NL,ID1,QH,2021-11-23T13:30:00+01:00,2021-11-23T13:45:00+01:00,269.63,EUR,,MWh
Power,Intraday,Continuous,NL,ID1,QH,2021-11-23T13:45:00+01:00,2021-11-23T14:00:00+01:00,282.60,EUR,,MWh
Power,Intraday,Continuous,NL,ID1,QH,2021-11-23T14:00:00+01:00,2021-11-23T14:15:00+01:00,279.93,EUR,6.830,MWh
Power,Intraday,Continuous,NL,ID1,QH,2021-11-23T14:15:00+01:00,2021-11-23T14:30:00+01:00,314.04,EUR,,MWh
Power,Intraday,Continuous,NL,ID1,QH,2021-11-23T14:30:00+01:00,2021-11-23T14:45:00+01:00,360.00,EUR,,MWh
Power,Intraday,Continuous,NL,ID1,QH,2021-11-23T14:45:00+01:00,2021-11-23T15:00:00+01:00,363.78,EUR,,MWh
Power,Intraday,Continuous,NL,ID1,QH,2021-11-23T15:00:00+01:00,2021-11-23T15:15:00+01:00,240.22,EUR,,MWh
Power,Intraday,Continuous,NL,ID1,QH,2021-11-23T15:15:00+01:00,2021-11-23T15:30:00+01:00,267.94,EUR,,MWh
Power,Intraday,Continuous,NL,ID1,QH,2021-11-23T15:30:00+01:00,2021-11-23T15:45:00+01:00,280.91,EUR,,MWh
Power,Intraday,Continuous,NL,ID1,QH,2021-11-23T15:45:00+01:00,2021-11-23T16:00:00+01:00,324.02,EUR,,MWh
Power,Intraday,Continuous,NL,ID1,QH,2021-11-23T16:00:00+01:00,2021-11-23T16:15:00+01:00,250.00,EUR,2.500,MWh
Power,Intraday,Continuous,NL,ID1,QH,2021-11-23T16:15:00+01:00,2021-11-23T16:30:00+01:00,250.00,EUR,2.500,MWh
Power,Intraday,Continuous,NL,ID1,QH,2021-11-23T16:30:00+01:00,2021-11-23T16:45:00+01:00,308.70,EUR,,MWh
Power,Intraday,Continuous,NL,ID1,QH,2021-11-23T16:45:00+01:00,2021-11-23T17:00:00+01:00,343.55,EUR,,MWh
Power,Intraday,Continuous,NL,ID1,QH,2021-11-23T17:00:00+01:00,2021-11-23T17:15:00+01:00,274.81,EUR,,MWh
Power,Intraday,Continuous,NL,ID1,QH,2021-11-23T17:15:00+01:00,2021-11-23T17:30:00+01:00,338.51,EUR,,MWh
Power,Intraday,Continuous,NL,ID1,QH,2021-11-23T17:30:00+01:00,2021-11-23T17:45:00+01:00,344.13,EUR,,MWh
Power,Intraday,Continuous,NL,ID1,QH,2021-11-23T17:45:00+01:00,2021-11-23T18:00:00+01:00,359.55,EUR,,MWh
Power,Intraday,Continuous,NL,ID1,QH,2021-11-23T18:00:00+01:00,2021-11-23T18:15:00+01:00,361.18,EUR,,MWh
Power,Intraday,Continuous,NL,ID1,QH,2021-11-23T18:15:00+01:00,2021-11-23T18:30:00+01:00,316.49,EUR,,MWh
Power,Intraday,Continuous,NL,ID1,QH,2021-11-23T18:30:00+01:00,2021-11-23T18:45:00+01:00,313.27,EUR,,MWh
Power,Intraday,Continuous,NL,ID1,QH,2021-11-23T18:45:00+01:00,2021-11-23T19:00:00+01:00,264.22,EUR,,MWh
Power,Intraday,Continuous,NL,ID1,QH,2021-11-23T19:00:00+01:00,2021-11-23T19:15:00+01:00,338.34,EUR,,MWh
Power,Intraday,Continuous,NL,ID1,QH,2021-11-23T19:15:00+01:00,2021-11-23T19:30:00+01:00,258.15,EUR,,MWh
Power,Intraday,Continuous,NL,ID1,QH,2021-11-23T19:30:00+01:00,2021-11-23T19:45:00+01:00,238.73,EUR,,MWh
Power,Intraday,Continuous,NL,ID1,QH,2021-11-23T19:45:00+01:00,2021-11-23T20:00:00+01:00,220.81,EUR,,MWh
Power,Intraday,Continuous,NL,ID1,QH,2021-11-23T20:00:00+01:00,2021-11-23T20:15:00+01:00,309.63,EUR,,MWh
Power,Intraday,Continuous,NL,ID1,QH,2021-11-23T20:15:00+01:00,2021-11-23T20:30:00+01:00,250.66,EUR,,MWh
Power,Intraday,Continuous,NL,ID1,QH,2021-11-23T20:30:00+01:00,2021-11-23T20:45:00+01:00,246.12,EUR,,MWh
Power,Intraday,Continuous,NL,ID1,QH,2021-11-23T20:45:00+01:00,2021-11-23T21:00:00+01:00,171.18,EUR,,MWh
Power,Intraday,Continuous,NL,ID1,QH,2021-11-23T21:00:00+01:00,2021-11-23T21:15:00+01:00,275.54,EUR,,MWh
Power,Intraday,Continuous,NL,ID1,QH,2021-11-23T21:15:00+01:00,2021-11-23T21:30:00+01:00,261.83,EUR,,MWh
Power,Intraday,Continuous,NL,ID1,QH,2021-11-23T21:30:00+01:00,2021-11-23T21:45:00+01:00,198.27,EUR,,MWh
Power,Intraday,Continuous,NL,ID1,QH,2021-11-23T21:45:00+01:00,2021-11-23T22:00:00+01:00,192.65,EUR,,MWh
Power,Intraday,Continuous,NL,ID1,QH,2021-11-23T22:00:00+01:00,2021-11-23T22:15:00+01:00,270.25,EUR,,MWh
Power,Intraday,Continuous,NL,ID1,QH,2021-11-23T22:15:00+01:00,2021-11-23T22:30:00+01:00,204.92,EUR,,MWh
Power,Intraday,Continuous,NL,ID1,QH,2021-11-23T22:30:00+01:00,2021-11-23T22:45:00+01:00,204.92,EUR,,MWh
Power,Intraday,Continuous,NL,ID1,QH,2021-11-23T22:45:00+01:00,2021-11-23T23:00:00+01:00,201.98,EUR,,MWh
Power,Intraday,Continuous,NL,ID1,QH,2021-11-23T23:00:00+01:00,2021-11-23T23:15:00+01:00,240.96,EUR,,MWh
Power,Intraday,Continuous,NL,ID1,QH,2021-11-23T23:15:00+01:00,2021-11-23T23:30:00+01:00,69.92,EUR,,MWh
Power,Intraday,Continuous,NL,ID1,QH,2021-11-23T23:30:00+01:00,2021-11-23T23:45:00+01:00,69.92,EUR,,MWh
Power,Intraday,Continuous,NL,ID1,QH,2021-11-23T23:45:00+01:00,2021-11-24T00:00:00+01:00,69.92,EUR,,MWh
Power,Intraday,Continuous,NL,ID3,QH,2021-11-23T00:00:00+01:00,2021-11-23T00:15:00+01:00,171.64,EUR,,MWh
Power,Intraday,Continuous,NL,ID3,QH,2021-11-23T00:15:00+01:00,2021-11-23T00:30:00+01:00,171.64,EUR,,MWh
Power,Intraday,Continuous,NL,ID3,QH,2021-11-23T00:30:00+01:00,2021-11-23T00:45:00+01:00,171.64,EUR,,MWh
Power,Intraday,Continuous,NL,ID3,QH,2021-11-23T00:45:00+01:00,2021-11-23T01:00:00+01:00,171.64,EUR,,MWh
Power,Intraday,Continuous,NL,ID3,QH,2021-11-23T01:00:00+01:00,2021-11-23T01:15:00+01:00,162.73,EUR,,MWh
Power,Intraday,Continuous,NL,ID3,QH,2021-11-23T01:15:00+01:00,2021-11-23T01:30:00+01:00,162.73,EUR,,MWh
Power,Intraday,Continuous,NL,ID3,QH,2021-11-23T01:30:00+01:00,2021-11-23T01:45:00+01:00,150.00,EUR,3.750,MWh
Power,Intraday,Continuous,NL,ID3,QH,2021-11-23T01:45:00+01:00,2021-11-23T02:00:00+01:00,168.74,EUR,5.000,MWh
Power,Intraday,Continuous,NL,ID3,QH,2021-11-23T02:00:00+01:00,2021-11-23T02:15:00+01:00,177.89,EUR,,MWh
Power,Intraday,Continuous,NL,ID3,QH,2021-11-23T02:15:00+01:00,2021-11-23T02:30:00+01:00,177.89,EUR,,MWh
Power,Intraday,Continuous,NL,ID3,QH,2021-11-23T02:30:00+01:00,2021-11-23T02:45:00+01:00,150.00,EUR,2.500,MWh
Power,Intraday,Continuous,NL,ID3,QH,2021-11-23T02:45:00+01:00,2021-11-23T03:00:00+01:00,177.89,EUR,,MWh
Power,Intraday,Continuous,NL,ID3,QH,2021-11-23T03:00:00+01:00,2021-11-23T03:15:00+01:00,187.20,EUR,,MWh
Power,Intraday,Continuous,NL,ID3,QH,2021-11-23T03:15:00+01:00,2021-11-23T03:30:00+01:00,187.20,EUR,,MWh
Power,Intraday,Continuous,NL,ID3,QH,2021-11-23T03:30:00+01:00,2021-11-23T03:45:00+01:00,187.20,EUR,,MWh
Power,Intraday,Continuous,NL,ID3,QH,2021-11-23T03:45:00+01:00,2021-11-23T04:00:00+01:00,134.64,EUR,3.650,MWh
Power,Intraday,Continuous,NL,ID3,QH,2021-11-23T04:00:00+01:00,2021-11-23T04:15:00+01:00,110.68,EUR,,MWh
Power,Intraday,Continuous,NL,ID3,QH,2021-11-23T04:15:00+01:00,2021-11-23T04:30:00+01:00,110.68,EUR,,MWh
Power,Intraday,Continuous,NL,ID3,QH,2021-11-23T04:30:00+01:00,2021-11-23T04:45:00+01:00,166.37,EUR,2.730,MWh
Power,Intraday,Continuous,NL,ID3,QH,2021-11-23T04:45:00+01:00,2021-11-23T05:00:00+01:00,204.64,EUR,3.080,MWh
Power,Intraday,Continuous,NL,ID3,QH,2021-11-23T05:00:00+01:00,2021-11-23T05:15:00+01:00,88.14,EUR,31.900,MWh
Power,Intraday,Continuous,NL,ID3,QH,2021-11-23T05:15:00+01:00,2021-11-23T05:30:00+01:00,115.19,EUR,43.050,MWh
Power,Intraday,Continuous,NL,ID3,QH,2021-11-23T05:30:00+01:00,2021-11-23T05:45:00+01:00,120.34,EUR,25.950,MWh
Power,Intraday,Continuous,NL,ID3,QH,2021-11-23T05:45:00+01:00,2021-11-23T06:00:00+01:00,184.84,EUR,40.300,MWh
Power,Intraday,Continuous,NL,ID3,QH,2021-11-23T06:00:00+01:00,2021-11-23T06:15:00+01:00,82.70,EUR,57.230,MWh
Power,Intraday,Continuous,NL,ID3,QH,2021-11-23T06:15:00+01:00,2021-11-23T06:30:00+01:00,116.77,EUR,32.900,MWh
Power,Intraday,Continuous,NL,ID3,QH,2021-11-23T06:30:00+01:00,2021-11-23T06:45:00+01:00,180.93,EUR,40.880,MWh
Power,Intraday,Continuous,NL,ID3,QH,2021-11-23T06:45:00+01:00,2021-11-23T07:00:00+01:00,194.95,EUR,65.250,MWh
Power,Intraday,Continuous,NL,ID3,QH,2021-11-23T07:00:00+01:00,2021-11-23T07:15:00+01:00,132.57,EUR,56.350,MWh
Power,Intraday,Continuous,NL,ID3,QH,2021-11-23T07:15:00+01:00,2021-11-23T07:30:00+01:00,188.09,EUR,39.880,MWh
Power,Intraday,Continuous,NL,ID3,QH,2021-11-23T07:30:00+01:00,2021-11-23T07:45:00+01:00,233.06,EUR,33.250,MWh
Power,Intraday,Continuous,NL,ID3,QH,2021-11-23T07:45:00+01:00,2021-11-23T08:00:00+01:00,269.87,EUR,17.050,MWh
Power,Intraday,Continuous,NL,ID3,QH,2021-11-23T08:00:00+01:00,2021-11-23T08:15:00+01:00,305.76,EUR,,MWh
Power,Intraday,Continuous,NL,ID3,QH,2021-11-23T08:15:00+01:00,2021-11-23T08:30:00+01:00,305.76,EUR,,MWh
Power,Intraday,Continuous,NL,ID3,QH,2021-11-23T08:30:00+01:00,2021-11-23T08:45:00+01:00,305.76,EUR,,MWh
Power,Intraday,Continuous,NL,ID3,QH,2021-11-23T08:45:00+01:00,2021-11-23T09:00:00+01:00,305.76,EUR,,MWh
Power,Intraday,Continuous,NL,ID3,QH,2021-11-23T09:00:00+01:00,2021-11-23T09:15:00+01:00,316.38,EUR,7.380,MWh
Power,Intraday,Continuous,NL,ID3,QH,2021-11-23T09:15:00+01:00,2021-11-23T09:30:00+01:00,297.03,EUR,12.030,MWh
Power,Intraday,Continuous,NL,ID3,QH,2021-11-23T09:30:00+01:00,2021-11-23T09:45:00+01:00,258.38,EUR,15.830,MWh
Power,Intraday,Continuous,NL,ID3,QH,2021-11-23T09:45:00+01:00,2021-11-23T10:00:00+01:00,236.39,EUR,18.180,MWh
Power,Intraday,Continuous,NL,ID3,QH,2021-11-23T10:00:00+01:00,2021-11-23T10:15:00+01:00,283.04,EUR,29.650,MWh
Power,Intraday,Continuous,NL,ID3,QH,2021-11-23T10:15:00+01:00,2021-11-23T10:30:00+01:00,256.90,EUR,21.450,MWh
Power,Intraday,Continuous,NL,ID3,QH,2021-11-23T10:30:00+01:00,2021-11-23T10:45:00+01:00,245.80,EUR,22.250,MWh
Power,Intraday,Continuous,NL,ID3,QH,2021-11-23T10:45:00+01:00,2021-11-23T11:00:00+01:00,231.28,EUR,25.580,MWh
Power,Intraday,Continuous,NL,ID3,QH,2021-11-23T11:00:00+01:00,2021-11-23T11:15:00+01:00,248.23,EUR,11.180,MWh
Power,Intraday,Continuous,NL,ID3,QH,2021-11-23T11:15:00+01:00,2021-11-23T11:30:00+01:00,238.76,EUR,14.600,MWh
Power,Intraday,Continuous,NL,ID3,QH,2021-11-23T11:30:00+01:00,2021-11-23T11:45:00+01:00,204.83,EUR,35.680,MWh
Power,Intraday,Continuous,NL,ID3,QH,2021-11-23T11:45:00+01:00,2021-11-23T12:00:00+01:00,209.63,EUR,27.730,MWh
Power,Intraday,Continuous,NL,ID3,QH,2021-11-23T12:00:00+01:00,2021-11-23T12:15:00+01:00,380.15,EUR,,MWh
Power,Intraday,Continuous,NL,ID3,QH,2021-11-23T12:15:00+01:00,2021-11-23T12:30:00+01:00,300.26,EUR,7.780,MWh
Power,Intraday,Continuous,NL,ID3,QH,2021-11-23T12:30:00+01:00,2021-11-23T12:45:00+01:00,299.46,EUR,9.550,MWh
Power,Intraday,Continuous,NL,ID3,QH,2021-11-23T12:45:00+01:00,2021-11-23T13:00:00+01:00,234.38,EUR,18.830,MWh
Power,Intraday,Continuous,NL,ID3,QH,2021-11-23T13:00:00+01:00,2021-11-23T13:15:00+01:00,228.68,EUR,9.380,MWh
Power,Intraday,Continuous,NL,ID3,QH,2021-11-23T13:15:00+01:00,2021-11-23T13:30:00+01:00,217.70,EUR,3.630,MWh
Power,Intraday,Continuous,NL,ID3,QH,2021-11-23T13:30:00+01:00,2021-11-23T13:45:00+01:00,269.63,EUR,2.500,MWh
Power,Intraday,Continuous,NL,ID3,QH,2021-11-23T13:45:00+01:00,2021-11-23T14:00:00+01:00,282.60,EUR,,MWh
Power,Intraday,Continuous,NL,ID3,QH,2021-11-23T14:00:00+01:00,2021-11-23T14:15:00+01:00,301.40,EUR,9.330,MWh
Power,Intraday,Continuous,NL,ID3,QH,2021-11-23T14:15:00+01:00,2021-11-23T14:30:00+01:00,314.04,EUR,5.050,MWh
Power,Intraday,Continuous,NL,ID3,QH,2021-11-23T14:30:00+01:00,2021-11-23T14:45:00+01:00,360.00,EUR,2.500,MWh
Power,Intraday,Continuous,NL,ID3,QH,2021-11-23T14:45:00+01:00,2021-11-23T15:00:00+01:00,363.78,EUR,,MWh
Power,Intraday,Continuous,NL,ID3,QH,2021-11-23T15:00:00+01:00,2021-11-23T15:15:00+01:00,240.22,EUR,42.600,MWh
Power,Intraday,Continuous,NL,ID3,QH,2021-11-23T15:15:00+01:00,2021-11-23T15:30:00+01:00,267.94,EUR,39.030,MWh
Power,Intraday,Continuous,NL,ID3,QH,2021-11-23T15:30:00+01:00,2021-11-23T15:45:00+01:00,280.91,EUR,24.000,MWh
Power,Intraday,Continuous,NL,ID3,QH,2021-11-23T15:45:00+01:00,2021-11-23T16:00:00+01:00,324.02,EUR,49.130,MWh
Power,Intraday,Continuous,NL,ID3,QH,2021-11-23T16:00:00+01:00,2021-11-23T16:15:00+01:00,252.98,EUR,56.850,MWh
Power,Intraday,Continuous,NL,ID3,QH,2021-11-23T16:15:00+01:00,2021-11-23T16:30:00+01:00,279.89,EUR,45.830,MWh
Power,Intraday,Continuous,NL,ID3,QH,2021-11-23T16:30:00+01:00,2021-11-23T16:45:00+01:00,308.70,EUR,9.930,MWh
Power,Intraday,Continuous,NL,ID3,QH,2021-11-23T16:45:00+01:00,2021-11-23T17:00:00+01:00,343.55,EUR,30.300,MWh
Power,Intraday,Continuous,NL,ID3,QH,2021-11-23T17:00:00+01:00,2021-11-23T17:15:00+01:00,274.81,EUR,29.200,MWh
Power,Intraday,Continuous,NL,ID3,QH,2021-11-23T17:15:00+01:00,2021-11-23T17:30:00+01:00,338.51,EUR,9.530,MWh
Power,Intraday,Continuous,NL,ID3,QH,2021-11-23T17:30:00+01:00,2021-11-23T17:45:00+01:00,344.13,EUR,,MWh
Power,Intraday,Continuous,NL,ID3,QH,2021-11-23T17:45:00+01:00,2021-11-23T18:00:00+01:00,359.55,EUR,,MWh
Power,Intraday,Continuous,NL,ID3,QH,2021-11-23T18:00:00+01:00,2021-11-23T18:15:00+01:00,361.18,EUR,51.900,MWh
Power,Intraday,Continuous,NL,ID3,QH,2021-11-23T18:15:00+01:00,2021-11-23T18:30:00+01:00,316.49,EUR,13.230,MWh
Power,Intraday,Continuous,NL,ID3,QH,2021-11-23T18:30:00+01:00,2021-11-23T18:45:00+01:00,313.27,EUR,15.180,MWh
Power,Intraday,Continuous,NL,ID3,QH,2021-11-23T18:45:00+01:00,2021-11-23T19:00:00+01:00,264.22,EUR,18.650,MWh
Power,Intraday,Continuous,NL,ID3,QH,2021-11-23T19:00:00+01:00,2021-11-23T19:15:00+01:00,338.34,EUR,35.200,MWh
Power,Intraday,Continuous,NL,ID3,QH,2021-11-23T19:15:00+01:00,2021-11-23T19:30:00+01:00,258.15,EUR,29.750,MWh
Power,Intraday,Continuous,NL,ID3,QH,2021-11-23T19:30:00+01:00,2021-11-23T19:45:00+01:00,238.73,EUR,27.300,MWh
Power,Intraday,Continuous,NL,ID3,QH,2021-11-23T19:45:00+01:00,2021-11-23T20:00:00+01:00,220.81,EUR,15.950,MWh
Power,Intraday,Continuous,NL,ID3,QH,2021-11-23T20:00:00+01:00,2021-11-23T20:15:00+01:00,309.63,EUR,18.300,MWh
Power,Intraday,Continuous,NL,ID3,QH,2021-11-23T20:15:00+01:00,2021-11-23T20:30:00+01:00,250.66,EUR,13.080,MWh
Power,Intraday,Continuous,NL,ID3,QH,2021-11-23T20:30:00+01:00,2021-11-23T20:45:00+01:00,246.12,EUR,10.750,MWh
Power,Intraday,Continuous,NL,ID3,QH,2021-11-23T20:45:00+01:00,2021-11-23T21:00:00+01:00,171.18,EUR,5.200,MWh
Power,Intraday,Continuous,NL,ID3,QH,2021-11-23T21:00:00+01:00,2021-11-23T21:15:00+01:00,275.54,EUR,28.150,MWh
Power,Intraday,Continuous,NL,ID3,QH,2021-11-23T21:15:00+01:00,2021-11-23T21:30:00+01:00,261.83,EUR,8.500,MWh
Power,Intraday,Continuous,NL,ID3,QH,2021-11-23T21:30:00+01:00,2021-11-23T21:45:00+01:00,198.27,EUR,,MWh
Power,Intraday,Continuous,NL,ID3,QH,2021-11-23T21:45:00+01:00,2021-11-23T22:00:00+01:00,192.65,EUR,4.950,MWh
Power,Intraday,Continuous,NL,ID3,QH,2021-11-23T22:00:00+01:00,2021-11-23T22:15:00+01:00,270.25,EUR,7.550,MWh
Power,Intraday,Continuous,NL,ID3,QH,2021-11-23T22:15:00+01:00,2021-11-23T22:30:00+01:00,204.92,EUR,,MWh
Power,Intraday,Continuous,NL,ID3,QH,2021-11-23T22:30:00+01:00,2021-11-23T22:45:00+01:00,204.92,EUR,,MWh
Power,Intraday,Continuous,NL,ID3,QH,2021-11-23T22:45:00+01:00,2021-11-23T23:00:00+01:00,201.98,EUR,6.180,MWh
Power,Intraday,Continuous,NL,ID3,QH,2021-11-23T23:00:00+01:00,2021-11-23T23:15:00+01:00,240.96,EUR,,MWh
Power,Intraday,Continuous,NL,ID3,QH,2021-11-23T23:15:00+01:00,2021-11-23T23:30:00+01:00,69.92,EUR,,MWh
Power,Intraday,Continuous,NL,ID3,QH,2021-11-23T23:30:00+01:00,2021-11-23T23:45:00+01:00,69.92,EUR,,MWh
Power,Intraday,Continuous,NL,ID3,QH,2021-11-23T23:45:00+01:00,2021-11-24T00:00:00+01:00,69.92,EUR,,MWh
Power,Intraday,Continuous,NL,IDFULL,BASE,2021-11-23T00:00:00+01:00,2021-11-24T00:00:00+01:00,247.17,EUR,19713.300,MWh
Power,Intraday,Continuous,NL,IDFULL,PEAK,2021-11-23T08:00:00+01:00,2021-11-23T20:00:00+01:00,315.46,EUR,16079.900,MWh
