Commodity,NominationModality,TradingModality,MarketArea,IndexName,TimeResolution,DeliveryStart,DeliveryEnd,IndexPrice,Currency,Volume,VolumeUnit
Power,Intraday,Continuous,NL,IDFULL,H,2021-04-27T00:00:00+02:00,2021-04-27T01:00:00+02:00,55.15,EUR,415.700,MWh
Power,Intraday,Continuous,NL,IDFULL,H,2021-04-27T01:00:00+02:00,2021-04-27T02:00:00+02:00,52.94,EUR,741.400,MWh
Power,Intraday,Continuous,NL,IDFULL,H,2021-04-27T02:00:00+02:00,2021-04-27T03:00:00+02:00,53.96,EUR,937.800,MWh
Power,Intraday,Continuous,NL,IDFULL,H,2021-04-27T03:00:00+02:00,2021-04-27T04:00:00+02:00,52.90,EUR,1052.000,MWh
Power,Intraday,Continuous,NL,IDFULL,H,2021-04-27T04:00:00+02:00,2021-04-27T05:00:00+02:00,52.08,EUR,788.500,MWh
Power,Intraday,Continuous,NL,IDFULL,H,2021-04-27T05:00:00+02:00,2021-04-27T06:00:00+02:00,52.72,EUR,468.400,MWh
Power,Intraday,Continuous,NL,IDFULL,H,2021-04-27T06:00:00+02:00,2021-04-27T07:00:00+02:00,57.14,EUR,752.100,MWh
Power,Intraday,Continuous,NL,IDFULL,H,2021-04-27T07:00:00+02:00,2021-04-27T08:00:00+02:00,68.68,EUR,635.900,MWh
Power,Intraday,Continuous,NL,IDFULL,H,2021-04-27T08:00:00+02:00,2021-04-27T09:00:00+02:00,74.26,EUR,815.000,MWh
Power,Intraday,Continuous,NL,IDFULL,H,2021-04-27T09:00:00+02:00,2021-04-27T10:00:00+02:00,57.35,EUR,355.700,MWh
Power,Intraday,Continuous,NL,IDFULL,H,2021-04-27T10:00:00+02:00,2021-04-27T11:00:00+02:00,49.93,EUR,1358.900,MWh
Power,Intraday,Continuous,NL,IDFULL,H,2021-04-27T11:00:00+02:00,2021-04-27T12:00:00+02:00,30.09,EUR,768.800,MWh
Power,Intraday,Continuous,NL,IDFULL,H,2021-04-27T12:00:00+02:00,2021-04-27T13:00:00+02:00,25.74,EUR,865.600,MWh
Power,Intraday,Continuous,NL,IDFULL,H,2021-04-27T13:00:00+02:00,2021-04-27T14:00:00+02:00,14.55,EUR,503.000,MWh
Power,Intraday,Continuous,NL,IDFULL,H,2021-04-27T14:00:00+02:00,2021-04-27T15:00:00+02:00,11.66,EUR,463.000,MWh
Power,Intraday,Continuous,NL,IDFULL,H,2021-04-27T15:00:00+02:00,2021-04-27T16:00:00+02:00,19.01,EUR,525.900,MWh
Power,Intraday,Continuous,NL,IDFULL,H,2021-04-27T16:00:00+02:00,2021-04-27T17:00:00+02:00,39.20,EUR,1569.800,MWh
Power,Intraday,Continuous,NL,IDFULL,H,2021-04-27T17:00:00+02:00,2021-04-27T18:00:00+02:00,51.10,EUR,1389.800,MWh
Power,Intraday,Continuous,NL,IDFULL,H,2021-04-27T18:00:00+02:00,2021-04-27T19:00:00+02:00,64.45,EUR,654.500,MWh
Power,Intraday,Continuous,NL,IDFULL,H,2021-04-27T19:00:00+02:00,2021-04-27T20:00:00+02:00,76.22,EUR,356.200,MWh
Power,Intraday,Continuous,NL,IDFULL,H,2021-04-27T20:00:00+02:00,2021-04-27T21:00:00+02:00,74.34,EUR,1213.200,MWh
Power,Intraday,Continuous,NL,IDFULL,H,2021-04-27T21:00:00+02:00,2021-04-27T22:00:00+02:00,62.31,EUR,665.700,MWh
Power,Intraday,Continuous,NL,IDFULL,H,2021-04-27T22:00:00+02:00,2021-04-27T23:00:00+02:00,53.18,EUR,2194.400,MWh
Power,Intraday,Continuous,NL,IDFULL,H,2021-04-27T23:00:00+02:00,2021-04-28T00:00:00+02:00,50.59,EUR,1374.400,MWh
Power,Intraday,Continuous,NL,ID1,H,2021-04-27T00:00:00+02:00,2021-04-27T01:00:00+02:00,45.51,EUR,10.200,MWh
Power,Intraday,Continuous,NL,ID1,H,2021-04-27T01:00:00+02:00,2021-04-27T02:00:00+02:00,52.00,EUR,55.000,MWh
Power,Intraday,Continuous,NL,ID1,H,2021-04-27T02:00:00+02:00,2021-04-27T03:00:00+02:00,56.89,EUR,66.100,MWh
Power,Intraday,Continuous,NL,ID1,H,2021-04-27T03:00:00+02:00,2021-04-27T04:00:00+02:00,55.10,EUR,125.300,MWh
Power,Intraday,Continuous,NL,ID1,H,2021-04-27T04:00:00+02:00,2021-04-27T05:00:00+02:00,52.38,EUR,14.100,MWh
Power,Intraday,Continuous,NL,ID1,H,2021-04-27T05:00:00+02:00,2021-04-27T06:00:00+02:00,59.89,EUR,19.000,MWh
Power,Intraday,Continuous,NL,ID1,H,2021-04-27T06:00:00+02:00,2021-04-27T07:00:00+02:00,53.38,EUR,,MWh
Power,Intraday,Continuous,NL,ID1,H,2021-04-27T07:00:00+02:00,2021-04-27T08:00:00+02:00,65.84,EUR,,MWh
Power,Intraday,Continuous,NL,ID1,H,2021-04-27T08:00:00+02:00,2021-04-27T09:00:00+02:00,73.39,EUR,,MWh
Power,Intraday,Continuous,NL,ID1,H,2021-04-27T09:00:00+02:00,2021-04-27T10:00:00+02:00,69.67,EUR,119.400,MWh
Power,Intraday,Continuous,NL,ID1,H,2021-04-27T10:00:00+02:00,2021-04-27T11:00:00+02:00,49.38,EUR,75.900,MWh
Power,Intraday,Continuous,NL,ID1,H,2021-04-27T11:00:00+02:00,2021-04-27T12:00:00+02:00,26.00,EUR,306.700,MWh
Power,Intraday,Continuous,NL,ID1,H,2021-04-27T12:00:00+02:00,2021-04-27T13:00:00+02:00,34.96,EUR,305.100,MWh
Power,Intraday,Continuous,NL,ID1,H,2021-04-27T13:00:00+02:00,2021-04-27T14:00:00+02:00,3.90,EUR,50.000,MWh
Power,Intraday,Continuous,NL,ID1,H,2021-04-27T14:00:00+02:00,2021-04-27T15:00:00+02:00,33.25,EUR,78.200,MWh
Power,Intraday,Continuous,NL,ID1,H,2021-04-27T15:00:00+02:00,2021-04-27T16:00:00+02:00,49.02,EUR,96.800,MWh
Power,Intraday,Continuous,NL,ID1,H,2021-04-27T16:00:00+02:00,2021-04-27T17:00:00+02:00,49.25,EUR,20.000,MWh
Power,Intraday,Continuous,NL,ID1,H,2021-04-27T17:00:00+02:00,2021-04-27T18:00:00+02:00,60.30,EUR,17.000,MWh
Power,Intraday,Continuous,NL,ID1,H,2021-04-27T18:00:00+02:00,2021-04-27T19:00:00+02:00,75.84,EUR,21.000,MWh
Power,Intraday,Continuous,NL,ID1,H,2021-04-27T19:00:00+02:00,2021-04-27T20:00:00+02:00,74.50,EUR,,MWh
Power,Intraday,Continuous,NL,ID1,H,2021-04-27T20:00:00+02:00,2021-04-27T21:00:00+02:00,76.42,EUR,,MWh
Power,Intraday,Continuous,NL,ID1,H,2021-04-27T21:00:00+02:00,2021-04-27T22:00:00+02:00,64.18,EUR,31.500,MWh
Power,Intraday,Continuous,NL,ID1,H,2021-04-27T22:00:00+02:00,2021-04-27T23:00:00+02:00,48.78,EUR,80.300,MWh
Power,Intraday,Continuous,NL,ID1,H,2021-04-27T23:00:00+02:00,2021-04-28T00:00:00+02:00,50.37,EUR,,MWh
Power,Intraday,Continuous,NL,ID3,H,2021-04-27T00:00:00+02:00,2021-04-27T01:00:00+02:00,55.17,EUR,392.100,MWh
Power,Intraday,Continuous,NL,ID3,H,2021-04-27T01:00:00+02:00,2021-04-27T02:00:00+02:00,52.93,EUR,685.000,MWh
Power,Intraday,Continuous,NL,ID3,H,2021-04-27T02:00:00+02:00,2021-04-27T03:00:00+02:00,53.79,EUR,676.400,MWh
Power,Intraday,Continuous,NL,ID3,H,2021-04-27T03:00:00+02:00,2021-04-27T04:00:00+02:00,51.96,EUR,615.600,MWh
Power,Intraday,Continuous,NL,ID3,H,2021-04-27T04:00:00+02:00,2021-04-27T05:00:00+02:00,49.84,EUR,316.500,MWh
Power,Intraday,Continuous,NL,ID3,H,2021-04-27T05:00:00+02:00,2021-04-27T06:00:00+02:00,51.93,EUR,357.300,MWh
Power,Intraday,Continuous,NL,ID3,H,2021-04-27T06:00:00+02:00,2021-04-27T07:00:00+02:00,53.38,EUR,621.700,MWh
Power,Intraday,Continuous,NL,ID3,H,2021-04-27T07:00:00+02:00,2021-04-27T08:00:00+02:00,65.84,EUR,451.700,MWh
Power,Intraday,Continuous,NL,ID3,H,2021-04-27T08:00:00+02:00,2021-04-27T09:00:00+02:00,73.39,EUR,491.900,MWh
Power,Intraday,Continuous,NL,ID3,H,2021-04-27T09:00:00+02:00,2021-04-27T10:00:00+02:00,57.34,EUR,355.600,MWh
Power,Intraday,Continuous,NL,ID3,H,2021-04-27T10:00:00+02:00,2021-04-27T11:00:00+02:00,49.94,EUR,1354.900,MWh
Power,Intraday,Continuous,NL,ID3,H,2021-04-27T11:00:00+02:00,2021-04-27T12:00:00+02:00,30.79,EUR,736.100,MWh
Power,Intraday,Continuous,NL,ID3,H,2021-04-27T12:00:00+02:00,2021-04-27T13:00:00+02:00,25.47,EUR,834.400,MWh
Power,Intraday,Continuous,NL,ID3,H,2021-04-27T13:00:00+02:00,2021-04-27T14:00:00+02:00,13.78,EUR,444.900,MWh
Power,Intraday,Continuous,NL,ID3,H,2021-04-27T14:00:00+02:00,2021-04-27T15:00:00+02:00,8.46,EUR,220.500,MWh
Power,Intraday,Continuous,NL,ID3,H,2021-04-27T15:00:00+02:00,2021-04-27T16:00:00+02:00,23.52,EUR,285.700,MWh
Power,Intraday,Continuous,NL,ID3,H,2021-04-27T16:00:00+02:00,2021-04-27T17:00:00+02:00,41.22,EUR,1121.900,MWh
Power,Intraday,Continuous,NL,ID3,H,2021-04-27T17:00:00+02:00,2021-04-27T18:00:00+02:00,52.12,EUR,795.600,MWh
Power,Intraday,Continuous,NL,ID3,H,2021-04-27T18:00:00+02:00,2021-04-27T19:00:00+02:00,64.03,EUR,533.600,MWh
Power,Intraday,Continuous,NL,ID3,H,2021-04-27T19:00:00+02:00,2021-04-27T20:00:00+02:00,74.50,EUR,255.000,MWh
Power,Intraday,Continuous,NL,ID3,H,2021-04-27T20:00:00+02:00,2021-04-27T21:00:00+02:00,76.42,EUR,623.200,MWh
Power,Intraday,Continuous,NL,ID3,H,2021-04-27T21:00:00+02:00,2021-04-27T22:00:00+02:00,62.46,EUR,427.900,MWh
Power,Intraday,Continuous,NL,ID3,H,2021-04-27T22:00:00+02:00,2021-04-27T23:00:00+02:00,56.09,EUR,1236.600,MWh
Power,Intraday,Continuous,NL,ID3,H,2021-04-27T23:00:00+02:00,2021-04-28T00:00:00+02:00,50.37,EUR,401.700,MWh
Power,Intraday,Continuous,NL,IDFULL,HH,2021-04-27T00:00:00+02:00,2021-04-27T00:30:00+02:00,55.15,EUR,,MWh
Power,Intraday,Continuous,NL,IDFULL,HH,2021-04-27T00:30:00+02:00,2021-04-27T01:00:00+02:00,55.15,EUR,,MWh
Power,Intraday,Continuous,NL,IDFULL,HH,2021-04-27T01:00:00+02:00,2021-04-27T01:30:00+02:00,52.94,EUR,,MWh
Power,Intraday,Continuous,NL,IDFULL,HH,2021-04-27T01:30:00+02:00,2021-04-27T02:00:00+02:00,52.94,EUR,,MWh
Power,Intraday,Continuous,NL,IDFULL,HH,2021-04-27T02:00:00+02:00,2021-04-27T02:30:00+02:00,53.96,EUR,,MWh
Power,Intraday,Continuous,NL,IDFULL,HH,2021-04-27T02:30:00+02:00,2021-04-27T03:00:00+02:00,53.96,EUR,,MWh
Power,Intraday,Continuous,NL,IDFULL,HH,2021-04-27T03:00:00+02:00,2021-04-27T03:30:00+02:00,52.90,EUR,,MWh
Power,Intraday,Continuous,NL,IDFULL,HH,2021-04-27T03:30:00+02:00,2021-04-27T04:00:00+02:00,52.90,EUR,,MWh
Power,Intraday,Continuous,NL,IDFULL,HH,2021-04-27T04:00:00+02:00,2021-04-27T04:30:00+02:00,52.08,EUR,,MWh
Power,Intraday,Continuous,NL,IDFULL,HH,2021-04-27T04:30:00+02:00,2021-04-27T05:00:00+02:00,52.08,EUR,,MWh
Power,Intraday,Continuous,NL,IDFULL,HH,2021-04-27T05:00:00+02:00,2021-04-27T05:30:00+02:00,52.72,EUR,,MWh
Power,Intraday,Continuous,NL,IDFULL,HH,2021-04-27T05:30:00+02:00,2021-04-27T06:00:00+02:00,52.72,EUR,,MWh
Power,Intraday,Continuous,NL,IDFULL,HH,2021-04-27T06:00:00+02:00,2021-04-27T06:30:00+02:00,57.14,EUR,,MWh
Power,Intraday,Continuous,NL,IDFULL,HH,2021-04-27T06:30:00+02:00,2021-04-27T07:00:00+02:00,57.14,EUR,,MWh
Power,Intraday,Continuous,NL,IDFULL,HH,2021-04-27T07:00:00+02:00,2021-04-27T07:30:00+02:00,68.68,EUR,,MWh
Power,Intraday,Continuous,NL,IDFULL,HH,2021-04-27T07:30:00+02:00,2021-04-27T08:00:00+02:00,68.68,EUR,,MWh
Power,Intraday,Continuous,NL,IDFULL,HH,2021-04-27T08:00:00+02:00,2021-04-27T08:30:00+02:00,74.26,EUR,,MWh
Power,Intraday,Continuous,NL,IDFULL,HH,2021-04-27T08:30:00+02:00,2021-04-27T09:00:00+02:00,74.26,EUR,,MWh
Power,Intraday,Continuous,NL,IDFULL,HH,2021-04-27T09:00:00+02:00,2021-04-27T09:30:00+02:00,57.35,EUR,,MWh
Power,Intraday,Continuous,NL,IDFULL,HH,2021-04-27T09:30:00+02:00,2021-04-27T10:00:00+02:00,57.35,EUR,,MWh
Power,Intraday,Continuous,NL,IDFULL,HH,2021-04-27T10:00:00+02:00,2021-04-27T10:30:00+02:00,49.93,EUR,,MWh
Power,Intraday,Continuous,NL,IDFULL,HH,2021-04-27T10:30:00+02:00,2021-04-27T11:00:00+02:00,49.93,EUR,,MWh
Power,Intraday,Continuous,NL,IDFULL,HH,2021-04-27T11:00:00+02:00,2021-04-27T11:30:00+02:00,30.09,EUR,,MWh
Power,Intraday,Continuous,NL,IDFULL,HH,2021-04-27T11:30:00+02:00,2021-04-27T12:00:00+02:00,30.09,EUR,,MWh
Power,Intraday,Continuous,NL,IDFULL,HH,2021-04-27T12:00:00+02:00,2021-04-27T12:30:00+02:00,25.74,EUR,,MWh
Power,Intraday,Continuous,NL,IDFULL,HH,2021-04-27T12:30:00+02:00,2021-04-27T13:00:00+02:00,25.74,EUR,,MWh
Power,Intraday,Continuous,NL,IDFULL,HH,2021-04-27T13:00:00+02:00,2021-04-27T13:30:00+02:00,14.55,EUR,,MWh
Power,Intraday,Continuous,NL,IDFULL,HH,2021-04-27T13:30:00+02:00,2021-04-27T14:00:00+02:00,14.55,EUR,,MWh
Power,Intraday,Continuous,NL,IDFULL,HH,2021-04-27T14:00:00+02:00,2021-04-27T14:30:00+02:00,11.66,EUR,,MWh
Power,Intraday,Continuous,NL,IDFULL,HH,2021-04-27T14:30:00+02:00,2021-04-27T15:00:00+02:00,11.66,EUR,,MWh
Power,Intraday,Continuous,NL,IDFULL,HH,2021-04-27T15:00:00+02:00,2021-04-27T15:30:00+02:00,19.01,EUR,,MWh
Power,Intraday,Continuous,NL,IDFULL,HH,2021-04-27T15:30:00+02:00,2021-04-27T16:00:00+02:00,19.01,EUR,,MWh
Power,Intraday,Continuous,NL,IDFULL,HH,2021-04-27T16:00:00+02:00,2021-04-27T16:30:00+02:00,39.20,EUR,,MWh
Power,Intraday,Continuous,NL,IDFULL,HH,2021-04-27T16:30:00+02:00,2021-04-27T17:00:00+02:00,39.20,EUR,,MWh
Power,Intraday,Continuous,NL,IDFULL,HH,2021-04-27T17:00:00+02:00,2021-04-27T17:30:00+02:00,51.10,EUR,,MWh
Power,Intraday,Continuous,NL,IDFULL,HH,2021-04-27T17:30:00+02:00,2021-04-27T18:00:00+02:00,51.10,EUR,,MWh
Power,Intraday,Continuous,NL,IDFULL,HH,2021-04-27T18:00:00+02:00,2021-04-27T18:30:00+02:00,44.90,EUR,,MWh
Power,Intraday,Continuous,NL,IDFULL,HH,2021-04-27T18:30:00+02:00,2021-04-27T19:00:00+02:00,84.00,EUR,8.000,MWh
Power,Intraday,Continuous,NL,IDFULL,HH,2021-04-27T19:00:00+02:00,2021-04-27T19:30:00+02:00,76.22,EUR,,MWh
Power,Intraday,Continuous,NL,IDFULL,HH,2021-04-27T19:30:00+02:00,2021-04-27T20:00:00+02:00,76.22,EUR,,MWh
Power,Intraday,Continuous,NL,IDFULL,HH,2021-04-27T20:00:00+02:00,2021-04-27T20:30:00+02:00,74.34,EUR,,MWh
Power,Intraday,Continuous,NL,IDFULL,HH,2021-04-27T20:30:00+02:00,2021-04-27T21:00:00+02:00,74.34,EUR,,MWh
Power,Intraday,Continuous,NL,IDFULL,HH,2021-04-27T21:00:00+02:00,2021-04-27T21:30:00+02:00,62.31,EUR,,MWh
Power,Intraday,Continuous,NL,IDFULL,HH,2021-04-27T21:30:00+02:00,2021-04-27T22:00:00+02:00,62.31,EUR,,MWh
Power,Intraday,Continuous,NL,IDFULL,HH,2021-04-27T22:00:00+02:00,2021-04-27T22:30:00+02:00,53.18,EUR,,MWh
Power,Intraday,Continuous,NL,IDFULL,HH,2021-04-27T22:30:00+02:00,2021-04-27T23:00:00+02:00,53.18,EUR,,MWh
Power,Intraday,Continuous,NL,IDFULL,HH,2021-04-27T23:00:00+02:00,2021-04-27T23:30:00+02:00,50.59,EUR,,MWh
Power,Intraday,Continuous,NL,IDFULL,HH,2021-04-27T23:30:00+02:00,2021-04-28T00:00:00+02:00,50.59,EUR,,MWh
Power,Intraday,Continuous,NL,ID1,HH,2021-04-27T00:00:00+02:00,2021-04-27T00:30:00+02:00,55.15,EUR,,MWh
Power,Intraday,Continuous,NL,ID1,HH,2021-04-27T00:30:00+02:00,2021-04-27T01:00:00+02:00,55.15,EUR,,MWh
Power,Intraday,Continuous,NL,ID1,HH,2021-04-27T01:00:00+02:00,2021-04-27T01:30:00+02:00,52.94,EUR,,MWh
Power,Intraday,Continuous,NL,ID1,HH,2021-04-27T01:30:00+02:00,2021-04-27T02:00:00+02:00,52.94,EUR,,MWh
Power,Intraday,Continuous,NL,ID1,HH,2021-04-27T02:00:00+02:00,2021-04-27T02:30:00+02:00,53.96,EUR,,MWh
Power,Intraday,Continuous,NL,ID1,HH,2021-04-27T02:30:00+02:00,2021-04-27T03:00:00+02:00,53.96,EUR,,MWh
Power,Intraday,Continuous,NL,ID1,HH,2021-04-27T03:00:00+02:00,2021-04-27T03:30:00+02:00,52.90,EUR,,MWh
Power,Intraday,Continuous,NL,ID1,HH,2021-04-27T03:30:00+02:00,2021-04-27T04:00:00+02:00,52.90,EUR,,MWh
Power,Intraday,Continuous,NL,ID1,HH,2021-04-27T04:00:00+02:00,2021-04-27T04:30:00+02:00,52.08,EUR,,MWh
Power,Intraday,Continuous,NL,ID1,HH,2021-04-27T04:30:00+02:00,2021-04-27T05:00:00+02:00,52.08,EUR,,MWh
Power,Intraday,Continuous,NL,ID1,HH,2021-04-27T05:00:00+02:00,2021-04-27T05:30:00+02:00,52.72,EUR,,MWh
Power,Intraday,Continuous,NL,ID1,HH,2021-04-27T05:30:00+02:00,2021-04-27T06:00:00+02:00,52.72,EUR,,MWh
Power,Intraday,Continuous,NL,ID1,HH,2021-04-27T06:00:00+02:00,2021-04-27T06:30:00+02:00,57.14,EUR,,MWh
Power,Intraday,Continuous,NL,ID1,HH,2021-04-27T06:30:00+02:00,2021-04-27T07:00:00+02:00,57.14,EUR,,MWh
Power,Intraday,Continuous,NL,ID1,HH,2021-04-27T07:00:00+02:00,2021-04-27T07:30:00+02:00,68.68,EUR,,MWh
Power,Intraday,Continuous,NL,ID1,HH,2021-04-27T07:30:00+02:00,2021-04-27T08:00:00+02:00,68.68,EUR,,MWh
Power,Intraday,Continuous,NL,ID1,HH,2021-04-27T08:00:00+02:00,2021-04-27T08:30:00+02:00,74.26,EUR,,MWh
Power,Intraday,Continuous,NL,ID1,HH,2021-04-27T08:30:00+02:00,2021-04-27T09:00:00+02:00,74.26,EUR,,MWh
Power,Intraday,Continuous,NL,ID1,HH,2021-04-27T09:00:00+02:00,2021-04-27T09:30:00+02:00,57.35,EUR,,MWh
Power,Intraday,Continuous,NL,ID1,HH,2021-04-27T09:30:00+02:00,2021-04-27T10:00:00+02:00,57.35,EUR,,MWh
Power,Intraday,Continuous,NL,ID1,HH,2021-04-27T10:00:00+02:00,2021-04-27T10:30:00+02:00,49.93,EUR,,MWh
Power,Intraday,Continuous,NL,ID1,HH,2021-04-27T10:30:00+02:00,2021-04-27T11:00:00+02:00,49.93,EUR,,MWh
Power,Intraday,Continuous,NL,ID1,HH,2021-04-27T11:00:00+02:00,2021-04-27T11:30:00+02:00,30.09,EUR,,MWh
Power,Intraday,Continuous,NL,ID1,HH,2021-04-27T11:30:00+02:00,2021-04-27T12:00:00+02:00,30.09,EUR,,MWh
Power,Intraday,Continuous,NL,ID1,HH,2021-04-27T12:00:00+02:00,2021-04-27T12:30:00+02:00,25.74,EUR,,MWh
Power,Intraday,Continuous,NL,ID1,HH,2021-04-27T12:30:00+02:00,2021-04-27T13:00:00+02:00,25.74,EUR,,MWh
Power,Intraday,Continuous,NL,ID1,HH,2021-04-27T13:00:00+02:00,2021-04-27T13:30:00+02:00,14.55,EUR,,MWh
Power,Intraday,Continuous,NL,ID1,HH,2021-04-27T13:30:00+02:00,2021-04-27T14:00:00+02:00,14.55,EUR,,MWh
Power,Intraday,Continuous,NL,ID1,HH,2021-04-27T14:00:00+02:00,2021-04-27T14:30:00+02:00,11.66,EUR,,MWh
Power,Intraday,Continuous,NL,ID1,HH,2021-04-27T14:30:00+02:00,2021-04-27T15:00:00+02:00,11.66,EUR,,MWh
Power,Intraday,Continuous,NL,ID1,HH,2021-04-27T15:00:00+02:00,2021-04-27T15:30:00+02:00,19.01,EUR,,MWh
Power,Intraday,Continuous,NL,ID1,HH,2021-04-27T15:30:00+02:00,2021-04-27T16:00:00+02:00,19.01,EUR,,MWh
Power,Intraday,Continuous,NL,ID1,HH,2021-04-27T16:00:00+02:00,2021-04-27T16:30:00+02:00,39.20,EUR,,MWh
Power,Intraday,Continuous,NL,ID1,HH,2021-04-27T16:30:00+02:00,2021-04-27T17:00:00+02:00,39.20,EUR,,MWh
Power,Intraday,Continuous,NL,ID1,HH,2021-04-27T17:00:00+02:00,2021-04-27T17:30:00+02:00,51.10,EUR,,MWh
Power,Intraday,Continuous,NL,ID1,HH,2021-04-27T17:30:00+02:00,2021-04-27T18:00:00+02:00,51.10,EUR,,MWh
Power,Intraday,Continuous,NL,ID1,HH,2021-04-27T18:00:00+02:00,2021-04-27T18:30:00+02:00,44.90,EUR,,MWh
Power,Intraday,Continuous,NL,ID1,HH,2021-04-27T18:30:00+02:00,2021-04-27T19:00:00+02:00,84.00,EUR,,MWh
Power,Intraday,Continuous,NL,ID1,HH,2021-04-27T19:00:00+02:00,2021-04-27T19:30:00+02:00,76.22,EUR,,MWh
Power,Intraday,Continuous,NL,ID1,HH,2021-04-27T19:30:00+02:00,2021-04-27T20:00:00+02:00,76.22,EUR,,MWh
Power,Intraday,Continuous,NL,ID1,HH,2021-04-27T20:00:00+02:00,2021-04-27T20:30:00+02:00,74.34,EUR,,MWh
Power,Intraday,Continuous,NL,ID1,HH,2021-04-27T20:30:00+02:00,2021-04-27T21:00:00+02:00,74.34,EUR,,MWh
Power,Intraday,Continuous,NL,ID1,HH,2021-04-27T21:00:00+02:00,2021-04-27T21:30:00+02:00,62.31,EUR,,MWh
Power,Intraday,Continuous,NL,ID1,HH,2021-04-27T21:30:00+02:00,2021-04-27T22:00:00+02:00,62.31,EUR,,MWh
Power,Intraday,Continuous,NL,ID1,HH,2021-04-27T22:00:00+02:00,2021-04-27T22:30:00+02:00,53.18,EUR,,MWh
Power,Intraday,Continuous,NL,ID1,HH,2021-04-27T22:30:00+02:00,2021-04-27T23:00:00+02:00,53.18,EUR,,MWh
Power,Intraday,Continuous,NL,ID1,HH,2021-04-27T23:00:00+02:00,2021-04-27T23:30:00+02:00,50.59,EUR,,MWh
Power,Intraday,Continuous,NL,ID1,HH,2021-04-27T23:30:00+02:00,2021-04-28T00:00:00+02:00,50.59,EUR,,MWh
Power,Intraday,Continuous,NL,ID3,HH,2021-04-27T00:00:00+02:00,2021-04-27T00:30:00+02:00,55.15,EUR,,MWh
Power,Intraday,Continuous,NL,ID3,HH,2021-04-27T00:30:00+02:00,2021-04-27T01:00:00+02:00,55.15,EUR,,MWh
Power,Intraday,Continuous,NL,ID3,HH,2021-04-27T01:00:00+02:00,2021-04-27T01:30:00+02:00,52.94,EUR,,MWh
Power,Intraday,Continuous,NL,ID3,HH,2021-04-27T01:30:00+02:00,2021-04-27T02:00:00+02:00,52.94,EUR,,MWh
Power,Intraday,Continuous,NL,ID3,HH,2021-04-27T02:00:00+02:00,2021-04-27T02:30:00+02:00,53.96,EUR,,MWh
Power,Intraday,Continuous,NL,ID3,HH,2021-04-27T02:30:00+02:00,2021-04-27T03:00:00+02:00,53.96,EUR,,MWh
Power,Intraday,Continuous,NL,ID3,HH,2021-04-27T03:00:00+02:00,2021-04-27T03:30:00+02:00,52.90,EUR,,MWh
Power,Intraday,Continuous,NL,ID3,HH,2021-04-27T03:30:00+02:00,2021-04-27T04:00:00+02:00,52.90,EUR,,MWh
Power,Intraday,Continuous,NL,ID3,HH,2021-04-27T04:00:00+02:00,2021-04-27T04:30:00+02:00,52.08,EUR,,MWh
Power,Intraday,Continuous,NL,ID3,HH,2021-04-27T04:30:00+02:00,2021-04-27T05:00:00+02:00,52.08,EUR,,MWh
Power,Intraday,Continuous,NL,ID3,HH,2021-04-27T05:00:00+02:00,2021-04-27T05:30:00+02:00,52.72,EUR,,MWh
Power,Intraday,Continuous,NL,ID3,HH,2021-04-27T05:30:00+02:00,2021-04-27T06:00:00+02:00,52.72,EUR,,MWh
Power,Intraday,Continuous,NL,ID3,HH,2021-04-27T06:00:00+02:00,2021-04-27T06:30:00+02:00,57.14,EUR,,MWh
Power,Intraday,Continuous,NL,ID3,HH,2021-04-27T06:30:00+02:00,2021-04-27T07:00:00+02:00,57.14,EUR,,MWh
Power,Intraday,Continuous,NL,ID3,HH,2021-04-27T07:00:00+02:00,2021-04-27T07:30:00+02:00,68.68,EUR,,MWh
Power,Intraday,Continuous,NL,ID3,HH,2021-04-27T07:30:00+02:00,2021-04-27T08:00:00+02:00,68.68,EUR,,MWh
Power,Intraday,Continuous,NL,ID3,HH,2021-04-27T08:00:00+02:00,2021-04-27T08:30:00+02:00,74.26,EUR,,MWh
Power,Intraday,Continuous,NL,ID3,HH,2021-04-27T08:30:00+02:00,2021-04-27T09:00:00+02:00,74.26,EUR,,MWh
Power,Intraday,Continuous,NL,ID3,HH,2021-04-27T09:00:00+02:00,2021-04-27T09:30:00+02:00,57.35,EUR,,MWh
Power,Intraday,Continuous,NL,ID3,HH,2021-04-27T09:30:00+02:00,2021-04-27T10:00:00+02:00,57.35,EUR,,MWh
Power,Intraday,Continuous,NL,ID3,HH,2021-04-27T10:00:00+02:00,2021-04-27T10:30:00+02:00,49.93,EUR,,MWh
Power,Intraday,Continuous,NL,ID3,HH,2021-04-27T10:30:00+02:00,2021-04-27T11:00:00+02:00,49.93,EUR,,MWh
Power,Intraday,Continuous,NL,ID3,HH,2021-04-27T11:00:00+02:00,2021-04-27T11:30:00+02:00,30.09,EUR,,MWh
Power,Intraday,Continuous,NL,ID3,HH,2021-04-27T11:30:00+02:00,2021-04-27T12:00:00+02:00,30.09,EUR,,MWh
Power,Intraday,Continuous,NL,ID3,HH,2021-04-27T12:00:00+02:00,2021-04-27T12:30:00+02:00,25.74,EUR,,MWh
Power,Intraday,Continuous,NL,ID3,HH,2021-04-27T12:30:00+02:00,2021-04-27T13:00:00+02:00,25.74,EUR,,MWh
Power,Intraday,Continuous,NL,ID3,HH,2021-04-27T13:00:00+02:00,2021-04-27T13:30:00+02:00,14.55,EUR,,MWh
Power,Intraday,Continuous,NL,ID3,HH,2021-04-27T13:30:00+02:00,2021-04-27T14:00:00+02:00,14.55,EUR,,MWh
Power,Intraday,Continuous,NL,ID3,HH,2021-04-27T14:00:00+02:00,2021-04-27T14:30:00+02:00,11.66,EUR,,MWh
Power,Intraday,Continuous,NL,ID3,HH,2021-04-27T14:30:00+02:00,2021-04-27T15:00:00+02:00,11.66,EUR,,MWh
Power,Intraday,Continuous,NL,ID3,HH,2021-04-27T15:00:00+02:00,2021-04-27T15:30:00+02:00,19.01,EUR,,MWh
Power,Intraday,Continuous,NL,ID3,HH,2021-04-27T15:30:00+02:00,2021-04-27T16:00:00+02:00,19.01,EUR,,MWh
Power,Intraday,Continuous,NL,ID3,HH,2021-04-27T16:00:00+02:00,2021-04-27T16:30:00+02:00,39.20,EUR,,MWh
Power,Intraday,Continuous,NL,ID3,HH,2021-04-27T16:30:00+02:00,2021-04-27T17:00:00+02:00,39.20,EUR,,MWh
Power,Intraday,Continuous,NL,ID3,HH,2021-04-27T17:00:00+02:00,2021-04-27T17:30:00+02:00,51.10,EUR,,MWh
Power,Intraday,Continuous,NL,ID3,HH,2021-04-27T17:30:00+02:00,2021-04-27T18:00:00+02:00,51.10,EUR,,MWh
Power,Intraday,Continuous,NL,ID3,HH,2021-04-27T18:00:00+02:00,2021-04-27T18:30:00+02:00,44.90,EUR,,MWh
Power,Intraday,Continuous,NL,ID3,HH,2021-04-27T18:30:00+02:00,2021-04-27T19:00:00+02:00,84.00,EUR,,MWh
Power,Intraday,Continuous,NL,ID3,HH,2021-04-27T19:00:00+02:00,2021-04-27T19:30:00+02:00,76.22,EUR,,MWh
Power,Intraday,Continuous,NL,ID3,HH,2021-04-27T19:30:00+02:00,2021-04-27T20:00:00+02:00,76.22,EUR,,MWh
Power,Intraday,Continuous,NL,ID3,HH,2021-04-27T20:00:00+02:00,2021-04-27T20:30:00+02:00,74.34,EUR,,MWh
Power,Intraday,Continuous,NL,ID3,HH,2021-04-27T20:30:00+02:00,2021-04-27T21:00:00+02:00,74.34,EUR,,MWh
Power,Intraday,Continuous,NL,ID3,HH,2021-04-27T21:00:00+02:00,2021-04-27T21:30:00+02:00,62.31,EUR,,MWh
Power,Intraday,Continuous,NL,ID3,HH,2021-04-27T21:30:00+02:00,2021-04-27T22:00:00+02:00,62.31,EUR,,MWh
Power,Intraday,Continuous,NL,ID3,HH,2021-04-27T22:00:00+02:00,2021-04-27T22:30:00+02:00,53.18,EUR,,MWh
Power,Intraday,Continuous,NL,ID3,HH,2021-04-27T22:30:00+02:00,2021-04-27T23:00:00+02:00,53.18,EUR,,MWh
Power,Intraday,Continuous,NL,ID3,HH,2021-04-27T23:00:00+02:00,2021-04-27T23:30:00+02:00,50.59,EUR,,MWh
Power,Intraday,Continuous,NL,ID3,HH,2021-04-27T23:30:00+02:00,2021-04-28T00:00:00+02:00,50.59,EUR,,MWh
Power,Intraday,Continuous,NL,IDFULL,QH,2021-04-27T00:00:00+02:00,2021-04-27T00:15:00+02:00,65.39,EUR,51.350,MWh
Power,Intraday,Continuous,NL,IDFULL,QH,2021-04-27T00:15:00+02:00,2021-04-27T00:30:00+02:00,58.87,EUR,21.730,MWh
Power,Intraday,Continuous,NL,IDFULL,QH,2021-04-27T00:30:00+02:00,2021-04-27T00:45:00+02:00,45.73,EUR,24.630,MWh
Power,Intraday,Continuous,NL,IDFULL,QH,2021-04-27T00:45:00+02:00,2021-04-27T01:00:00+02:00,44.37,EUR,42.780,MWh
Power,Intraday,Continuous,NL,IDFULL,QH,2021-04-27T01:00:00+02:00,2021-04-27T01:15:00+02:00,55.59,EUR,37.030,MWh
Power,Intraday,Continuous,NL,IDFULL,QH,2021-04-27T01:15:00+02:00,2021-04-27T01:30:00+02:00,56.77,EUR,27.000,MWh
Power,Intraday,Continuous,NL,IDFULL,QH,2021-04-27T01:30:00+02:00,2021-04-27T01:45:00+02:00,53.09,EUR,22.780,MWh
Power,Intraday,Continuous,NL,IDFULL,QH,2021-04-27T01:45:00+02:00,2021-04-27T02:00:00+02:00,49.84,EUR,22.850,MWh
Power,Intraday,Continuous,NL,IDFULL,QH,2021-04-27T02:00:00+02:00,2021-04-27T02:15:00+02:00,50.49,EUR,20.480,MWh
Power,Intraday,Continuous,NL,IDFULL,QH,2021-04-27T02:15:00+02:00,2021-04-27T02:30:00+02:00,50.27,EUR,20.480,MWh
Power,Intraday,Continuous,NL,IDFULL,QH,2021-04-27T02:30:00+02:00,2021-04-27T02:45:00+02:00,50.66,EUR,22.050,MWh
Power,Intraday,Continuous,NL,IDFULL,QH,2021-04-27T02:45:00+02:00,2021-04-27T03:00:00+02:00,56.93,EUR,22.530,MWh
Power,Intraday,Continuous,NL,IDFULL,QH,2021-04-27T03:00:00+02:00,2021-04-27T03:15:00+02:00,50.84,EUR,15.200,MWh
Power,Intraday,Continuous,NL,IDFULL,QH,2021-04-27T03:15:00+02:00,2021-04-27T03:30:00+02:00,49.37,EUR,11.930,MWh
Power,Intraday,Continuous,NL,IDFULL,QH,2021-04-27T03:30:00+02:00,2021-04-27T03:45:00+02:00,50.69,EUR,9.780,MWh
Power,Intraday,Continuous,NL,IDFULL,QH,2021-04-27T03:45:00+02:00,2021-04-27T04:00:00+02:00,55.39,EUR,11.100,MWh
Power,Intraday,Continuous,NL,IDFULL,QH,2021-04-27T04:00:00+02:00,2021-04-27T04:15:00+02:00,48.24,EUR,13.080,MWh
Power,Intraday,Continuous,NL,IDFULL,QH,2021-04-27T04:15:00+02:00,2021-04-27T04:30:00+02:00,46.16,EUR,13.580,MWh
Power,Intraday,Continuous,NL,IDFULL,QH,2021-04-27T04:30:00+02:00,2021-04-27T04:45:00+02:00,55.95,EUR,13.080,MWh
Power,Intraday,Continuous,NL,IDFULL,QH,2021-04-27T04:45:00+02:00,2021-04-27T05:00:00+02:00,57.33,EUR,11.900,MWh
Power,Intraday,Continuous,NL,IDFULL,QH,2021-04-27T05:00:00+02:00,2021-04-27T05:15:00+02:00,43.93,EUR,25.580,MWh
Power,Intraday,Continuous,NL,IDFULL,QH,2021-04-27T05:15:00+02:00,2021-04-27T05:30:00+02:00,47.41,EUR,24.400,MWh
Power,Intraday,Continuous,NL,IDFULL,QH,2021-04-27T05:30:00+02:00,2021-04-27T05:45:00+02:00,58.44,EUR,23.900,MWh
Power,Intraday,Continuous,NL,IDFULL,QH,2021-04-27T05:45:00+02:00,2021-04-27T06:00:00+02:00,62.50,EUR,29.780,MWh
Power,Intraday,Continuous,NL,IDFULL,QH,2021-04-27T06:00:00+02:00,2021-04-27T06:15:00+02:00,42.86,EUR,45.450,MWh
Power,Intraday,Continuous,NL,IDFULL,QH,2021-04-27T06:15:00+02:00,2021-04-27T06:30:00+02:00,58.63,EUR,40.180,MWh
Power,Intraday,Continuous,NL,IDFULL,QH,2021-04-27T06:30:00+02:00,2021-04-27T06:45:00+02:00,66.92,EUR,38.650,MWh
Power,Intraday,Continuous,NL,IDFULL,QH,2021-04-27T06:45:00+02:00,2021-04-27T07:00:00+02:00,86.30,EUR,51.880,MWh
Power,Intraday,Continuous,NL,IDFULL,QH,2021-04-27T07:00:00+02:00,2021-04-27T07:15:00+02:00,71.59,EUR,73.530,MWh
Power,Intraday,Continuous,NL,IDFULL,QH,2021-04-27T07:15:00+02:00,2021-04-27T07:30:00+02:00,78.41,EUR,56.180,MWh
Power,Intraday,Continuous,NL,IDFULL,QH,2021-04-27T07:30:00+02:00,2021-04-27T07:45:00+02:00,61.93,EUR,93.880,MWh
Power,Intraday,Continuous,NL,IDFULL,QH,2021-04-27T07:45:00+02:00,2021-04-27T08:00:00+02:00,58.34,EUR,114.850,MWh
Power,Intraday,Continuous,NL,IDFULL,QH,2021-04-27T08:00:00+02:00,2021-04-27T08:15:00+02:00,108.78,EUR,73.300,MWh
Power,Intraday,Continuous,NL,IDFULL,QH,2021-04-27T08:15:00+02:00,2021-04-27T08:30:00+02:00,81.80,EUR,60.830,MWh
Power,Intraday,Continuous,NL,IDFULL,QH,2021-04-27T08:30:00+02:00,2021-04-27T08:45:00+02:00,57.01,EUR,82.650,MWh
Power,Intraday,Continuous,NL,IDFULL,QH,2021-04-27T08:45:00+02:00,2021-04-27T09:00:00+02:00,34.46,EUR,98.150,MWh
Power,Intraday,Continuous,NL,IDFULL,QH,2021-04-27T09:00:00+02:00,2021-04-27T09:15:00+02:00,105.00,EUR,3.750,MWh
Power,Intraday,Continuous,NL,IDFULL,QH,2021-04-27T09:15:00+02:00,2021-04-27T09:30:00+02:00,51.36,EUR,14.280,MWh
Power,Intraday,Continuous,NL,IDFULL,QH,2021-04-27T09:30:00+02:00,2021-04-27T09:45:00+02:00,37.57,EUR,4.280,MWh
Power,Intraday,Continuous,NL,IDFULL,QH,2021-04-27T09:45:00+02:00,2021-04-27T10:00:00+02:00,45.38,EUR,4.530,MWh
Power,Intraday,Continuous,NL,IDFULL,QH,2021-04-27T10:00:00+02:00,2021-04-27T10:15:00+02:00,75.51,EUR,7.500,MWh
Power,Intraday,Continuous,NL,IDFULL,QH,2021-04-27T10:15:00+02:00,2021-04-27T10:30:00+02:00,73.34,EUR,5.000,MWh
Power,Intraday,Continuous,NL,IDFULL,QH,2021-04-27T10:30:00+02:00,2021-04-27T10:45:00+02:00,25.44,EUR,,MWh
Power,Intraday,Continuous,NL,IDFULL,QH,2021-04-27T10:45:00+02:00,2021-04-27T11:00:00+02:00,-56.10,EUR,3.750,MWh
Power,Intraday,Continuous,NL,IDFULL,QH,2021-04-27T11:00:00+02:00,2021-04-27T11:15:00+02:00,58.63,EUR,8.750,MWh
Power,Intraday,Continuous,NL,IDFULL,QH,2021-04-27T11:15:00+02:00,2021-04-27T11:30:00+02:00,74.13,EUR,17.880,MWh
Power,Intraday,Continuous,NL,IDFULL,QH,2021-04-27T11:30:00+02:00,2021-04-27T11:45:00+02:00,-6.20,EUR,,MWh
Power,Intraday,Continuous,NL,IDFULL,QH,2021-04-27T11:45:00+02:00,2021-04-27T12:00:00+02:00,-21.57,EUR,7.000,MWh
Power,Intraday,Continuous,NL,IDFULL,QH,2021-04-27T12:00:00+02:00,2021-04-27T12:15:00+02:00,77.55,EUR,5.030,MWh
Power,Intraday,Continuous,NL,IDFULL,QH,2021-04-27T12:15:00+02:00,2021-04-27T12:30:00+02:00,-70.53,EUR,,MWh
Power,Intraday,Continuous,NL,IDFULL,QH,2021-04-27T12:30:00+02:00,2021-04-27T12:45:00+02:00,47.94,EUR,5.030,MWh
Power,Intraday,Continuous,NL,IDFULL,QH,2021-04-27T12:45:00+02:00,2021-04-27T13:00:00+02:00,48.00,EUR,5.000,MWh
Power,Intraday,Continuous,NL,IDFULL,QH,2021-04-27T13:00:00+02:00,2021-04-27T13:15:00+02:00,54.94,EUR,37.750,MWh
Power,Intraday,Continuous,NL,IDFULL,QH,2021-04-27T13:15:00+02:00,2021-04-27T13:30:00+02:00,1.09,EUR,,MWh
Power,Intraday,Continuous,NL,IDFULL,QH,2021-04-27T13:30:00+02:00,2021-04-27T13:45:00+02:00,1.09,EUR,,MWh
Power,Intraday,Continuous,NL,IDFULL,QH,2021-04-27T13:45:00+02:00,2021-04-27T14:00:00+02:00,1.09,EUR,,MWh
Power,Intraday,Continuous,NL,IDFULL,QH,2021-04-27T14:00:00+02:00,2021-04-27T14:15:00+02:00,-2.13,EUR,,MWh
Power,Intraday,Continuous,NL,IDFULL,QH,2021-04-27T14:15:00+02:00,2021-04-27T14:30:00+02:00,-2.13,EUR,,MWh
Power,Intraday,Continuous,NL,IDFULL,QH,2021-04-27T14:30:00+02:00,2021-04-27T14:45:00+02:00,-2.13,EUR,,MWh
Power,Intraday,Continuous,NL,IDFULL,QH,2021-04-27T14:45:00+02:00,2021-04-27T15:00:00+02:00,53.03,EUR,8.930,MWh
Power,Intraday,Continuous,NL,IDFULL,QH,2021-04-27T15:00:00+02:00,2021-04-27T15:15:00+02:00,-11.48,EUR,8.300,MWh
Power,Intraday,Continuous,NL,IDFULL,QH,2021-04-27T15:15:00+02:00,2021-04-27T15:30:00+02:00,28.96,EUR,22.580,MWh
Power,Intraday,Continuous,NL,IDFULL,QH,2021-04-27T15:30:00+02:00,2021-04-27T15:45:00+02:00,55.23,EUR,45.400,MWh
Power,Intraday,Continuous,NL,IDFULL,QH,2021-04-27T15:45:00+02:00,2021-04-27T16:00:00+02:00,61.30,EUR,107.650,MWh
Power,Intraday,Continuous,NL,IDFULL,QH,2021-04-27T16:00:00+02:00,2021-04-27T16:15:00+02:00,7.40,EUR,48.150,MWh
Power,Intraday,Continuous,NL,IDFULL,QH,2021-04-27T16:15:00+02:00,2021-04-27T16:30:00+02:00,44.63,EUR,37.030,MWh
Power,Intraday,Continuous,NL,IDFULL,QH,2021-04-27T16:30:00+02:00,2021-04-27T16:45:00+02:00,55.77,EUR,64.250,MWh
Power,Intraday,Continuous,NL,IDFULL,QH,2021-04-27T16:45:00+02:00,2021-04-27T17:00:00+02:00,60.03,EUR,119.580,MWh
Power,Intraday,Continuous,NL,IDFULL,QH,2021-04-27T17:00:00+02:00,2021-04-27T17:15:00+02:00,23.38,EUR,38.350,MWh
Power,Intraday,Continuous,NL,IDFULL,QH,2021-04-27T17:15:00+02:00,2021-04-27T17:30:00+02:00,41.06,EUR,43.480,MWh
Power,Intraday,Continuous,NL,IDFULL,QH,2021-04-27T17:30:00+02:00,2021-04-27T17:45:00+02:00,60.14,EUR,42.030,MWh
Power,Intraday,Continuous,NL,IDFULL,QH,2021-04-27T17:45:00+02:00,2021-04-27T18:00:00+02:00,76.85,EUR,77.050,MWh
Power,Intraday,Continuous,NL,IDFULL,QH,2021-04-27T18:00:00+02:00,2021-04-27T18:15:00+02:00,29.31,EUR,31.880,MWh
Power,Intraday,Continuous,NL,IDFULL,QH,2021-04-27T18:15:00+02:00,2021-04-27T18:30:00+02:00,53.26,EUR,41.780,MWh
Power,Intraday,Continuous,NL,IDFULL,QH,2021-04-27T18:30:00+02:00,2021-04-27T18:45:00+02:00,78.80,EUR,26.050,MWh
Power,Intraday,Continuous,NL,IDFULL,QH,2021-04-27T18:45:00+02:00,2021-04-27T19:00:00+02:00,97.76,EUR,105.980,MWh
Power,Intraday,Continuous,NL,IDFULL,QH,2021-04-27T19:00:00+02:00,2021-04-27T19:15:00+02:00,46.82,EUR,61.580,MWh
Power,Intraday,Continuous,NL,IDFULL,QH,2021-04-27T19:15:00+02:00,2021-04-27T19:30:00+02:00,64.47,EUR,53.630,MWh
Power,Intraday,Continuous,NL,IDFULL,QH,2021-04-27T19:30:00+02:00,2021-04-27T19:45:00+02:00,87.27,EUR,27.000,MWh
Power,Intraday,Continuous,NL,IDFULL,QH,2021-04-27T19:45:00+02:00,2021-04-27T20:00:00+02:00,113.08,EUR,109.200,MWh
Power,Intraday,Continuous,NL,IDFULL,QH,2021-04-27T20:00:00+02:00,2021-04-27T20:15:00+02:00,111.10,EUR,44.400,MWh
Power,Intraday,Continuous,NL,IDFULL,QH,2021-04-27T20:15:00+02:00,2021-04-27T20:30:00+02:00,87.55,EUR,24.430,MWh
Power,Intraday,Continuous,NL,IDFULL,QH,2021-04-27T20:30:00+02:00,2021-04-27T20:45:00+02:00,61.87,EUR,11.530,MWh
Power,Intraday,Continuous,NL,IDFULL,QH,2021-04-27T20:45:00+02:00,2021-04-27T21:00:00+02:00,42.51,EUR,40.830,MWh
Power,Intraday,Continuous,NL,IDFULL,QH,2021-04-27T21:00:00+02:00,2021-04-27T21:15:00+02:00,70.57,EUR,,MWh
Power,Intraday,Continuous,NL,IDFULL,QH,2021-04-27T21:15:00+02:00,2021-04-27T21:30:00+02:00,70.57,EUR,,MWh
Power,Intraday,Continuous,NL,IDFULL,QH,2021-04-27T21:30:00+02:00,2021-04-27T21:45:00+02:00,70.57,EUR,,MWh
Power,Intraday,Continuous,NL,IDFULL,QH,2021-04-27T21:45:00+02:00,2021-04-27T22:00:00+02:00,37.52,EUR,23.130,MWh
Power,Intraday,Continuous,NL,IDFULL,QH,2021-04-27T22:00:00+02:00,2021-04-27T22:15:00+02:00,40.86,EUR,2.750,MWh
Power,Intraday,Continuous,NL,IDFULL,QH,2021-04-27T22:15:00+02:00,2021-04-27T22:30:00+02:00,37.63,EUR,2.500,MWh
Power,Intraday,Continuous,NL,IDFULL,QH,2021-04-27T22:30:00+02:00,2021-04-27T22:45:00+02:00,49.37,EUR,4.780,MWh
Power,Intraday,Continuous,NL,IDFULL,QH,2021-04-27T22:45:00+02:00,2021-04-27T23:00:00+02:00,42.28,EUR,20.280,MWh
Power,Intraday,Continuous,NL,IDFULL,QH,2021-04-27T23:00:00+02:00,2021-04-27T23:15:00+02:00,57.00,EUR,8.230,MWh
Power,Intraday,Continuous,NL,IDFULL,QH,2021-04-27T23:15:00+02:00,2021-04-27T23:30:00+02:00,57.87,EUR,13.900,MWh
Power,Intraday,Continuous,NL,IDFULL,QH,2021-04-27T23:30:00+02:00,2021-04-27T23:45:00+02:00,51.66,EUR,7.000,MWh
Power,Intraday,Continuous,NL,IDFULL,QH,2021-04-27T23:45:00+02:00,2021-04-28T00:00:00+02:00,35.73,EUR,17.980,MWh
Power,Intraday,Continuous,NL,ID1,QH,2021-04-27T00:00:00+02:00,2021-04-27T00:15:00+02:00,43.62,EUR,2.500,MWh
Power,Intraday,Continuous,NL,ID1,QH,2021-04-27T00:15:00+02:00,2021-04-27T00:30:00+02:00,58.91,EUR,,MWh
Power,Intraday,Continuous,NL,ID1,QH,2021-04-27T00:30:00+02:00,2021-04-27T00:45:00+02:00,45.39,EUR,,MWh
Power,Intraday,Continuous,NL,ID1,QH,2021-04-27T00:45:00+02:00,2021-04-27T01:00:00+02:00,44.21,EUR,,MWh
Power,Intraday,Continuous,NL,ID1,QH,2021-04-27T01:00:00+02:00,2021-04-27T01:15:00+02:00,55.42,EUR,,MWh
Power,Intraday,Continuous,NL,ID1,QH,2021-04-27T01:15:00+02:00,2021-04-27T01:30:00+02:00,56.89,EUR,,MWh
Power,Intraday,Continuous,NL,ID1,QH,2021-04-27T01:30:00+02:00,2021-04-27T01:45:00+02:00,53.47,EUR,,MWh
Power,Intraday,Continuous,NL,ID1,QH,2021-04-27T01:45:00+02:00,2021-04-27T02:00:00+02:00,50.47,EUR,,MWh
Power,Intraday,Continuous,NL,ID1,QH,2021-04-27T02:00:00+02:00,2021-04-27T02:15:00+02:00,50.43,EUR,,MWh
Power,Intraday,Continuous,NL,ID1,QH,2021-04-27T02:15:00+02:00,2021-04-27T02:30:00+02:00,48.67,EUR,,MWh
Power,Intraday,Continuous,NL,ID1,QH,2021-04-27T02:30:00+02:00,2021-04-27T02:45:00+02:00,48.76,EUR,,MWh
Power,Intraday,Continuous,NL,ID1,QH,2021-04-27T02:45:00+02:00,2021-04-27T03:00:00+02:00,53.92,EUR,,MWh
Power,Intraday,Continuous,NL,ID1,QH,2021-04-27T03:00:00+02:00,2021-04-27T03:15:00+02:00,51.25,EUR,,MWh
Power,Intraday,Continuous,NL,ID1,QH,2021-04-27T03:15:00+02:00,2021-04-27T03:30:00+02:00,47.28,EUR,,MWh
Power,Intraday,Continuous,NL,ID1,QH,2021-04-27T03:30:00+02:00,2021-04-27T03:45:00+02:00,48.88,EUR,,MWh
Power,Intraday,Continuous,NL,ID1,QH,2021-04-27T03:45:00+02:00,2021-04-27T04:00:00+02:00,53.38,EUR,,MWh
Power,Intraday,Continuous,NL,ID1,QH,2021-04-27T04:00:00+02:00,2021-04-27T04:15:00+02:00,44.45,EUR,,MWh
Power,Intraday,Continuous,NL,ID1,QH,2021-04-27T04:15:00+02:00,2021-04-27T04:30:00+02:00,43.50,EUR,,MWh
Power,Intraday,Continuous,NL,ID1,QH,2021-04-27T04:30:00+02:00,2021-04-27T04:45:00+02:00,53.43,EUR,,MWh
Power,Intraday,Continuous,NL,ID1,QH,2021-04-27T04:45:00+02:00,2021-04-27T05:00:00+02:00,55.50,EUR,,MWh
Power,Intraday,Continuous,NL,ID1,QH,2021-04-27T05:00:00+02:00,2021-04-27T05:15:00+02:00,41.60,EUR,,MWh
Power,Intraday,Continuous,NL,ID1,QH,2021-04-27T05:15:00+02:00,2021-04-27T05:30:00+02:00,45.49,EUR,,MWh
Power,Intraday,Continuous,NL,ID1,QH,2021-04-27T05:30:00+02:00,2021-04-27T05:45:00+02:00,56.70,EUR,,MWh
Power,Intraday,Continuous,NL,ID1,QH,2021-04-27T05:45:00+02:00,2021-04-27T06:00:00+02:00,54.66,EUR,,MWh
Power,Intraday,Continuous,NL,ID1,QH,2021-04-27T06:00:00+02:00,2021-04-27T06:15:00+02:00,36.80,EUR,,MWh
Power,Intraday,Continuous,NL,ID1,QH,2021-04-27T06:15:00+02:00,2021-04-27T06:30:00+02:00,51.03,EUR,,MWh
Power,Intraday,Continuous,NL,ID1,QH,2021-04-27T06:30:00+02:00,2021-04-27T06:45:00+02:00,57.45,EUR,,MWh
Power,Intraday,Continuous,NL,ID1,QH,2021-04-27T06:45:00+02:00,2021-04-27T07:00:00+02:00,75.66,EUR,,MWh
Power,Intraday,Continuous,NL,ID1,QH,2021-04-27T07:00:00+02:00,2021-04-27T07:15:00+02:00,69.64,EUR,,MWh
Power,Intraday,Continuous,NL,ID1,QH,2021-04-27T07:15:00+02:00,2021-04-27T07:30:00+02:00,74.09,EUR,,MWh
Power,Intraday,Continuous,NL,ID1,QH,2021-04-27T07:30:00+02:00,2021-04-27T07:45:00+02:00,59.08,EUR,,MWh
Power,Intraday,Continuous,NL,ID1,QH,2021-04-27T07:45:00+02:00,2021-04-27T08:00:00+02:00,58.70,EUR,2.830,MWh
Power,Intraday,Continuous,NL,ID1,QH,2021-04-27T08:00:00+02:00,2021-04-27T08:15:00+02:00,113.04,EUR,,MWh
Power,Intraday,Continuous,NL,ID1,QH,2021-04-27T08:15:00+02:00,2021-04-27T08:30:00+02:00,82.56,EUR,,MWh
Power,Intraday,Continuous,NL,ID1,QH,2021-04-27T08:30:00+02:00,2021-04-27T08:45:00+02:00,57.45,EUR,,MWh
Power,Intraday,Continuous,NL,ID1,QH,2021-04-27T08:45:00+02:00,2021-04-27T09:00:00+02:00,62.51,EUR,5.030,MWh
Power,Intraday,Continuous,NL,ID1,QH,2021-04-27T09:00:00+02:00,2021-04-27T09:15:00+02:00,105.00,EUR,3.750,MWh
Power,Intraday,Continuous,NL,ID1,QH,2021-04-27T09:15:00+02:00,2021-04-27T09:30:00+02:00,51.36,EUR,14.280,MWh
Power,Intraday,Continuous,NL,ID1,QH,2021-04-27T09:30:00+02:00,2021-04-27T09:45:00+02:00,37.57,EUR,4.280,MWh
Power,Intraday,Continuous,NL,ID1,QH,2021-04-27T09:45:00+02:00,2021-04-27T10:00:00+02:00,45.38,EUR,4.530,MWh
Power,Intraday,Continuous,NL,ID1,QH,2021-04-27T10:00:00+02:00,2021-04-27T10:15:00+02:00,72.00,EUR,3.750,MWh
Power,Intraday,Continuous,NL,ID1,QH,2021-04-27T10:15:00+02:00,2021-04-27T10:30:00+02:00,72.34,EUR,,MWh
Power,Intraday,Continuous,NL,ID1,QH,2021-04-27T10:30:00+02:00,2021-04-27T10:45:00+02:00,25.44,EUR,,MWh
Power,Intraday,Continuous,NL,ID1,QH,2021-04-27T10:45:00+02:00,2021-04-27T11:00:00+02:00,-56.10,EUR,3.750,MWh
Power,Intraday,Continuous,NL,ID1,QH,2021-04-27T11:00:00+02:00,2021-04-27T11:15:00+02:00,43.33,EUR,5.000,MWh
Power,Intraday,Continuous,NL,ID1,QH,2021-04-27T11:15:00+02:00,2021-04-27T11:30:00+02:00,61.14,EUR,5.380,MWh
Power,Intraday,Continuous,NL,ID1,QH,2021-04-27T11:30:00+02:00,2021-04-27T11:45:00+02:00,-6.20,EUR,,MWh
Power,Intraday,Continuous,NL,ID1,QH,2021-04-27T11:45:00+02:00,2021-04-27T12:00:00+02:00,-21.57,EUR,7.000,MWh
Power,Intraday,Continuous,NL,ID1,QH,2021-04-27T12:00:00+02:00,2021-04-27T12:15:00+02:00,77.55,EUR,5.030,MWh
Power,Intraday,Continuous,NL,ID1,QH,2021-04-27T12:15:00+02:00,2021-04-27T12:30:00+02:00,-70.53,EUR,,MWh
Power,Intraday,Continuous,NL,ID1,QH,2021-04-27T12:30:00+02:00,2021-04-27T12:45:00+02:00,48.00,EUR,5.000,MWh
Power,Intraday,Continuous,NL,ID1,QH,2021-04-27T12:45:00+02:00,2021-04-27T13:00:00+02:00,48.00,EUR,5.000,MWh
Power,Intraday,Continuous,NL,ID1,QH,2021-04-27T13:00:00+02:00,2021-04-27T13:15:00+02:00,54.91,EUR,,MWh
Power,Intraday,Continuous,NL,ID1,QH,2021-04-27T13:15:00+02:00,2021-04-27T13:30:00+02:00,1.09,EUR,,MWh
Power,Intraday,Continuous,NL,ID1,QH,2021-04-27T13:30:00+02:00,2021-04-27T13:45:00+02:00,1.09,EUR,,MWh
Power,Intraday,Continuous,NL,ID1,QH,2021-04-27T13:45:00+02:00,2021-04-27T14:00:00+02:00,1.09,EUR,,MWh
Power,Intraday,Continuous,NL,ID1,QH,2021-04-27T14:00:00+02:00,2021-04-27T14:15:00+02:00,-2.13,EUR,,MWh
Power,Intraday,Continuous,NL,ID1,QH,2021-04-27T14:15:00+02:00,2021-04-27T14:30:00+02:00,-2.13,EUR,,MWh
Power,Intraday,Continuous,NL,ID1,QH,2021-04-27T14:30:00+02:00,2021-04-27T14:45:00+02:00,-2.13,EUR,,MWh
Power,Intraday,Continuous,NL,ID1,QH,2021-04-27T14:45:00+02:00,2021-04-27T15:00:00+02:00,53.03,EUR,,MWh
Power,Intraday,Continuous,NL,ID1,QH,2021-04-27T15:00:00+02:00,2021-04-27T15:15:00+02:00,-11.48,EUR,,MWh
Power,Intraday,Continuous,NL,ID1,QH,2021-04-27T15:15:00+02:00,2021-04-27T15:30:00+02:00,28.96,EUR,,MWh
Power,Intraday,Continuous,NL,ID1,QH,2021-04-27T15:30:00+02:00,2021-04-27T15:45:00+02:00,55.23,EUR,,MWh
Power,Intraday,Continuous,NL,ID1,QH,2021-04-27T15:45:00+02:00,2021-04-27T16:00:00+02:00,61.30,EUR,,MWh
Power,Intraday,Continuous,NL,ID1,QH,2021-04-27T16:00:00+02:00,2021-04-27T16:15:00+02:00,7.40,EUR,,MWh
Power,Intraday,Continuous,NL,ID1,QH,2021-04-27T16:15:00+02:00,2021-04-27T16:30:00+02:00,44.63,EUR,,MWh
Power,Intraday,Continuous,NL,ID1,QH,2021-04-27T16:30:00+02:00,2021-04-27T16:45:00+02:00,55.77,EUR,,MWh
Power,Intraday,Continuous,NL,ID1,QH,2021-04-27T16:45:00+02:00,2021-04-27T17:00:00+02:00,61.37,EUR,,MWh
Power,Intraday,Continuous,NL,ID1,QH,2021-04-27T17:00:00+02:00,2021-04-27T17:15:00+02:00,45.15,EUR,5.250,MWh
Power,Intraday,Continuous,NL,ID1,QH,2021-04-27T17:15:00+02:00,2021-04-27T17:30:00+02:00,48.34,EUR,7.000,MWh
Power,Intraday,Continuous,NL,ID1,QH,2021-04-27T17:30:00+02:00,2021-04-27T17:45:00+02:00,60.51,EUR,,MWh
Power,Intraday,Continuous,NL,ID1,QH,2021-04-27T17:45:00+02:00,2021-04-27T18:00:00+02:00,77.82,EUR,,MWh
Power,Intraday,Continuous,NL,ID1,QH,2021-04-27T18:00:00+02:00,2021-04-27T18:15:00+02:00,29.33,EUR,,MWh
Power,Intraday,Continuous,NL,ID1,QH,2021-04-27T18:15:00+02:00,2021-04-27T18:30:00+02:00,52.98,EUR,,MWh
Power,Intraday,Continuous,NL,ID1,QH,2021-04-27T18:30:00+02:00,2021-04-27T18:45:00+02:00,78.27,EUR,,MWh
Power,Intraday,Continuous,NL,ID1,QH,2021-04-27T18:45:00+02:00,2021-04-27T19:00:00+02:00,97.84,EUR,,MWh
Power,Intraday,Continuous,NL,ID1,QH,2021-04-27T19:00:00+02:00,2021-04-27T19:15:00+02:00,44.08,EUR,,MWh
Power,Intraday,Continuous,NL,ID1,QH,2021-04-27T19:15:00+02:00,2021-04-27T19:30:00+02:00,63.52,EUR,,MWh
Power,Intraday,Continuous,NL,ID1,QH,2021-04-27T19:30:00+02:00,2021-04-27T19:45:00+02:00,84.58,EUR,,MWh
Power,Intraday,Continuous,NL,ID1,QH,2021-04-27T19:45:00+02:00,2021-04-27T20:00:00+02:00,122.49,EUR,,MWh
Power,Intraday,Continuous,NL,ID1,QH,2021-04-27T20:00:00+02:00,2021-04-27T20:15:00+02:00,113.17,EUR,,MWh
Power,Intraday,Continuous,NL,ID1,QH,2021-04-27T20:15:00+02:00,2021-04-27T20:30:00+02:00,90.33,EUR,,MWh
Power,Intraday,Continuous,NL,ID1,QH,2021-04-27T20:30:00+02:00,2021-04-27T20:45:00+02:00,61.99,EUR,,MWh
Power,Intraday,Continuous,NL,ID1,QH,2021-04-27T20:45:00+02:00,2021-04-27T21:00:00+02:00,58.24,EUR,2.500,MWh
Power,Intraday,Continuous,NL,ID1,QH,2021-04-27T21:00:00+02:00,2021-04-27T21:15:00+02:00,70.57,EUR,,MWh
Power,Intraday,Continuous,NL,ID1,QH,2021-04-27T21:15:00+02:00,2021-04-27T21:30:00+02:00,70.57,EUR,,MWh
Power,Intraday,Continuous,NL,ID1,QH,2021-04-27T21:30:00+02:00,2021-04-27T21:45:00+02:00,70.57,EUR,,MWh
Power,Intraday,Continuous,NL,ID1,QH,2021-04-27T21:45:00+02:00,2021-04-27T22:00:00+02:00,37.52,EUR,,MWh
Power,Intraday,Continuous,NL,ID1,QH,2021-04-27T22:00:00+02:00,2021-04-27T22:15:00+02:00,40.86,EUR,,MWh
Power,Intraday,Continuous,NL,ID1,QH,2021-04-27T22:15:00+02:00,2021-04-27T22:30:00+02:00,37.63,EUR,,MWh
Power,Intraday,Continuous,NL,ID1,QH,2021-04-27T22:30:00+02:00,2021-04-27T22:45:00+02:00,49.37,EUR,,MWh
Power,Intraday,Continuous,NL,ID1,QH,2021-04-27T22:45:00+02:00,2021-04-27T23:00:00+02:00,40.97,EUR,,MWh
Power,Intraday,Continuous,NL,ID1,QH,2021-04-27T23:00:00+02:00,2021-04-27T23:15:00+02:00,57.00,EUR,,MWh
Power,Intraday,Continuous,NL,ID1,QH,2021-04-27T23:15:00+02:00,2021-04-27T23:30:00+02:00,57.87,EUR,,MWh
Power,Intraday,Continuous,NL,ID1,QH,2021-04-27T23:30:00+02:00,2021-04-27T23:45:00+02:00,51.66,EUR,,MWh
Power,Intraday,Continuous,NL,ID1,QH,2021-04-27T23:45:00+02:00,2021-04-28T00:00:00+02:00,31.59,EUR,,MWh
Power,Intraday,Continuous,NL,ID3,QH,2021-04-27T00:00:00+02:00,2021-04-27T00:15:00+02:00,65.38,EUR,48.350,MWh
Power,Intraday,Continuous,NL,ID3,QH,2021-04-27T00:15:00+02:00,2021-04-27T00:30:00+02:00,58.91,EUR,20.730,MWh
Power,Intraday,Continuous,NL,ID3,QH,2021-04-27T00:30:00+02:00,2021-04-27T00:45:00+02:00,45.39,EUR,22.650,MWh
Power,Intraday,Continuous,NL,ID3,QH,2021-04-27T00:45:00+02:00,2021-04-27T01:00:00+02:00,44.21,EUR,39.980,MWh
Power,Intraday,Continuous,NL,ID3,QH,2021-04-27T01:00:00+02:00,2021-04-27T01:15:00+02:00,55.42,EUR,35.080,MWh
Power,Intraday,Continuous,NL,ID3,QH,2021-04-27T01:15:00+02:00,2021-04-27T01:30:00+02:00,56.89,EUR,23.650,MWh
Power,Intraday,Continuous,NL,ID3,QH,2021-04-27T01:30:00+02:00,2021-04-27T01:45:00+02:00,53.47,EUR,16.900,MWh
Power,Intraday,Continuous,NL,ID3,QH,2021-04-27T01:45:00+02:00,2021-04-27T02:00:00+02:00,50.47,EUR,14.630,MWh
Power,Intraday,Continuous,NL,ID3,QH,2021-04-27T02:00:00+02:00,2021-04-27T02:15:00+02:00,50.43,EUR,10.550,MWh
Power,Intraday,Continuous,NL,ID3,QH,2021-04-27T02:15:00+02:00,2021-04-27T02:30:00+02:00,48.67,EUR,11.030,MWh
Power,Intraday,Continuous,NL,ID3,QH,2021-04-27T02:30:00+02:00,2021-04-27T02:45:00+02:00,48.76,EUR,14.000,MWh
Power,Intraday,Continuous,NL,ID3,QH,2021-04-27T02:45:00+02:00,2021-04-27T03:00:00+02:00,53.92,EUR,12.380,MWh
Power,Intraday,Continuous,NL,ID3,QH,2021-04-27T03:00:00+02:00,2021-04-27T03:15:00+02:00,51.25,EUR,8.530,MWh
Power,Intraday,Continuous,NL,ID3,QH,2021-04-27T03:15:00+02:00,2021-04-27T03:30:00+02:00,47.28,EUR,7.730,MWh
Power,Intraday,Continuous,NL,ID3,QH,2021-04-27T03:30:00+02:00,2021-04-27T03:45:00+02:00,48.88,EUR,5.980,MWh
Power,Intraday,Continuous,NL,ID3,QH,2021-04-27T03:45:00+02:00,2021-04-27T04:00:00+02:00,53.38,EUR,7.080,MWh
Power,Intraday,Continuous,NL,ID3,QH,2021-04-27T04:00:00+02:00,2021-04-27T04:15:00+02:00,44.45,EUR,4.980,MWh
Power,Intraday,Continuous,NL,ID3,QH,2021-04-27T04:15:00+02:00,2021-04-27T04:30:00+02:00,43.50,EUR,6.130,MWh
Power,Intraday,Continuous,NL,ID3,QH,2021-04-27T04:30:00+02:00,2021-04-27T04:45:00+02:00,53.43,EUR,4.350,MWh
Power,Intraday,Continuous,NL,ID3,QH,2021-04-27T04:45:00+02:00,2021-04-27T05:00:00+02:00,55.50,EUR,3.000,MWh
Power,Intraday,Continuous,NL,ID3,QH,2021-04-27T05:00:00+02:00,2021-04-27T05:15:00+02:00,41.60,EUR,10.380,MWh
Power,Intraday,Continuous,NL,ID3,QH,2021-04-27T05:15:00+02:00,2021-04-27T05:30:00+02:00,45.49,EUR,9.350,MWh
Power,Intraday,Continuous,NL,ID3,QH,2021-04-27T05:30:00+02:00,2021-04-27T05:45:00+02:00,56.70,EUR,11.230,MWh
Power,Intraday,Continuous,NL,ID3,QH,2021-04-27T05:45:00+02:00,2021-04-27T06:00:00+02:00,54.66,EUR,11.080,MWh
Power,Intraday,Continuous,NL,ID3,QH,2021-04-27T06:00:00+02:00,2021-04-27T06:15:00+02:00,36.80,EUR,23.050,MWh
Power,Intraday,Continuous,NL,ID3,QH,2021-04-27T06:15:00+02:00,2021-04-27T06:30:00+02:00,51.03,EUR,18.700,MWh
Power,Intraday,Continuous,NL,ID3,QH,2021-04-27T06:30:00+02:00,2021-04-27T06:45:00+02:00,57.45,EUR,20.250,MWh
Power,Intraday,Continuous,NL,ID3,QH,2021-04-27T06:45:00+02:00,2021-04-27T07:00:00+02:00,75.66,EUR,22.200,MWh
Power,Intraday,Continuous,NL,ID3,QH,2021-04-27T07:00:00+02:00,2021-04-27T07:15:00+02:00,69.64,EUR,53.350,MWh
Power,Intraday,Continuous,NL,ID3,QH,2021-04-27T07:15:00+02:00,2021-04-27T07:30:00+02:00,74.09,EUR,31.600,MWh
Power,Intraday,Continuous,NL,ID3,QH,2021-04-27T07:30:00+02:00,2021-04-27T07:45:00+02:00,59.08,EUR,65.130,MWh
Power,Intraday,Continuous,NL,ID3,QH,2021-04-27T07:45:00+02:00,2021-04-27T08:00:00+02:00,53.40,EUR,69.530,MWh
Power,Intraday,Continuous,NL,ID3,QH,2021-04-27T08:00:00+02:00,2021-04-27T08:15:00+02:00,113.04,EUR,56.680,MWh
Power,Intraday,Continuous,NL,ID3,QH,2021-04-27T08:15:00+02:00,2021-04-27T08:30:00+02:00,82.56,EUR,42.180,MWh
Power,Intraday,Continuous,NL,ID3,QH,2021-04-27T08:30:00+02:00,2021-04-27T08:45:00+02:00,57.45,EUR,43.700,MWh
Power,Intraday,Continuous,NL,ID3,QH,2021-04-27T08:45:00+02:00,2021-04-27T09:00:00+02:00,31.84,EUR,49.230,MWh
Power,Intraday,Continuous,NL,ID3,QH,2021-04-27T09:00:00+02:00,2021-04-27T09:15:00+02:00,105.00,EUR,3.750,MWh
Power,Intraday,Continuous,NL,ID3,QH,2021-04-27T09:15:00+02:00,2021-04-27T09:30:00+02:00,51.36,EUR,14.280,MWh
Power,Intraday,Continuous,NL,ID3,QH,2021-04-27T09:30:00+02:00,2021-04-27T09:45:00+02:00,37.57,EUR,4.280,MWh
Power,Intraday,Continuous,NL,ID3,QH,2021-04-27T09:45:00+02:00,2021-04-27T10:00:00+02:00,45.38,EUR,4.530,MWh
Power,Intraday,Continuous,NL,ID3,QH,2021-04-27T10:00:00+02:00,2021-04-27T10:15:00+02:00,75.34,EUR,6.250,MWh
Power,Intraday,Continuous,NL,ID3,QH,2021-04-27T10:15:00+02:00,2021-04-27T10:30:00+02:00,72.34,EUR,3.750,MWh
Power,Intraday,Continuous,NL,ID3,QH,2021-04-27T10:30:00+02:00,2021-04-27T10:45:00+02:00,25.44,EUR,,MWh
Power,Intraday,Continuous,NL,ID3,QH,2021-04-27T10:45:00+02:00,2021-04-27T11:00:00+02:00,-56.10,EUR,3.750,MWh
Power,Intraday,Continuous,NL,ID3,QH,2021-04-27T11:00:00+02:00,2021-04-27T11:15:00+02:00,58.63,EUR,8.750,MWh
Power,Intraday,Continuous,NL,ID3,QH,2021-04-27T11:15:00+02:00,2021-04-27T11:30:00+02:00,74.13,EUR,17.880,MWh
Power,Intraday,Continuous,NL,ID3,QH,2021-04-27T11:30:00+02:00,2021-04-27T11:45:00+02:00,-6.20,EUR,,MWh
Power,Intraday,Continuous,NL,ID3,QH,2021-04-27T11:45:00+02:00,2021-04-27T12:00:00+02:00,-21.57,EUR,7.000,MWh
Power,Intraday,Continuous,NL,ID3,QH,2021-04-27T12:00:00+02:00,2021-04-27T12:15:00+02:00,77.55,EUR,5.030,MWh
Power,Intraday,Continuous,NL,ID3,QH,2021-04-27T12:15:00+02:00,2021-04-27T12:30:00+02:00,-70.53,EUR,,MWh
Power,Intraday,Continuous,NL,ID3,QH,2021-04-27T12:30:00+02:00,2021-04-27T12:45:00+02:00,47.94,EUR,5.030,MWh
Power,Intraday,Continuous,NL,ID3,QH,2021-04-27T12:45:00+02:00,2021-04-27T13:00:00+02:00,48.00,EUR,5.000,MWh
Power,Intraday,Continuous,NL,ID3,QH,2021-04-27T13:00:00+02:00,2021-04-27T13:15:00+02:00,54.91,EUR,36.500,MWh
Power,Intraday,Continuous,NL,ID3,QH,2021-04-27T13:15:00+02:00,2021-04-27T13:30:00+02:00,1.09,EUR,,MWh
Power,Intraday,Continuous,NL,ID3,QH,2021-04-27T13:30:00+02:00,2021-04-27T13:45:00+02:00,1.09,EUR,,MWh
Power,Intraday,Continuous,NL,ID3,QH,2021-04-27T13:45:00+02:00,2021-04-27T14:00:00+02:00,1.09,EUR,,MWh
Power,Intraday,Continuous,NL,ID3,QH,2021-04-27T14:00:00+02:00,2021-04-27T14:15:00+02:00,-2.13,EUR,,MWh
Power,Intraday,Continuous,NL,ID3,QH,2021-04-27T14:15:00+02:00,2021-04-27T14:30:00+02:00,-2.13,EUR,,MWh
Power,Intraday,Continuous,NL,ID3,QH,2021-04-27T14:30:00+02:00,2021-04-27T14:45:00+02:00,-2.13,EUR,,MWh
Power,Intraday,Continuous,NL,ID3,QH,2021-04-27T14:45:00+02:00,2021-04-27T15:00:00+02:00,53.03,EUR,8.930,MWh
Power,Intraday,Continuous,NL,ID3,QH,2021-04-27T15:00:00+02:00,2021-04-27T15:15:00+02:00,-11.48,EUR,8.300,MWh
Power,Intraday,Continuous,NL,ID3,QH,2021-04-27T15:15:00+02:00,2021-04-27T15:30:00+02:00,28.96,EUR,22.580,MWh
Power,Intraday,Continuous,NL,ID3,QH,2021-04-27T15:30:00+02:00,2021-04-27T15:45:00+02:00,55.23,EUR,45.400,MWh
Power,Intraday,Continuous,NL,ID3,QH,2021-04-27T15:45:00+02:00,2021-04-27T16:00:00+02:00,61.30,EUR,107.650,MWh
Power,Intraday,Continuous,NL,ID3,QH,2021-04-27T16:00:00+02:00,2021-04-27T16:15:00+02:00,7.40,EUR,48.150,MWh
Power,Intraday,Continuous,NL,ID3,QH,2021-04-27T16:15:00+02:00,2021-04-27T16:30:00+02:00,44.63,EUR,37.030,MWh
Power,Intraday,Continuous,NL,ID3,QH,2021-04-27T16:30:00+02:00,2021-04-27T16:45:00+02:00,55.77,EUR,64.250,MWh
Power,Intraday,Continuous,NL,ID3,QH,2021-04-27T16:45:00+02:00,2021-04-27T17:00:00+02:00,61.37,EUR,74.480,MWh
Power,Intraday,Continuous,NL,ID3,QH,2021-04-27T17:00:00+02:00,2021-04-27T17:15:00+02:00,26.44,EUR,29.530,MWh
Power,Intraday,Continuous,NL,ID3,QH,2021-04-27T17:15:00+02:00,2021-04-27T17:30:00+02:00,42.38,EUR,34.930,MWh
Power,Intraday,Continuous,NL,ID3,QH,2021-04-27T17:30:00+02:00,2021-04-27T17:45:00+02:00,60.51,EUR,32.900,MWh
Power,Intraday,Continuous,NL,ID3,QH,2021-04-27T17:45:00+02:00,2021-04-27T18:00:00+02:00,77.82,EUR,52.430,MWh
Power,Intraday,Continuous,NL,ID3,QH,2021-04-27T18:00:00+02:00,2021-04-27T18:15:00+02:00,29.33,EUR,21.930,MWh
Power,Intraday,Continuous,NL,ID3,QH,2021-04-27T18:15:00+02:00,2021-04-27T18:30:00+02:00,52.98,EUR,35.450,MWh
Power,Intraday,Continuous,NL,ID3,QH,2021-04-27T18:30:00+02:00,2021-04-27T18:45:00+02:00,78.27,EUR,14.580,MWh
Power,Intraday,Continuous,NL,ID3,QH,2021-04-27T18:45:00+02:00,2021-04-27T19:00:00+02:00,97.84,EUR,65.850,MWh
Power,Intraday,Continuous,NL,ID3,QH,2021-04-27T19:00:00+02:00,2021-04-27T19:15:00+02:00,44.08,EUR,51.700,MWh
Power,Intraday,Continuous,NL,ID3,QH,2021-04-27T19:15:00+02:00,2021-04-27T19:30:00+02:00,63.52,EUR,46.250,MWh
Power,Intraday,Continuous,NL,ID3,QH,2021-04-27T19:30:00+02:00,2021-04-27T19:45:00+02:00,84.58,EUR,16.230,MWh
Power,Intraday,Continuous,NL,ID3,QH,2021-04-27T19:45:00+02:00,2021-04-27T20:00:00+02:00,122.49,EUR,69.130,MWh
Power,Intraday,Continuous,NL,ID3,QH,2021-04-27T20:00:00+02:00,2021-04-27T20:15:00+02:00,113.17,EUR,36.150,MWh
Power,Intraday,Continuous,NL,ID3,QH,2021-04-27T20:15:00+02:00,2021-04-27T20:30:00+02:00,90.33,EUR,17.180,MWh
Power,Intraday,Continuous,NL,ID3,QH,2021-04-27T20:30:00+02:00,2021-04-27T20:45:00+02:00,61.99,EUR,7.000,MWh
Power,Intraday,Continuous,NL,ID3,QH,2021-04-27T20:45:00+02:00,2021-04-27T21:00:00+02:00,41.67,EUR,29.500,MWh
Power,Intraday,Continuous,NL,ID3,QH,2021-04-27T21:00:00+02:00,2021-04-27T21:15:00+02:00,70.57,EUR,,MWh
Power,Intraday,Continuous,NL,ID3,QH,2021-04-27T21:15:00+02:00,2021-04-27T21:30:00+02:00,70.57,EUR,,MWh
Power,Intraday,Continuous,NL,ID3,QH,2021-04-27T21:30:00+02:00,2021-04-27T21:45:00+02:00,70.57,EUR,,MWh
Power,Intraday,Continuous,NL,ID3,QH,2021-04-27T21:45:00+02:00,2021-04-27T22:00:00+02:00,37.52,EUR,,MWh
Power,Intraday,Continuous,NL,ID3,QH,2021-04-27T22:00:00+02:00,2021-04-27T22:15:00+02:00,40.86,EUR,,MWh
Power,Intraday,Continuous,NL,ID3,QH,2021-04-27T22:15:00+02:00,2021-04-27T22:30:00+02:00,37.63,EUR,,MWh
Power,Intraday,Continuous,NL,ID3,QH,2021-04-27T22:30:00+02:00,2021-04-27T22:45:00+02:00,49.37,EUR,,MWh
Power,Intraday,Continuous,NL,ID3,QH,2021-04-27T22:45:00+02:00,2021-04-27T23:00:00+02:00,40.97,EUR,9.330,MWh
Power,Intraday,Continuous,NL,ID3,QH,2021-04-27T23:00:00+02:00,2021-04-27T23:15:00+02:00,57.00,EUR,,MWh
Power,Intraday,Continuous,NL,ID3,QH,2021-04-27T23:15:00+02:00,2021-04-27T23:30:00+02:00,57.87,EUR,,MWh
Power,Intraday,Continuous,NL,ID3,QH,2021-04-27T23:30:00+02:00,2021-04-27T23:45:00+02:00,51.66,EUR,,MWh
Power,Intraday,Continuous,NL,ID3,QH,2021-04-27T23:45:00+02:00,2021-04-28T00:00:00+02:00,31.59,EUR,4.730,MWh
Power,Intraday,Continuous,NL,IDFULL,BASE,2021-04-27T00:00:00+02:00,2021-04-28T00:00:00+02:00,49.98,EUR,20865.700,MWh
Power,Intraday,Continuous,NL,IDFULL,PEAK,2021-04-27T08:00:00+02:00,2021-04-27T20:00:00+02:00,42.80,EUR,9626.200,MWh
