Commodity,NominationModality,TradingModality,MarketArea,IndexName,TimeResolution,DeliveryStart,DeliveryEnd,IndexPrice,Currency,Volume,VolumeUnit
Power,Intraday,Continuous,NL,IDFULL,H,2021-09-28T00:00:00+02:00,2021-09-28T01:00:00+02:00,166.64,EUR,186.700,MWh
Power,Intraday,Continuous,NL,IDFULL,H,2021-09-28T01:00:00+02:00,2021-09-28T02:00:00+02:00,113.39,EUR,725.900,MWh
Power,Intraday,Continuous,NL,IDFULL,H,2021-09-28T02:00:00+02:00,2021-09-28T03:00:00+02:00,101.31,EUR,772.200,MWh
Power,Intraday,Continuous,NL,IDFULL,H,2021-09-28T03:00:00+02:00,2021-09-28T04:00:00+02:00,99.82,EUR,859.100,MWh
Power,Intraday,Continuous,NL,IDFULL,H,2021-09-28T04:00:00+02:00,2021-09-28T05:00:00+02:00,104.32,EUR,793.900,MWh
Power,Intraday,Continuous,NL,IDFULL,H,2021-09-28T05:00:00+02:00,2021-09-28T06:00:00+02:00,114.35,EUR,668.300,MWh
Power,Intraday,Continuous,NL,IDFULL,H,2021-09-28T06:00:00+02:00,2021-09-28T07:00:00+02:00,166.24,EUR,709.500,MWh
Power,Intraday,Continuous,NL,IDFULL,H,2021-09-28T07:00:00+02:00,2021-09-28T08:00:00+02:00,183.09,EUR,811.500,MWh
Power,Intraday,Continuous,NL,IDFULL,H,2021-09-28T08:00:00+02:00,2021-09-28T09:00:00+02:00,185.36,EUR,1121.800,MWh
Power,Intraday,Continuous,NL,IDFULL,H,2021-09-28T09:00:00+02:00,2021-09-28T10:00:00+02:00,175.64,EUR,1172.100,MWh
Power,Intraday,Continuous,NL,IDFULL,H,2021-09-28T10:00:00+02:00,2021-09-28T11:00:00+02:00,166.47,EUR,931.500,MWh
Power,Intraday,Continuous,NL,IDFULL,H,2021-09-28T11:00:00+02:00,2021-09-28T12:00:00+02:00,137.94,EUR,624.900,MWh
Power,Intraday,Continuous,NL,IDFULL,H,2021-09-28T12:00:00+02:00,2021-09-28T13:00:00+02:00,112.52,EUR,921.400,MWh
Power,Intraday,Continuous,NL,IDFULL,H,2021-09-28T13:00:00+02:00,2021-09-28T14:00:00+02:00,102.22,EUR,1169.000,MWh
Power,Intraday,Continuous,NL,IDFULL,H,2021-09-28T14:00:00+02:00,2021-09-28T15:00:00+02:00,98.90,EUR,1548.400,MWh
Power,Intraday,Continuous,NL,IDFULL,H,2021-09-28T15:00:00+02:00,2021-09-28T16:00:00+02:00,134.79,EUR,1896.500,MWh
Power,Intraday,Continuous,NL,IDFULL,H,2021-09-28T16:00:00+02:00,2021-09-28T17:00:00+02:00,158.66,EUR,2648.100,MWh
Power,Intraday,Continuous,NL,IDFULL,H,2021-09-28T17:00:00+02:00,2021-09-28T18:00:00+02:00,177.87,EUR,3021.400,MWh
Power,Intraday,Continuous,NL,IDFULL,H,2021-09-28T18:00:00+02:00,2021-09-28T19:00:00+02:00,198.55,EUR,1792.000,MWh
Power,Intraday,Continuous,NL,IDFULL,H,2021-09-28T19:00:00+02:00,2021-09-28T20:00:00+02:00,241.78,EUR,1918.400,MWh
Power,Intraday,Continuous,NL,IDFULL,H,2021-09-28T20:00:00+02:00,2021-09-28T21:00:00+02:00,197.05,EUR,1715.400,MWh
Power,Intraday,Continuous,NL,IDFULL,H,2021-09-28T21:00:00+02:00,2021-09-28T22:00:00+02:00,173.38,EUR,1673.100,MWh
Power,Intraday,Continuous,NL,IDFULL,H,2021-09-28T22:00:00+02:00,2021-09-28T23:00:00+02:00,162.91,EUR,2289.700,MWh
Power,Intraday,Continuous,NL,IDFULL,H,2021-09-28T23:00:00+02:00,2021-09-29T00:00:00+02:00,127.92,EUR,2049.500,MWh
Power,Intraday,Continuous,NL,ID1,H,2021-09-28T00:00:00+02:00,2021-09-28T01:00:00+02:00,198.50,EUR,50.000,MWh
Power,Intraday,Continuous,NL,ID1,H,2021-09-28T01:00:00+02:00,2021-09-28T02:00:00+02:00,142.34,EUR,60.000,MWh
Power,Intraday,Continuous,NL,ID1,H,2021-09-28T02:00:00+02:00,2021-09-28T03:00:00+02:00,101.34,EUR,20.100,MWh
Power,Intraday,Continuous,NL,ID1,H,2021-09-28T03:00:00+02:00,2021-09-28T04:00:00+02:00,101.21,EUR,,MWh
Power,Intraday,Continuous,NL,ID1,H,2021-09-28T04:00:00+02:00,2021-09-28T05:00:00+02:00,103.31,EUR,,MWh
Power,Intraday,Continuous,NL,ID1,H,2021-09-28T05:00:00+02:00,2021-09-28T06:00:00+02:00,104.10,EUR,,MWh
Power,Intraday,Continuous,NL,ID1,H,2021-09-28T06:00:00+02:00,2021-09-28T07:00:00+02:00,163.20,EUR,,MWh
Power,Intraday,Continuous,NL,ID1,H,2021-09-28T07:00:00+02:00,2021-09-28T08:00:00+02:00,165.00,EUR,10.000,MWh
Power,Intraday,Continuous,NL,ID1,H,2021-09-28T08:00:00+02:00,2021-09-28T09:00:00+02:00,165.32,EUR,24.300,MWh
Power,Intraday,Continuous,NL,ID1,H,2021-09-28T09:00:00+02:00,2021-09-28T10:00:00+02:00,181.89,EUR,93.000,MWh
Power,Intraday,Continuous,NL,ID1,H,2021-09-28T10:00:00+02:00,2021-09-28T11:00:00+02:00,148.48,EUR,26.300,MWh
Power,Intraday,Continuous,NL,ID1,H,2021-09-28T11:00:00+02:00,2021-09-28T12:00:00+02:00,119.17,EUR,86.900,MWh
Power,Intraday,Continuous,NL,ID1,H,2021-09-28T12:00:00+02:00,2021-09-28T13:00:00+02:00,84.43,EUR,130.000,MWh
Power,Intraday,Continuous,NL,ID1,H,2021-09-28T13:00:00+02:00,2021-09-28T14:00:00+02:00,64.68,EUR,89.000,MWh
Power,Intraday,Continuous,NL,ID1,H,2021-09-28T14:00:00+02:00,2021-09-28T15:00:00+02:00,94.49,EUR,16.500,MWh
Power,Intraday,Continuous,NL,ID1,H,2021-09-28T15:00:00+02:00,2021-09-28T16:00:00+02:00,190.03,EUR,247.700,MWh
Power,Intraday,Continuous,NL,ID1,H,2021-09-28T16:00:00+02:00,2021-09-28T17:00:00+02:00,145.73,EUR,75.000,MWh
Power,Intraday,Continuous,NL,ID1,H,2021-09-28T17:00:00+02:00,2021-09-28T18:00:00+02:00,182.54,EUR,,MWh
Power,Intraday,Continuous,NL,ID1,H,2021-09-28T18:00:00+02:00,2021-09-28T19:00:00+02:00,170.02,EUR,10.000,MWh
Power,Intraday,Continuous,NL,ID1,H,2021-09-28T19:00:00+02:00,2021-09-28T20:00:00+02:00,239.10,EUR,,MWh
Power,Intraday,Continuous,NL,ID1,H,2021-09-28T20:00:00+02:00,2021-09-28T21:00:00+02:00,173.35,EUR,37.000,MWh
Power,Intraday,Continuous,NL,ID1,H,2021-09-28T21:00:00+02:00,2021-09-28T22:00:00+02:00,70.03,EUR,40.300,MWh
Power,Intraday,Continuous,NL,ID1,H,2021-09-28T22:00:00+02:00,2021-09-28T23:00:00+02:00,94.89,EUR,70.000,MWh
Power,Intraday,Continuous,NL,ID1,H,2021-09-28T23:00:00+02:00,2021-09-29T00:00:00+02:00,120.25,EUR,,MWh
Power,Intraday,Continuous,NL,ID3,H,2021-09-28T00:00:00+02:00,2021-09-28T01:00:00+02:00,168.95,EUR,179.800,MWh
Power,Intraday,Continuous,NL,ID3,H,2021-09-28T01:00:00+02:00,2021-09-28T02:00:00+02:00,113.41,EUR,724.000,MWh
Power,Intraday,Continuous,NL,ID3,H,2021-09-28T02:00:00+02:00,2021-09-28T03:00:00+02:00,101.55,EUR,559.800,MWh
Power,Intraday,Continuous,NL,ID3,H,2021-09-28T03:00:00+02:00,2021-09-28T04:00:00+02:00,101.21,EUR,555.100,MWh
Power,Intraday,Continuous,NL,ID3,H,2021-09-28T04:00:00+02:00,2021-09-28T05:00:00+02:00,103.31,EUR,396.200,MWh
Power,Intraday,Continuous,NL,ID3,H,2021-09-28T05:00:00+02:00,2021-09-28T06:00:00+02:00,104.10,EUR,247.000,MWh
Power,Intraday,Continuous,NL,ID3,H,2021-09-28T06:00:00+02:00,2021-09-28T07:00:00+02:00,163.20,EUR,335.200,MWh
Power,Intraday,Continuous,NL,ID3,H,2021-09-28T07:00:00+02:00,2021-09-28T08:00:00+02:00,178.21,EUR,370.500,MWh
Power,Intraday,Continuous,NL,ID3,H,2021-09-28T08:00:00+02:00,2021-09-28T09:00:00+02:00,181.06,EUR,543.400,MWh
Power,Intraday,Continuous,NL,ID3,H,2021-09-28T09:00:00+02:00,2021-09-28T10:00:00+02:00,172.26,EUR,725.100,MWh
Power,Intraday,Continuous,NL,ID3,H,2021-09-28T10:00:00+02:00,2021-09-28T11:00:00+02:00,163.79,EUR,615.800,MWh
Power,Intraday,Continuous,NL,ID3,H,2021-09-28T11:00:00+02:00,2021-09-28T12:00:00+02:00,138.03,EUR,587.700,MWh
Power,Intraday,Continuous,NL,ID3,H,2021-09-28T12:00:00+02:00,2021-09-28T13:00:00+02:00,112.24,EUR,867.400,MWh
Power,Intraday,Continuous,NL,ID3,H,2021-09-28T13:00:00+02:00,2021-09-28T14:00:00+02:00,100.69,EUR,1033.500,MWh
Power,Intraday,Continuous,NL,ID3,H,2021-09-28T14:00:00+02:00,2021-09-28T15:00:00+02:00,95.49,EUR,1323.100,MWh
Power,Intraday,Continuous,NL,ID3,H,2021-09-28T15:00:00+02:00,2021-09-28T16:00:00+02:00,136.24,EUR,970.600,MWh
Power,Intraday,Continuous,NL,ID3,H,2021-09-28T16:00:00+02:00,2021-09-28T17:00:00+02:00,161.17,EUR,1799.400,MWh
Power,Intraday,Continuous,NL,ID3,H,2021-09-28T17:00:00+02:00,2021-09-28T18:00:00+02:00,182.54,EUR,1840.400,MWh
Power,Intraday,Continuous,NL,ID3,H,2021-09-28T18:00:00+02:00,2021-09-28T19:00:00+02:00,200.37,EUR,1133.600,MWh
Power,Intraday,Continuous,NL,ID3,H,2021-09-28T19:00:00+02:00,2021-09-28T20:00:00+02:00,239.10,EUR,900.700,MWh
Power,Intraday,Continuous,NL,ID3,H,2021-09-28T20:00:00+02:00,2021-09-28T21:00:00+02:00,195.12,EUR,546.600,MWh
Power,Intraday,Continuous,NL,ID3,H,2021-09-28T21:00:00+02:00,2021-09-28T22:00:00+02:00,165.71,EUR,487.500,MWh
Power,Intraday,Continuous,NL,ID3,H,2021-09-28T22:00:00+02:00,2021-09-28T23:00:00+02:00,153.72,EUR,924.200,MWh
Power,Intraday,Continuous,NL,ID3,H,2021-09-28T23:00:00+02:00,2021-09-29T00:00:00+02:00,120.25,EUR,966.300,MWh
Power,Intraday,Continuous,NL,IDFULL,HH,2021-09-28T00:00:00+02:00,2021-09-28T00:30:00+02:00,166.64,EUR,,MWh
Power,Intraday,Continuous,NL,IDFULL,HH,2021-09-28T00:30:00+02:00,2021-09-28T01:00:00+02:00,166.64,EUR,,MWh
Power,Intraday,Continuous,NL,IDFULL,HH,2021-09-28T01:00:00+02:00,2021-09-28T01:30:00+02:00,164.40,EUR,6.300,MWh
Power,Intraday,Continuous,NL,IDFULL,HH,2021-09-28T01:30:00+02:00,2021-09-28T02:00:00+02:00,62.38,EUR,,MWh
Power,Intraday,Continuous,NL,IDFULL,HH,2021-09-28T02:00:00+02:00,2021-09-28T02:30:00+02:00,101.31,EUR,,MWh
Power,Intraday,Continuous,NL,IDFULL,HH,2021-09-28T02:30:00+02:00,2021-09-28T03:00:00+02:00,101.31,EUR,,MWh
Power,Intraday,Continuous,NL,IDFULL,HH,2021-09-28T03:00:00+02:00,2021-09-28T03:30:00+02:00,99.82,EUR,,MWh
Power,Intraday,Continuous,NL,IDFULL,HH,2021-09-28T03:30:00+02:00,2021-09-28T04:00:00+02:00,99.82,EUR,,MWh
Power,Intraday,Continuous,NL,IDFULL,HH,2021-09-28T04:00:00+02:00,2021-09-28T04:30:00+02:00,104.32,EUR,,MWh
Power,Intraday,Continuous,NL,IDFULL,HH,2021-09-28T04:30:00+02:00,2021-09-28T05:00:00+02:00,104.32,EUR,,MWh
Power,Intraday,Continuous,NL,IDFULL,HH,2021-09-28T05:00:00+02:00,2021-09-28T05:30:00+02:00,114.35,EUR,,MWh
Power,Intraday,Continuous,NL,IDFULL,HH,2021-09-28T05:30:00+02:00,2021-09-28T06:00:00+02:00,114.35,EUR,,MWh
Power,Intraday,Continuous,NL,IDFULL,HH,2021-09-28T06:00:00+02:00,2021-09-28T06:30:00+02:00,166.24,EUR,,MWh
Power,Intraday,Continuous,NL,IDFULL,HH,2021-09-28T06:30:00+02:00,2021-09-28T07:00:00+02:00,166.24,EUR,,MWh
Power,Intraday,Continuous,NL,IDFULL,HH,2021-09-28T07:00:00+02:00,2021-09-28T07:30:00+02:00,183.09,EUR,,MWh
Power,Intraday,Continuous,NL,IDFULL,HH,2021-09-28T07:30:00+02:00,2021-09-28T08:00:00+02:00,183.09,EUR,,MWh
Power,Intraday,Continuous,NL,IDFULL,HH,2021-09-28T08:00:00+02:00,2021-09-28T08:30:00+02:00,185.36,EUR,,MWh
Power,Intraday,Continuous,NL,IDFULL,HH,2021-09-28T08:30:00+02:00,2021-09-28T09:00:00+02:00,185.36,EUR,,MWh
Power,Intraday,Continuous,NL,IDFULL,HH,2021-09-28T09:00:00+02:00,2021-09-28T09:30:00+02:00,175.64,EUR,,MWh
Power,Intraday,Continuous,NL,IDFULL,HH,2021-09-28T09:30:00+02:00,2021-09-28T10:00:00+02:00,175.64,EUR,,MWh
Power,Intraday,Continuous,NL,IDFULL,HH,2021-09-28T10:00:00+02:00,2021-09-28T10:30:00+02:00,166.47,EUR,,MWh
Power,Intraday,Continuous,NL,IDFULL,HH,2021-09-28T10:30:00+02:00,2021-09-28T11:00:00+02:00,166.47,EUR,,MWh
Power,Intraday,Continuous,NL,IDFULL,HH,2021-09-28T11:00:00+02:00,2021-09-28T11:30:00+02:00,137.94,EUR,,MWh
Power,Intraday,Continuous,NL,IDFULL,HH,2021-09-28T11:30:00+02:00,2021-09-28T12:00:00+02:00,137.94,EUR,,MWh
Power,Intraday,Continuous,NL,IDFULL,HH,2021-09-28T12:00:00+02:00,2021-09-28T12:30:00+02:00,112.52,EUR,,MWh
Power,Intraday,Continuous,NL,IDFULL,HH,2021-09-28T12:30:00+02:00,2021-09-28T13:00:00+02:00,112.52,EUR,,MWh
Power,Intraday,Continuous,NL,IDFULL,HH,2021-09-28T13:00:00+02:00,2021-09-28T13:30:00+02:00,102.22,EUR,,MWh
Power,Intraday,Continuous,NL,IDFULL,HH,2021-09-28T13:30:00+02:00,2021-09-28T14:00:00+02:00,102.22,EUR,,MWh
Power,Intraday,Continuous,NL,IDFULL,HH,2021-09-28T14:00:00+02:00,2021-09-28T14:30:00+02:00,98.90,EUR,,MWh
Power,Intraday,Continuous,NL,IDFULL,HH,2021-09-28T14:30:00+02:00,2021-09-28T15:00:00+02:00,98.90,EUR,,MWh
Power,Intraday,Continuous,NL,IDFULL,HH,2021-09-28T15:00:00+02:00,2021-09-28T15:30:00+02:00,134.79,EUR,,MWh
Power,Intraday,Continuous,NL,IDFULL,HH,2021-09-28T15:30:00+02:00,2021-09-28T16:00:00+02:00,134.79,EUR,,MWh
Power,Intraday,Continuous,NL,IDFULL,HH,2021-09-28T16:00:00+02:00,2021-09-28T16:30:00+02:00,158.66,EUR,,MWh
Power,Intraday,Continuous,NL,IDFULL,HH,2021-09-28T16:30:00+02:00,2021-09-28T17:00:00+02:00,158.66,EUR,,MWh
Power,Intraday,Continuous,NL,IDFULL,HH,2021-09-28T17:00:00+02:00,2021-09-28T17:30:00+02:00,150.00,EUR,8.550,MWh
Power,Intraday,Continuous,NL,IDFULL,HH,2021-09-28T17:30:00+02:00,2021-09-28T18:00:00+02:00,205.74,EUR,,MWh
Power,Intraday,Continuous,NL,IDFULL,HH,2021-09-28T18:00:00+02:00,2021-09-28T18:30:00+02:00,198.55,EUR,,MWh
Power,Intraday,Continuous,NL,IDFULL,HH,2021-09-28T18:30:00+02:00,2021-09-28T19:00:00+02:00,198.55,EUR,,MWh
Power,Intraday,Continuous,NL,IDFULL,HH,2021-09-28T19:00:00+02:00,2021-09-28T19:30:00+02:00,241.78,EUR,,MWh
Power,Intraday,Continuous,NL,IDFULL,HH,2021-09-28T19:30:00+02:00,2021-09-28T20:00:00+02:00,241.78,EUR,,MWh
Power,Intraday,Continuous,NL,IDFULL,HH,2021-09-28T20:00:00+02:00,2021-09-28T20:30:00+02:00,197.05,EUR,,MWh
Power,Intraday,Continuous,NL,IDFULL,HH,2021-09-28T20:30:00+02:00,2021-09-28T21:00:00+02:00,197.05,EUR,,MWh
Power,Intraday,Continuous,NL,IDFULL,HH,2021-09-28T21:00:00+02:00,2021-09-28T21:30:00+02:00,173.38,EUR,,MWh
Power,Intraday,Continuous,NL,IDFULL,HH,2021-09-28T21:30:00+02:00,2021-09-28T22:00:00+02:00,173.38,EUR,,MWh
Power,Intraday,Continuous,NL,IDFULL,HH,2021-09-28T22:00:00+02:00,2021-09-28T22:30:00+02:00,162.91,EUR,,MWh
Power,Intraday,Continuous,NL,IDFULL,HH,2021-09-28T22:30:00+02:00,2021-09-28T23:00:00+02:00,162.91,EUR,,MWh
Power,Intraday,Continuous,NL,IDFULL,HH,2021-09-28T23:00:00+02:00,2021-09-28T23:30:00+02:00,127.92,EUR,,MWh
Power,Intraday,Continuous,NL,IDFULL,HH,2021-09-28T23:30:00+02:00,2021-09-29T00:00:00+02:00,127.92,EUR,,MWh
Power,Intraday,Continuous,NL,ID1,HH,2021-09-28T00:00:00+02:00,2021-09-28T00:30:00+02:00,166.64,EUR,,MWh
Power,Intraday,Continuous,NL,ID1,HH,2021-09-28T00:30:00+02:00,2021-09-28T01:00:00+02:00,166.64,EUR,,MWh
Power,Intraday,Continuous,NL,ID1,HH,2021-09-28T01:00:00+02:00,2021-09-28T01:30:00+02:00,164.40,EUR,,MWh
Power,Intraday,Continuous,NL,ID1,HH,2021-09-28T01:30:00+02:00,2021-09-28T02:00:00+02:00,62.38,EUR,,MWh
Power,Intraday,Continuous,NL,ID1,HH,2021-09-28T02:00:00+02:00,2021-09-28T02:30:00+02:00,101.31,EUR,,MWh
Power,Intraday,Continuous,NL,ID1,HH,2021-09-28T02:30:00+02:00,2021-09-28T03:00:00+02:00,101.31,EUR,,MWh
Power,Intraday,Continuous,NL,ID1,HH,2021-09-28T03:00:00+02:00,2021-09-28T03:30:00+02:00,99.82,EUR,,MWh
Power,Intraday,Continuous,NL,ID1,HH,2021-09-28T03:30:00+02:00,2021-09-28T04:00:00+02:00,99.82,EUR,,MWh
Power,Intraday,Continuous,NL,ID1,HH,2021-09-28T04:00:00+02:00,2021-09-28T04:30:00+02:00,104.32,EUR,,MWh
Power,Intraday,Continuous,NL,ID1,HH,2021-09-28T04:30:00+02:00,2021-09-28T05:00:00+02:00,104.32,EUR,,MWh
Power,Intraday,Continuous,NL,ID1,HH,2021-09-28T05:00:00+02:00,2021-09-28T05:30:00+02:00,114.35,EUR,,MWh
Power,Intraday,Continuous,NL,ID1,HH,2021-09-28T05:30:00+02:00,2021-09-28T06:00:00+02:00,114.35,EUR,,MWh
Power,Intraday,Continuous,NL,ID1,HH,2021-09-28T06:00:00+02:00,2021-09-28T06:30:00+02:00,166.24,EUR,,MWh
Power,Intraday,Continuous,NL,ID1,HH,2021-09-28T06:30:00+02:00,2021-09-28T07:00:00+02:00,166.24,EUR,,MWh
Power,Intraday,Continuous,NL,ID1,HH,2021-09-28T07:00:00+02:00,2021-09-28T07:30:00+02:00,183.09,EUR,,MWh
Power,Intraday,Continuous,NL,ID1,HH,2021-09-28T07:30:00+02:00,2021-09-28T08:00:00+02:00,183.09,EUR,,MWh
Power,Intraday,Continuous,NL,ID1,HH,2021-09-28T08:00:00+02:00,2021-09-28T08:30:00+02:00,185.36,EUR,,MWh
Power,Intraday,Continuous,NL,ID1,HH,2021-09-28T08:30:00+02:00,2021-09-28T09:00:00+02:00,185.36,EUR,,MWh
Power,Intraday,Continuous,NL,ID1,HH,2021-09-28T09:00:00+02:00,2021-09-28T09:30:00+02:00,175.64,EUR,,MWh
Power,Intraday,Continuous,NL,ID1,HH,2021-09-28T09:30:00+02:00,2021-09-28T10:00:00+02:00,175.64,EUR,,MWh
Power,Intraday,Continuous,NL,ID1,HH,2021-09-28T10:00:00+02:00,2021-09-28T10:30:00+02:00,166.47,EUR,,MWh
Power,Intraday,Continuous,NL,ID1,HH,2021-09-28T10:30:00+02:00,2021-09-28T11:00:00+02:00,166.47,EUR,,MWh
Power,Intraday,Continuous,NL,ID1,HH,2021-09-28T11:00:00+02:00,2021-09-28T11:30:00+02:00,137.94,EUR,,MWh
Power,Intraday,Continuous,NL,ID1,HH,2021-09-28T11:30:00+02:00,2021-09-28T12:00:00+02:00,137.94,EUR,,MWh
Power,Intraday,Continuous,NL,ID1,HH,2021-09-28T12:00:00+02:00,2021-09-28T12:30:00+02:00,112.52,EUR,,MWh
Power,Intraday,Continuous,NL,ID1,HH,2021-09-28T12:30:00+02:00,2021-09-28T13:00:00+02:00,112.52,EUR,,MWh
Power,Intraday,Continuous,NL,ID1,HH,2021-09-28T13:00:00+02:00,2021-09-28T13:30:00+02:00,102.22,EUR,,MWh
Power,Intraday,Continuous,NL,ID1,HH,2021-09-28T13:30:00+02:00,2021-09-28T14:00:00+02:00,102.22,EUR,,MWh
Power,Intraday,Continuous,NL,ID1,HH,2021-09-28T14:00:00+02:00,2021-09-28T14:30:00+02:00,98.90,EUR,,MWh
Power,Intraday,Continuous,NL,ID1,HH,2021-09-28T14:30:00+02:00,2021-09-28T15:00:00+02:00,98.90,EUR,,MWh
Power,Intraday,Continuous,NL,ID1,HH,2021-09-28T15:00:00+02:00,2021-09-28T15:30:00+02:00,134.79,EUR,,MWh
Power,Intraday,Continuous,NL,ID1,HH,2021-09-28T15:30:00+02:00,2021-09-28T16:00:00+02:00,134.79,EUR,,MWh
Power,Intraday,Continuous,NL,ID1,HH,2021-09-28T16:00:00+02:00,2021-09-28T16:30:00+02:00,158.66,EUR,,MWh
Power,Intraday,Continuous,NL,ID1,HH,2021-09-28T16:30:00+02:00,2021-09-28T17:00:00+02:00,158.66,EUR,,MWh
Power,Intraday,Continuous,NL,ID1,HH,2021-09-28T17:00:00+02:00,2021-09-28T17:30:00+02:00,150.00,EUR,,MWh
Power,Intraday,Continuous,NL,ID1,HH,2021-09-28T17:30:00+02:00,2021-09-28T18:00:00+02:00,205.74,EUR,,MWh
Power,Intraday,Continuous,NL,ID1,HH,2021-09-28T18:00:00+02:00,2021-09-28T18:30:00+02:00,198.55,EUR,,MWh
Power,Intraday,Continuous,NL,ID1,HH,2021-09-28T18:30:00+02:00,2021-09-28T19:00:00+02:00,198.55,EUR,,MWh
Power,Intraday,Continuous,NL,ID1,HH,2021-09-28T19:00:00+02:00,2021-09-28T19:30:00+02:00,241.78,EUR,,MWh
Power,Intraday,Continuous,NL,ID1,HH,2021-09-28T19:30:00+02:00,2021-09-28T20:00:00+02:00,241.78,EUR,,MWh
Power,Intraday,Continuous,NL,ID1,HH,2021-09-28T20:00:00+02:00,2021-09-28T20:30:00+02:00,197.05,EUR,,MWh
Power,Intraday,Continuous,NL,ID1,HH,2021-09-28T20:30:00+02:00,2021-09-28T21:00:00+02:00,197.05,EUR,,MWh
Power,Intraday,Continuous,NL,ID1,HH,2021-09-28T21:00:00+02:00,2021-09-28T21:30:00+02:00,173.38,EUR,,MWh
Power,Intraday,Continuous,NL,ID1,HH,2021-09-28T21:30:00+02:00,2021-09-28T22:00:00+02:00,173.38,EUR,,MWh
Power,Intraday,Continuous,NL,ID1,HH,2021-09-28T22:00:00+02:00,2021-09-28T22:30:00+02:00,162.91,EUR,,MWh
Power,Intraday,Continuous,NL,ID1,HH,2021-09-28T22:30:00+02:00,2021-09-28T23:00:00+02:00,162.91,EUR,,MWh
Power,Intraday,Continuous,NL,ID1,HH,2021-09-28T23:00:00+02:00,2021-09-28T23:30:00+02:00,127.92,EUR,,MWh
Power,Intraday,Continuous,NL,ID1,HH,2021-09-28T23:30:00+02:00,2021-09-29T00:00:00+02:00,127.92,EUR,,MWh
Power,Intraday,Continuous,NL,ID3,HH,2021-09-28T00:00:00+02:00,2021-09-28T00:30:00+02:00,166.64,EUR,,MWh
Power,Intraday,Continuous,NL,ID3,HH,2021-09-28T00:30:00+02:00,2021-09-28T01:00:00+02:00,166.64,EUR,,MWh
Power,Intraday,Continuous,NL,ID3,HH,2021-09-28T01:00:00+02:00,2021-09-28T01:30:00+02:00,164.40,EUR,6.300,MWh
Power,Intraday,Continuous,NL,ID3,HH,2021-09-28T01:30:00+02:00,2021-09-28T02:00:00+02:00,62.38,EUR,,MWh
Power,Intraday,Continuous,NL,ID3,HH,2021-09-28T02:00:00+02:00,2021-09-28T02:30:00+02:00,101.31,EUR,,MWh
Power,Intraday,Continuous,NL,ID3,HH,2021-09-28T02:30:00+02:00,2021-09-28T03:00:00+02:00,101.31,EUR,,MWh
Power,Intraday,Continuous,NL,ID3,HH,2021-09-28T03:00:00+02:00,2021-09-28T03:30:00+02:00,99.82,EUR,,MWh
Power,Intraday,Continuous,NL,ID3,HH,2021-09-28T03:30:00+02:00,2021-09-28T04:00:00+02:00,99.82,EUR,,MWh
Power,Intraday,Continuous,NL,ID3,HH,2021-09-28T04:00:00+02:00,2021-09-28T04:30:00+02:00,104.32,EUR,,MWh
Power,Intraday,Continuous,NL,ID3,HH,2021-09-28T04:30:00+02:00,2021-09-28T05:00:00+02:00,104.32,EUR,,MWh
Power,Intraday,Continuous,NL,ID3,HH,2021-09-28T05:00:00+02:00,2021-09-28T05:30:00+02:00,114.35,EUR,,MWh
Power,Intraday,Continuous,NL,ID3,HH,2021-09-28T05:30:00+02:00,2021-09-28T06:00:00+02:00,114.35,EUR,,MWh
Power,Intraday,Continuous,NL,ID3,HH,2021-09-28T06:00:00+02:00,2021-09-28T06:30:00+02:00,166.24,EUR,,MWh
Power,Intraday,Continuous,NL,ID3,HH,2021-09-28T06:30:00+02:00,2021-09-28T07:00:00+02:00,166.24,EUR,,MWh
Power,Intraday,Continuous,NL,ID3,HH,2021-09-28T07:00:00+02:00,2021-09-28T07:30:00+02:00,183.09,EUR,,MWh
Power,Intraday,Continuous,NL,ID3,HH,2021-09-28T07:30:00+02:00,2021-09-28T08:00:00+02:00,183.09,EUR,,MWh
Power,Intraday,Continuous,NL,ID3,HH,2021-09-28T08:00:00+02:00,2021-09-28T08:30:00+02:00,185.36,EUR,,MWh
Power,Intraday,Continuous,NL,ID3,HH,2021-09-28T08:30:00+02:00,2021-09-28T09:00:00+02:00,185.36,EUR,,MWh
Power,Intraday,Continuous,NL,ID3,HH,2021-09-28T09:00:00+02:00,2021-09-28T09:30:00+02:00,175.64,EUR,,MWh
Power,Intraday,Continuous,NL,ID3,HH,2021-09-28T09:30:00+02:00,2021-09-28T10:00:00+02:00,175.64,EUR,,MWh
Power,Intraday,Continuous,NL,ID3,HH,2021-09-28T10:00:00+02:00,2021-09-28T10:30:00+02:00,166.47,EUR,,MWh
Power,Intraday,Continuous,NL,ID3,HH,2021-09-28T10:30:00+02:00,2021-09-28T11:00:00+02:00,166.47,EUR,,MWh
Power,Intraday,Continuous,NL,ID3,HH,2021-09-28T11:00:00+02:00,2021-09-28T11:30:00+02:00,137.94,EUR,,MWh
Power,Intraday,Continuous,NL,ID3,HH,2021-09-28T11:30:00+02:00,2021-09-28T12:00:00+02:00,137.94,EUR,,MWh
Power,Intraday,Continuous,NL,ID3,HH,2021-09-28T12:00:00+02:00,2021-09-28T12:30:00+02:00,112.52,EUR,,MWh
Power,Intraday,Continuous,NL,ID3,HH,2021-09-28T12:30:00+02:00,2021-09-28T13:00:00+02:00,112.52,EUR,,MWh
Power,Intraday,Continuous,NL,ID3,HH,2021-09-28T13:00:00+02:00,2021-09-28T13:30:00+02:00,102.22,EUR,,MWh
Power,Intraday,Continuous,NL,ID3,HH,2021-09-28T13:30:00+02:00,2021-09-28T14:00:00+02:00,102.22,EUR,,MWh
Power,Intraday,Continuous,NL,ID3,HH,2021-09-28T14:00:00+02:00,2021-09-28T14:30:00+02:00,98.90,EUR,,MWh
Power,Intraday,Continuous,NL,ID3,HH,2021-09-28T14:30:00+02:00,2021-09-28T15:00:00+02:00,98.90,EUR,,MWh
Power,Intraday,Continuous,NL,ID3,HH,2021-09-28T15:00:00+02:00,2021-09-28T15:30:00+02:00,134.79,EUR,,MWh
Power,Intraday,Continuous,NL,ID3,HH,2021-09-28T15:30:00+02:00,2021-09-28T16:00:00+02:00,134.79,EUR,,MWh
Power,Intraday,Continuous,NL,ID3,HH,2021-09-28T16:00:00+02:00,2021-09-28T16:30:00+02:00,158.66,EUR,,MWh
Power,Intraday,Continuous,NL,ID3,HH,2021-09-28T16:30:00+02:00,2021-09-28T17:00:00+02:00,158.66,EUR,,MWh
Power,Intraday,Continuous,NL,ID3,HH,2021-09-28T17:00:00+02:00,2021-09-28T17:30:00+02:00,150.00,EUR,,MWh
Power,Intraday,Continuous,NL,ID3,HH,2021-09-28T17:30:00+02:00,2021-09-28T18:00:00+02:00,205.74,EUR,,MWh
Power,Intraday,Continuous,NL,ID3,HH,2021-09-28T18:00:00+02:00,2021-09-28T18:30:00+02:00,198.55,EUR,,MWh
Power,Intraday,Continuous,NL,ID3,HH,2021-09-28T18:30:00+02:00,2021-09-28T19:00:00+02:00,198.55,EUR,,MWh
Power,Intraday,Continuous,NL,ID3,HH,2021-09-28T19:00:00+02:00,2021-09-28T19:30:00+02:00,241.78,EUR,,MWh
Power,Intraday,Continuous,NL,ID3,HH,2021-09-28T19:30:00+02:00,2021-09-28T20:00:00+02:00,241.78,EUR,,MWh
Power,Intraday,Continuous,NL,ID3,HH,2021-09-28T20:00:00+02:00,2021-09-28T20:30:00+02:00,197.05,EUR,,MWh
Power,Intraday,Continuous,NL,ID3,HH,2021-09-28T20:30:00+02:00,2021-09-28T21:00:00+02:00,197.05,EUR,,MWh
Power,Intraday,Continuous,NL,ID3,HH,2021-09-28T21:00:00+02:00,2021-09-28T21:30:00+02:00,173.38,EUR,,MWh
Power,Intraday,Continuous,NL,ID3,HH,2021-09-28T21:30:00+02:00,2021-09-28T22:00:00+02:00,173.38,EUR,,MWh
Power,Intraday,Continuous,NL,ID3,HH,2021-09-28T22:00:00+02:00,2021-09-28T22:30:00+02:00,162.91,EUR,,MWh
Power,Intraday,Continuous,NL,ID3,HH,2021-09-28T22:30:00+02:00,2021-09-28T23:00:00+02:00,162.91,EUR,,MWh
Power,Intraday,Continuous,NL,ID3,HH,2021-09-28T23:00:00+02:00,2021-09-28T23:30:00+02:00,127.92,EUR,,MWh
Power,Intraday,Continuous,NL,ID3,HH,2021-09-28T23:30:00+02:00,2021-09-29T00:00:00+02:00,127.92,EUR,,MWh
Power,Intraday,Continuous,NL,IDFULL,QH,2021-09-28T00:00:00+02:00,2021-09-28T00:15:00+02:00,169.63,EUR,,MWh
Power,Intraday,Continuous,NL,IDFULL,QH,2021-09-28T00:15:00+02:00,2021-09-28T00:30:00+02:00,169.63,EUR,,MWh
Power,Intraday,Continuous,NL,IDFULL,QH,2021-09-28T00:30:00+02:00,2021-09-28T00:45:00+02:00,157.67,EUR,3.750,MWh
Power,Intraday,Continuous,NL,IDFULL,QH,2021-09-28T00:45:00+02:00,2021-09-28T01:00:00+02:00,169.63,EUR,,MWh
Power,Intraday,Continuous,NL,IDFULL,QH,2021-09-28T01:00:00+02:00,2021-09-28T01:15:00+02:00,127.90,EUR,27.250,MWh
Power,Intraday,Continuous,NL,IDFULL,QH,2021-09-28T01:15:00+02:00,2021-09-28T01:30:00+02:00,110.61,EUR,15.830,MWh
Power,Intraday,Continuous,NL,IDFULL,QH,2021-09-28T01:30:00+02:00,2021-09-28T01:45:00+02:00,102.91,EUR,14.550,MWh
Power,Intraday,Continuous,NL,IDFULL,QH,2021-09-28T01:45:00+02:00,2021-09-28T02:00:00+02:00,92.39,EUR,17.650,MWh
Power,Intraday,Continuous,NL,IDFULL,QH,2021-09-28T02:00:00+02:00,2021-09-28T02:15:00+02:00,104.22,EUR,26.930,MWh
Power,Intraday,Continuous,NL,IDFULL,QH,2021-09-28T02:15:00+02:00,2021-09-28T02:30:00+02:00,100.83,EUR,21.330,MWh
Power,Intraday,Continuous,NL,IDFULL,QH,2021-09-28T02:30:00+02:00,2021-09-28T02:45:00+02:00,99.72,EUR,42.230,MWh
Power,Intraday,Continuous,NL,IDFULL,QH,2021-09-28T02:45:00+02:00,2021-09-28T03:00:00+02:00,102.03,EUR,32.150,MWh
Power,Intraday,Continuous,NL,IDFULL,QH,2021-09-28T03:00:00+02:00,2021-09-28T03:15:00+02:00,95.55,EUR,18.380,MWh
Power,Intraday,Continuous,NL,IDFULL,QH,2021-09-28T03:15:00+02:00,2021-09-28T03:30:00+02:00,97.24,EUR,16.080,MWh
Power,Intraday,Continuous,NL,IDFULL,QH,2021-09-28T03:30:00+02:00,2021-09-28T03:45:00+02:00,99.02,EUR,28.130,MWh
Power,Intraday,Continuous,NL,IDFULL,QH,2021-09-28T03:45:00+02:00,2021-09-28T04:00:00+02:00,108.46,EUR,22.350,MWh
Power,Intraday,Continuous,NL,IDFULL,QH,2021-09-28T04:00:00+02:00,2021-09-28T04:15:00+02:00,91.45,EUR,27.550,MWh
Power,Intraday,Continuous,NL,IDFULL,QH,2021-09-28T04:15:00+02:00,2021-09-28T04:30:00+02:00,101.99,EUR,30.730,MWh
Power,Intraday,Continuous,NL,IDFULL,QH,2021-09-28T04:30:00+02:00,2021-09-28T04:45:00+02:00,105.53,EUR,28.500,MWh
Power,Intraday,Continuous,NL,IDFULL,QH,2021-09-28T04:45:00+02:00,2021-09-28T05:00:00+02:00,106.19,EUR,42.930,MWh
Power,Intraday,Continuous,NL,IDFULL,QH,2021-09-28T05:00:00+02:00,2021-09-28T05:15:00+02:00,91.92,EUR,27.930,MWh
Power,Intraday,Continuous,NL,IDFULL,QH,2021-09-28T05:15:00+02:00,2021-09-28T05:30:00+02:00,96.34,EUR,29.400,MWh
Power,Intraday,Continuous,NL,IDFULL,QH,2021-09-28T05:30:00+02:00,2021-09-28T05:45:00+02:00,86.92,EUR,37.300,MWh
Power,Intraday,Continuous,NL,IDFULL,QH,2021-09-28T05:45:00+02:00,2021-09-28T06:00:00+02:00,151.38,EUR,80.580,MWh
Power,Intraday,Continuous,NL,IDFULL,QH,2021-09-28T06:00:00+02:00,2021-09-28T06:15:00+02:00,124.20,EUR,91.080,MWh
Power,Intraday,Continuous,NL,IDFULL,QH,2021-09-28T06:15:00+02:00,2021-09-28T06:30:00+02:00,157.55,EUR,41.800,MWh
Power,Intraday,Continuous,NL,IDFULL,QH,2021-09-28T06:30:00+02:00,2021-09-28T06:45:00+02:00,184.51,EUR,60.880,MWh
Power,Intraday,Continuous,NL,IDFULL,QH,2021-09-28T06:45:00+02:00,2021-09-28T07:00:00+02:00,189.99,EUR,119.730,MWh
Power,Intraday,Continuous,NL,IDFULL,QH,2021-09-28T07:00:00+02:00,2021-09-28T07:15:00+02:00,161.66,EUR,120.450,MWh
Power,Intraday,Continuous,NL,IDFULL,QH,2021-09-28T07:15:00+02:00,2021-09-28T07:30:00+02:00,175.17,EUR,75.400,MWh
Power,Intraday,Continuous,NL,IDFULL,QH,2021-09-28T07:30:00+02:00,2021-09-28T07:45:00+02:00,181.74,EUR,70.650,MWh
Power,Intraday,Continuous,NL,IDFULL,QH,2021-09-28T07:45:00+02:00,2021-09-28T08:00:00+02:00,199.73,EUR,67.850,MWh
Power,Intraday,Continuous,NL,IDFULL,QH,2021-09-28T08:00:00+02:00,2021-09-28T08:15:00+02:00,193.48,EUR,30.500,MWh
Power,Intraday,Continuous,NL,IDFULL,QH,2021-09-28T08:15:00+02:00,2021-09-28T08:30:00+02:00,188.78,EUR,25.350,MWh
Power,Intraday,Continuous,NL,IDFULL,QH,2021-09-28T08:30:00+02:00,2021-09-28T08:45:00+02:00,180.38,EUR,46.230,MWh
Power,Intraday,Continuous,NL,IDFULL,QH,2021-09-28T08:45:00+02:00,2021-09-28T09:00:00+02:00,165.43,EUR,62.080,MWh
Power,Intraday,Continuous,NL,IDFULL,QH,2021-09-28T09:00:00+02:00,2021-09-28T09:15:00+02:00,196.53,EUR,86.320,MWh
Power,Intraday,Continuous,NL,IDFULL,QH,2021-09-28T09:15:00+02:00,2021-09-28T09:30:00+02:00,183.56,EUR,57.880,MWh
Power,Intraday,Continuous,NL,IDFULL,QH,2021-09-28T09:30:00+02:00,2021-09-28T09:45:00+02:00,163.96,EUR,70.100,MWh
Power,Intraday,Continuous,NL,IDFULL,QH,2021-09-28T09:45:00+02:00,2021-09-28T10:00:00+02:00,149.35,EUR,129.400,MWh
Power,Intraday,Continuous,NL,IDFULL,QH,2021-09-28T10:00:00+02:00,2021-09-28T10:15:00+02:00,189.93,EUR,101.180,MWh
Power,Intraday,Continuous,NL,IDFULL,QH,2021-09-28T10:15:00+02:00,2021-09-28T10:30:00+02:00,173.68,EUR,66.000,MWh
Power,Intraday,Continuous,NL,IDFULL,QH,2021-09-28T10:30:00+02:00,2021-09-28T10:45:00+02:00,156.14,EUR,75.550,MWh
Power,Intraday,Continuous,NL,IDFULL,QH,2021-09-28T10:45:00+02:00,2021-09-28T11:00:00+02:00,140.57,EUR,87.250,MWh
Power,Intraday,Continuous,NL,IDFULL,QH,2021-09-28T11:00:00+02:00,2021-09-28T11:15:00+02:00,164.17,EUR,88.220,MWh
Power,Intraday,Continuous,NL,IDFULL,QH,2021-09-28T11:15:00+02:00,2021-09-28T11:30:00+02:00,146.93,EUR,30.700,MWh
Power,Intraday,Continuous,NL,IDFULL,QH,2021-09-28T11:30:00+02:00,2021-09-28T11:45:00+02:00,127.66,EUR,29.350,MWh
Power,Intraday,Continuous,NL,IDFULL,QH,2021-09-28T11:45:00+02:00,2021-09-28T12:00:00+02:00,123.57,EUR,31.500,MWh
Power,Intraday,Continuous,NL,IDFULL,QH,2021-09-28T12:00:00+02:00,2021-09-28T12:15:00+02:00,123.94,EUR,6.500,MWh
Power,Intraday,Continuous,NL,IDFULL,QH,2021-09-28T12:15:00+02:00,2021-09-28T12:30:00+02:00,94.09,EUR,14.200,MWh
Power,Intraday,Continuous,NL,IDFULL,QH,2021-09-28T12:30:00+02:00,2021-09-28T12:45:00+02:00,60.00,EUR,2.500,MWh
Power,Intraday,Continuous,NL,IDFULL,QH,2021-09-28T12:45:00+02:00,2021-09-28T13:00:00+02:00,60.00,EUR,7.500,MWh
Power,Intraday,Continuous,NL,IDFULL,QH,2021-09-28T13:00:00+02:00,2021-09-28T13:15:00+02:00,10.00,EUR,5.000,MWh
Power,Intraday,Continuous,NL,IDFULL,QH,2021-09-28T13:15:00+02:00,2021-09-28T13:30:00+02:00,17.48,EUR,6.750,MWh
Power,Intraday,Continuous,NL,IDFULL,QH,2021-09-28T13:30:00+02:00,2021-09-28T13:45:00+02:00,190.70,EUR,,MWh
Power,Intraday,Continuous,NL,IDFULL,QH,2021-09-28T13:45:00+02:00,2021-09-28T14:00:00+02:00,190.70,EUR,,MWh
Power,Intraday,Continuous,NL,IDFULL,QH,2021-09-28T14:00:00+02:00,2021-09-28T14:15:00+02:00,60.00,EUR,6.250,MWh
Power,Intraday,Continuous,NL,IDFULL,QH,2021-09-28T14:15:00+02:00,2021-09-28T14:30:00+02:00,60.00,EUR,2.500,MWh
Power,Intraday,Continuous,NL,IDFULL,QH,2021-09-28T14:30:00+02:00,2021-09-28T14:45:00+02:00,60.30,EUR,6.250,MWh
Power,Intraday,Continuous,NL,IDFULL,QH,2021-09-28T14:45:00+02:00,2021-09-28T15:00:00+02:00,95.11,EUR,5.750,MWh
Power,Intraday,Continuous,NL,IDFULL,QH,2021-09-28T15:00:00+02:00,2021-09-28T15:15:00+02:00,84.90,EUR,21.930,MWh
Power,Intraday,Continuous,NL,IDFULL,QH,2021-09-28T15:15:00+02:00,2021-09-28T15:30:00+02:00,124.13,EUR,18.380,MWh
Power,Intraday,Continuous,NL,IDFULL,QH,2021-09-28T15:30:00+02:00,2021-09-28T15:45:00+02:00,155.81,EUR,88.580,MWh
Power,Intraday,Continuous,NL,IDFULL,QH,2021-09-28T15:45:00+02:00,2021-09-28T16:00:00+02:00,177.06,EUR,143.880,MWh
Power,Intraday,Continuous,NL,IDFULL,QH,2021-09-28T16:00:00+02:00,2021-09-28T16:15:00+02:00,131.82,EUR,88.270,MWh
Power,Intraday,Continuous,NL,IDFULL,QH,2021-09-28T16:15:00+02:00,2021-09-28T16:30:00+02:00,153.18,EUR,71.600,MWh
Power,Intraday,Continuous,NL,IDFULL,QH,2021-09-28T16:30:00+02:00,2021-09-28T16:45:00+02:00,159.04,EUR,36.800,MWh
Power,Intraday,Continuous,NL,IDFULL,QH,2021-09-28T16:45:00+02:00,2021-09-28T17:00:00+02:00,184.36,EUR,90.650,MWh
Power,Intraday,Continuous,NL,IDFULL,QH,2021-09-28T17:00:00+02:00,2021-09-28T17:15:00+02:00,140.48,EUR,60.680,MWh
Power,Intraday,Continuous,NL,IDFULL,QH,2021-09-28T17:15:00+02:00,2021-09-28T17:30:00+02:00,165.85,EUR,39.950,MWh
Power,Intraday,Continuous,NL,IDFULL,QH,2021-09-28T17:30:00+02:00,2021-09-28T17:45:00+02:00,185.26,EUR,69.200,MWh
Power,Intraday,Continuous,NL,IDFULL,QH,2021-09-28T17:45:00+02:00,2021-09-28T18:00:00+02:00,211.79,EUR,79.280,MWh
Power,Intraday,Continuous,NL,IDFULL,QH,2021-09-28T18:00:00+02:00,2021-09-28T18:15:00+02:00,165.46,EUR,77.450,MWh
Power,Intraday,Continuous,NL,IDFULL,QH,2021-09-28T18:15:00+02:00,2021-09-28T18:30:00+02:00,170.33,EUR,36.880,MWh
Power,Intraday,Continuous,NL,IDFULL,QH,2021-09-28T18:30:00+02:00,2021-09-28T18:45:00+02:00,181.94,EUR,33.380,MWh
Power,Intraday,Continuous,NL,IDFULL,QH,2021-09-28T18:45:00+02:00,2021-09-28T19:00:00+02:00,253.98,EUR,22.580,MWh
Power,Intraday,Continuous,NL,IDFULL,QH,2021-09-28T19:00:00+02:00,2021-09-28T19:15:00+02:00,219.81,EUR,37.400,MWh
Power,Intraday,Continuous,NL,IDFULL,QH,2021-09-28T19:15:00+02:00,2021-09-28T19:30:00+02:00,264.57,EUR,32.230,MWh
Power,Intraday,Continuous,NL,IDFULL,QH,2021-09-28T19:30:00+02:00,2021-09-28T19:45:00+02:00,250.17,EUR,26.200,MWh
Power,Intraday,Continuous,NL,IDFULL,QH,2021-09-28T19:45:00+02:00,2021-09-28T20:00:00+02:00,230.85,EUR,39.450,MWh
Power,Intraday,Continuous,NL,IDFULL,QH,2021-09-28T20:00:00+02:00,2021-09-28T20:15:00+02:00,232.74,EUR,71.900,MWh
Power,Intraday,Continuous,NL,IDFULL,QH,2021-09-28T20:15:00+02:00,2021-09-28T20:30:00+02:00,192.10,EUR,65.750,MWh
Power,Intraday,Continuous,NL,IDFULL,QH,2021-09-28T20:30:00+02:00,2021-09-28T20:45:00+02:00,186.00,EUR,74.680,MWh
Power,Intraday,Continuous,NL,IDFULL,QH,2021-09-28T20:45:00+02:00,2021-09-28T21:00:00+02:00,172.04,EUR,95.280,MWh
Power,Intraday,Continuous,NL,IDFULL,QH,2021-09-28T21:00:00+02:00,2021-09-28T21:15:00+02:00,184.39,EUR,59.780,MWh
Power,Intraday,Continuous,NL,IDFULL,QH,2021-09-28T21:15:00+02:00,2021-09-28T21:30:00+02:00,173.08,EUR,51.700,MWh
Power,Intraday,Continuous,NL,IDFULL,QH,2021-09-28T21:30:00+02:00,2021-09-28T21:45:00+02:00,167.72,EUR,77.230,MWh
Power,Intraday,Continuous,NL,IDFULL,QH,2021-09-28T21:45:00+02:00,2021-09-28T22:00:00+02:00,145.02,EUR,109.580,MWh
Power,Intraday,Continuous,NL,IDFULL,QH,2021-09-28T22:00:00+02:00,2021-09-28T22:15:00+02:00,175.94,EUR,74.250,MWh
Power,Intraday,Continuous,NL,IDFULL,QH,2021-09-28T22:15:00+02:00,2021-09-28T22:30:00+02:00,157.69,EUR,56.800,MWh
Power,Intraday,Continuous,NL,IDFULL,QH,2021-09-28T22:30:00+02:00,2021-09-28T22:45:00+02:00,159.71,EUR,79.500,MWh
Power,Intraday,Continuous,NL,IDFULL,QH,2021-09-28T22:45:00+02:00,2021-09-28T23:00:00+02:00,136.81,EUR,85.450,MWh
Power,Intraday,Continuous,NL,IDFULL,QH,2021-09-28T23:00:00+02:00,2021-09-28T23:15:00+02:00,161.02,EUR,48.750,MWh
Power,Intraday,Continuous,NL,IDFULL,QH,2021-09-28T23:15:00+02:00,2021-09-28T23:30:00+02:00,134.81,EUR,25.300,MWh
Power,Intraday,Continuous,NL,IDFULL,QH,2021-09-28T23:30:00+02:00,2021-09-28T23:45:00+02:00,103.75,EUR,58.130,MWh
Power,Intraday,Continuous,NL,IDFULL,QH,2021-09-28T23:45:00+02:00,2021-09-29T00:00:00+02:00,89.45,EUR,53.280,MWh
Power,Intraday,Continuous,NL,ID1,QH,2021-09-28T00:00:00+02:00,2021-09-28T00:15:00+02:00,169.63,EUR,,MWh
Power,Intraday,Continuous,NL,ID1,QH,2021-09-28T00:15:00+02:00,2021-09-28T00:30:00+02:00,169.63,EUR,,MWh
Power,Intraday,Continuous,NL,ID1,QH,2021-09-28T00:30:00+02:00,2021-09-28T00:45:00+02:00,157.67,EUR,3.750,MWh
Power,Intraday,Continuous,NL,ID1,QH,2021-09-28T00:45:00+02:00,2021-09-28T01:00:00+02:00,169.63,EUR,,MWh
Power,Intraday,Continuous,NL,ID1,QH,2021-09-28T01:00:00+02:00,2021-09-28T01:15:00+02:00,127.90,EUR,,MWh
Power,Intraday,Continuous,NL,ID1,QH,2021-09-28T01:15:00+02:00,2021-09-28T01:30:00+02:00,110.81,EUR,,MWh
Power,Intraday,Continuous,NL,ID1,QH,2021-09-28T01:30:00+02:00,2021-09-28T01:45:00+02:00,103.46,EUR,,MWh
Power,Intraday,Continuous,NL,ID1,QH,2021-09-28T01:45:00+02:00,2021-09-28T02:00:00+02:00,93.83,EUR,,MWh
Power,Intraday,Continuous,NL,ID1,QH,2021-09-28T02:00:00+02:00,2021-09-28T02:15:00+02:00,105.74,EUR,,MWh
Power,Intraday,Continuous,NL,ID1,QH,2021-09-28T02:15:00+02:00,2021-09-28T02:30:00+02:00,101.86,EUR,,MWh
Power,Intraday,Continuous,NL,ID1,QH,2021-09-28T02:30:00+02:00,2021-09-28T02:45:00+02:00,99.39,EUR,,MWh
Power,Intraday,Continuous,NL,ID1,QH,2021-09-28T02:45:00+02:00,2021-09-28T03:00:00+02:00,101.13,EUR,,MWh
Power,Intraday,Continuous,NL,ID1,QH,2021-09-28T03:00:00+02:00,2021-09-28T03:15:00+02:00,98.35,EUR,,MWh
Power,Intraday,Continuous,NL,ID1,QH,2021-09-28T03:15:00+02:00,2021-09-28T03:30:00+02:00,98.11,EUR,,MWh
Power,Intraday,Continuous,NL,ID1,QH,2021-09-28T03:30:00+02:00,2021-09-28T03:45:00+02:00,100.06,EUR,,MWh
Power,Intraday,Continuous,NL,ID1,QH,2021-09-28T03:45:00+02:00,2021-09-28T04:00:00+02:00,108.94,EUR,,MWh
Power,Intraday,Continuous,NL,ID1,QH,2021-09-28T04:00:00+02:00,2021-09-28T04:15:00+02:00,91.54,EUR,,MWh
Power,Intraday,Continuous,NL,ID1,QH,2021-09-28T04:15:00+02:00,2021-09-28T04:30:00+02:00,100.89,EUR,,MWh
Power,Intraday,Continuous,NL,ID1,QH,2021-09-28T04:30:00+02:00,2021-09-28T04:45:00+02:00,102.88,EUR,,MWh
Power,Intraday,Continuous,NL,ID1,QH,2021-09-28T04:45:00+02:00,2021-09-28T05:00:00+02:00,101.16,EUR,,MWh
Power,Intraday,Continuous,NL,ID1,QH,2021-09-28T05:00:00+02:00,2021-09-28T05:15:00+02:00,87.25,EUR,,MWh
Power,Intraday,Continuous,NL,ID1,QH,2021-09-28T05:15:00+02:00,2021-09-28T05:30:00+02:00,91.79,EUR,,MWh
Power,Intraday,Continuous,NL,ID1,QH,2021-09-28T05:30:00+02:00,2021-09-28T05:45:00+02:00,82.45,EUR,,MWh
Power,Intraday,Continuous,NL,ID1,QH,2021-09-28T05:45:00+02:00,2021-09-28T06:00:00+02:00,145.46,EUR,,MWh
Power,Intraday,Continuous,NL,ID1,QH,2021-09-28T06:00:00+02:00,2021-09-28T06:15:00+02:00,126.47,EUR,,MWh
Power,Intraday,Continuous,NL,ID1,QH,2021-09-28T06:15:00+02:00,2021-09-28T06:30:00+02:00,155.11,EUR,,MWh
Power,Intraday,Continuous,NL,ID1,QH,2021-09-28T06:30:00+02:00,2021-09-28T06:45:00+02:00,185.55,EUR,,MWh
Power,Intraday,Continuous,NL,ID1,QH,2021-09-28T06:45:00+02:00,2021-09-28T07:00:00+02:00,183.76,EUR,,MWh
Power,Intraday,Continuous,NL,ID1,QH,2021-09-28T07:00:00+02:00,2021-09-28T07:15:00+02:00,158.71,EUR,,MWh
Power,Intraday,Continuous,NL,ID1,QH,2021-09-28T07:15:00+02:00,2021-09-28T07:30:00+02:00,168.74,EUR,,MWh
Power,Intraday,Continuous,NL,ID1,QH,2021-09-28T07:30:00+02:00,2021-09-28T07:45:00+02:00,177.56,EUR,,MWh
Power,Intraday,Continuous,NL,ID1,QH,2021-09-28T07:45:00+02:00,2021-09-28T08:00:00+02:00,198.88,EUR,,MWh
Power,Intraday,Continuous,NL,ID1,QH,2021-09-28T08:00:00+02:00,2021-09-28T08:15:00+02:00,191.31,EUR,,MWh
Power,Intraday,Continuous,NL,ID1,QH,2021-09-28T08:15:00+02:00,2021-09-28T08:30:00+02:00,185.31,EUR,,MWh
Power,Intraday,Continuous,NL,ID1,QH,2021-09-28T08:30:00+02:00,2021-09-28T08:45:00+02:00,175.71,EUR,,MWh
Power,Intraday,Continuous,NL,ID1,QH,2021-09-28T08:45:00+02:00,2021-09-28T09:00:00+02:00,163.97,EUR,,MWh
Power,Intraday,Continuous,NL,ID1,QH,2021-09-28T09:00:00+02:00,2021-09-28T09:15:00+02:00,195.79,EUR,,MWh
Power,Intraday,Continuous,NL,ID1,QH,2021-09-28T09:15:00+02:00,2021-09-28T09:30:00+02:00,181.87,EUR,,MWh
Power,Intraday,Continuous,NL,ID1,QH,2021-09-28T09:30:00+02:00,2021-09-28T09:45:00+02:00,125.01,EUR,2.500,MWh
Power,Intraday,Continuous,NL,ID1,QH,2021-09-28T09:45:00+02:00,2021-09-28T10:00:00+02:00,125.01,EUR,5.000,MWh
Power,Intraday,Continuous,NL,ID1,QH,2021-09-28T10:00:00+02:00,2021-09-28T10:15:00+02:00,188.32,EUR,,MWh
Power,Intraday,Continuous,NL,ID1,QH,2021-09-28T10:15:00+02:00,2021-09-28T10:30:00+02:00,170.83,EUR,,MWh
Power,Intraday,Continuous,NL,ID1,QH,2021-09-28T10:30:00+02:00,2021-09-28T10:45:00+02:00,125.01,EUR,2.500,MWh
Power,Intraday,Continuous,NL,ID1,QH,2021-09-28T10:45:00+02:00,2021-09-28T11:00:00+02:00,125.01,EUR,5.000,MWh
Power,Intraday,Continuous,NL,ID1,QH,2021-09-28T11:00:00+02:00,2021-09-28T11:15:00+02:00,164.17,EUR,,MWh
Power,Intraday,Continuous,NL,ID1,QH,2021-09-28T11:15:00+02:00,2021-09-28T11:30:00+02:00,103.34,EUR,3.750,MWh
Power,Intraday,Continuous,NL,ID1,QH,2021-09-28T11:30:00+02:00,2021-09-28T11:45:00+02:00,103.34,EUR,3.750,MWh
Power,Intraday,Continuous,NL,ID1,QH,2021-09-28T11:45:00+02:00,2021-09-28T12:00:00+02:00,110.01,EUR,6.250,MWh
Power,Intraday,Continuous,NL,ID1,QH,2021-09-28T12:00:00+02:00,2021-09-28T12:15:00+02:00,123.94,EUR,,MWh
Power,Intraday,Continuous,NL,ID1,QH,2021-09-28T12:15:00+02:00,2021-09-28T12:30:00+02:00,60.26,EUR,5.000,MWh
Power,Intraday,Continuous,NL,ID1,QH,2021-09-28T12:30:00+02:00,2021-09-28T12:45:00+02:00,60.00,EUR,2.500,MWh
Power,Intraday,Continuous,NL,ID1,QH,2021-09-28T12:45:00+02:00,2021-09-28T13:00:00+02:00,60.00,EUR,7.500,MWh
Power,Intraday,Continuous,NL,ID1,QH,2021-09-28T13:00:00+02:00,2021-09-28T13:15:00+02:00,10.00,EUR,5.000,MWh
Power,Intraday,Continuous,NL,ID1,QH,2021-09-28T13:15:00+02:00,2021-09-28T13:30:00+02:00,10.00,EUR,6.250,MWh
Power,Intraday,Continuous,NL,ID1,QH,2021-09-28T13:30:00+02:00,2021-09-28T13:45:00+02:00,190.70,EUR,,MWh
Power,Intraday,Continuous,NL,ID1,QH,2021-09-28T13:45:00+02:00,2021-09-28T14:00:00+02:00,190.70,EUR,,MWh
Power,Intraday,Continuous,NL,ID1,QH,2021-09-28T14:00:00+02:00,2021-09-28T14:15:00+02:00,60.00,EUR,,MWh
Power,Intraday,Continuous,NL,ID1,QH,2021-09-28T14:15:00+02:00,2021-09-28T14:30:00+02:00,60.00,EUR,,MWh
Power,Intraday,Continuous,NL,ID1,QH,2021-09-28T14:30:00+02:00,2021-09-28T14:45:00+02:00,60.30,EUR,6.250,MWh
Power,Intraday,Continuous,NL,ID1,QH,2021-09-28T14:45:00+02:00,2021-09-28T15:00:00+02:00,95.11,EUR,5.750,MWh
Power,Intraday,Continuous,NL,ID1,QH,2021-09-28T15:00:00+02:00,2021-09-28T15:15:00+02:00,60.00,EUR,10.250,MWh
Power,Intraday,Continuous,NL,ID1,QH,2021-09-28T15:15:00+02:00,2021-09-28T15:30:00+02:00,120.52,EUR,,MWh
Power,Intraday,Continuous,NL,ID1,QH,2021-09-28T15:30:00+02:00,2021-09-28T15:45:00+02:00,156.40,EUR,,MWh
Power,Intraday,Continuous,NL,ID1,QH,2021-09-28T15:45:00+02:00,2021-09-28T16:00:00+02:00,178.45,EUR,,MWh
Power,Intraday,Continuous,NL,ID1,QH,2021-09-28T16:00:00+02:00,2021-09-28T16:15:00+02:00,130.38,EUR,,MWh
Power,Intraday,Continuous,NL,ID1,QH,2021-09-28T16:15:00+02:00,2021-09-28T16:30:00+02:00,152.77,EUR,,MWh
Power,Intraday,Continuous,NL,ID1,QH,2021-09-28T16:30:00+02:00,2021-09-28T16:45:00+02:00,115.01,EUR,2.500,MWh
Power,Intraday,Continuous,NL,ID1,QH,2021-09-28T16:45:00+02:00,2021-09-28T17:00:00+02:00,180.00,EUR,5.000,MWh
Power,Intraday,Continuous,NL,ID1,QH,2021-09-28T17:00:00+02:00,2021-09-28T17:15:00+02:00,143.70,EUR,,MWh
Power,Intraday,Continuous,NL,ID1,QH,2021-09-28T17:15:00+02:00,2021-09-28T17:30:00+02:00,170.09,EUR,,MWh
Power,Intraday,Continuous,NL,ID1,QH,2021-09-28T17:30:00+02:00,2021-09-28T17:45:00+02:00,184.52,EUR,,MWh
Power,Intraday,Continuous,NL,ID1,QH,2021-09-28T17:45:00+02:00,2021-09-28T18:00:00+02:00,211.11,EUR,,MWh
Power,Intraday,Continuous,NL,ID1,QH,2021-09-28T18:00:00+02:00,2021-09-28T18:15:00+02:00,166.72,EUR,,MWh
Power,Intraday,Continuous,NL,ID1,QH,2021-09-28T18:15:00+02:00,2021-09-28T18:30:00+02:00,168.67,EUR,,MWh
Power,Intraday,Continuous,NL,ID1,QH,2021-09-28T18:30:00+02:00,2021-09-28T18:45:00+02:00,180.16,EUR,,MWh
Power,Intraday,Continuous,NL,ID1,QH,2021-09-28T18:45:00+02:00,2021-09-28T19:00:00+02:00,253.31,EUR,,MWh
Power,Intraday,Continuous,NL,ID1,QH,2021-09-28T19:00:00+02:00,2021-09-28T19:15:00+02:00,215.37,EUR,,MWh
Power,Intraday,Continuous,NL,ID1,QH,2021-09-28T19:15:00+02:00,2021-09-28T19:30:00+02:00,270.22,EUR,,MWh
Power,Intraday,Continuous,NL,ID1,QH,2021-09-28T19:30:00+02:00,2021-09-28T19:45:00+02:00,250.38,EUR,,MWh
Power,Intraday,Continuous,NL,ID1,QH,2021-09-28T19:45:00+02:00,2021-09-28T20:00:00+02:00,228.12,EUR,,MWh
Power,Intraday,Continuous,NL,ID1,QH,2021-09-28T20:00:00+02:00,2021-09-28T20:15:00+02:00,210.00,EUR,9.280,MWh
Power,Intraday,Continuous,NL,ID1,QH,2021-09-28T20:15:00+02:00,2021-09-28T20:30:00+02:00,189.83,EUR,,MWh
Power,Intraday,Continuous,NL,ID1,QH,2021-09-28T20:30:00+02:00,2021-09-28T20:45:00+02:00,186.96,EUR,,MWh
Power,Intraday,Continuous,NL,ID1,QH,2021-09-28T20:45:00+02:00,2021-09-28T21:00:00+02:00,172.98,EUR,,MWh
Power,Intraday,Continuous,NL,ID1,QH,2021-09-28T21:00:00+02:00,2021-09-28T21:15:00+02:00,60.00,EUR,4.230,MWh
Power,Intraday,Continuous,NL,ID1,QH,2021-09-28T21:15:00+02:00,2021-09-28T21:30:00+02:00,60.00,EUR,4.230,MWh
Power,Intraday,Continuous,NL,ID1,QH,2021-09-28T21:30:00+02:00,2021-09-28T21:45:00+02:00,58.77,EUR,3.230,MWh
Power,Intraday,Continuous,NL,ID1,QH,2021-09-28T21:45:00+02:00,2021-09-28T22:00:00+02:00,147.68,EUR,,MWh
Power,Intraday,Continuous,NL,ID1,QH,2021-09-28T22:00:00+02:00,2021-09-28T22:15:00+02:00,82.89,EUR,4.430,MWh
Power,Intraday,Continuous,NL,ID1,QH,2021-09-28T22:15:00+02:00,2021-09-28T22:30:00+02:00,148.41,EUR,,MWh
Power,Intraday,Continuous,NL,ID1,QH,2021-09-28T22:30:00+02:00,2021-09-28T22:45:00+02:00,119.81,EUR,3.980,MWh
Power,Intraday,Continuous,NL,ID1,QH,2021-09-28T22:45:00+02:00,2021-09-28T23:00:00+02:00,129.09,EUR,,MWh
Power,Intraday,Continuous,NL,ID1,QH,2021-09-28T23:00:00+02:00,2021-09-28T23:15:00+02:00,153.32,EUR,,MWh
Power,Intraday,Continuous,NL,ID1,QH,2021-09-28T23:15:00+02:00,2021-09-28T23:30:00+02:00,122.38,EUR,,MWh
Power,Intraday,Continuous,NL,ID1,QH,2021-09-28T23:30:00+02:00,2021-09-28T23:45:00+02:00,96.93,EUR,,MWh
Power,Intraday,Continuous,NL,ID1,QH,2021-09-28T23:45:00+02:00,2021-09-29T00:00:00+02:00,82.08,EUR,,MWh
Power,Intraday,Continuous,NL,ID3,QH,2021-09-28T00:00:00+02:00,2021-09-28T00:15:00+02:00,169.63,EUR,,MWh
Power,Intraday,Continuous,NL,ID3,QH,2021-09-28T00:15:00+02:00,2021-09-28T00:30:00+02:00,169.63,EUR,,MWh
Power,Intraday,Continuous,NL,ID3,QH,2021-09-28T00:30:00+02:00,2021-09-28T00:45:00+02:00,157.67,EUR,3.750,MWh
Power,Intraday,Continuous,NL,ID3,QH,2021-09-28T00:45:00+02:00,2021-09-28T01:00:00+02:00,169.63,EUR,,MWh
Power,Intraday,Continuous,NL,ID3,QH,2021-09-28T01:00:00+02:00,2021-09-28T01:15:00+02:00,127.90,EUR,27.250,MWh
Power,Intraday,Continuous,NL,ID3,QH,2021-09-28T01:15:00+02:00,2021-09-28T01:30:00+02:00,110.81,EUR,12.350,MWh
Power,Intraday,Continuous,NL,ID3,QH,2021-09-28T01:30:00+02:00,2021-09-28T01:45:00+02:00,103.46,EUR,11.580,MWh
Power,Intraday,Continuous,NL,ID3,QH,2021-09-28T01:45:00+02:00,2021-09-28T02:00:00+02:00,93.83,EUR,12.100,MWh
Power,Intraday,Continuous,NL,ID3,QH,2021-09-28T02:00:00+02:00,2021-09-28T02:15:00+02:00,105.74,EUR,20.550,MWh
Power,Intraday,Continuous,NL,ID3,QH,2021-09-28T02:15:00+02:00,2021-09-28T02:30:00+02:00,101.86,EUR,18.900,MWh
Power,Intraday,Continuous,NL,ID3,QH,2021-09-28T02:30:00+02:00,2021-09-28T02:45:00+02:00,99.39,EUR,36.230,MWh
Power,Intraday,Continuous,NL,ID3,QH,2021-09-28T02:45:00+02:00,2021-09-28T03:00:00+02:00,101.13,EUR,24.330,MWh
Power,Intraday,Continuous,NL,ID3,QH,2021-09-28T03:00:00+02:00,2021-09-28T03:15:00+02:00,98.35,EUR,10.080,MWh
Power,Intraday,Continuous,NL,ID3,QH,2021-09-28T03:15:00+02:00,2021-09-28T03:30:00+02:00,98.11,EUR,9.150,MWh
Power,Intraday,Continuous,NL,ID3,QH,2021-09-28T03:30:00+02:00,2021-09-28T03:45:00+02:00,100.06,EUR,20.900,MWh
Power,Intraday,Continuous,NL,ID3,QH,2021-09-28T03:45:00+02:00,2021-09-28T04:00:00+02:00,108.94,EUR,14.730,MWh
Power,Intraday,Continuous,NL,ID3,QH,2021-09-28T04:00:00+02:00,2021-09-28T04:15:00+02:00,91.54,EUR,19.930,MWh
Power,Intraday,Continuous,NL,ID3,QH,2021-09-28T04:15:00+02:00,2021-09-28T04:30:00+02:00,100.89,EUR,21.800,MWh
Power,Intraday,Continuous,NL,ID3,QH,2021-09-28T04:30:00+02:00,2021-09-28T04:45:00+02:00,102.88,EUR,17.830,MWh
Power,Intraday,Continuous,NL,ID3,QH,2021-09-28T04:45:00+02:00,2021-09-28T05:00:00+02:00,101.16,EUR,25.950,MWh
Power,Intraday,Continuous,NL,ID3,QH,2021-09-28T05:00:00+02:00,2021-09-28T05:15:00+02:00,87.25,EUR,11.950,MWh
Power,Intraday,Continuous,NL,ID3,QH,2021-09-28T05:15:00+02:00,2021-09-28T05:30:00+02:00,91.79,EUR,20.300,MWh
Power,Intraday,Continuous,NL,ID3,QH,2021-09-28T05:30:00+02:00,2021-09-28T05:45:00+02:00,82.45,EUR,31.380,MWh
Power,Intraday,Continuous,NL,ID3,QH,2021-09-28T05:45:00+02:00,2021-09-28T06:00:00+02:00,145.46,EUR,59.850,MWh
Power,Intraday,Continuous,NL,ID3,QH,2021-09-28T06:00:00+02:00,2021-09-28T06:15:00+02:00,126.47,EUR,36.800,MWh
Power,Intraday,Continuous,NL,ID3,QH,2021-09-28T06:15:00+02:00,2021-09-28T06:30:00+02:00,155.11,EUR,22.280,MWh
Power,Intraday,Continuous,NL,ID3,QH,2021-09-28T06:30:00+02:00,2021-09-28T06:45:00+02:00,185.55,EUR,43.450,MWh
Power,Intraday,Continuous,NL,ID3,QH,2021-09-28T06:45:00+02:00,2021-09-28T07:00:00+02:00,183.76,EUR,73.830,MWh
Power,Intraday,Continuous,NL,ID3,QH,2021-09-28T07:00:00+02:00,2021-09-28T07:15:00+02:00,158.71,EUR,61.950,MWh
Power,Intraday,Continuous,NL,ID3,QH,2021-09-28T07:15:00+02:00,2021-09-28T07:30:00+02:00,168.74,EUR,46.130,MWh
Power,Intraday,Continuous,NL,ID3,QH,2021-09-28T07:30:00+02:00,2021-09-28T07:45:00+02:00,177.56,EUR,53.900,MWh
Power,Intraday,Continuous,NL,ID3,QH,2021-09-28T07:45:00+02:00,2021-09-28T08:00:00+02:00,198.88,EUR,40.330,MWh
Power,Intraday,Continuous,NL,ID3,QH,2021-09-28T08:00:00+02:00,2021-09-28T08:15:00+02:00,191.31,EUR,24.900,MWh
Power,Intraday,Continuous,NL,ID3,QH,2021-09-28T08:15:00+02:00,2021-09-28T08:30:00+02:00,185.31,EUR,18.830,MWh
Power,Intraday,Continuous,NL,ID3,QH,2021-09-28T08:30:00+02:00,2021-09-28T08:45:00+02:00,175.71,EUR,35.530,MWh
Power,Intraday,Continuous,NL,ID3,QH,2021-09-28T08:45:00+02:00,2021-09-28T09:00:00+02:00,163.97,EUR,43.850,MWh
Power,Intraday,Continuous,NL,ID3,QH,2021-09-28T09:00:00+02:00,2021-09-28T09:15:00+02:00,195.79,EUR,80.570,MWh
Power,Intraday,Continuous,NL,ID3,QH,2021-09-28T09:15:00+02:00,2021-09-28T09:30:00+02:00,181.87,EUR,49.280,MWh
Power,Intraday,Continuous,NL,ID3,QH,2021-09-28T09:30:00+02:00,2021-09-28T09:45:00+02:00,161.19,EUR,43.000,MWh
Power,Intraday,Continuous,NL,ID3,QH,2021-09-28T09:45:00+02:00,2021-09-28T10:00:00+02:00,146.24,EUR,77.300,MWh
Power,Intraday,Continuous,NL,ID3,QH,2021-09-28T10:00:00+02:00,2021-09-28T10:15:00+02:00,188.32,EUR,87.300,MWh
Power,Intraday,Continuous,NL,ID3,QH,2021-09-28T10:15:00+02:00,2021-09-28T10:30:00+02:00,170.83,EUR,49.900,MWh
Power,Intraday,Continuous,NL,ID3,QH,2021-09-28T10:30:00+02:00,2021-09-28T10:45:00+02:00,153.88,EUR,58.700,MWh
Power,Intraday,Continuous,NL,ID3,QH,2021-09-28T10:45:00+02:00,2021-09-28T11:00:00+02:00,138.07,EUR,48.080,MWh
Power,Intraday,Continuous,NL,ID3,QH,2021-09-28T11:00:00+02:00,2021-09-28T11:15:00+02:00,164.17,EUR,88.220,MWh
Power,Intraday,Continuous,NL,ID3,QH,2021-09-28T11:15:00+02:00,2021-09-28T11:30:00+02:00,146.93,EUR,30.700,MWh
Power,Intraday,Continuous,NL,ID3,QH,2021-09-28T11:30:00+02:00,2021-09-28T11:45:00+02:00,127.66,EUR,29.350,MWh
Power,Intraday,Continuous,NL,ID3,QH,2021-09-28T11:45:00+02:00,2021-09-28T12:00:00+02:00,123.28,EUR,30.100,MWh
Power,Intraday,Continuous,NL,ID3,QH,2021-09-28T12:00:00+02:00,2021-09-28T12:15:00+02:00,123.94,EUR,6.500,MWh
Power,Intraday,Continuous,NL,ID3,QH,2021-09-28T12:15:00+02:00,2021-09-28T12:30:00+02:00,94.09,EUR,14.200,MWh
Power,Intraday,Continuous,NL,ID3,QH,2021-09-28T12:30:00+02:00,2021-09-28T12:45:00+02:00,60.00,EUR,2.500,MWh
Power,Intraday,Continuous,NL,ID3,QH,2021-09-28T12:45:00+02:00,2021-09-28T13:00:00+02:00,60.00,EUR,7.500,MWh
Power,Intraday,Continuous,NL,ID3,QH,2021-09-28T13:00:00+02:00,2021-09-28T13:15:00+02:00,10.00,EUR,5.000,MWh
Power,Intraday,Continuous,NL,ID3,QH,2021-09-28T13:15:00+02:00,2021-09-28T13:30:00+02:00,17.48,EUR,6.750,MWh
Power,Intraday,Continuous,NL,ID3,QH,2021-09-28T13:30:00+02:00,2021-09-28T13:45:00+02:00,190.70,EUR,,MWh
Power,Intraday,Continuous,NL,ID3,QH,2021-09-28T13:45:00+02:00,2021-09-28T14:00:00+02:00,190.70,EUR,,MWh
Power,Intraday,Continuous,NL,ID3,QH,2021-09-28T14:00:00+02:00,2021-09-28T14:15:00+02:00,60.00,EUR,6.250,MWh
Power,Intraday,Continuous,NL,ID3,QH,2021-09-28T14:15:00+02:00,2021-09-28T14:30:00+02:00,60.00,EUR,2.500,MWh
Power,Intraday,Continuous,NL,ID3,QH,2021-09-28T14:30:00+02:00,2021-09-28T14:45:00+02:00,60.30,EUR,6.250,MWh
Power,Intraday,Continuous,NL,ID3,QH,2021-09-28T14:45:00+02:00,2021-09-28T15:00:00+02:00,95.11,EUR,5.750,MWh
Power,Intraday,Continuous,NL,ID3,QH,2021-09-28T15:00:00+02:00,2021-09-28T15:15:00+02:00,73.39,EUR,15.430,MWh
Power,Intraday,Continuous,NL,ID3,QH,2021-09-28T15:15:00+02:00,2021-09-28T15:30:00+02:00,120.52,EUR,9.850,MWh
Power,Intraday,Continuous,NL,ID3,QH,2021-09-28T15:30:00+02:00,2021-09-28T15:45:00+02:00,156.40,EUR,76.680,MWh
Power,Intraday,Continuous,NL,ID3,QH,2021-09-28T15:45:00+02:00,2021-09-28T16:00:00+02:00,178.45,EUR,126.730,MWh
Power,Intraday,Continuous,NL,ID3,QH,2021-09-28T16:00:00+02:00,2021-09-28T16:15:00+02:00,130.38,EUR,46.280,MWh
Power,Intraday,Continuous,NL,ID3,QH,2021-09-28T16:15:00+02:00,2021-09-28T16:30:00+02:00,152.77,EUR,38.480,MWh
Power,Intraday,Continuous,NL,ID3,QH,2021-09-28T16:30:00+02:00,2021-09-28T16:45:00+02:00,163.17,EUR,17.550,MWh
Power,Intraday,Continuous,NL,ID3,QH,2021-09-28T16:45:00+02:00,2021-09-28T17:00:00+02:00,187.79,EUR,46.130,MWh
Power,Intraday,Continuous,NL,ID3,QH,2021-09-28T17:00:00+02:00,2021-09-28T17:15:00+02:00,143.70,EUR,41.430,MWh
Power,Intraday,Continuous,NL,ID3,QH,2021-09-28T17:15:00+02:00,2021-09-28T17:30:00+02:00,170.09,EUR,23.630,MWh
Power,Intraday,Continuous,NL,ID3,QH,2021-09-28T17:30:00+02:00,2021-09-28T17:45:00+02:00,184.52,EUR,52.230,MWh
Power,Intraday,Continuous,NL,ID3,QH,2021-09-28T17:45:00+02:00,2021-09-28T18:00:00+02:00,211.11,EUR,35.680,MWh
Power,Intraday,Continuous,NL,ID3,QH,2021-09-28T18:00:00+02:00,2021-09-28T18:15:00+02:00,166.72,EUR,64.300,MWh
Power,Intraday,Continuous,NL,ID3,QH,2021-09-28T18:15:00+02:00,2021-09-28T18:30:00+02:00,168.67,EUR,27.680,MWh
Power,Intraday,Continuous,NL,ID3,QH,2021-09-28T18:30:00+02:00,2021-09-28T18:45:00+02:00,180.16,EUR,30.100,MWh
Power,Intraday,Continuous,NL,ID3,QH,2021-09-28T18:45:00+02:00,2021-09-28T19:00:00+02:00,253.31,EUR,16.830,MWh
Power,Intraday,Continuous,NL,ID3,QH,2021-09-28T19:00:00+02:00,2021-09-28T19:15:00+02:00,215.37,EUR,27.380,MWh
Power,Intraday,Continuous,NL,ID3,QH,2021-09-28T19:15:00+02:00,2021-09-28T19:30:00+02:00,270.22,EUR,23.950,MWh
Power,Intraday,Continuous,NL,ID3,QH,2021-09-28T19:30:00+02:00,2021-09-28T19:45:00+02:00,250.38,EUR,17.030,MWh
Power,Intraday,Continuous,NL,ID3,QH,2021-09-28T19:45:00+02:00,2021-09-28T20:00:00+02:00,228.12,EUR,24.030,MWh
Power,Intraday,Continuous,NL,ID3,QH,2021-09-28T20:00:00+02:00,2021-09-28T20:15:00+02:00,230.50,EUR,60.480,MWh
Power,Intraday,Continuous,NL,ID3,QH,2021-09-28T20:15:00+02:00,2021-09-28T20:30:00+02:00,189.83,EUR,55.000,MWh
Power,Intraday,Continuous,NL,ID3,QH,2021-09-28T20:30:00+02:00,2021-09-28T20:45:00+02:00,186.96,EUR,64.130,MWh
Power,Intraday,Continuous,NL,ID3,QH,2021-09-28T20:45:00+02:00,2021-09-28T21:00:00+02:00,172.98,EUR,78.880,MWh
Power,Intraday,Continuous,NL,ID3,QH,2021-09-28T21:00:00+02:00,2021-09-28T21:15:00+02:00,166.49,EUR,22.630,MWh
Power,Intraday,Continuous,NL,ID3,QH,2021-09-28T21:15:00+02:00,2021-09-28T21:30:00+02:00,151.51,EUR,21.800,MWh
Power,Intraday,Continuous,NL,ID3,QH,2021-09-28T21:30:00+02:00,2021-09-28T21:45:00+02:00,156.18,EUR,35.400,MWh
Power,Intraday,Continuous,NL,ID3,QH,2021-09-28T21:45:00+02:00,2021-09-28T22:00:00+02:00,147.68,EUR,52.280,MWh
Power,Intraday,Continuous,NL,ID3,QH,2021-09-28T22:00:00+02:00,2021-09-28T22:15:00+02:00,171.70,EUR,45.650,MWh
Power,Intraday,Continuous,NL,ID3,QH,2021-09-28T22:15:00+02:00,2021-09-28T22:30:00+02:00,148.41,EUR,35.500,MWh
Power,Intraday,Continuous,NL,ID3,QH,2021-09-28T22:30:00+02:00,2021-09-28T22:45:00+02:00,155.52,EUR,53.000,MWh
Power,Intraday,Continuous,NL,ID3,QH,2021-09-28T22:45:00+02:00,2021-09-28T23:00:00+02:00,129.09,EUR,41.750,MWh
Power,Intraday,Continuous,NL,ID3,QH,2021-09-28T23:00:00+02:00,2021-09-28T23:15:00+02:00,153.32,EUR,27.780,MWh
Power,Intraday,Continuous,NL,ID3,QH,2021-09-28T23:15:00+02:00,2021-09-28T23:30:00+02:00,122.38,EUR,11.930,MWh
Power,Intraday,Continuous,NL,ID3,QH,2021-09-28T23:30:00+02:00,2021-09-28T23:45:00+02:00,96.93,EUR,44.380,MWh
Power,Intraday,Continuous,NL,ID3,QH,2021-09-28T23:45:00+02:00,2021-09-29T00:00:00+02:00,82.08,EUR,29.550,MWh
Power,Intraday,Continuous,NL,IDFULL,BASE,2021-09-28T00:00:00+02:00,2021-09-29T00:00:00+02:00,150.05,EUR,32020.300,MWh
Power,Intraday,Continuous,NL,IDFULL,PEAK,2021-09-28T08:00:00+02:00,2021-09-28T20:00:00+02:00,157.56,EUR,18765.500,MWh
