Commodity,NominationModality,TradingModality,MarketArea,IndexName,TimeResolution,DeliveryStart,DeliveryEnd,IndexPrice,Currency,Volume,VolumeUnit
Power,Intraday,Continuous,NL,IDFULL,H,2021-09-09T00:00:00+02:00,2021-09-09T01:00:00+02:00,113.11,EUR,749.900,MWh
Power,Intraday,Continuous,NL,IDFULL,H,2021-09-09T01:00:00+02:00,2021-09-09T02:00:00+02:00,113.09,EUR,661.400,MWh
Power,Intraday,Continuous,NL,IDFULL,H,2021-09-09T02:00:00+02:00,2021-09-09T03:00:00+02:00,112.89,EUR,445.000,MWh
Power,Intraday,Continuous,NL,IDFULL,H,2021-09-09T03:00:00+02:00,2021-09-09T04:00:00+02:00,110.45,EUR,668.400,MWh
Power,Intraday,Continuous,NL,IDFULL,H,2021-09-09T04:00:00+02:00,2021-09-09T05:00:00+02:00,112.37,EUR,980.400,MWh
Power,Intraday,Continuous,NL,IDFULL,H,2021-09-09T05:00:00+02:00,2021-09-09T06:00:00+02:00,123.58,EUR,615.300,MWh
Power,Intraday,Continuous,NL,IDFULL,H,2021-09-09T06:00:00+02:00,2021-09-09T07:00:00+02:00,149.72,EUR,686.300,MWh
Power,Intraday,Continuous,NL,IDFULL,H,2021-09-09T07:00:00+02:00,2021-09-09T08:00:00+02:00,155.32,EUR,753.100,MWh
Power,Intraday,Continuous,NL,IDFULL,H,2021-09-09T08:00:00+02:00,2021-09-09T09:00:00+02:00,163.06,EUR,1211.700,MWh
Power,Intraday,Continuous,NL,IDFULL,H,2021-09-09T09:00:00+02:00,2021-09-09T10:00:00+02:00,153.53,EUR,1169.200,MWh
Power,Intraday,Continuous,NL,IDFULL,H,2021-09-09T10:00:00+02:00,2021-09-09T11:00:00+02:00,116.61,EUR,708.800,MWh
Power,Intraday,Continuous,NL,IDFULL,H,2021-09-09T11:00:00+02:00,2021-09-09T12:00:00+02:00,110.99,EUR,1017.400,MWh
Power,Intraday,Continuous,NL,IDFULL,H,2021-09-09T12:00:00+02:00,2021-09-09T13:00:00+02:00,115.50,EUR,1967.800,MWh
Power,Intraday,Continuous,NL,IDFULL,H,2021-09-09T13:00:00+02:00,2021-09-09T14:00:00+02:00,111.50,EUR,3062.700,MWh
Power,Intraday,Continuous,NL,IDFULL,H,2021-09-09T14:00:00+02:00,2021-09-09T15:00:00+02:00,114.63,EUR,2131.000,MWh
Power,Intraday,Continuous,NL,IDFULL,H,2021-09-09T15:00:00+02:00,2021-09-09T16:00:00+02:00,130.65,EUR,1775.700,MWh
Power,Intraday,Continuous,NL,IDFULL,H,2021-09-09T16:00:00+02:00,2021-09-09T17:00:00+02:00,171.82,EUR,1675.200,MWh
Power,Intraday,Continuous,NL,IDFULL,H,2021-09-09T17:00:00+02:00,2021-09-09T18:00:00+02:00,231.85,EUR,1141.600,MWh
Power,Intraday,Continuous,NL,IDFULL,H,2021-09-09T18:00:00+02:00,2021-09-09T19:00:00+02:00,219.72,EUR,671.100,MWh
Power,Intraday,Continuous,NL,IDFULL,H,2021-09-09T19:00:00+02:00,2021-09-09T20:00:00+02:00,233.78,EUR,685.900,MWh
Power,Intraday,Continuous,NL,IDFULL,H,2021-09-09T20:00:00+02:00,2021-09-09T21:00:00+02:00,263.07,EUR,467.100,MWh
Power,Intraday,Continuous,NL,IDFULL,H,2021-09-09T21:00:00+02:00,2021-09-09T22:00:00+02:00,209.91,EUR,1106.800,MWh
Power,Intraday,Continuous,NL,IDFULL,H,2021-09-09T22:00:00+02:00,2021-09-09T23:00:00+02:00,153.81,EUR,1155.500,MWh
Power,Intraday,Continuous,NL,IDFULL,H,2021-09-09T23:00:00+02:00,2021-09-10T00:00:00+02:00,131.64,EUR,845.000,MWh
Power,Intraday,Continuous,NL,ID1,H,2021-09-09T00:00:00+02:00,2021-09-09T01:00:00+02:00,113.12,EUR,,MWh
Power,Intraday,Continuous,NL,ID1,H,2021-09-09T01:00:00+02:00,2021-09-09T02:00:00+02:00,114.19,EUR,,MWh
Power,Intraday,Continuous,NL,ID1,H,2021-09-09T02:00:00+02:00,2021-09-09T03:00:00+02:00,114.82,EUR,,MWh
Power,Intraday,Continuous,NL,ID1,H,2021-09-09T03:00:00+02:00,2021-09-09T04:00:00+02:00,119.60,EUR,32.400,MWh
Power,Intraday,Continuous,NL,ID1,H,2021-09-09T04:00:00+02:00,2021-09-09T05:00:00+02:00,113.59,EUR,,MWh
Power,Intraday,Continuous,NL,ID1,H,2021-09-09T05:00:00+02:00,2021-09-09T06:00:00+02:00,122.55,EUR,,MWh
Power,Intraday,Continuous,NL,ID1,H,2021-09-09T06:00:00+02:00,2021-09-09T07:00:00+02:00,151.09,EUR,,MWh
Power,Intraday,Continuous,NL,ID1,H,2021-09-09T07:00:00+02:00,2021-09-09T08:00:00+02:00,193.62,EUR,19.900,MWh
Power,Intraday,Continuous,NL,ID1,H,2021-09-09T08:00:00+02:00,2021-09-09T09:00:00+02:00,188.00,EUR,44.200,MWh
Power,Intraday,Continuous,NL,ID1,H,2021-09-09T09:00:00+02:00,2021-09-09T10:00:00+02:00,125.45,EUR,45.000,MWh
Power,Intraday,Continuous,NL,ID1,H,2021-09-09T10:00:00+02:00,2021-09-09T11:00:00+02:00,105.54,EUR,64.300,MWh
Power,Intraday,Continuous,NL,ID1,H,2021-09-09T11:00:00+02:00,2021-09-09T12:00:00+02:00,117.00,EUR,195.000,MWh
Power,Intraday,Continuous,NL,ID1,H,2021-09-09T12:00:00+02:00,2021-09-09T13:00:00+02:00,115.56,EUR,30.700,MWh
Power,Intraday,Continuous,NL,ID1,H,2021-09-09T13:00:00+02:00,2021-09-09T14:00:00+02:00,82.36,EUR,566.000,MWh
Power,Intraday,Continuous,NL,ID1,H,2021-09-09T14:00:00+02:00,2021-09-09T15:00:00+02:00,122.84,EUR,116.300,MWh
Power,Intraday,Continuous,NL,ID1,H,2021-09-09T15:00:00+02:00,2021-09-09T16:00:00+02:00,126.81,EUR,53.900,MWh
Power,Intraday,Continuous,NL,ID1,H,2021-09-09T16:00:00+02:00,2021-09-09T17:00:00+02:00,165.81,EUR,54.200,MWh
Power,Intraday,Continuous,NL,ID1,H,2021-09-09T17:00:00+02:00,2021-09-09T18:00:00+02:00,227.09,EUR,39.400,MWh
Power,Intraday,Continuous,NL,ID1,H,2021-09-09T18:00:00+02:00,2021-09-09T19:00:00+02:00,222.87,EUR,63.400,MWh
Power,Intraday,Continuous,NL,ID1,H,2021-09-09T19:00:00+02:00,2021-09-09T20:00:00+02:00,239.63,EUR,29.600,MWh
Power,Intraday,Continuous,NL,ID1,H,2021-09-09T20:00:00+02:00,2021-09-09T21:00:00+02:00,285.08,EUR,40.000,MWh
Power,Intraday,Continuous,NL,ID1,H,2021-09-09T21:00:00+02:00,2021-09-09T22:00:00+02:00,209.28,EUR,,MWh
Power,Intraday,Continuous,NL,ID1,H,2021-09-09T22:00:00+02:00,2021-09-09T23:00:00+02:00,139.21,EUR,11.200,MWh
Power,Intraday,Continuous,NL,ID1,H,2021-09-09T23:00:00+02:00,2021-09-10T00:00:00+02:00,263.70,EUR,20.000,MWh
Power,Intraday,Continuous,NL,ID3,H,2021-09-09T00:00:00+02:00,2021-09-09T01:00:00+02:00,113.12,EUR,659.500,MWh
Power,Intraday,Continuous,NL,ID3,H,2021-09-09T01:00:00+02:00,2021-09-09T02:00:00+02:00,114.19,EUR,484.900,MWh
Power,Intraday,Continuous,NL,ID3,H,2021-09-09T02:00:00+02:00,2021-09-09T03:00:00+02:00,114.82,EUR,254.300,MWh
Power,Intraday,Continuous,NL,ID3,H,2021-09-09T03:00:00+02:00,2021-09-09T04:00:00+02:00,111.94,EUR,483.500,MWh
Power,Intraday,Continuous,NL,ID3,H,2021-09-09T04:00:00+02:00,2021-09-09T05:00:00+02:00,113.59,EUR,655.800,MWh
Power,Intraday,Continuous,NL,ID3,H,2021-09-09T05:00:00+02:00,2021-09-09T06:00:00+02:00,122.55,EUR,431.400,MWh
Power,Intraday,Continuous,NL,ID3,H,2021-09-09T06:00:00+02:00,2021-09-09T07:00:00+02:00,151.09,EUR,531.000,MWh
Power,Intraday,Continuous,NL,ID3,H,2021-09-09T07:00:00+02:00,2021-09-09T08:00:00+02:00,155.11,EUR,604.600,MWh
Power,Intraday,Continuous,NL,ID3,H,2021-09-09T08:00:00+02:00,2021-09-09T09:00:00+02:00,167.48,EUR,706.300,MWh
Power,Intraday,Continuous,NL,ID3,H,2021-09-09T09:00:00+02:00,2021-09-09T10:00:00+02:00,153.47,EUR,746.100,MWh
Power,Intraday,Continuous,NL,ID3,H,2021-09-09T10:00:00+02:00,2021-09-09T11:00:00+02:00,108.18,EUR,451.400,MWh
Power,Intraday,Continuous,NL,ID3,H,2021-09-09T11:00:00+02:00,2021-09-09T12:00:00+02:00,105.54,EUR,775.500,MWh
Power,Intraday,Continuous,NL,ID3,H,2021-09-09T12:00:00+02:00,2021-09-09T13:00:00+02:00,115.03,EUR,1194.100,MWh
Power,Intraday,Continuous,NL,ID3,H,2021-09-09T13:00:00+02:00,2021-09-09T14:00:00+02:00,109.42,EUR,2259.300,MWh
Power,Intraday,Continuous,NL,ID3,H,2021-09-09T14:00:00+02:00,2021-09-09T15:00:00+02:00,109.81,EUR,1024.600,MWh
Power,Intraday,Continuous,NL,ID3,H,2021-09-09T15:00:00+02:00,2021-09-09T16:00:00+02:00,126.80,EUR,908.600,MWh
Power,Intraday,Continuous,NL,ID3,H,2021-09-09T16:00:00+02:00,2021-09-09T17:00:00+02:00,167.89,EUR,417.000,MWh
Power,Intraday,Continuous,NL,ID3,H,2021-09-09T17:00:00+02:00,2021-09-09T18:00:00+02:00,251.55,EUR,421.700,MWh
Power,Intraday,Continuous,NL,ID3,H,2021-09-09T18:00:00+02:00,2021-09-09T19:00:00+02:00,223.30,EUR,307.600,MWh
Power,Intraday,Continuous,NL,ID3,H,2021-09-09T19:00:00+02:00,2021-09-09T20:00:00+02:00,234.22,EUR,498.500,MWh
Power,Intraday,Continuous,NL,ID3,H,2021-09-09T20:00:00+02:00,2021-09-09T21:00:00+02:00,271.69,EUR,361.900,MWh
Power,Intraday,Continuous,NL,ID3,H,2021-09-09T21:00:00+02:00,2021-09-09T22:00:00+02:00,209.28,EUR,314.800,MWh
Power,Intraday,Continuous,NL,ID3,H,2021-09-09T22:00:00+02:00,2021-09-09T23:00:00+02:00,148.86,EUR,551.500,MWh
Power,Intraday,Continuous,NL,ID3,H,2021-09-09T23:00:00+02:00,2021-09-10T00:00:00+02:00,131.61,EUR,680.800,MWh
Power,Intraday,Continuous,NL,IDFULL,HH,2021-09-09T00:00:00+02:00,2021-09-09T00:30:00+02:00,113.11,EUR,,MWh
Power,Intraday,Continuous,NL,IDFULL,HH,2021-09-09T00:30:00+02:00,2021-09-09T01:00:00+02:00,113.11,EUR,,MWh
Power,Intraday,Continuous,NL,IDFULL,HH,2021-09-09T01:00:00+02:00,2021-09-09T01:30:00+02:00,113.09,EUR,,MWh
Power,Intraday,Continuous,NL,IDFULL,HH,2021-09-09T01:30:00+02:00,2021-09-09T02:00:00+02:00,113.09,EUR,,MWh
Power,Intraday,Continuous,NL,IDFULL,HH,2021-09-09T02:00:00+02:00,2021-09-09T02:30:00+02:00,112.89,EUR,,MWh
Power,Intraday,Continuous,NL,IDFULL,HH,2021-09-09T02:30:00+02:00,2021-09-09T03:00:00+02:00,112.89,EUR,,MWh
Power,Intraday,Continuous,NL,IDFULL,HH,2021-09-09T03:00:00+02:00,2021-09-09T03:30:00+02:00,110.45,EUR,,MWh
Power,Intraday,Continuous,NL,IDFULL,HH,2021-09-09T03:30:00+02:00,2021-09-09T04:00:00+02:00,110.45,EUR,,MWh
Power,Intraday,Continuous,NL,IDFULL,HH,2021-09-09T04:00:00+02:00,2021-09-09T04:30:00+02:00,112.87,EUR,5.200,MWh
Power,Intraday,Continuous,NL,IDFULL,HH,2021-09-09T04:30:00+02:00,2021-09-09T05:00:00+02:00,111.87,EUR,,MWh
Power,Intraday,Continuous,NL,IDFULL,HH,2021-09-09T05:00:00+02:00,2021-09-09T05:30:00+02:00,123.58,EUR,,MWh
Power,Intraday,Continuous,NL,IDFULL,HH,2021-09-09T05:30:00+02:00,2021-09-09T06:00:00+02:00,123.58,EUR,,MWh
Power,Intraday,Continuous,NL,IDFULL,HH,2021-09-09T06:00:00+02:00,2021-09-09T06:30:00+02:00,149.72,EUR,,MWh
Power,Intraday,Continuous,NL,IDFULL,HH,2021-09-09T06:30:00+02:00,2021-09-09T07:00:00+02:00,149.72,EUR,,MWh
Power,Intraday,Continuous,NL,IDFULL,HH,2021-09-09T07:00:00+02:00,2021-09-09T07:30:00+02:00,155.32,EUR,,MWh
Power,Intraday,Continuous,NL,IDFULL,HH,2021-09-09T07:30:00+02:00,2021-09-09T08:00:00+02:00,155.32,EUR,,MWh
Power,Intraday,Continuous,NL,IDFULL,HH,2021-09-09T08:00:00+02:00,2021-09-09T08:30:00+02:00,163.06,EUR,,MWh
Power,Intraday,Continuous,NL,IDFULL,HH,2021-09-09T08:30:00+02:00,2021-09-09T09:00:00+02:00,163.06,EUR,,MWh
Power,Intraday,Continuous,NL,IDFULL,HH,2021-09-09T09:00:00+02:00,2021-09-09T09:30:00+02:00,153.53,EUR,,MWh
Power,Intraday,Continuous,NL,IDFULL,HH,2021-09-09T09:30:00+02:00,2021-09-09T10:00:00+02:00,153.53,EUR,,MWh
Power,Intraday,Continuous,NL,IDFULL,HH,2021-09-09T10:00:00+02:00,2021-09-09T10:30:00+02:00,116.61,EUR,,MWh
Power,Intraday,Continuous,NL,IDFULL,HH,2021-09-09T10:30:00+02:00,2021-09-09T11:00:00+02:00,116.61,EUR,,MWh
Power,Intraday,Continuous,NL,IDFULL,HH,2021-09-09T11:00:00+02:00,2021-09-09T11:30:00+02:00,110.99,EUR,,MWh
Power,Intraday,Continuous,NL,IDFULL,HH,2021-09-09T11:30:00+02:00,2021-09-09T12:00:00+02:00,110.99,EUR,,MWh
Power,Intraday,Continuous,NL,IDFULL,HH,2021-09-09T12:00:00+02:00,2021-09-09T12:30:00+02:00,115.50,EUR,,MWh
Power,Intraday,Continuous,NL,IDFULL,HH,2021-09-09T12:30:00+02:00,2021-09-09T13:00:00+02:00,115.50,EUR,,MWh
Power,Intraday,Continuous,NL,IDFULL,HH,2021-09-09T13:00:00+02:00,2021-09-09T13:30:00+02:00,111.50,EUR,,MWh
Power,Intraday,Continuous,NL,IDFULL,HH,2021-09-09T13:30:00+02:00,2021-09-09T14:00:00+02:00,111.50,EUR,,MWh
Power,Intraday,Continuous,NL,IDFULL,HH,2021-09-09T14:00:00+02:00,2021-09-09T14:30:00+02:00,114.63,EUR,,MWh
Power,Intraday,Continuous,NL,IDFULL,HH,2021-09-09T14:30:00+02:00,2021-09-09T15:00:00+02:00,114.63,EUR,,MWh
Power,Intraday,Continuous,NL,IDFULL,HH,2021-09-09T15:00:00+02:00,2021-09-09T15:30:00+02:00,130.65,EUR,,MWh
Power,Intraday,Continuous,NL,IDFULL,HH,2021-09-09T15:30:00+02:00,2021-09-09T16:00:00+02:00,130.65,EUR,,MWh
Power,Intraday,Continuous,NL,IDFULL,HH,2021-09-09T16:00:00+02:00,2021-09-09T16:30:00+02:00,171.82,EUR,,MWh
Power,Intraday,Continuous,NL,IDFULL,HH,2021-09-09T16:30:00+02:00,2021-09-09T17:00:00+02:00,171.82,EUR,,MWh
Power,Intraday,Continuous,NL,IDFULL,HH,2021-09-09T17:00:00+02:00,2021-09-09T17:30:00+02:00,117.62,EUR,5.950,MWh
Power,Intraday,Continuous,NL,IDFULL,HH,2021-09-09T17:30:00+02:00,2021-09-09T18:00:00+02:00,346.08,EUR,,MWh
Power,Intraday,Continuous,NL,IDFULL,HH,2021-09-09T18:00:00+02:00,2021-09-09T18:30:00+02:00,219.72,EUR,,MWh
Power,Intraday,Continuous,NL,IDFULL,HH,2021-09-09T18:30:00+02:00,2021-09-09T19:00:00+02:00,219.72,EUR,,MWh
Power,Intraday,Continuous,NL,IDFULL,HH,2021-09-09T19:00:00+02:00,2021-09-09T19:30:00+02:00,233.78,EUR,,MWh
Power,Intraday,Continuous,NL,IDFULL,HH,2021-09-09T19:30:00+02:00,2021-09-09T20:00:00+02:00,233.78,EUR,,MWh
Power,Intraday,Continuous,NL,IDFULL,HH,2021-09-09T20:00:00+02:00,2021-09-09T20:30:00+02:00,263.07,EUR,,MWh
Power,Intraday,Continuous,NL,IDFULL,HH,2021-09-09T20:30:00+02:00,2021-09-09T21:00:00+02:00,263.07,EUR,,MWh
Power,Intraday,Continuous,NL,IDFULL,HH,2021-09-09T21:00:00+02:00,2021-09-09T21:30:00+02:00,275.10,EUR,,MWh
Power,Intraday,Continuous,NL,IDFULL,HH,2021-09-09T21:30:00+02:00,2021-09-09T22:00:00+02:00,144.72,EUR,7.650,MWh
Power,Intraday,Continuous,NL,IDFULL,HH,2021-09-09T22:00:00+02:00,2021-09-09T22:30:00+02:00,165.86,EUR,,MWh
Power,Intraday,Continuous,NL,IDFULL,HH,2021-09-09T22:30:00+02:00,2021-09-09T23:00:00+02:00,141.76,EUR,9.950,MWh
Power,Intraday,Continuous,NL,IDFULL,HH,2021-09-09T23:00:00+02:00,2021-09-09T23:30:00+02:00,131.64,EUR,,MWh
Power,Intraday,Continuous,NL,IDFULL,HH,2021-09-09T23:30:00+02:00,2021-09-10T00:00:00+02:00,131.64,EUR,,MWh
Power,Intraday,Continuous,NL,ID1,HH,2021-09-09T00:00:00+02:00,2021-09-09T00:30:00+02:00,113.11,EUR,,MWh
Power,Intraday,Continuous,NL,ID1,HH,2021-09-09T00:30:00+02:00,2021-09-09T01:00:00+02:00,113.11,EUR,,MWh
Power,Intraday,Continuous,NL,ID1,HH,2021-09-09T01:00:00+02:00,2021-09-09T01:30:00+02:00,113.09,EUR,,MWh
Power,Intraday,Continuous,NL,ID1,HH,2021-09-09T01:30:00+02:00,2021-09-09T02:00:00+02:00,113.09,EUR,,MWh
Power,Intraday,Continuous,NL,ID1,HH,2021-09-09T02:00:00+02:00,2021-09-09T02:30:00+02:00,112.89,EUR,,MWh
Power,Intraday,Continuous,NL,ID1,HH,2021-09-09T02:30:00+02:00,2021-09-09T03:00:00+02:00,112.89,EUR,,MWh
Power,Intraday,Continuous,NL,ID1,HH,2021-09-09T03:00:00+02:00,2021-09-09T03:30:00+02:00,110.45,EUR,,MWh
Power,Intraday,Continuous,NL,ID1,HH,2021-09-09T03:30:00+02:00,2021-09-09T04:00:00+02:00,110.45,EUR,,MWh
Power,Intraday,Continuous,NL,ID1,HH,2021-09-09T04:00:00+02:00,2021-09-09T04:30:00+02:00,112.87,EUR,,MWh
Power,Intraday,Continuous,NL,ID1,HH,2021-09-09T04:30:00+02:00,2021-09-09T05:00:00+02:00,111.87,EUR,,MWh
Power,Intraday,Continuous,NL,ID1,HH,2021-09-09T05:00:00+02:00,2021-09-09T05:30:00+02:00,123.58,EUR,,MWh
Power,Intraday,Continuous,NL,ID1,HH,2021-09-09T05:30:00+02:00,2021-09-09T06:00:00+02:00,123.58,EUR,,MWh
Power,Intraday,Continuous,NL,ID1,HH,2021-09-09T06:00:00+02:00,2021-09-09T06:30:00+02:00,149.72,EUR,,MWh
Power,Intraday,Continuous,NL,ID1,HH,2021-09-09T06:30:00+02:00,2021-09-09T07:00:00+02:00,149.72,EUR,,MWh
Power,Intraday,Continuous,NL,ID1,HH,2021-09-09T07:00:00+02:00,2021-09-09T07:30:00+02:00,155.32,EUR,,MWh
Power,Intraday,Continuous,NL,ID1,HH,2021-09-09T07:30:00+02:00,2021-09-09T08:00:00+02:00,155.32,EUR,,MWh
Power,Intraday,Continuous,NL,ID1,HH,2021-09-09T08:00:00+02:00,2021-09-09T08:30:00+02:00,163.06,EUR,,MWh
Power,Intraday,Continuous,NL,ID1,HH,2021-09-09T08:30:00+02:00,2021-09-09T09:00:00+02:00,163.06,EUR,,MWh
Power,Intraday,Continuous,NL,ID1,HH,2021-09-09T09:00:00+02:00,2021-09-09T09:30:00+02:00,153.53,EUR,,MWh
Power,Intraday,Continuous,NL,ID1,HH,2021-09-09T09:30:00+02:00,2021-09-09T10:00:00+02:00,153.53,EUR,,MWh
Power,Intraday,Continuous,NL,ID1,HH,2021-09-09T10:00:00+02:00,2021-09-09T10:30:00+02:00,116.61,EUR,,MWh
Power,Intraday,Continuous,NL,ID1,HH,2021-09-09T10:30:00+02:00,2021-09-09T11:00:00+02:00,116.61,EUR,,MWh
Power,Intraday,Continuous,NL,ID1,HH,2021-09-09T11:00:00+02:00,2021-09-09T11:30:00+02:00,110.99,EUR,,MWh
Power,Intraday,Continuous,NL,ID1,HH,2021-09-09T11:30:00+02:00,2021-09-09T12:00:00+02:00,110.99,EUR,,MWh
Power,Intraday,Continuous,NL,ID1,HH,2021-09-09T12:00:00+02:00,2021-09-09T12:30:00+02:00,115.50,EUR,,MWh
Power,Intraday,Continuous,NL,ID1,HH,2021-09-09T12:30:00+02:00,2021-09-09T13:00:00+02:00,115.50,EUR,,MWh
Power,Intraday,Continuous,NL,ID1,HH,2021-09-09T13:00:00+02:00,2021-09-09T13:30:00+02:00,111.50,EUR,,MWh
Power,Intraday,Continuous,NL,ID1,HH,2021-09-09T13:30:00+02:00,2021-09-09T14:00:00+02:00,111.50,EUR,,MWh
Power,Intraday,Continuous,NL,ID1,HH,2021-09-09T14:00:00+02:00,2021-09-09T14:30:00+02:00,114.63,EUR,,MWh
Power,Intraday,Continuous,NL,ID1,HH,2021-09-09T14:30:00+02:00,2021-09-09T15:00:00+02:00,114.63,EUR,,MWh
Power,Intraday,Continuous,NL,ID1,HH,2021-09-09T15:00:00+02:00,2021-09-09T15:30:00+02:00,130.65,EUR,,MWh
Power,Intraday,Continuous,NL,ID1,HH,2021-09-09T15:30:00+02:00,2021-09-09T16:00:00+02:00,130.65,EUR,,MWh
Power,Intraday,Continuous,NL,ID1,HH,2021-09-09T16:00:00+02:00,2021-09-09T16:30:00+02:00,171.82,EUR,,MWh
Power,Intraday,Continuous,NL,ID1,HH,2021-09-09T16:30:00+02:00,2021-09-09T17:00:00+02:00,171.82,EUR,,MWh
Power,Intraday,Continuous,NL,ID1,HH,2021-09-09T17:00:00+02:00,2021-09-09T17:30:00+02:00,117.62,EUR,,MWh
Power,Intraday,Continuous,NL,ID1,HH,2021-09-09T17:30:00+02:00,2021-09-09T18:00:00+02:00,346.08,EUR,,MWh
Power,Intraday,Continuous,NL,ID1,HH,2021-09-09T18:00:00+02:00,2021-09-09T18:30:00+02:00,219.72,EUR,,MWh
Power,Intraday,Continuous,NL,ID1,HH,2021-09-09T18:30:00+02:00,2021-09-09T19:00:00+02:00,219.72,EUR,,MWh
Power,Intraday,Continuous,NL,ID1,HH,2021-09-09T19:00:00+02:00,2021-09-09T19:30:00+02:00,233.78,EUR,,MWh
Power,Intraday,Continuous,NL,ID1,HH,2021-09-09T19:30:00+02:00,2021-09-09T20:00:00+02:00,233.78,EUR,,MWh
Power,Intraday,Continuous,NL,ID1,HH,2021-09-09T20:00:00+02:00,2021-09-09T20:30:00+02:00,263.07,EUR,,MWh
Power,Intraday,Continuous,NL,ID1,HH,2021-09-09T20:30:00+02:00,2021-09-09T21:00:00+02:00,263.07,EUR,,MWh
Power,Intraday,Continuous,NL,ID1,HH,2021-09-09T21:00:00+02:00,2021-09-09T21:30:00+02:00,275.10,EUR,,MWh
Power,Intraday,Continuous,NL,ID1,HH,2021-09-09T21:30:00+02:00,2021-09-09T22:00:00+02:00,144.72,EUR,,MWh
Power,Intraday,Continuous,NL,ID1,HH,2021-09-09T22:00:00+02:00,2021-09-09T22:30:00+02:00,165.86,EUR,,MWh
Power,Intraday,Continuous,NL,ID1,HH,2021-09-09T22:30:00+02:00,2021-09-09T23:00:00+02:00,142.69,EUR,,MWh
Power,Intraday,Continuous,NL,ID1,HH,2021-09-09T23:00:00+02:00,2021-09-09T23:30:00+02:00,131.64,EUR,,MWh
Power,Intraday,Continuous,NL,ID1,HH,2021-09-09T23:30:00+02:00,2021-09-10T00:00:00+02:00,131.64,EUR,,MWh
Power,Intraday,Continuous,NL,ID3,HH,2021-09-09T00:00:00+02:00,2021-09-09T00:30:00+02:00,113.11,EUR,,MWh
Power,Intraday,Continuous,NL,ID3,HH,2021-09-09T00:30:00+02:00,2021-09-09T01:00:00+02:00,113.11,EUR,,MWh
Power,Intraday,Continuous,NL,ID3,HH,2021-09-09T01:00:00+02:00,2021-09-09T01:30:00+02:00,113.09,EUR,,MWh
Power,Intraday,Continuous,NL,ID3,HH,2021-09-09T01:30:00+02:00,2021-09-09T02:00:00+02:00,113.09,EUR,,MWh
Power,Intraday,Continuous,NL,ID3,HH,2021-09-09T02:00:00+02:00,2021-09-09T02:30:00+02:00,112.89,EUR,,MWh
Power,Intraday,Continuous,NL,ID3,HH,2021-09-09T02:30:00+02:00,2021-09-09T03:00:00+02:00,112.89,EUR,,MWh
Power,Intraday,Continuous,NL,ID3,HH,2021-09-09T03:00:00+02:00,2021-09-09T03:30:00+02:00,110.45,EUR,,MWh
Power,Intraday,Continuous,NL,ID3,HH,2021-09-09T03:30:00+02:00,2021-09-09T04:00:00+02:00,110.45,EUR,,MWh
Power,Intraday,Continuous,NL,ID3,HH,2021-09-09T04:00:00+02:00,2021-09-09T04:30:00+02:00,112.87,EUR,,MWh
Power,Intraday,Continuous,NL,ID3,HH,2021-09-09T04:30:00+02:00,2021-09-09T05:00:00+02:00,111.87,EUR,,MWh
Power,Intraday,Continuous,NL,ID3,HH,2021-09-09T05:00:00+02:00,2021-09-09T05:30:00+02:00,123.58,EUR,,MWh
Power,Intraday,Continuous,NL,ID3,HH,2021-09-09T05:30:00+02:00,2021-09-09T06:00:00+02:00,123.58,EUR,,MWh
Power,Intraday,Continuous,NL,ID3,HH,2021-09-09T06:00:00+02:00,2021-09-09T06:30:00+02:00,149.72,EUR,,MWh
Power,Intraday,Continuous,NL,ID3,HH,2021-09-09T06:30:00+02:00,2021-09-09T07:00:00+02:00,149.72,EUR,,MWh
Power,Intraday,Continuous,NL,ID3,HH,2021-09-09T07:00:00+02:00,2021-09-09T07:30:00+02:00,155.32,EUR,,MWh
Power,Intraday,Continuous,NL,ID3,HH,2021-09-09T07:30:00+02:00,2021-09-09T08:00:00+02:00,155.32,EUR,,MWh
Power,Intraday,Continuous,NL,ID3,HH,2021-09-09T08:00:00+02:00,2021-09-09T08:30:00+02:00,163.06,EUR,,MWh
Power,Intraday,Continuous,NL,ID3,HH,2021-09-09T08:30:00+02:00,2021-09-09T09:00:00+02:00,163.06,EUR,,MWh
Power,Intraday,Continuous,NL,ID3,HH,2021-09-09T09:00:00+02:00,2021-09-09T09:30:00+02:00,153.53,EUR,,MWh
Power,Intraday,Continuous,NL,ID3,HH,2021-09-09T09:30:00+02:00,2021-09-09T10:00:00+02:00,153.53,EUR,,MWh
Power,Intraday,Continuous,NL,ID3,HH,2021-09-09T10:00:00+02:00,2021-09-09T10:30:00+02:00,116.61,EUR,,MWh
Power,Intraday,Continuous,NL,ID3,HH,2021-09-09T10:30:00+02:00,2021-09-09T11:00:00+02:00,116.61,EUR,,MWh
Power,Intraday,Continuous,NL,ID3,HH,2021-09-09T11:00:00+02:00,2021-09-09T11:30:00+02:00,110.99,EUR,,MWh
Power,Intraday,Continuous,NL,ID3,HH,2021-09-09T11:30:00+02:00,2021-09-09T12:00:00+02:00,110.99,EUR,,MWh
Power,Intraday,Continuous,NL,ID3,HH,2021-09-09T12:00:00+02:00,2021-09-09T12:30:00+02:00,115.50,EUR,,MWh
Power,Intraday,Continuous,NL,ID3,HH,2021-09-09T12:30:00+02:00,2021-09-09T13:00:00+02:00,115.50,EUR,,MWh
Power,Intraday,Continuous,NL,ID3,HH,2021-09-09T13:00:00+02:00,2021-09-09T13:30:00+02:00,111.50,EUR,,MWh
Power,Intraday,Continuous,NL,ID3,HH,2021-09-09T13:30:00+02:00,2021-09-09T14:00:00+02:00,111.50,EUR,,MWh
Power,Intraday,Continuous,NL,ID3,HH,2021-09-09T14:00:00+02:00,2021-09-09T14:30:00+02:00,114.63,EUR,,MWh
Power,Intraday,Continuous,NL,ID3,HH,2021-09-09T14:30:00+02:00,2021-09-09T15:00:00+02:00,114.63,EUR,,MWh
Power,Intraday,Continuous,NL,ID3,HH,2021-09-09T15:00:00+02:00,2021-09-09T15:30:00+02:00,130.65,EUR,,MWh
Power,Intraday,Continuous,NL,ID3,HH,2021-09-09T15:30:00+02:00,2021-09-09T16:00:00+02:00,130.65,EUR,,MWh
Power,Intraday,Continuous,NL,ID3,HH,2021-09-09T16:00:00+02:00,2021-09-09T16:30:00+02:00,171.82,EUR,,MWh
Power,Intraday,Continuous,NL,ID3,HH,2021-09-09T16:30:00+02:00,2021-09-09T17:00:00+02:00,171.82,EUR,,MWh
Power,Intraday,Continuous,NL,ID3,HH,2021-09-09T17:00:00+02:00,2021-09-09T17:30:00+02:00,117.62,EUR,5.950,MWh
Power,Intraday,Continuous,NL,ID3,HH,2021-09-09T17:30:00+02:00,2021-09-09T18:00:00+02:00,346.08,EUR,,MWh
Power,Intraday,Continuous,NL,ID3,HH,2021-09-09T18:00:00+02:00,2021-09-09T18:30:00+02:00,219.72,EUR,,MWh
Power,Intraday,Continuous,NL,ID3,HH,2021-09-09T18:30:00+02:00,2021-09-09T19:00:00+02:00,219.72,EUR,,MWh
Power,Intraday,Continuous,NL,ID3,HH,2021-09-09T19:00:00+02:00,2021-09-09T19:30:00+02:00,233.78,EUR,,MWh
Power,Intraday,Continuous,NL,ID3,HH,2021-09-09T19:30:00+02:00,2021-09-09T20:00:00+02:00,233.78,EUR,,MWh
Power,Intraday,Continuous,NL,ID3,HH,2021-09-09T20:00:00+02:00,2021-09-09T20:30:00+02:00,263.07,EUR,,MWh
Power,Intraday,Continuous,NL,ID3,HH,2021-09-09T20:30:00+02:00,2021-09-09T21:00:00+02:00,263.07,EUR,,MWh
Power,Intraday,Continuous,NL,ID3,HH,2021-09-09T21:00:00+02:00,2021-09-09T21:30:00+02:00,275.10,EUR,,MWh
Power,Intraday,Continuous,NL,ID3,HH,2021-09-09T21:30:00+02:00,2021-09-09T22:00:00+02:00,144.72,EUR,,MWh
Power,Intraday,Continuous,NL,ID3,HH,2021-09-09T22:00:00+02:00,2021-09-09T22:30:00+02:00,165.86,EUR,,MWh
Power,Intraday,Continuous,NL,ID3,HH,2021-09-09T22:30:00+02:00,2021-09-09T23:00:00+02:00,142.69,EUR,7.900,MWh
Power,Intraday,Continuous,NL,ID3,HH,2021-09-09T23:00:00+02:00,2021-09-09T23:30:00+02:00,131.64,EUR,,MWh
Power,Intraday,Continuous,NL,ID3,HH,2021-09-09T23:30:00+02:00,2021-09-10T00:00:00+02:00,131.64,EUR,,MWh
Power,Intraday,Continuous,NL,IDFULL,QH,2021-09-09T00:00:00+02:00,2021-09-09T00:15:00+02:00,130.34,EUR,30.330,MWh
Power,Intraday,Continuous,NL,IDFULL,QH,2021-09-09T00:15:00+02:00,2021-09-09T00:30:00+02:00,110.45,EUR,18.850,MWh
Power,Intraday,Continuous,NL,IDFULL,QH,2021-09-09T00:30:00+02:00,2021-09-09T00:45:00+02:00,106.61,EUR,20.000,MWh
Power,Intraday,Continuous,NL,IDFULL,QH,2021-09-09T00:45:00+02:00,2021-09-09T01:00:00+02:00,99.75,EUR,46.100,MWh
Power,Intraday,Continuous,NL,IDFULL,QH,2021-09-09T01:00:00+02:00,2021-09-09T01:15:00+02:00,119.57,EUR,19.780,MWh
Power,Intraday,Continuous,NL,IDFULL,QH,2021-09-09T01:15:00+02:00,2021-09-09T01:30:00+02:00,113.39,EUR,39.580,MWh
Power,Intraday,Continuous,NL,IDFULL,QH,2021-09-09T01:30:00+02:00,2021-09-09T01:45:00+02:00,107.67,EUR,39.650,MWh
Power,Intraday,Continuous,NL,IDFULL,QH,2021-09-09T01:45:00+02:00,2021-09-09T02:00:00+02:00,107.47,EUR,35.500,MWh
Power,Intraday,Continuous,NL,IDFULL,QH,2021-09-09T02:00:00+02:00,2021-09-09T02:15:00+02:00,114.85,EUR,23.530,MWh
Power,Intraday,Continuous,NL,IDFULL,QH,2021-09-09T02:15:00+02:00,2021-09-09T02:30:00+02:00,111.17,EUR,38.330,MWh
Power,Intraday,Continuous,NL,IDFULL,QH,2021-09-09T02:30:00+02:00,2021-09-09T02:45:00+02:00,114.34,EUR,42.080,MWh
Power,Intraday,Continuous,NL,IDFULL,QH,2021-09-09T02:45:00+02:00,2021-09-09T03:00:00+02:00,114.76,EUR,39.780,MWh
Power,Intraday,Continuous,NL,IDFULL,QH,2021-09-09T03:00:00+02:00,2021-09-09T03:15:00+02:00,109.88,EUR,20.080,MWh
Power,Intraday,Continuous,NL,IDFULL,QH,2021-09-09T03:15:00+02:00,2021-09-09T03:30:00+02:00,109.29,EUR,49.430,MWh
Power,Intraday,Continuous,NL,IDFULL,QH,2021-09-09T03:30:00+02:00,2021-09-09T03:45:00+02:00,106.90,EUR,37.850,MWh
Power,Intraday,Continuous,NL,IDFULL,QH,2021-09-09T03:45:00+02:00,2021-09-09T04:00:00+02:00,110.97,EUR,36.200,MWh
Power,Intraday,Continuous,NL,IDFULL,QH,2021-09-09T04:00:00+02:00,2021-09-09T04:15:00+02:00,96.47,EUR,18.030,MWh
Power,Intraday,Continuous,NL,IDFULL,QH,2021-09-09T04:15:00+02:00,2021-09-09T04:30:00+02:00,103.39,EUR,7.200,MWh
Power,Intraday,Continuous,NL,IDFULL,QH,2021-09-09T04:30:00+02:00,2021-09-09T04:45:00+02:00,118.26,EUR,39.980,MWh
Power,Intraday,Continuous,NL,IDFULL,QH,2021-09-09T04:45:00+02:00,2021-09-09T05:00:00+02:00,123.51,EUR,30.800,MWh
Power,Intraday,Continuous,NL,IDFULL,QH,2021-09-09T05:00:00+02:00,2021-09-09T05:15:00+02:00,110.84,EUR,4.350,MWh
Power,Intraday,Continuous,NL,IDFULL,QH,2021-09-09T05:15:00+02:00,2021-09-09T05:30:00+02:00,110.75,EUR,20.550,MWh
Power,Intraday,Continuous,NL,IDFULL,QH,2021-09-09T05:30:00+02:00,2021-09-09T05:45:00+02:00,121.46,EUR,23.080,MWh
Power,Intraday,Continuous,NL,IDFULL,QH,2021-09-09T05:45:00+02:00,2021-09-09T06:00:00+02:00,133.91,EUR,34.630,MWh
Power,Intraday,Continuous,NL,IDFULL,QH,2021-09-09T06:00:00+02:00,2021-09-09T06:15:00+02:00,110.16,EUR,36.100,MWh
Power,Intraday,Continuous,NL,IDFULL,QH,2021-09-09T06:15:00+02:00,2021-09-09T06:30:00+02:00,151.81,EUR,8.400,MWh
Power,Intraday,Continuous,NL,IDFULL,QH,2021-09-09T06:30:00+02:00,2021-09-09T06:45:00+02:00,155.52,EUR,31.530,MWh
Power,Intraday,Continuous,NL,IDFULL,QH,2021-09-09T06:45:00+02:00,2021-09-09T07:00:00+02:00,159.86,EUR,41.400,MWh
Power,Intraday,Continuous,NL,IDFULL,QH,2021-09-09T07:00:00+02:00,2021-09-09T07:15:00+02:00,142.87,EUR,40.380,MWh
Power,Intraday,Continuous,NL,IDFULL,QH,2021-09-09T07:15:00+02:00,2021-09-09T07:30:00+02:00,153.16,EUR,21.380,MWh
Power,Intraday,Continuous,NL,IDFULL,QH,2021-09-09T07:30:00+02:00,2021-09-09T07:45:00+02:00,155.51,EUR,30.650,MWh
Power,Intraday,Continuous,NL,IDFULL,QH,2021-09-09T07:45:00+02:00,2021-09-09T08:00:00+02:00,163.89,EUR,43.380,MWh
Power,Intraday,Continuous,NL,IDFULL,QH,2021-09-09T08:00:00+02:00,2021-09-09T08:15:00+02:00,185.02,EUR,39.850,MWh
Power,Intraday,Continuous,NL,IDFULL,QH,2021-09-09T08:15:00+02:00,2021-09-09T08:30:00+02:00,174.49,EUR,40.130,MWh
Power,Intraday,Continuous,NL,IDFULL,QH,2021-09-09T08:30:00+02:00,2021-09-09T08:45:00+02:00,150.72,EUR,32.030,MWh
Power,Intraday,Continuous,NL,IDFULL,QH,2021-09-09T08:45:00+02:00,2021-09-09T09:00:00+02:00,137.09,EUR,33.780,MWh
Power,Intraday,Continuous,NL,IDFULL,QH,2021-09-09T09:00:00+02:00,2021-09-09T09:15:00+02:00,172.25,EUR,93.650,MWh
Power,Intraday,Continuous,NL,IDFULL,QH,2021-09-09T09:15:00+02:00,2021-09-09T09:30:00+02:00,155.99,EUR,52.250,MWh
Power,Intraday,Continuous,NL,IDFULL,QH,2021-09-09T09:30:00+02:00,2021-09-09T09:45:00+02:00,145.62,EUR,70.600,MWh
Power,Intraday,Continuous,NL,IDFULL,QH,2021-09-09T09:45:00+02:00,2021-09-09T10:00:00+02:00,123.49,EUR,109.330,MWh
Power,Intraday,Continuous,NL,IDFULL,QH,2021-09-09T10:00:00+02:00,2021-09-09T10:15:00+02:00,165.47,EUR,18.850,MWh
Power,Intraday,Continuous,NL,IDFULL,QH,2021-09-09T10:15:00+02:00,2021-09-09T10:30:00+02:00,91.62,EUR,17.080,MWh
Power,Intraday,Continuous,NL,IDFULL,QH,2021-09-09T10:30:00+02:00,2021-09-09T10:45:00+02:00,92.54,EUR,11.300,MWh
Power,Intraday,Continuous,NL,IDFULL,QH,2021-09-09T10:45:00+02:00,2021-09-09T11:00:00+02:00,83.63,EUR,24.030,MWh
Power,Intraday,Continuous,NL,IDFULL,QH,2021-09-09T11:00:00+02:00,2021-09-09T11:15:00+02:00,104.61,EUR,26.480,MWh
Power,Intraday,Continuous,NL,IDFULL,QH,2021-09-09T11:15:00+02:00,2021-09-09T11:30:00+02:00,91.75,EUR,19.230,MWh
Power,Intraday,Continuous,NL,IDFULL,QH,2021-09-09T11:30:00+02:00,2021-09-09T11:45:00+02:00,90.18,EUR,22.880,MWh
Power,Intraday,Continuous,NL,IDFULL,QH,2021-09-09T11:45:00+02:00,2021-09-09T12:00:00+02:00,107.74,EUR,37.450,MWh
Power,Intraday,Continuous,NL,IDFULL,QH,2021-09-09T12:00:00+02:00,2021-09-09T12:15:00+02:00,85.55,EUR,62.480,MWh
Power,Intraday,Continuous,NL,IDFULL,QH,2021-09-09T12:15:00+02:00,2021-09-09T12:30:00+02:00,134.15,EUR,10.080,MWh
Power,Intraday,Continuous,NL,IDFULL,QH,2021-09-09T12:30:00+02:00,2021-09-09T12:45:00+02:00,113.68,EUR,10.230,MWh
Power,Intraday,Continuous,NL,IDFULL,QH,2021-09-09T12:45:00+02:00,2021-09-09T13:00:00+02:00,109.82,EUR,12.130,MWh
Power,Intraday,Continuous,NL,IDFULL,QH,2021-09-09T13:00:00+02:00,2021-09-09T13:15:00+02:00,110.34,EUR,24.950,MWh
Power,Intraday,Continuous,NL,IDFULL,QH,2021-09-09T13:15:00+02:00,2021-09-09T13:30:00+02:00,107.65,EUR,11.700,MWh
Power,Intraday,Continuous,NL,IDFULL,QH,2021-09-09T13:30:00+02:00,2021-09-09T13:45:00+02:00,105.96,EUR,14.280,MWh
Power,Intraday,Continuous,NL,IDFULL,QH,2021-09-09T13:45:00+02:00,2021-09-09T14:00:00+02:00,99.09,EUR,31.700,MWh
Power,Intraday,Continuous,NL,IDFULL,QH,2021-09-09T14:00:00+02:00,2021-09-09T14:15:00+02:00,83.60,EUR,3.750,MWh
Power,Intraday,Continuous,NL,IDFULL,QH,2021-09-09T14:15:00+02:00,2021-09-09T14:30:00+02:00,143.46,EUR,,MWh
Power,Intraday,Continuous,NL,IDFULL,QH,2021-09-09T14:30:00+02:00,2021-09-09T14:45:00+02:00,88.00,EUR,11.250,MWh
Power,Intraday,Continuous,NL,IDFULL,QH,2021-09-09T14:45:00+02:00,2021-09-09T15:00:00+02:00,143.46,EUR,,MWh
Power,Intraday,Continuous,NL,IDFULL,QH,2021-09-09T15:00:00+02:00,2021-09-09T15:15:00+02:00,104.82,EUR,39.930,MWh
Power,Intraday,Continuous,NL,IDFULL,QH,2021-09-09T15:15:00+02:00,2021-09-09T15:30:00+02:00,114.25,EUR,46.700,MWh
Power,Intraday,Continuous,NL,IDFULL,QH,2021-09-09T15:30:00+02:00,2021-09-09T15:45:00+02:00,124.99,EUR,53.980,MWh
Power,Intraday,Continuous,NL,IDFULL,QH,2021-09-09T15:45:00+02:00,2021-09-09T16:00:00+02:00,149.41,EUR,29.900,MWh
Power,Intraday,Continuous,NL,IDFULL,QH,2021-09-09T16:00:00+02:00,2021-09-09T16:15:00+02:00,110.52,EUR,96.500,MWh
Power,Intraday,Continuous,NL,IDFULL,QH,2021-09-09T16:15:00+02:00,2021-09-09T16:30:00+02:00,138.39,EUR,62.500,MWh
Power,Intraday,Continuous,NL,IDFULL,QH,2021-09-09T16:30:00+02:00,2021-09-09T16:45:00+02:00,141.54,EUR,27.880,MWh
Power,Intraday,Continuous,NL,IDFULL,QH,2021-09-09T16:45:00+02:00,2021-09-09T17:00:00+02:00,168.23,EUR,7.850,MWh
Power,Intraday,Continuous,NL,IDFULL,QH,2021-09-09T17:00:00+02:00,2021-09-09T17:15:00+02:00,110.03,EUR,95.830,MWh
Power,Intraday,Continuous,NL,IDFULL,QH,2021-09-09T17:15:00+02:00,2021-09-09T17:30:00+02:00,137.22,EUR,51.350,MWh
Power,Intraday,Continuous,NL,IDFULL,QH,2021-09-09T17:30:00+02:00,2021-09-09T17:45:00+02:00,159.47,EUR,3.750,MWh
Power,Intraday,Continuous,NL,IDFULL,QH,2021-09-09T17:45:00+02:00,2021-09-09T18:00:00+02:00,520.68,EUR,,MWh
Power,Intraday,Continuous,NL,IDFULL,QH,2021-09-09T18:00:00+02:00,2021-09-09T18:15:00+02:00,139.07,EUR,16.000,MWh
Power,Intraday,Continuous,NL,IDFULL,QH,2021-09-09T18:15:00+02:00,2021-09-09T18:30:00+02:00,166.65,EUR,4.850,MWh
Power,Intraday,Continuous,NL,IDFULL,QH,2021-09-09T18:30:00+02:00,2021-09-09T18:45:00+02:00,286.58,EUR,,MWh
Power,Intraday,Continuous,NL,IDFULL,QH,2021-09-09T18:45:00+02:00,2021-09-09T19:00:00+02:00,286.58,EUR,,MWh
Power,Intraday,Continuous,NL,IDFULL,QH,2021-09-09T19:00:00+02:00,2021-09-09T19:15:00+02:00,181.88,EUR,8.330,MWh
Power,Intraday,Continuous,NL,IDFULL,QH,2021-09-09T19:15:00+02:00,2021-09-09T19:30:00+02:00,314.12,EUR,,MWh
Power,Intraday,Continuous,NL,IDFULL,QH,2021-09-09T19:30:00+02:00,2021-09-09T19:45:00+02:00,205.42,EUR,6.530,MWh
Power,Intraday,Continuous,NL,IDFULL,QH,2021-09-09T19:45:00+02:00,2021-09-09T20:00:00+02:00,233.70,EUR,5.050,MWh
Power,Intraday,Continuous,NL,IDFULL,QH,2021-09-09T20:00:00+02:00,2021-09-09T20:15:00+02:00,453.86,EUR,10.750,MWh
Power,Intraday,Continuous,NL,IDFULL,QH,2021-09-09T20:15:00+02:00,2021-09-09T20:30:00+02:00,270.43,EUR,6.980,MWh
Power,Intraday,Continuous,NL,IDFULL,QH,2021-09-09T20:30:00+02:00,2021-09-09T20:45:00+02:00,218.76,EUR,21.080,MWh
Power,Intraday,Continuous,NL,IDFULL,QH,2021-09-09T20:45:00+02:00,2021-09-09T21:00:00+02:00,174.89,EUR,25.900,MWh
Power,Intraday,Continuous,NL,IDFULL,QH,2021-09-09T21:00:00+02:00,2021-09-09T21:15:00+02:00,214.29,EUR,12.250,MWh
Power,Intraday,Continuous,NL,IDFULL,QH,2021-09-09T21:15:00+02:00,2021-09-09T21:30:00+02:00,174.52,EUR,6.600,MWh
Power,Intraday,Continuous,NL,IDFULL,QH,2021-09-09T21:30:00+02:00,2021-09-09T21:45:00+02:00,156.74,EUR,17.130,MWh
Power,Intraday,Continuous,NL,IDFULL,QH,2021-09-09T21:45:00+02:00,2021-09-09T22:00:00+02:00,129.14,EUR,29.630,MWh
Power,Intraday,Continuous,NL,IDFULL,QH,2021-09-09T22:00:00+02:00,2021-09-09T22:15:00+02:00,170.69,EUR,30.650,MWh
Power,Intraday,Continuous,NL,IDFULL,QH,2021-09-09T22:15:00+02:00,2021-09-09T22:30:00+02:00,147.11,EUR,27.780,MWh
Power,Intraday,Continuous,NL,IDFULL,QH,2021-09-09T22:30:00+02:00,2021-09-09T22:45:00+02:00,138.13,EUR,25.050,MWh
Power,Intraday,Continuous,NL,IDFULL,QH,2021-09-09T22:45:00+02:00,2021-09-09T23:00:00+02:00,117.11,EUR,41.500,MWh
Power,Intraday,Continuous,NL,IDFULL,QH,2021-09-09T23:00:00+02:00,2021-09-09T23:15:00+02:00,148.34,EUR,20.280,MWh
Power,Intraday,Continuous,NL,IDFULL,QH,2021-09-09T23:15:00+02:00,2021-09-09T23:30:00+02:00,125.00,EUR,12.180,MWh
Power,Intraday,Continuous,NL,IDFULL,QH,2021-09-09T23:30:00+02:00,2021-09-09T23:45:00+02:00,119.65,EUR,20.250,MWh
Power,Intraday,Continuous,NL,IDFULL,QH,2021-09-09T23:45:00+02:00,2021-09-10T00:00:00+02:00,110.99,EUR,39.850,MWh
Power,Intraday,Continuous,NL,ID1,QH,2021-09-09T00:00:00+02:00,2021-09-09T00:15:00+02:00,130.38,EUR,,MWh
Power,Intraday,Continuous,NL,ID1,QH,2021-09-09T00:15:00+02:00,2021-09-09T00:30:00+02:00,110.45,EUR,,MWh
Power,Intraday,Continuous,NL,ID1,QH,2021-09-09T00:30:00+02:00,2021-09-09T00:45:00+02:00,106.58,EUR,,MWh
Power,Intraday,Continuous,NL,ID1,QH,2021-09-09T00:45:00+02:00,2021-09-09T01:00:00+02:00,99.72,EUR,,MWh
Power,Intraday,Continuous,NL,ID1,QH,2021-09-09T01:00:00+02:00,2021-09-09T01:15:00+02:00,119.84,EUR,,MWh
Power,Intraday,Continuous,NL,ID1,QH,2021-09-09T01:15:00+02:00,2021-09-09T01:30:00+02:00,113.33,EUR,,MWh
Power,Intraday,Continuous,NL,ID1,QH,2021-09-09T01:30:00+02:00,2021-09-09T01:45:00+02:00,107.55,EUR,,MWh
Power,Intraday,Continuous,NL,ID1,QH,2021-09-09T01:45:00+02:00,2021-09-09T02:00:00+02:00,107.70,EUR,,MWh
Power,Intraday,Continuous,NL,ID1,QH,2021-09-09T02:00:00+02:00,2021-09-09T02:15:00+02:00,115.46,EUR,,MWh
Power,Intraday,Continuous,NL,ID1,QH,2021-09-09T02:15:00+02:00,2021-09-09T02:30:00+02:00,111.41,EUR,,MWh
Power,Intraday,Continuous,NL,ID1,QH,2021-09-09T02:30:00+02:00,2021-09-09T02:45:00+02:00,114.53,EUR,,MWh
Power,Intraday,Continuous,NL,ID1,QH,2021-09-09T02:45:00+02:00,2021-09-09T03:00:00+02:00,115.94,EUR,,MWh
Power,Intraday,Continuous,NL,ID1,QH,2021-09-09T03:00:00+02:00,2021-09-09T03:15:00+02:00,110.02,EUR,,MWh
Power,Intraday,Continuous,NL,ID1,QH,2021-09-09T03:15:00+02:00,2021-09-09T03:30:00+02:00,109.42,EUR,,MWh
Power,Intraday,Continuous,NL,ID1,QH,2021-09-09T03:30:00+02:00,2021-09-09T03:45:00+02:00,106.83,EUR,,MWh
Power,Intraday,Continuous,NL,ID1,QH,2021-09-09T03:45:00+02:00,2021-09-09T04:00:00+02:00,111.08,EUR,,MWh
Power,Intraday,Continuous,NL,ID1,QH,2021-09-09T04:00:00+02:00,2021-09-09T04:15:00+02:00,97.13,EUR,,MWh
Power,Intraday,Continuous,NL,ID1,QH,2021-09-09T04:15:00+02:00,2021-09-09T04:30:00+02:00,104.93,EUR,,MWh
Power,Intraday,Continuous,NL,ID1,QH,2021-09-09T04:30:00+02:00,2021-09-09T04:45:00+02:00,118.47,EUR,,MWh
Power,Intraday,Continuous,NL,ID1,QH,2021-09-09T04:45:00+02:00,2021-09-09T05:00:00+02:00,121.96,EUR,,MWh
Power,Intraday,Continuous,NL,ID1,QH,2021-09-09T05:00:00+02:00,2021-09-09T05:15:00+02:00,110.84,EUR,,MWh
Power,Intraday,Continuous,NL,ID1,QH,2021-09-09T05:15:00+02:00,2021-09-09T05:30:00+02:00,110.75,EUR,,MWh
Power,Intraday,Continuous,NL,ID1,QH,2021-09-09T05:30:00+02:00,2021-09-09T05:45:00+02:00,125.00,EUR,,MWh
Power,Intraday,Continuous,NL,ID1,QH,2021-09-09T05:45:00+02:00,2021-09-09T06:00:00+02:00,133.69,EUR,,MWh
Power,Intraday,Continuous,NL,ID1,QH,2021-09-09T06:00:00+02:00,2021-09-09T06:15:00+02:00,111.16,EUR,,MWh
Power,Intraday,Continuous,NL,ID1,QH,2021-09-09T06:15:00+02:00,2021-09-09T06:30:00+02:00,151.88,EUR,,MWh
Power,Intraday,Continuous,NL,ID1,QH,2021-09-09T06:30:00+02:00,2021-09-09T06:45:00+02:00,153.54,EUR,,MWh
Power,Intraday,Continuous,NL,ID1,QH,2021-09-09T06:45:00+02:00,2021-09-09T07:00:00+02:00,160.80,EUR,,MWh
Power,Intraday,Continuous,NL,ID1,QH,2021-09-09T07:00:00+02:00,2021-09-09T07:15:00+02:00,142.87,EUR,,MWh
Power,Intraday,Continuous,NL,ID1,QH,2021-09-09T07:15:00+02:00,2021-09-09T07:30:00+02:00,153.16,EUR,,MWh
Power,Intraday,Continuous,NL,ID1,QH,2021-09-09T07:30:00+02:00,2021-09-09T07:45:00+02:00,155.51,EUR,,MWh
Power,Intraday,Continuous,NL,ID1,QH,2021-09-09T07:45:00+02:00,2021-09-09T08:00:00+02:00,163.89,EUR,,MWh
Power,Intraday,Continuous,NL,ID1,QH,2021-09-09T08:00:00+02:00,2021-09-09T08:15:00+02:00,187.27,EUR,,MWh
Power,Intraday,Continuous,NL,ID1,QH,2021-09-09T08:15:00+02:00,2021-09-09T08:30:00+02:00,181.17,EUR,,MWh
Power,Intraday,Continuous,NL,ID1,QH,2021-09-09T08:30:00+02:00,2021-09-09T08:45:00+02:00,150.89,EUR,,MWh
Power,Intraday,Continuous,NL,ID1,QH,2021-09-09T08:45:00+02:00,2021-09-09T09:00:00+02:00,136.25,EUR,,MWh
Power,Intraday,Continuous,NL,ID1,QH,2021-09-09T09:00:00+02:00,2021-09-09T09:15:00+02:00,170.63,EUR,,MWh
Power,Intraday,Continuous,NL,ID1,QH,2021-09-09T09:15:00+02:00,2021-09-09T09:30:00+02:00,155.77,EUR,,MWh
Power,Intraday,Continuous,NL,ID1,QH,2021-09-09T09:30:00+02:00,2021-09-09T09:45:00+02:00,141.99,EUR,,MWh
Power,Intraday,Continuous,NL,ID1,QH,2021-09-09T09:45:00+02:00,2021-09-09T10:00:00+02:00,122.66,EUR,,MWh
Power,Intraday,Continuous,NL,ID1,QH,2021-09-09T10:00:00+02:00,2021-09-09T10:15:00+02:00,165.47,EUR,,MWh
Power,Intraday,Continuous,NL,ID1,QH,2021-09-09T10:15:00+02:00,2021-09-09T10:30:00+02:00,90.00,EUR,5.080,MWh
Power,Intraday,Continuous,NL,ID1,QH,2021-09-09T10:30:00+02:00,2021-09-09T10:45:00+02:00,100.13,EUR,3.050,MWh
Power,Intraday,Continuous,NL,ID1,QH,2021-09-09T10:45:00+02:00,2021-09-09T11:00:00+02:00,80.00,EUR,5.000,MWh
Power,Intraday,Continuous,NL,ID1,QH,2021-09-09T11:00:00+02:00,2021-09-09T11:15:00+02:00,125.00,EUR,9.330,MWh
Power,Intraday,Continuous,NL,ID1,QH,2021-09-09T11:15:00+02:00,2021-09-09T11:30:00+02:00,91.75,EUR,,MWh
Power,Intraday,Continuous,NL,ID1,QH,2021-09-09T11:30:00+02:00,2021-09-09T11:45:00+02:00,110.77,EUR,3.250,MWh
Power,Intraday,Continuous,NL,ID1,QH,2021-09-09T11:45:00+02:00,2021-09-09T12:00:00+02:00,134.23,EUR,16.750,MWh
Power,Intraday,Continuous,NL,ID1,QH,2021-09-09T12:00:00+02:00,2021-09-09T12:15:00+02:00,85.46,EUR,,MWh
Power,Intraday,Continuous,NL,ID1,QH,2021-09-09T12:15:00+02:00,2021-09-09T12:30:00+02:00,134.15,EUR,,MWh
Power,Intraday,Continuous,NL,ID1,QH,2021-09-09T12:30:00+02:00,2021-09-09T12:45:00+02:00,113.68,EUR,,MWh
Power,Intraday,Continuous,NL,ID1,QH,2021-09-09T12:45:00+02:00,2021-09-09T13:00:00+02:00,109.82,EUR,,MWh
Power,Intraday,Continuous,NL,ID1,QH,2021-09-09T13:00:00+02:00,2021-09-09T13:15:00+02:00,88.00,EUR,9.000,MWh
Power,Intraday,Continuous,NL,ID1,QH,2021-09-09T13:15:00+02:00,2021-09-09T13:30:00+02:00,107.65,EUR,,MWh
Power,Intraday,Continuous,NL,ID1,QH,2021-09-09T13:30:00+02:00,2021-09-09T13:45:00+02:00,105.96,EUR,,MWh
Power,Intraday,Continuous,NL,ID1,QH,2021-09-09T13:45:00+02:00,2021-09-09T14:00:00+02:00,99.09,EUR,,MWh
Power,Intraday,Continuous,NL,ID1,QH,2021-09-09T14:00:00+02:00,2021-09-09T14:15:00+02:00,83.60,EUR,3.750,MWh
Power,Intraday,Continuous,NL,ID1,QH,2021-09-09T14:15:00+02:00,2021-09-09T14:30:00+02:00,143.46,EUR,,MWh
Power,Intraday,Continuous,NL,ID1,QH,2021-09-09T14:30:00+02:00,2021-09-09T14:45:00+02:00,88.00,EUR,11.250,MWh
Power,Intraday,Continuous,NL,ID1,QH,2021-09-09T14:45:00+02:00,2021-09-09T15:00:00+02:00,143.46,EUR,,MWh
Power,Intraday,Continuous,NL,ID1,QH,2021-09-09T15:00:00+02:00,2021-09-09T15:15:00+02:00,104.08,EUR,,MWh
Power,Intraday,Continuous,NL,ID1,QH,2021-09-09T15:15:00+02:00,2021-09-09T15:30:00+02:00,113.78,EUR,,MWh
Power,Intraday,Continuous,NL,ID1,QH,2021-09-09T15:30:00+02:00,2021-09-09T15:45:00+02:00,122.21,EUR,,MWh
Power,Intraday,Continuous,NL,ID1,QH,2021-09-09T15:45:00+02:00,2021-09-09T16:00:00+02:00,148.97,EUR,,MWh
Power,Intraday,Continuous,NL,ID1,QH,2021-09-09T16:00:00+02:00,2021-09-09T16:15:00+02:00,109.88,EUR,,MWh
Power,Intraday,Continuous,NL,ID1,QH,2021-09-09T16:15:00+02:00,2021-09-09T16:30:00+02:00,138.75,EUR,,MWh
Power,Intraday,Continuous,NL,ID1,QH,2021-09-09T16:30:00+02:00,2021-09-09T16:45:00+02:00,139.47,EUR,,MWh
Power,Intraday,Continuous,NL,ID1,QH,2021-09-09T16:45:00+02:00,2021-09-09T17:00:00+02:00,168.23,EUR,,MWh
Power,Intraday,Continuous,NL,ID1,QH,2021-09-09T17:00:00+02:00,2021-09-09T17:15:00+02:00,110.62,EUR,,MWh
Power,Intraday,Continuous,NL,ID1,QH,2021-09-09T17:15:00+02:00,2021-09-09T17:30:00+02:00,143.10,EUR,,MWh
Power,Intraday,Continuous,NL,ID1,QH,2021-09-09T17:30:00+02:00,2021-09-09T17:45:00+02:00,159.47,EUR,,MWh
Power,Intraday,Continuous,NL,ID1,QH,2021-09-09T17:45:00+02:00,2021-09-09T18:00:00+02:00,520.68,EUR,,MWh
Power,Intraday,Continuous,NL,ID1,QH,2021-09-09T18:00:00+02:00,2021-09-09T18:15:00+02:00,139.07,EUR,,MWh
Power,Intraday,Continuous,NL,ID1,QH,2021-09-09T18:15:00+02:00,2021-09-09T18:30:00+02:00,166.65,EUR,,MWh
Power,Intraday,Continuous,NL,ID1,QH,2021-09-09T18:30:00+02:00,2021-09-09T18:45:00+02:00,286.58,EUR,,MWh
Power,Intraday,Continuous,NL,ID1,QH,2021-09-09T18:45:00+02:00,2021-09-09T19:00:00+02:00,286.58,EUR,,MWh
Power,Intraday,Continuous,NL,ID1,QH,2021-09-09T19:00:00+02:00,2021-09-09T19:15:00+02:00,181.88,EUR,,MWh
Power,Intraday,Continuous,NL,ID1,QH,2021-09-09T19:15:00+02:00,2021-09-09T19:30:00+02:00,314.12,EUR,,MWh
Power,Intraday,Continuous,NL,ID1,QH,2021-09-09T19:30:00+02:00,2021-09-09T19:45:00+02:00,205.42,EUR,,MWh
Power,Intraday,Continuous,NL,ID1,QH,2021-09-09T19:45:00+02:00,2021-09-09T20:00:00+02:00,233.70,EUR,,MWh
Power,Intraday,Continuous,NL,ID1,QH,2021-09-09T20:00:00+02:00,2021-09-09T20:15:00+02:00,453.86,EUR,,MWh
Power,Intraday,Continuous,NL,ID1,QH,2021-09-09T20:15:00+02:00,2021-09-09T20:30:00+02:00,270.43,EUR,,MWh
Power,Intraday,Continuous,NL,ID1,QH,2021-09-09T20:30:00+02:00,2021-09-09T20:45:00+02:00,218.76,EUR,,MWh
Power,Intraday,Continuous,NL,ID1,QH,2021-09-09T20:45:00+02:00,2021-09-09T21:00:00+02:00,174.89,EUR,,MWh
Power,Intraday,Continuous,NL,ID1,QH,2021-09-09T21:00:00+02:00,2021-09-09T21:15:00+02:00,229.84,EUR,,MWh
Power,Intraday,Continuous,NL,ID1,QH,2021-09-09T21:15:00+02:00,2021-09-09T21:30:00+02:00,174.52,EUR,,MWh
Power,Intraday,Continuous,NL,ID1,QH,2021-09-09T21:30:00+02:00,2021-09-09T21:45:00+02:00,186.49,EUR,,MWh
Power,Intraday,Continuous,NL,ID1,QH,2021-09-09T21:45:00+02:00,2021-09-09T22:00:00+02:00,140.95,EUR,,MWh
Power,Intraday,Continuous,NL,ID1,QH,2021-09-09T22:00:00+02:00,2021-09-09T22:15:00+02:00,174.77,EUR,,MWh
Power,Intraday,Continuous,NL,ID1,QH,2021-09-09T22:15:00+02:00,2021-09-09T22:30:00+02:00,147.23,EUR,,MWh
Power,Intraday,Continuous,NL,ID1,QH,2021-09-09T22:30:00+02:00,2021-09-09T22:45:00+02:00,136.88,EUR,,MWh
Power,Intraday,Continuous,NL,ID1,QH,2021-09-09T22:45:00+02:00,2021-09-09T23:00:00+02:00,119.16,EUR,,MWh
Power,Intraday,Continuous,NL,ID1,QH,2021-09-09T23:00:00+02:00,2021-09-09T23:15:00+02:00,148.67,EUR,,MWh
Power,Intraday,Continuous,NL,ID1,QH,2021-09-09T23:15:00+02:00,2021-09-09T23:30:00+02:00,124.27,EUR,,MWh
Power,Intraday,Continuous,NL,ID1,QH,2021-09-09T23:30:00+02:00,2021-09-09T23:45:00+02:00,119.84,EUR,,MWh
Power,Intraday,Continuous,NL,ID1,QH,2021-09-09T23:45:00+02:00,2021-09-10T00:00:00+02:00,111.12,EUR,,MWh
Power,Intraday,Continuous,NL,ID3,QH,2021-09-09T00:00:00+02:00,2021-09-09T00:15:00+02:00,130.38,EUR,30.130,MWh
Power,Intraday,Continuous,NL,ID3,QH,2021-09-09T00:15:00+02:00,2021-09-09T00:30:00+02:00,110.45,EUR,18.850,MWh
Power,Intraday,Continuous,NL,ID3,QH,2021-09-09T00:30:00+02:00,2021-09-09T00:45:00+02:00,106.58,EUR,19.750,MWh
Power,Intraday,Continuous,NL,ID3,QH,2021-09-09T00:45:00+02:00,2021-09-09T01:00:00+02:00,99.72,EUR,45.850,MWh
Power,Intraday,Continuous,NL,ID3,QH,2021-09-09T01:00:00+02:00,2021-09-09T01:15:00+02:00,119.84,EUR,16.600,MWh
Power,Intraday,Continuous,NL,ID3,QH,2021-09-09T01:15:00+02:00,2021-09-09T01:30:00+02:00,113.33,EUR,37.000,MWh
Power,Intraday,Continuous,NL,ID3,QH,2021-09-09T01:30:00+02:00,2021-09-09T01:45:00+02:00,107.55,EUR,37.550,MWh
Power,Intraday,Continuous,NL,ID3,QH,2021-09-09T01:45:00+02:00,2021-09-09T02:00:00+02:00,107.70,EUR,32.300,MWh
Power,Intraday,Continuous,NL,ID3,QH,2021-09-09T02:00:00+02:00,2021-09-09T02:15:00+02:00,115.46,EUR,19.580,MWh
Power,Intraday,Continuous,NL,ID3,QH,2021-09-09T02:15:00+02:00,2021-09-09T02:30:00+02:00,111.41,EUR,36.030,MWh
Power,Intraday,Continuous,NL,ID3,QH,2021-09-09T02:30:00+02:00,2021-09-09T02:45:00+02:00,114.53,EUR,40.750,MWh
Power,Intraday,Continuous,NL,ID3,QH,2021-09-09T02:45:00+02:00,2021-09-09T03:00:00+02:00,115.94,EUR,30.930,MWh
Power,Intraday,Continuous,NL,ID3,QH,2021-09-09T03:00:00+02:00,2021-09-09T03:15:00+02:00,110.02,EUR,19.600,MWh
Power,Intraday,Continuous,NL,ID3,QH,2021-09-09T03:15:00+02:00,2021-09-09T03:30:00+02:00,109.42,EUR,48.550,MWh
Power,Intraday,Continuous,NL,ID3,QH,2021-09-09T03:30:00+02:00,2021-09-09T03:45:00+02:00,106.83,EUR,36.000,MWh
Power,Intraday,Continuous,NL,ID3,QH,2021-09-09T03:45:00+02:00,2021-09-09T04:00:00+02:00,111.08,EUR,33.800,MWh
Power,Intraday,Continuous,NL,ID3,QH,2021-09-09T04:00:00+02:00,2021-09-09T04:15:00+02:00,97.13,EUR,15.650,MWh
Power,Intraday,Continuous,NL,ID3,QH,2021-09-09T04:15:00+02:00,2021-09-09T04:30:00+02:00,104.93,EUR,4.530,MWh
Power,Intraday,Continuous,NL,ID3,QH,2021-09-09T04:30:00+02:00,2021-09-09T04:45:00+02:00,118.47,EUR,26.900,MWh
Power,Intraday,Continuous,NL,ID3,QH,2021-09-09T04:45:00+02:00,2021-09-09T05:00:00+02:00,121.96,EUR,16.030,MWh
Power,Intraday,Continuous,NL,ID3,QH,2021-09-09T05:00:00+02:00,2021-09-09T05:15:00+02:00,110.84,EUR,4.350,MWh
Power,Intraday,Continuous,NL,ID3,QH,2021-09-09T05:15:00+02:00,2021-09-09T05:30:00+02:00,110.75,EUR,20.550,MWh
Power,Intraday,Continuous,NL,ID3,QH,2021-09-09T05:30:00+02:00,2021-09-09T05:45:00+02:00,125.00,EUR,8.800,MWh
Power,Intraday,Continuous,NL,ID3,QH,2021-09-09T05:45:00+02:00,2021-09-09T06:00:00+02:00,133.69,EUR,33.630,MWh
Power,Intraday,Continuous,NL,ID3,QH,2021-09-09T06:00:00+02:00,2021-09-09T06:15:00+02:00,111.16,EUR,5.400,MWh
Power,Intraday,Continuous,NL,ID3,QH,2021-09-09T06:15:00+02:00,2021-09-09T06:30:00+02:00,151.88,EUR,5.700,MWh
Power,Intraday,Continuous,NL,ID3,QH,2021-09-09T06:30:00+02:00,2021-09-09T06:45:00+02:00,153.54,EUR,22.230,MWh
Power,Intraday,Continuous,NL,ID3,QH,2021-09-09T06:45:00+02:00,2021-09-09T07:00:00+02:00,160.80,EUR,30.800,MWh
Power,Intraday,Continuous,NL,ID3,QH,2021-09-09T07:00:00+02:00,2021-09-09T07:15:00+02:00,142.87,EUR,40.380,MWh
Power,Intraday,Continuous,NL,ID3,QH,2021-09-09T07:15:00+02:00,2021-09-09T07:30:00+02:00,153.16,EUR,21.380,MWh
Power,Intraday,Continuous,NL,ID3,QH,2021-09-09T07:30:00+02:00,2021-09-09T07:45:00+02:00,155.51,EUR,30.650,MWh
Power,Intraday,Continuous,NL,ID3,QH,2021-09-09T07:45:00+02:00,2021-09-09T08:00:00+02:00,163.89,EUR,43.380,MWh
Power,Intraday,Continuous,NL,ID3,QH,2021-09-09T08:00:00+02:00,2021-09-09T08:15:00+02:00,187.27,EUR,29.900,MWh
Power,Intraday,Continuous,NL,ID3,QH,2021-09-09T08:15:00+02:00,2021-09-09T08:30:00+02:00,181.17,EUR,28.130,MWh
Power,Intraday,Continuous,NL,ID3,QH,2021-09-09T08:30:00+02:00,2021-09-09T08:45:00+02:00,150.89,EUR,23.900,MWh
Power,Intraday,Continuous,NL,ID3,QH,2021-09-09T08:45:00+02:00,2021-09-09T09:00:00+02:00,136.25,EUR,28.380,MWh
Power,Intraday,Continuous,NL,ID3,QH,2021-09-09T09:00:00+02:00,2021-09-09T09:15:00+02:00,170.63,EUR,39.680,MWh
Power,Intraday,Continuous,NL,ID3,QH,2021-09-09T09:15:00+02:00,2021-09-09T09:30:00+02:00,155.77,EUR,36.400,MWh
Power,Intraday,Continuous,NL,ID3,QH,2021-09-09T09:30:00+02:00,2021-09-09T09:45:00+02:00,141.99,EUR,49.080,MWh
Power,Intraday,Continuous,NL,ID3,QH,2021-09-09T09:45:00+02:00,2021-09-09T10:00:00+02:00,122.66,EUR,92.630,MWh
Power,Intraday,Continuous,NL,ID3,QH,2021-09-09T10:00:00+02:00,2021-09-09T10:15:00+02:00,165.47,EUR,18.850,MWh
Power,Intraday,Continuous,NL,ID3,QH,2021-09-09T10:15:00+02:00,2021-09-09T10:30:00+02:00,91.62,EUR,17.080,MWh
Power,Intraday,Continuous,NL,ID3,QH,2021-09-09T10:30:00+02:00,2021-09-09T10:45:00+02:00,92.54,EUR,11.300,MWh
Power,Intraday,Continuous,NL,ID3,QH,2021-09-09T10:45:00+02:00,2021-09-09T11:00:00+02:00,83.63,EUR,24.030,MWh
Power,Intraday,Continuous,NL,ID3,QH,2021-09-09T11:00:00+02:00,2021-09-09T11:15:00+02:00,104.61,EUR,26.480,MWh
Power,Intraday,Continuous,NL,ID3,QH,2021-09-09T11:15:00+02:00,2021-09-09T11:30:00+02:00,91.75,EUR,19.230,MWh
Power,Intraday,Continuous,NL,ID3,QH,2021-09-09T11:30:00+02:00,2021-09-09T11:45:00+02:00,90.18,EUR,22.880,MWh
Power,Intraday,Continuous,NL,ID3,QH,2021-09-09T11:45:00+02:00,2021-09-09T12:00:00+02:00,107.74,EUR,37.450,MWh
Power,Intraday,Continuous,NL,ID3,QH,2021-09-09T12:00:00+02:00,2021-09-09T12:15:00+02:00,85.46,EUR,60.230,MWh
Power,Intraday,Continuous,NL,ID3,QH,2021-09-09T12:15:00+02:00,2021-09-09T12:30:00+02:00,134.15,EUR,10.080,MWh
Power,Intraday,Continuous,NL,ID3,QH,2021-09-09T12:30:00+02:00,2021-09-09T12:45:00+02:00,113.68,EUR,10.230,MWh
Power,Intraday,Continuous,NL,ID3,QH,2021-09-09T12:45:00+02:00,2021-09-09T13:00:00+02:00,109.82,EUR,12.130,MWh
Power,Intraday,Continuous,NL,ID3,QH,2021-09-09T13:00:00+02:00,2021-09-09T13:15:00+02:00,110.34,EUR,24.950,MWh
Power,Intraday,Continuous,NL,ID3,QH,2021-09-09T13:15:00+02:00,2021-09-09T13:30:00+02:00,107.65,EUR,11.700,MWh
Power,Intraday,Continuous,NL,ID3,QH,2021-09-09T13:30:00+02:00,2021-09-09T13:45:00+02:00,105.96,EUR,14.280,MWh
Power,Intraday,Continuous,NL,ID3,QH,2021-09-09T13:45:00+02:00,2021-09-09T14:00:00+02:00,99.09,EUR,31.700,MWh
Power,Intraday,Continuous,NL,ID3,QH,2021-09-09T14:00:00+02:00,2021-09-09T14:15:00+02:00,83.60,EUR,3.750,MWh
Power,Intraday,Continuous,NL,ID3,QH,2021-09-09T14:15:00+02:00,2021-09-09T14:30:00+02:00,143.46,EUR,,MWh
Power,Intraday,Continuous,NL,ID3,QH,2021-09-09T14:30:00+02:00,2021-09-09T14:45:00+02:00,88.00,EUR,11.250,MWh
Power,Intraday,Continuous,NL,ID3,QH,2021-09-09T14:45:00+02:00,2021-09-09T15:00:00+02:00,143.46,EUR,,MWh
Power,Intraday,Continuous,NL,ID3,QH,2021-09-09T15:00:00+02:00,2021-09-09T15:15:00+02:00,104.08,EUR,36.750,MWh
Power,Intraday,Continuous,NL,ID3,QH,2021-09-09T15:15:00+02:00,2021-09-09T15:30:00+02:00,113.78,EUR,43.180,MWh
Power,Intraday,Continuous,NL,ID3,QH,2021-09-09T15:30:00+02:00,2021-09-09T15:45:00+02:00,122.21,EUR,44.450,MWh
Power,Intraday,Continuous,NL,ID3,QH,2021-09-09T15:45:00+02:00,2021-09-09T16:00:00+02:00,148.97,EUR,16.230,MWh
Power,Intraday,Continuous,NL,ID3,QH,2021-09-09T16:00:00+02:00,2021-09-09T16:15:00+02:00,109.88,EUR,89.450,MWh
Power,Intraday,Continuous,NL,ID3,QH,2021-09-09T16:15:00+02:00,2021-09-09T16:30:00+02:00,138.75,EUR,54.330,MWh
Power,Intraday,Continuous,NL,ID3,QH,2021-09-09T16:30:00+02:00,2021-09-09T16:45:00+02:00,139.47,EUR,20.750,MWh
Power,Intraday,Continuous,NL,ID3,QH,2021-09-09T16:45:00+02:00,2021-09-09T17:00:00+02:00,168.23,EUR,,MWh
Power,Intraday,Continuous,NL,ID3,QH,2021-09-09T17:00:00+02:00,2021-09-09T17:15:00+02:00,110.62,EUR,83.330,MWh
Power,Intraday,Continuous,NL,ID3,QH,2021-09-09T17:15:00+02:00,2021-09-09T17:30:00+02:00,143.10,EUR,37.980,MWh
Power,Intraday,Continuous,NL,ID3,QH,2021-09-09T17:30:00+02:00,2021-09-09T17:45:00+02:00,159.47,EUR,,MWh
Power,Intraday,Continuous,NL,ID3,QH,2021-09-09T17:45:00+02:00,2021-09-09T18:00:00+02:00,520.68,EUR,,MWh
Power,Intraday,Continuous,NL,ID3,QH,2021-09-09T18:00:00+02:00,2021-09-09T18:15:00+02:00,139.07,EUR,16.000,MWh
Power,Intraday,Continuous,NL,ID3,QH,2021-09-09T18:15:00+02:00,2021-09-09T18:30:00+02:00,166.65,EUR,4.850,MWh
Power,Intraday,Continuous,NL,ID3,QH,2021-09-09T18:30:00+02:00,2021-09-09T18:45:00+02:00,286.58,EUR,,MWh
Power,Intraday,Continuous,NL,ID3,QH,2021-09-09T18:45:00+02:00,2021-09-09T19:00:00+02:00,286.58,EUR,,MWh
Power,Intraday,Continuous,NL,ID3,QH,2021-09-09T19:00:00+02:00,2021-09-09T19:15:00+02:00,181.88,EUR,8.330,MWh
Power,Intraday,Continuous,NL,ID3,QH,2021-09-09T19:15:00+02:00,2021-09-09T19:30:00+02:00,314.12,EUR,,MWh
Power,Intraday,Continuous,NL,ID3,QH,2021-09-09T19:30:00+02:00,2021-09-09T19:45:00+02:00,205.42,EUR,6.530,MWh
Power,Intraday,Continuous,NL,ID3,QH,2021-09-09T19:45:00+02:00,2021-09-09T20:00:00+02:00,233.70,EUR,5.050,MWh
Power,Intraday,Continuous,NL,ID3,QH,2021-09-09T20:00:00+02:00,2021-09-09T20:15:00+02:00,453.86,EUR,10.750,MWh
Power,Intraday,Continuous,NL,ID3,QH,2021-09-09T20:15:00+02:00,2021-09-09T20:30:00+02:00,270.43,EUR,6.980,MWh
Power,Intraday,Continuous,NL,ID3,QH,2021-09-09T20:30:00+02:00,2021-09-09T20:45:00+02:00,218.76,EUR,21.080,MWh
Power,Intraday,Continuous,NL,ID3,QH,2021-09-09T20:45:00+02:00,2021-09-09T21:00:00+02:00,174.89,EUR,25.900,MWh
Power,Intraday,Continuous,NL,ID3,QH,2021-09-09T21:00:00+02:00,2021-09-09T21:15:00+02:00,229.84,EUR,8.480,MWh
Power,Intraday,Continuous,NL,ID3,QH,2021-09-09T21:15:00+02:00,2021-09-09T21:30:00+02:00,174.52,EUR,,MWh
Power,Intraday,Continuous,NL,ID3,QH,2021-09-09T21:30:00+02:00,2021-09-09T21:45:00+02:00,186.49,EUR,5.100,MWh
Power,Intraday,Continuous,NL,ID3,QH,2021-09-09T21:45:00+02:00,2021-09-09T22:00:00+02:00,140.95,EUR,4.480,MWh
Power,Intraday,Continuous,NL,ID3,QH,2021-09-09T22:00:00+02:00,2021-09-09T22:15:00+02:00,174.77,EUR,23.480,MWh
Power,Intraday,Continuous,NL,ID3,QH,2021-09-09T22:15:00+02:00,2021-09-09T22:30:00+02:00,147.23,EUR,21.250,MWh
Power,Intraday,Continuous,NL,ID3,QH,2021-09-09T22:30:00+02:00,2021-09-09T22:45:00+02:00,136.88,EUR,20.050,MWh
Power,Intraday,Continuous,NL,ID3,QH,2021-09-09T22:45:00+02:00,2021-09-09T23:00:00+02:00,119.16,EUR,25.400,MWh
Power,Intraday,Continuous,NL,ID3,QH,2021-09-09T23:00:00+02:00,2021-09-09T23:15:00+02:00,148.67,EUR,18.550,MWh
Power,Intraday,Continuous,NL,ID3,QH,2021-09-09T23:15:00+02:00,2021-09-09T23:30:00+02:00,124.27,EUR,10.230,MWh
Power,Intraday,Continuous,NL,ID3,QH,2021-09-09T23:30:00+02:00,2021-09-09T23:45:00+02:00,119.84,EUR,11.380,MWh
Power,Intraday,Continuous,NL,ID3,QH,2021-09-09T23:45:00+02:00,2021-09-10T00:00:00+02:00,111.12,EUR,25.030,MWh
Power,Intraday,Continuous,NL,IDFULL,BASE,2021-09-09T00:00:00+02:00,2021-09-10T00:00:00+02:00,150.94,EUR,26352.300,MWh
Power,Intraday,Continuous,NL,IDFULL,PEAK,2021-09-09T08:00:00+02:00,2021-09-09T20:00:00+02:00,156.14,EUR,17218.100,MWh
