Commodity,NominationModality,TradingModality,MarketArea,IndexName,TimeResolution,DeliveryStart,DeliveryEnd,IndexPrice,Currency,Volume,VolumeUnit
Power,Intraday,Continuous,NL,IDFULL,H,2021-01-08T00:00:00+01:00,2021-01-08T01:00:00+01:00,44.49,EUR,144.500,MWh
Power,Intraday,Continuous,NL,IDFULL,H,2021-01-08T01:00:00+01:00,2021-01-08T02:00:00+01:00,45.20,EUR,215.400,MWh
Power,Intraday,Continuous,NL,IDFULL,H,2021-01-08T02:00:00+01:00,2021-01-08T03:00:00+01:00,44.60,EUR,312.500,MWh
Power,Intraday,Continuous,NL,IDFULL,H,2021-01-08T03:00:00+01:00,2021-01-08T04:00:00+01:00,44.41,EUR,210.800,MWh
Power,Intraday,Continuous,NL,IDFULL,H,2021-01-08T04:00:00+01:00,2021-01-08T05:00:00+01:00,44.75,EUR,306.800,MWh
Power,Intraday,Continuous,NL,IDFULL,H,2021-01-08T05:00:00+01:00,2021-01-08T06:00:00+01:00,48.31,EUR,216.600,MWh
Power,Intraday,Continuous,NL,IDFULL,H,2021-01-08T06:00:00+01:00,2021-01-08T07:00:00+01:00,56.79,EUR,573.300,MWh
Power,Intraday,Continuous,NL,IDFULL,H,2021-01-08T07:00:00+01:00,2021-01-08T08:00:00+01:00,79.99,EUR,654.800,MWh
Power,Intraday,Continuous,NL,IDFULL,H,2021-01-08T08:00:00+01:00,2021-01-08T09:00:00+01:00,96.92,EUR,560.600,MWh
Power,Intraday,Continuous,NL,IDFULL,H,2021-01-08T09:00:00+01:00,2021-01-08T10:00:00+01:00,88.97,EUR,971.200,MWh
Power,Intraday,Continuous,NL,IDFULL,H,2021-01-08T10:00:00+01:00,2021-01-08T11:00:00+01:00,84.59,EUR,989.200,MWh
Power,Intraday,Continuous,NL,IDFULL,H,2021-01-08T11:00:00+01:00,2021-01-08T12:00:00+01:00,85.13,EUR,1004.900,MWh
Power,Intraday,Continuous,NL,IDFULL,H,2021-01-08T12:00:00+01:00,2021-01-08T13:00:00+01:00,81.56,EUR,1245.300,MWh
Power,Intraday,Continuous,NL,IDFULL,H,2021-01-08T13:00:00+01:00,2021-01-08T14:00:00+01:00,81.39,EUR,1205.200,MWh
Power,Intraday,Continuous,NL,IDFULL,H,2021-01-08T14:00:00+01:00,2021-01-08T15:00:00+01:00,80.04,EUR,1074.000,MWh
Power,Intraday,Continuous,NL,IDFULL,H,2021-01-08T15:00:00+01:00,2021-01-08T16:00:00+01:00,80.65,EUR,895.500,MWh
Power,Intraday,Continuous,NL,IDFULL,H,2021-01-08T16:00:00+01:00,2021-01-08T17:00:00+01:00,85.39,EUR,556.800,MWh
Power,Intraday,Continuous,NL,IDFULL,H,2021-01-08T17:00:00+01:00,2021-01-08T18:00:00+01:00,90.78,EUR,535.200,MWh
Power,Intraday,Continuous,NL,IDFULL,H,2021-01-08T18:00:00+01:00,2021-01-08T19:00:00+01:00,75.94,EUR,967.700,MWh
Power,Intraday,Continuous,NL,IDFULL,H,2021-01-08T19:00:00+01:00,2021-01-08T20:00:00+01:00,66.15,EUR,602.800,MWh
Power,Intraday,Continuous,NL,IDFULL,H,2021-01-08T20:00:00+01:00,2021-01-08T21:00:00+01:00,59.70,EUR,1182.600,MWh
Power,Intraday,Continuous,NL,IDFULL,H,2021-01-08T21:00:00+01:00,2021-01-08T22:00:00+01:00,55.51,EUR,1116.900,MWh
Power,Intraday,Continuous,NL,IDFULL,H,2021-01-08T22:00:00+01:00,2021-01-08T23:00:00+01:00,52.49,EUR,775.500,MWh
Power,Intraday,Continuous,NL,IDFULL,H,2021-01-08T23:00:00+01:00,2021-01-09T00:00:00+01:00,47.03,EUR,343.900,MWh
Power,Intraday,Continuous,NL,ID1,H,2021-01-08T00:00:00+01:00,2021-01-08T01:00:00+01:00,47.86,EUR,53.500,MWh
Power,Intraday,Continuous,NL,ID1,H,2021-01-08T01:00:00+01:00,2021-01-08T02:00:00+01:00,43.80,EUR,77.400,MWh
Power,Intraday,Continuous,NL,ID1,H,2021-01-08T02:00:00+01:00,2021-01-08T03:00:00+01:00,42.02,EUR,10.000,MWh
Power,Intraday,Continuous,NL,ID1,H,2021-01-08T03:00:00+01:00,2021-01-08T04:00:00+01:00,44.95,EUR,45.400,MWh
Power,Intraday,Continuous,NL,ID1,H,2021-01-08T04:00:00+01:00,2021-01-08T05:00:00+01:00,48.55,EUR,42.600,MWh
Power,Intraday,Continuous,NL,ID1,H,2021-01-08T05:00:00+01:00,2021-01-08T06:00:00+01:00,64.31,EUR,29.000,MWh
Power,Intraday,Continuous,NL,ID1,H,2021-01-08T06:00:00+01:00,2021-01-08T07:00:00+01:00,57.03,EUR,22.800,MWh
Power,Intraday,Continuous,NL,ID1,H,2021-01-08T07:00:00+01:00,2021-01-08T08:00:00+01:00,78.70,EUR,,MWh
Power,Intraday,Continuous,NL,ID1,H,2021-01-08T08:00:00+01:00,2021-01-08T09:00:00+01:00,94.07,EUR,,MWh
Power,Intraday,Continuous,NL,ID1,H,2021-01-08T09:00:00+01:00,2021-01-08T10:00:00+01:00,88.81,EUR,23.500,MWh
Power,Intraday,Continuous,NL,ID1,H,2021-01-08T10:00:00+01:00,2021-01-08T11:00:00+01:00,57.75,EUR,65.200,MWh
Power,Intraday,Continuous,NL,ID1,H,2021-01-08T11:00:00+01:00,2021-01-08T12:00:00+01:00,63.41,EUR,16.200,MWh
Power,Intraday,Continuous,NL,ID1,H,2021-01-08T12:00:00+01:00,2021-01-08T13:00:00+01:00,68.54,EUR,75.800,MWh
Power,Intraday,Continuous,NL,ID1,H,2021-01-08T13:00:00+01:00,2021-01-08T14:00:00+01:00,72.93,EUR,76.700,MWh
Power,Intraday,Continuous,NL,ID1,H,2021-01-08T14:00:00+01:00,2021-01-08T15:00:00+01:00,67.49,EUR,42.100,MWh
Power,Intraday,Continuous,NL,ID1,H,2021-01-08T15:00:00+01:00,2021-01-08T16:00:00+01:00,77.10,EUR,28.200,MWh
Power,Intraday,Continuous,NL,ID1,H,2021-01-08T16:00:00+01:00,2021-01-08T17:00:00+01:00,74.96,EUR,,MWh
Power,Intraday,Continuous,NL,ID1,H,2021-01-08T17:00:00+01:00,2021-01-08T18:00:00+01:00,83.88,EUR,,MWh
Power,Intraday,Continuous,NL,ID1,H,2021-01-08T18:00:00+01:00,2021-01-08T19:00:00+01:00,70.37,EUR,,MWh
Power,Intraday,Continuous,NL,ID1,H,2021-01-08T19:00:00+01:00,2021-01-08T20:00:00+01:00,65.08,EUR,,MWh
Power,Intraday,Continuous,NL,ID1,H,2021-01-08T20:00:00+01:00,2021-01-08T21:00:00+01:00,61.20,EUR,12.700,MWh
Power,Intraday,Continuous,NL,ID1,H,2021-01-08T21:00:00+01:00,2021-01-08T22:00:00+01:00,54.34,EUR,,MWh
Power,Intraday,Continuous,NL,ID1,H,2021-01-08T22:00:00+01:00,2021-01-08T23:00:00+01:00,51.17,EUR,,MWh
Power,Intraday,Continuous,NL,ID1,H,2021-01-08T23:00:00+01:00,2021-01-09T00:00:00+01:00,45.86,EUR,,MWh
Power,Intraday,Continuous,NL,ID3,H,2021-01-08T00:00:00+01:00,2021-01-08T01:00:00+01:00,44.46,EUR,140.800,MWh
Power,Intraday,Continuous,NL,ID3,H,2021-01-08T01:00:00+01:00,2021-01-08T02:00:00+01:00,45.27,EUR,211.600,MWh
Power,Intraday,Continuous,NL,ID3,H,2021-01-08T02:00:00+01:00,2021-01-08T03:00:00+01:00,44.63,EUR,308.700,MWh
Power,Intraday,Continuous,NL,ID3,H,2021-01-08T03:00:00+01:00,2021-01-08T04:00:00+01:00,44.50,EUR,202.500,MWh
Power,Intraday,Continuous,NL,ID3,H,2021-01-08T04:00:00+01:00,2021-01-08T05:00:00+01:00,45.13,EUR,218.800,MWh
Power,Intraday,Continuous,NL,ID3,H,2021-01-08T05:00:00+01:00,2021-01-08T06:00:00+01:00,48.30,EUR,211.100,MWh
Power,Intraday,Continuous,NL,ID3,H,2021-01-08T06:00:00+01:00,2021-01-08T07:00:00+01:00,56.61,EUR,539.600,MWh
Power,Intraday,Continuous,NL,ID3,H,2021-01-08T07:00:00+01:00,2021-01-08T08:00:00+01:00,78.70,EUR,423.900,MWh
Power,Intraday,Continuous,NL,ID3,H,2021-01-08T08:00:00+01:00,2021-01-08T09:00:00+01:00,94.07,EUR,254.600,MWh
Power,Intraday,Continuous,NL,ID3,H,2021-01-08T09:00:00+01:00,2021-01-08T10:00:00+01:00,84.44,EUR,769.400,MWh
Power,Intraday,Continuous,NL,ID3,H,2021-01-08T10:00:00+01:00,2021-01-08T11:00:00+01:00,79.26,EUR,732.700,MWh
Power,Intraday,Continuous,NL,ID3,H,2021-01-08T11:00:00+01:00,2021-01-08T12:00:00+01:00,79.82,EUR,717.100,MWh
Power,Intraday,Continuous,NL,ID3,H,2021-01-08T12:00:00+01:00,2021-01-08T13:00:00+01:00,75.82,EUR,751.700,MWh
Power,Intraday,Continuous,NL,ID3,H,2021-01-08T13:00:00+01:00,2021-01-08T14:00:00+01:00,76.21,EUR,756.500,MWh
Power,Intraday,Continuous,NL,ID3,H,2021-01-08T14:00:00+01:00,2021-01-08T15:00:00+01:00,73.97,EUR,515.100,MWh
Power,Intraday,Continuous,NL,ID3,H,2021-01-08T15:00:00+01:00,2021-01-08T16:00:00+01:00,73.18,EUR,356.300,MWh
Power,Intraday,Continuous,NL,ID3,H,2021-01-08T16:00:00+01:00,2021-01-08T17:00:00+01:00,74.96,EUR,262.200,MWh
Power,Intraday,Continuous,NL,ID3,H,2021-01-08T17:00:00+01:00,2021-01-08T18:00:00+01:00,83.88,EUR,259.300,MWh
Power,Intraday,Continuous,NL,ID3,H,2021-01-08T18:00:00+01:00,2021-01-08T19:00:00+01:00,70.37,EUR,535.100,MWh
Power,Intraday,Continuous,NL,ID3,H,2021-01-08T19:00:00+01:00,2021-01-08T20:00:00+01:00,65.08,EUR,402.500,MWh
Power,Intraday,Continuous,NL,ID3,H,2021-01-08T20:00:00+01:00,2021-01-08T21:00:00+01:00,59.43,EUR,393.700,MWh
Power,Intraday,Continuous,NL,ID3,H,2021-01-08T21:00:00+01:00,2021-01-08T22:00:00+01:00,54.34,EUR,428.700,MWh
Power,Intraday,Continuous,NL,ID3,H,2021-01-08T22:00:00+01:00,2021-01-08T23:00:00+01:00,51.17,EUR,234.300,MWh
Power,Intraday,Continuous,NL,ID3,H,2021-01-08T23:00:00+01:00,2021-01-09T00:00:00+01:00,45.86,EUR,129.000,MWh
Power,Intraday,Continuous,NL,IDFULL,HH,2021-01-08T00:00:00+01:00,2021-01-08T00:30:00+01:00,44.49,EUR,,MWh
Power,Intraday,Continuous,NL,IDFULL,HH,2021-01-08T00:30:00+01:00,2021-01-08T01:00:00+01:00,44.49,EUR,,MWh
Power,Intraday,Continuous,NL,IDFULL,HH,2021-01-08T01:00:00+01:00,2021-01-08T01:30:00+01:00,45.20,EUR,,MWh
Power,Intraday,Continuous,NL,IDFULL,HH,2021-01-08T01:30:00+01:00,2021-01-08T02:00:00+01:00,45.20,EUR,,MWh
Power,Intraday,Continuous,NL,IDFULL,HH,2021-01-08T02:00:00+01:00,2021-01-08T02:30:00+01:00,44.60,EUR,,MWh
Power,Intraday,Continuous,NL,IDFULL,HH,2021-01-08T02:30:00+01:00,2021-01-08T03:00:00+01:00,44.60,EUR,,MWh
Power,Intraday,Continuous,NL,IDFULL,HH,2021-01-08T03:00:00+01:00,2021-01-08T03:30:00+01:00,44.41,EUR,,MWh
Power,Intraday,Continuous,NL,IDFULL,HH,2021-01-08T03:30:00+01:00,2021-01-08T04:00:00+01:00,44.41,EUR,,MWh
Power,Intraday,Continuous,NL,IDFULL,HH,2021-01-08T04:00:00+01:00,2021-01-08T04:30:00+01:00,44.75,EUR,,MWh
Power,Intraday,Continuous,NL,IDFULL,HH,2021-01-08T04:30:00+01:00,2021-01-08T05:00:00+01:00,44.75,EUR,,MWh
Power,Intraday,Continuous,NL,IDFULL,HH,2021-01-08T05:00:00+01:00,2021-01-08T05:30:00+01:00,48.31,EUR,,MWh
Power,Intraday,Continuous,NL,IDFULL,HH,2021-01-08T05:30:00+01:00,2021-01-08T06:00:00+01:00,48.31,EUR,,MWh
Power,Intraday,Continuous,NL,IDFULL,HH,2021-01-08T06:00:00+01:00,2021-01-08T06:30:00+01:00,56.79,EUR,,MWh
Power,Intraday,Continuous,NL,IDFULL,HH,2021-01-08T06:30:00+01:00,2021-01-08T07:00:00+01:00,56.79,EUR,,MWh
Power,Intraday,Continuous,NL,IDFULL,HH,2021-01-08T07:00:00+01:00,2021-01-08T07:30:00+01:00,79.99,EUR,,MWh
Power,Intraday,Continuous,NL,IDFULL,HH,2021-01-08T07:30:00+01:00,2021-01-08T08:00:00+01:00,79.99,EUR,,MWh
Power,Intraday,Continuous,NL,IDFULL,HH,2021-01-08T08:00:00+01:00,2021-01-08T08:30:00+01:00,96.92,EUR,,MWh
Power,Intraday,Continuous,NL,IDFULL,HH,2021-01-08T08:30:00+01:00,2021-01-08T09:00:00+01:00,96.92,EUR,,MWh
Power,Intraday,Continuous,NL,IDFULL,HH,2021-01-08T09:00:00+01:00,2021-01-08T09:30:00+01:00,88.97,EUR,,MWh
Power,Intraday,Continuous,NL,IDFULL,HH,2021-01-08T09:30:00+01:00,2021-01-08T10:00:00+01:00,88.97,EUR,,MWh
Power,Intraday,Continuous,NL,IDFULL,HH,2021-01-08T10:00:00+01:00,2021-01-08T10:30:00+01:00,84.59,EUR,,MWh
Power,Intraday,Continuous,NL,IDFULL,HH,2021-01-08T10:30:00+01:00,2021-01-08T11:00:00+01:00,84.59,EUR,,MWh
Power,Intraday,Continuous,NL,IDFULL,HH,2021-01-08T11:00:00+01:00,2021-01-08T11:30:00+01:00,85.13,EUR,,MWh
Power,Intraday,Continuous,NL,IDFULL,HH,2021-01-08T11:30:00+01:00,2021-01-08T12:00:00+01:00,85.13,EUR,,MWh
Power,Intraday,Continuous,NL,IDFULL,HH,2021-01-08T12:00:00+01:00,2021-01-08T12:30:00+01:00,81.56,EUR,,MWh
Power,Intraday,Continuous,NL,IDFULL,HH,2021-01-08T12:30:00+01:00,2021-01-08T13:00:00+01:00,81.56,EUR,,MWh
Power,Intraday,Continuous,NL,IDFULL,HH,2021-01-08T13:00:00+01:00,2021-01-08T13:30:00+01:00,81.39,EUR,,MWh
Power,Intraday,Continuous,NL,IDFULL,HH,2021-01-08T13:30:00+01:00,2021-01-08T14:00:00+01:00,81.39,EUR,,MWh
Power,Intraday,Continuous,NL,IDFULL,HH,2021-01-08T14:00:00+01:00,2021-01-08T14:30:00+01:00,80.04,EUR,,MWh
Power,Intraday,Continuous,NL,IDFULL,HH,2021-01-08T14:30:00+01:00,2021-01-08T15:00:00+01:00,80.04,EUR,,MWh
Power,Intraday,Continuous,NL,IDFULL,HH,2021-01-08T15:00:00+01:00,2021-01-08T15:30:00+01:00,80.65,EUR,,MWh
Power,Intraday,Continuous,NL,IDFULL,HH,2021-01-08T15:30:00+01:00,2021-01-08T16:00:00+01:00,80.65,EUR,,MWh
Power,Intraday,Continuous,NL,IDFULL,HH,2021-01-08T16:00:00+01:00,2021-01-08T16:30:00+01:00,85.39,EUR,,MWh
Power,Intraday,Continuous,NL,IDFULL,HH,2021-01-08T16:30:00+01:00,2021-01-08T17:00:00+01:00,85.39,EUR,,MWh
Power,Intraday,Continuous,NL,IDFULL,HH,2021-01-08T17:00:00+01:00,2021-01-08T17:30:00+01:00,90.78,EUR,,MWh
Power,Intraday,Continuous,NL,IDFULL,HH,2021-01-08T17:30:00+01:00,2021-01-08T18:00:00+01:00,90.78,EUR,,MWh
Power,Intraday,Continuous,NL,IDFULL,HH,2021-01-08T18:00:00+01:00,2021-01-08T18:30:00+01:00,75.94,EUR,,MWh
Power,Intraday,Continuous,NL,IDFULL,HH,2021-01-08T18:30:00+01:00,2021-01-08T19:00:00+01:00,75.94,EUR,,MWh
Power,Intraday,Continuous,NL,IDFULL,HH,2021-01-08T19:00:00+01:00,2021-01-08T19:30:00+01:00,66.15,EUR,,MWh
Power,Intraday,Continuous,NL,IDFULL,HH,2021-01-08T19:30:00+01:00,2021-01-08T20:00:00+01:00,66.15,EUR,,MWh
Power,Intraday,Continuous,NL,IDFULL,HH,2021-01-08T20:00:00+01:00,2021-01-08T20:30:00+01:00,59.70,EUR,,MWh
Power,Intraday,Continuous,NL,IDFULL,HH,2021-01-08T20:30:00+01:00,2021-01-08T21:00:00+01:00,59.70,EUR,,MWh
Power,Intraday,Continuous,NL,IDFULL,HH,2021-01-08T21:00:00+01:00,2021-01-08T21:30:00+01:00,55.51,EUR,,MWh
Power,Intraday,Continuous,NL,IDFULL,HH,2021-01-08T21:30:00+01:00,2021-01-08T22:00:00+01:00,55.51,EUR,,MWh
Power,Intraday,Continuous,NL,IDFULL,HH,2021-01-08T22:00:00+01:00,2021-01-08T22:30:00+01:00,52.49,EUR,,MWh
Power,Intraday,Continuous,NL,IDFULL,HH,2021-01-08T22:30:00+01:00,2021-01-08T23:00:00+01:00,52.49,EUR,,MWh
Power,Intraday,Continuous,NL,IDFULL,HH,2021-01-08T23:00:00+01:00,2021-01-08T23:30:00+01:00,47.03,EUR,,MWh
Power,Intraday,Continuous,NL,IDFULL,HH,2021-01-08T23:30:00+01:00,2021-01-09T00:00:00+01:00,47.03,EUR,,MWh
Power,Intraday,Continuous,NL,ID1,HH,2021-01-08T00:00:00+01:00,2021-01-08T00:30:00+01:00,44.49,EUR,,MWh
Power,Intraday,Continuous,NL,ID1,HH,2021-01-08T00:30:00+01:00,2021-01-08T01:00:00+01:00,44.49,EUR,,MWh
Power,Intraday,Continuous,NL,ID1,HH,2021-01-08T01:00:00+01:00,2021-01-08T01:30:00+01:00,45.20,EUR,,MWh
Power,Intraday,Continuous,NL,ID1,HH,2021-01-08T01:30:00+01:00,2021-01-08T02:00:00+01:00,45.20,EUR,,MWh
Power,Intraday,Continuous,NL,ID1,HH,2021-01-08T02:00:00+01:00,2021-01-08T02:30:00+01:00,44.60,EUR,,MWh
Power,Intraday,Continuous,NL,ID1,HH,2021-01-08T02:30:00+01:00,2021-01-08T03:00:00+01:00,44.60,EUR,,MWh
Power,Intraday,Continuous,NL,ID1,HH,2021-01-08T03:00:00+01:00,2021-01-08T03:30:00+01:00,44.41,EUR,,MWh
Power,Intraday,Continuous,NL,ID1,HH,2021-01-08T03:30:00+01:00,2021-01-08T04:00:00+01:00,44.41,EUR,,MWh
Power,Intraday,Continuous,NL,ID1,HH,2021-01-08T04:00:00+01:00,2021-01-08T04:30:00+01:00,44.75,EUR,,MWh
Power,Intraday,Continuous,NL,ID1,HH,2021-01-08T04:30:00+01:00,2021-01-08T05:00:00+01:00,44.75,EUR,,MWh
Power,Intraday,Continuous,NL,ID1,HH,2021-01-08T05:00:00+01:00,2021-01-08T05:30:00+01:00,48.31,EUR,,MWh
Power,Intraday,Continuous,NL,ID1,HH,2021-01-08T05:30:00+01:00,2021-01-08T06:00:00+01:00,48.31,EUR,,MWh
Power,Intraday,Continuous,NL,ID1,HH,2021-01-08T06:00:00+01:00,2021-01-08T06:30:00+01:00,56.79,EUR,,MWh
Power,Intraday,Continuous,NL,ID1,HH,2021-01-08T06:30:00+01:00,2021-01-08T07:00:00+01:00,56.79,EUR,,MWh
Power,Intraday,Continuous,NL,ID1,HH,2021-01-08T07:00:00+01:00,2021-01-08T07:30:00+01:00,79.99,EUR,,MWh
Power,Intraday,Continuous,NL,ID1,HH,2021-01-08T07:30:00+01:00,2021-01-08T08:00:00+01:00,79.99,EUR,,MWh
Power,Intraday,Continuous,NL,ID1,HH,2021-01-08T08:00:00+01:00,2021-01-08T08:30:00+01:00,96.92,EUR,,MWh
Power,Intraday,Continuous,NL,ID1,HH,2021-01-08T08:30:00+01:00,2021-01-08T09:00:00+01:00,96.92,EUR,,MWh
Power,Intraday,Continuous,NL,ID1,HH,2021-01-08T09:00:00+01:00,2021-01-08T09:30:00+01:00,88.97,EUR,,MWh
Power,Intraday,Continuous,NL,ID1,HH,2021-01-08T09:30:00+01:00,2021-01-08T10:00:00+01:00,88.97,EUR,,MWh
Power,Intraday,Continuous,NL,ID1,HH,2021-01-08T10:00:00+01:00,2021-01-08T10:30:00+01:00,84.59,EUR,,MWh
Power,Intraday,Continuous,NL,ID1,HH,2021-01-08T10:30:00+01:00,2021-01-08T11:00:00+01:00,84.59,EUR,,MWh
Power,Intraday,Continuous,NL,ID1,HH,2021-01-08T11:00:00+01:00,2021-01-08T11:30:00+01:00,85.13,EUR,,MWh
Power,Intraday,Continuous,NL,ID1,HH,2021-01-08T11:30:00+01:00,2021-01-08T12:00:00+01:00,85.13,EUR,,MWh
Power,Intraday,Continuous,NL,ID1,HH,2021-01-08T12:00:00+01:00,2021-01-08T12:30:00+01:00,81.56,EUR,,MWh
Power,Intraday,Continuous,NL,ID1,HH,2021-01-08T12:30:00+01:00,2021-01-08T13:00:00+01:00,81.56,EUR,,MWh
Power,Intraday,Continuous,NL,ID1,HH,2021-01-08T13:00:00+01:00,2021-01-08T13:30:00+01:00,81.39,EUR,,MWh
Power,Intraday,Continuous,NL,ID1,HH,2021-01-08T13:30:00+01:00,2021-01-08T14:00:00+01:00,81.39,EUR,,MWh
Power,Intraday,Continuous,NL,ID1,HH,2021-01-08T14:00:00+01:00,2021-01-08T14:30:00+01:00,80.04,EUR,,MWh
Power,Intraday,Continuous,NL,ID1,HH,2021-01-08T14:30:00+01:00,2021-01-08T15:00:00+01:00,80.04,EUR,,MWh
Power,Intraday,Continuous,NL,ID1,HH,2021-01-08T15:00:00+01:00,2021-01-08T15:30:00+01:00,80.65,EUR,,MWh
Power,Intraday,Continuous,NL,ID1,HH,2021-01-08T15:30:00+01:00,2021-01-08T16:00:00+01:00,80.65,EUR,,MWh
Power,Intraday,Continuous,NL,ID1,HH,2021-01-08T16:00:00+01:00,2021-01-08T16:30:00+01:00,85.39,EUR,,MWh
Power,Intraday,Continuous,NL,ID1,HH,2021-01-08T16:30:00+01:00,2021-01-08T17:00:00+01:00,85.39,EUR,,MWh
Power,Intraday,Continuous,NL,ID1,HH,2021-01-08T17:00:00+01:00,2021-01-08T17:30:00+01:00,90.78,EUR,,MWh
Power,Intraday,Continuous,NL,ID1,HH,2021-01-08T17:30:00+01:00,2021-01-08T18:00:00+01:00,90.78,EUR,,MWh
Power,Intraday,Continuous,NL,ID1,HH,2021-01-08T18:00:00+01:00,2021-01-08T18:30:00+01:00,75.94,EUR,,MWh
Power,Intraday,Continuous,NL,ID1,HH,2021-01-08T18:30:00+01:00,2021-01-08T19:00:00+01:00,75.94,EUR,,MWh
Power,Intraday,Continuous,NL,ID1,HH,2021-01-08T19:00:00+01:00,2021-01-08T19:30:00+01:00,66.15,EUR,,MWh
Power,Intraday,Continuous,NL,ID1,HH,2021-01-08T19:30:00+01:00,2021-01-08T20:00:00+01:00,66.15,EUR,,MWh
Power,Intraday,Continuous,NL,ID1,HH,2021-01-08T20:00:00+01:00,2021-01-08T20:30:00+01:00,59.70,EUR,,MWh
Power,Intraday,Continuous,NL,ID1,HH,2021-01-08T20:30:00+01:00,2021-01-08T21:00:00+01:00,59.70,EUR,,MWh
Power,Intraday,Continuous,NL,ID1,HH,2021-01-08T21:00:00+01:00,2021-01-08T21:30:00+01:00,55.51,EUR,,MWh
Power,Intraday,Continuous,NL,ID1,HH,2021-01-08T21:30:00+01:00,2021-01-08T22:00:00+01:00,55.51,EUR,,MWh
Power,Intraday,Continuous,NL,ID1,HH,2021-01-08T22:00:00+01:00,2021-01-08T22:30:00+01:00,52.49,EUR,,MWh
Power,Intraday,Continuous,NL,ID1,HH,2021-01-08T22:30:00+01:00,2021-01-08T23:00:00+01:00,52.49,EUR,,MWh
Power,Intraday,Continuous,NL,ID1,HH,2021-01-08T23:00:00+01:00,2021-01-08T23:30:00+01:00,47.03,EUR,,MWh
Power,Intraday,Continuous,NL,ID1,HH,2021-01-08T23:30:00+01:00,2021-01-09T00:00:00+01:00,47.03,EUR,,MWh
Power,Intraday,Continuous,NL,ID3,HH,2021-01-08T00:00:00+01:00,2021-01-08T00:30:00+01:00,44.49,EUR,,MWh
Power,Intraday,Continuous,NL,ID3,HH,2021-01-08T00:30:00+01:00,2021-01-08T01:00:00+01:00,44.49,EUR,,MWh
Power,Intraday,Continuous,NL,ID3,HH,2021-01-08T01:00:00+01:00,2021-01-08T01:30:00+01:00,45.20,EUR,,MWh
Power,Intraday,Continuous,NL,ID3,HH,2021-01-08T01:30:00+01:00,2021-01-08T02:00:00+01:00,45.20,EUR,,MWh
Power,Intraday,Continuous,NL,ID3,HH,2021-01-08T02:00:00+01:00,2021-01-08T02:30:00+01:00,44.60,EUR,,MWh
Power,Intraday,Continuous,NL,ID3,HH,2021-01-08T02:30:00+01:00,2021-01-08T03:00:00+01:00,44.60,EUR,,MWh
Power,Intraday,Continuous,NL,ID3,HH,2021-01-08T03:00:00+01:00,2021-01-08T03:30:00+01:00,44.41,EUR,,MWh
Power,Intraday,Continuous,NL,ID3,HH,2021-01-08T03:30:00+01:00,2021-01-08T04:00:00+01:00,44.41,EUR,,MWh
Power,Intraday,Continuous,NL,ID3,HH,2021-01-08T04:00:00+01:00,2021-01-08T04:30:00+01:00,44.75,EUR,,MWh
Power,Intraday,Continuous,NL,ID3,HH,2021-01-08T04:30:00+01:00,2021-01-08T05:00:00+01:00,44.75,EUR,,MWh
Power,Intraday,Continuous,NL,ID3,HH,2021-01-08T05:00:00+01:00,2021-01-08T05:30:00+01:00,48.31,EUR,,MWh
Power,Intraday,Continuous,NL,ID3,HH,2021-01-08T05:30:00+01:00,2021-01-08T06:00:00+01:00,48.31,EUR,,MWh
Power,Intraday,Continuous,NL,ID3,HH,2021-01-08T06:00:00+01:00,2021-01-08T06:30:00+01:00,56.79,EUR,,MWh
Power,Intraday,Continuous,NL,ID3,HH,2021-01-08T06:30:00+01:00,2021-01-08T07:00:00+01:00,56.79,EUR,,MWh
Power,Intraday,Continuous,NL,ID3,HH,2021-01-08T07:00:00+01:00,2021-01-08T07:30:00+01:00,79.99,EUR,,MWh
Power,Intraday,Continuous,NL,ID3,HH,2021-01-08T07:30:00+01:00,2021-01-08T08:00:00+01:00,79.99,EUR,,MWh
Power,Intraday,Continuous,NL,ID3,HH,2021-01-08T08:00:00+01:00,2021-01-08T08:30:00+01:00,96.92,EUR,,MWh
Power,Intraday,Continuous,NL,ID3,HH,2021-01-08T08:30:00+01:00,2021-01-08T09:00:00+01:00,96.92,EUR,,MWh
Power,Intraday,Continuous,NL,ID3,HH,2021-01-08T09:00:00+01:00,2021-01-08T09:30:00+01:00,88.97,EUR,,MWh
Power,Intraday,Continuous,NL,ID3,HH,2021-01-08T09:30:00+01:00,2021-01-08T10:00:00+01:00,88.97,EUR,,MWh
Power,Intraday,Continuous,NL,ID3,HH,2021-01-08T10:00:00+01:00,2021-01-08T10:30:00+01:00,84.59,EUR,,MWh
Power,Intraday,Continuous,NL,ID3,HH,2021-01-08T10:30:00+01:00,2021-01-08T11:00:00+01:00,84.59,EUR,,MWh
Power,Intraday,Continuous,NL,ID3,HH,2021-01-08T11:00:00+01:00,2021-01-08T11:30:00+01:00,85.13,EUR,,MWh
Power,Intraday,Continuous,NL,ID3,HH,2021-01-08T11:30:00+01:00,2021-01-08T12:00:00+01:00,85.13,EUR,,MWh
Power,Intraday,Continuous,NL,ID3,HH,2021-01-08T12:00:00+01:00,2021-01-08T12:30:00+01:00,81.56,EUR,,MWh
Power,Intraday,Continuous,NL,ID3,HH,2021-01-08T12:30:00+01:00,2021-01-08T13:00:00+01:00,81.56,EUR,,MWh
Power,Intraday,Continuous,NL,ID3,HH,2021-01-08T13:00:00+01:00,2021-01-08T13:30:00+01:00,81.39,EUR,,MWh
Power,Intraday,Continuous,NL,ID3,HH,2021-01-08T13:30:00+01:00,2021-01-08T14:00:00+01:00,81.39,EUR,,MWh
Power,Intraday,Continuous,NL,ID3,HH,2021-01-08T14:00:00+01:00,2021-01-08T14:30:00+01:00,80.04,EUR,,MWh
Power,Intraday,Continuous,NL,ID3,HH,2021-01-08T14:30:00+01:00,2021-01-08T15:00:00+01:00,80.04,EUR,,MWh
Power,Intraday,Continuous,NL,ID3,HH,2021-01-08T15:00:00+01:00,2021-01-08T15:30:00+01:00,80.65,EUR,,MWh
Power,Intraday,Continuous,NL,ID3,HH,2021-01-08T15:30:00+01:00,2021-01-08T16:00:00+01:00,80.65,EUR,,MWh
Power,Intraday,Continuous,NL,ID3,HH,2021-01-08T16:00:00+01:00,2021-01-08T16:30:00+01:00,85.39,EUR,,MWh
Power,Intraday,Continuous,NL,ID3,HH,2021-01-08T16:30:00+01:00,2021-01-08T17:00:00+01:00,85.39,EUR,,MWh
Power,Intraday,Continuous,NL,ID3,HH,2021-01-08T17:00:00+01:00,2021-01-08T17:30:00+01:00,90.78,EUR,,MWh
Power,Intraday,Continuous,NL,ID3,HH,2021-01-08T17:30:00+01:00,2021-01-08T18:00:00+01:00,90.78,EUR,,MWh
Power,Intraday,Continuous,NL,ID3,HH,2021-01-08T18:00:00+01:00,2021-01-08T18:30:00+01:00,75.94,EUR,,MWh
Power,Intraday,Continuous,NL,ID3,HH,2021-01-08T18:30:00+01:00,2021-01-08T19:00:00+01:00,75.94,EUR,,MWh
Power,Intraday,Continuous,NL,ID3,HH,2021-01-08T19:00:00+01:00,2021-01-08T19:30:00+01:00,66.15,EUR,,MWh
Power,Intraday,Continuous,NL,ID3,HH,2021-01-08T19:30:00+01:00,2021-01-08T20:00:00+01:00,66.15,EUR,,MWh
Power,Intraday,Continuous,NL,ID3,HH,2021-01-08T20:00:00+01:00,2021-01-08T20:30:00+01:00,59.70,EUR,,MWh
Power,Intraday,Continuous,NL,ID3,HH,2021-01-08T20:30:00+01:00,2021-01-08T21:00:00+01:00,59.70,EUR,,MWh
Power,Intraday,Continuous,NL,ID3,HH,2021-01-08T21:00:00+01:00,2021-01-08T21:30:00+01:00,55.51,EUR,,MWh
Power,Intraday,Continuous,NL,ID3,HH,2021-01-08T21:30:00+01:00,2021-01-08T22:00:00+01:00,55.51,EUR,,MWh
Power,Intraday,Continuous,NL,ID3,HH,2021-01-08T22:00:00+01:00,2021-01-08T22:30:00+01:00,52.49,EUR,,MWh
Power,Intraday,Continuous,NL,ID3,HH,2021-01-08T22:30:00+01:00,2021-01-08T23:00:00+01:00,52.49,EUR,,MWh
Power,Intraday,Continuous,NL,ID3,HH,2021-01-08T23:00:00+01:00,2021-01-08T23:30:00+01:00,47.03,EUR,,MWh
Power,Intraday,Continuous,NL,ID3,HH,2021-01-08T23:30:00+01:00,2021-01-09T00:00:00+01:00,47.03,EUR,,MWh
Power,Intraday,Continuous,NL,IDFULL,QH,2021-01-08T00:00:00+01:00,2021-01-08T00:15:00+01:00,49.50,EUR,19.900,MWh
Power,Intraday,Continuous,NL,IDFULL,QH,2021-01-08T00:15:00+01:00,2021-01-08T00:30:00+01:00,54.46,EUR,,MWh
Power,Intraday,Continuous,NL,IDFULL,QH,2021-01-08T00:30:00+01:00,2021-01-08T00:45:00+01:00,37.00,EUR,10.000,MWh
Power,Intraday,Continuous,NL,IDFULL,QH,2021-01-08T00:45:00+01:00,2021-01-08T01:00:00+01:00,37.00,EUR,12.500,MWh
Power,Intraday,Continuous,NL,IDFULL,QH,2021-01-08T01:00:00+01:00,2021-01-08T01:15:00+01:00,57.25,EUR,14.500,MWh
Power,Intraday,Continuous,NL,IDFULL,QH,2021-01-08T01:15:00+01:00,2021-01-08T01:30:00+01:00,41.18,EUR,,MWh
Power,Intraday,Continuous,NL,IDFULL,QH,2021-01-08T01:30:00+01:00,2021-01-08T01:45:00+01:00,41.18,EUR,,MWh
Power,Intraday,Continuous,NL,IDFULL,QH,2021-01-08T01:45:00+01:00,2021-01-08T02:00:00+01:00,41.18,EUR,,MWh
Power,Intraday,Continuous,NL,IDFULL,QH,2021-01-08T02:00:00+01:00,2021-01-08T02:15:00+01:00,46.59,EUR,,MWh
Power,Intraday,Continuous,NL,IDFULL,QH,2021-01-08T02:15:00+01:00,2021-01-08T02:30:00+01:00,46.59,EUR,,MWh
Power,Intraday,Continuous,NL,IDFULL,QH,2021-01-08T02:30:00+01:00,2021-01-08T02:45:00+01:00,46.59,EUR,,MWh
Power,Intraday,Continuous,NL,IDFULL,QH,2021-01-08T02:45:00+01:00,2021-01-08T03:00:00+01:00,38.64,EUR,5.180,MWh
Power,Intraday,Continuous,NL,IDFULL,QH,2021-01-08T03:00:00+01:00,2021-01-08T03:15:00+01:00,44.41,EUR,,MWh
Power,Intraday,Continuous,NL,IDFULL,QH,2021-01-08T03:15:00+01:00,2021-01-08T03:30:00+01:00,44.41,EUR,,MWh
Power,Intraday,Continuous,NL,IDFULL,QH,2021-01-08T03:30:00+01:00,2021-01-08T03:45:00+01:00,44.41,EUR,,MWh
Power,Intraday,Continuous,NL,IDFULL,QH,2021-01-08T03:45:00+01:00,2021-01-08T04:00:00+01:00,44.41,EUR,,MWh
Power,Intraday,Continuous,NL,IDFULL,QH,2021-01-08T04:00:00+01:00,2021-01-08T04:15:00+01:00,44.75,EUR,,MWh
Power,Intraday,Continuous,NL,IDFULL,QH,2021-01-08T04:15:00+01:00,2021-01-08T04:30:00+01:00,44.75,EUR,,MWh
Power,Intraday,Continuous,NL,IDFULL,QH,2021-01-08T04:30:00+01:00,2021-01-08T04:45:00+01:00,44.75,EUR,,MWh
Power,Intraday,Continuous,NL,IDFULL,QH,2021-01-08T04:45:00+01:00,2021-01-08T05:00:00+01:00,44.75,EUR,,MWh
Power,Intraday,Continuous,NL,IDFULL,QH,2021-01-08T05:00:00+01:00,2021-01-08T05:15:00+01:00,48.31,EUR,,MWh
Power,Intraday,Continuous,NL,IDFULL,QH,2021-01-08T05:15:00+01:00,2021-01-08T05:30:00+01:00,48.31,EUR,,MWh
Power,Intraday,Continuous,NL,IDFULL,QH,2021-01-08T05:30:00+01:00,2021-01-08T05:45:00+01:00,48.31,EUR,,MWh
Power,Intraday,Continuous,NL,IDFULL,QH,2021-01-08T05:45:00+01:00,2021-01-08T06:00:00+01:00,48.31,EUR,,MWh
Power,Intraday,Continuous,NL,IDFULL,QH,2021-01-08T06:00:00+01:00,2021-01-08T06:15:00+01:00,42.51,EUR,9.750,MWh
Power,Intraday,Continuous,NL,IDFULL,QH,2021-01-08T06:15:00+01:00,2021-01-08T06:30:00+01:00,50.20,EUR,6.350,MWh
Power,Intraday,Continuous,NL,IDFULL,QH,2021-01-08T06:30:00+01:00,2021-01-08T06:45:00+01:00,67.65,EUR,20.280,MWh
Power,Intraday,Continuous,NL,IDFULL,QH,2021-01-08T06:45:00+01:00,2021-01-08T07:00:00+01:00,76.79,EUR,50.100,MWh
Power,Intraday,Continuous,NL,IDFULL,QH,2021-01-08T07:00:00+01:00,2021-01-08T07:15:00+01:00,47.38,EUR,47.680,MWh
Power,Intraday,Continuous,NL,IDFULL,QH,2021-01-08T07:15:00+01:00,2021-01-08T07:30:00+01:00,61.56,EUR,23.600,MWh
Power,Intraday,Continuous,NL,IDFULL,QH,2021-01-08T07:30:00+01:00,2021-01-08T07:45:00+01:00,81.09,EUR,27.700,MWh
Power,Intraday,Continuous,NL,IDFULL,QH,2021-01-08T07:45:00+01:00,2021-01-08T08:00:00+01:00,102.47,EUR,59.450,MWh
Power,Intraday,Continuous,NL,IDFULL,QH,2021-01-08T08:00:00+01:00,2021-01-08T08:15:00+01:00,81.05,EUR,34.000,MWh
Power,Intraday,Continuous,NL,IDFULL,QH,2021-01-08T08:15:00+01:00,2021-01-08T08:30:00+01:00,96.81,EUR,27.030,MWh
Power,Intraday,Continuous,NL,IDFULL,QH,2021-01-08T08:30:00+01:00,2021-01-08T08:45:00+01:00,99.24,EUR,37.650,MWh
Power,Intraday,Continuous,NL,IDFULL,QH,2021-01-08T08:45:00+01:00,2021-01-08T09:00:00+01:00,98.23,EUR,70.950,MWh
Power,Intraday,Continuous,NL,IDFULL,QH,2021-01-08T09:00:00+01:00,2021-01-08T09:15:00+01:00,83.29,EUR,18.580,MWh
Power,Intraday,Continuous,NL,IDFULL,QH,2021-01-08T09:15:00+01:00,2021-01-08T09:30:00+01:00,87.14,EUR,8.650,MWh
Power,Intraday,Continuous,NL,IDFULL,QH,2021-01-08T09:30:00+01:00,2021-01-08T09:45:00+01:00,93.40,EUR,9.150,MWh
Power,Intraday,Continuous,NL,IDFULL,QH,2021-01-08T09:45:00+01:00,2021-01-08T10:00:00+01:00,79.20,EUR,17.430,MWh
Power,Intraday,Continuous,NL,IDFULL,QH,2021-01-08T10:00:00+01:00,2021-01-08T10:15:00+01:00,82.78,EUR,16.530,MWh
Power,Intraday,Continuous,NL,IDFULL,QH,2021-01-08T10:15:00+01:00,2021-01-08T10:30:00+01:00,87.08,EUR,12.000,MWh
Power,Intraday,Continuous,NL,IDFULL,QH,2021-01-08T10:30:00+01:00,2021-01-08T10:45:00+01:00,91.77,EUR,14.130,MWh
Power,Intraday,Continuous,NL,IDFULL,QH,2021-01-08T10:45:00+01:00,2021-01-08T11:00:00+01:00,93.30,EUR,19.230,MWh
Power,Intraday,Continuous,NL,IDFULL,QH,2021-01-08T11:00:00+01:00,2021-01-08T11:15:00+01:00,80.30,EUR,24.750,MWh
Power,Intraday,Continuous,NL,IDFULL,QH,2021-01-08T11:15:00+01:00,2021-01-08T11:30:00+01:00,82.27,EUR,14.980,MWh
Power,Intraday,Continuous,NL,IDFULL,QH,2021-01-08T11:30:00+01:00,2021-01-08T11:45:00+01:00,76.49,EUR,42.250,MWh
Power,Intraday,Continuous,NL,IDFULL,QH,2021-01-08T11:45:00+01:00,2021-01-08T12:00:00+01:00,73.74,EUR,41.400,MWh
Power,Intraday,Continuous,NL,IDFULL,QH,2021-01-08T12:00:00+01:00,2021-01-08T12:15:00+01:00,90.65,EUR,22.150,MWh
Power,Intraday,Continuous,NL,IDFULL,QH,2021-01-08T12:15:00+01:00,2021-01-08T12:30:00+01:00,86.46,EUR,29.480,MWh
Power,Intraday,Continuous,NL,IDFULL,QH,2021-01-08T12:30:00+01:00,2021-01-08T12:45:00+01:00,87.10,EUR,27.730,MWh
Power,Intraday,Continuous,NL,IDFULL,QH,2021-01-08T12:45:00+01:00,2021-01-08T13:00:00+01:00,76.49,EUR,49.300,MWh
Power,Intraday,Continuous,NL,IDFULL,QH,2021-01-08T13:00:00+01:00,2021-01-08T13:15:00+01:00,94.67,EUR,18.300,MWh
Power,Intraday,Continuous,NL,IDFULL,QH,2021-01-08T13:15:00+01:00,2021-01-08T13:30:00+01:00,83.34,EUR,15.050,MWh
Power,Intraday,Continuous,NL,IDFULL,QH,2021-01-08T13:30:00+01:00,2021-01-08T13:45:00+01:00,77.53,EUR,14.050,MWh
Power,Intraday,Continuous,NL,IDFULL,QH,2021-01-08T13:45:00+01:00,2021-01-08T14:00:00+01:00,66.80,EUR,29.500,MWh
Power,Intraday,Continuous,NL,IDFULL,QH,2021-01-08T14:00:00+01:00,2021-01-08T14:15:00+01:00,77.22,EUR,25.050,MWh
Power,Intraday,Continuous,NL,IDFULL,QH,2021-01-08T14:15:00+01:00,2021-01-08T14:30:00+01:00,76.45,EUR,25.680,MWh
Power,Intraday,Continuous,NL,IDFULL,QH,2021-01-08T14:30:00+01:00,2021-01-08T14:45:00+01:00,73.36,EUR,32.430,MWh
Power,Intraday,Continuous,NL,IDFULL,QH,2021-01-08T14:45:00+01:00,2021-01-08T15:00:00+01:00,73.91,EUR,28.700,MWh
Power,Intraday,Continuous,NL,IDFULL,QH,2021-01-08T15:00:00+01:00,2021-01-08T15:15:00+01:00,73.47,EUR,49.400,MWh
Power,Intraday,Continuous,NL,IDFULL,QH,2021-01-08T15:15:00+01:00,2021-01-08T15:30:00+01:00,71.62,EUR,36.380,MWh
Power,Intraday,Continuous,NL,IDFULL,QH,2021-01-08T15:30:00+01:00,2021-01-08T15:45:00+01:00,79.57,EUR,28.880,MWh
Power,Intraday,Continuous,NL,IDFULL,QH,2021-01-08T15:45:00+01:00,2021-01-08T16:00:00+01:00,77.02,EUR,45.700,MWh
Power,Intraday,Continuous,NL,IDFULL,QH,2021-01-08T16:00:00+01:00,2021-01-08T16:15:00+01:00,66.17,EUR,83.480,MWh
Power,Intraday,Continuous,NL,IDFULL,QH,2021-01-08T16:15:00+01:00,2021-01-08T16:30:00+01:00,70.64,EUR,41.780,MWh
Power,Intraday,Continuous,NL,IDFULL,QH,2021-01-08T16:30:00+01:00,2021-01-08T16:45:00+01:00,74.65,EUR,26.050,MWh
Power,Intraday,Continuous,NL,IDFULL,QH,2021-01-08T16:45:00+01:00,2021-01-08T17:00:00+01:00,89.64,EUR,50.230,MWh
Power,Intraday,Continuous,NL,IDFULL,QH,2021-01-08T17:00:00+01:00,2021-01-08T17:15:00+01:00,71.67,EUR,41.580,MWh
Power,Intraday,Continuous,NL,IDFULL,QH,2021-01-08T17:15:00+01:00,2021-01-08T17:30:00+01:00,81.23,EUR,20.800,MWh
Power,Intraday,Continuous,NL,IDFULL,QH,2021-01-08T17:30:00+01:00,2021-01-08T17:45:00+01:00,99.95,EUR,23.000,MWh
Power,Intraday,Continuous,NL,IDFULL,QH,2021-01-08T17:45:00+01:00,2021-01-08T18:00:00+01:00,100.61,EUR,38.830,MWh
Power,Intraday,Continuous,NL,IDFULL,QH,2021-01-08T18:00:00+01:00,2021-01-08T18:15:00+01:00,84.17,EUR,6.900,MWh
Power,Intraday,Continuous,NL,IDFULL,QH,2021-01-08T18:15:00+01:00,2021-01-08T18:30:00+01:00,70.32,EUR,13.400,MWh
Power,Intraday,Continuous,NL,IDFULL,QH,2021-01-08T18:30:00+01:00,2021-01-08T18:45:00+01:00,68.09,EUR,27.450,MWh
Power,Intraday,Continuous,NL,IDFULL,QH,2021-01-08T18:45:00+01:00,2021-01-08T19:00:00+01:00,62.86,EUR,43.900,MWh
Power,Intraday,Continuous,NL,IDFULL,QH,2021-01-08T19:00:00+01:00,2021-01-08T19:15:00+01:00,80.48,EUR,13.150,MWh
Power,Intraday,Continuous,NL,IDFULL,QH,2021-01-08T19:15:00+01:00,2021-01-08T19:30:00+01:00,60.19,EUR,2.700,MWh
Power,Intraday,Continuous,NL,IDFULL,QH,2021-01-08T19:30:00+01:00,2021-01-08T19:45:00+01:00,67.90,EUR,18.100,MWh
Power,Intraday,Continuous,NL,IDFULL,QH,2021-01-08T19:45:00+01:00,2021-01-08T20:00:00+01:00,61.90,EUR,63.450,MWh
Power,Intraday,Continuous,NL,IDFULL,QH,2021-01-08T20:00:00+01:00,2021-01-08T20:15:00+01:00,69.47,EUR,24.030,MWh
Power,Intraday,Continuous,NL,IDFULL,QH,2021-01-08T20:15:00+01:00,2021-01-08T20:30:00+01:00,68.84,EUR,18.230,MWh
Power,Intraday,Continuous,NL,IDFULL,QH,2021-01-08T20:30:00+01:00,2021-01-08T20:45:00+01:00,58.91,EUR,14.680,MWh
Power,Intraday,Continuous,NL,IDFULL,QH,2021-01-08T20:45:00+01:00,2021-01-08T21:00:00+01:00,48.48,EUR,62.550,MWh
Power,Intraday,Continuous,NL,IDFULL,QH,2021-01-08T21:00:00+01:00,2021-01-08T21:15:00+01:00,69.55,EUR,27.050,MWh
Power,Intraday,Continuous,NL,IDFULL,QH,2021-01-08T21:15:00+01:00,2021-01-08T21:30:00+01:00,60.94,EUR,14.650,MWh
Power,Intraday,Continuous,NL,IDFULL,QH,2021-01-08T21:30:00+01:00,2021-01-08T21:45:00+01:00,51.81,EUR,23.230,MWh
Power,Intraday,Continuous,NL,IDFULL,QH,2021-01-08T21:45:00+01:00,2021-01-08T22:00:00+01:00,44.44,EUR,66.080,MWh
Power,Intraday,Continuous,NL,IDFULL,QH,2021-01-08T22:00:00+01:00,2021-01-08T22:15:00+01:00,71.44,EUR,46.230,MWh
Power,Intraday,Continuous,NL,IDFULL,QH,2021-01-08T22:15:00+01:00,2021-01-08T22:30:00+01:00,64.55,EUR,22.500,MWh
Power,Intraday,Continuous,NL,IDFULL,QH,2021-01-08T22:30:00+01:00,2021-01-08T22:45:00+01:00,52.94,EUR,31.880,MWh
Power,Intraday,Continuous,NL,IDFULL,QH,2021-01-08T22:45:00+01:00,2021-01-08T23:00:00+01:00,21.03,EUR,,MWh
Power,Intraday,Continuous,NL,IDFULL,QH,2021-01-08T23:00:00+01:00,2021-01-08T23:15:00+01:00,47.03,EUR,,MWh
Power,Intraday,Continuous,NL,IDFULL,QH,2021-01-08T23:15:00+01:00,2021-01-08T23:30:00+01:00,47.03,EUR,,MWh
Power,Intraday,Continuous,NL,IDFULL,QH,2021-01-08T23:30:00+01:00,2021-01-08T23:45:00+01:00,47.03,EUR,,MWh
Power,Intraday,Continuous,NL,IDFULL,QH,2021-01-08T23:45:00+01:00,2021-01-09T00:00:00+01:00,47.03,EUR,,MWh
Power,Intraday,Continuous,NL,ID1,QH,2021-01-08T00:00:00+01:00,2021-01-08T00:15:00+01:00,49.50,EUR,,MWh
Power,Intraday,Continuous,NL,ID1,QH,2021-01-08T00:15:00+01:00,2021-01-08T00:30:00+01:00,54.46,EUR,,MWh
Power,Intraday,Continuous,NL,ID1,QH,2021-01-08T00:30:00+01:00,2021-01-08T00:45:00+01:00,37.00,EUR,,MWh
Power,Intraday,Continuous,NL,ID1,QH,2021-01-08T00:45:00+01:00,2021-01-08T01:00:00+01:00,37.00,EUR,,MWh
Power,Intraday,Continuous,NL,ID1,QH,2021-01-08T01:00:00+01:00,2021-01-08T01:15:00+01:00,57.25,EUR,,MWh
Power,Intraday,Continuous,NL,ID1,QH,2021-01-08T01:15:00+01:00,2021-01-08T01:30:00+01:00,41.18,EUR,,MWh
Power,Intraday,Continuous,NL,ID1,QH,2021-01-08T01:30:00+01:00,2021-01-08T01:45:00+01:00,41.18,EUR,,MWh
Power,Intraday,Continuous,NL,ID1,QH,2021-01-08T01:45:00+01:00,2021-01-08T02:00:00+01:00,41.18,EUR,,MWh
Power,Intraday,Continuous,NL,ID1,QH,2021-01-08T02:00:00+01:00,2021-01-08T02:15:00+01:00,46.59,EUR,,MWh
Power,Intraday,Continuous,NL,ID1,QH,2021-01-08T02:15:00+01:00,2021-01-08T02:30:00+01:00,46.59,EUR,,MWh
Power,Intraday,Continuous,NL,ID1,QH,2021-01-08T02:30:00+01:00,2021-01-08T02:45:00+01:00,46.59,EUR,,MWh
Power,Intraday,Continuous,NL,ID1,QH,2021-01-08T02:45:00+01:00,2021-01-08T03:00:00+01:00,38.64,EUR,,MWh
Power,Intraday,Continuous,NL,ID1,QH,2021-01-08T03:00:00+01:00,2021-01-08T03:15:00+01:00,44.41,EUR,,MWh
Power,Intraday,Continuous,NL,ID1,QH,2021-01-08T03:15:00+01:00,2021-01-08T03:30:00+01:00,44.41,EUR,,MWh
Power,Intraday,Continuous,NL,ID1,QH,2021-01-08T03:30:00+01:00,2021-01-08T03:45:00+01:00,44.41,EUR,,MWh
Power,Intraday,Continuous,NL,ID1,QH,2021-01-08T03:45:00+01:00,2021-01-08T04:00:00+01:00,44.41,EUR,,MWh
Power,Intraday,Continuous,NL,ID1,QH,2021-01-08T04:00:00+01:00,2021-01-08T04:15:00+01:00,44.75,EUR,,MWh
Power,Intraday,Continuous,NL,ID1,QH,2021-01-08T04:15:00+01:00,2021-01-08T04:30:00+01:00,44.75,EUR,,MWh
Power,Intraday,Continuous,NL,ID1,QH,2021-01-08T04:30:00+01:00,2021-01-08T04:45:00+01:00,44.75,EUR,,MWh
Power,Intraday,Continuous,NL,ID1,QH,2021-01-08T04:45:00+01:00,2021-01-08T05:00:00+01:00,44.75,EUR,,MWh
Power,Intraday,Continuous,NL,ID1,QH,2021-01-08T05:00:00+01:00,2021-01-08T05:15:00+01:00,48.31,EUR,,MWh
Power,Intraday,Continuous,NL,ID1,QH,2021-01-08T05:15:00+01:00,2021-01-08T05:30:00+01:00,48.31,EUR,,MWh
Power,Intraday,Continuous,NL,ID1,QH,2021-01-08T05:30:00+01:00,2021-01-08T05:45:00+01:00,48.31,EUR,,MWh
Power,Intraday,Continuous,NL,ID1,QH,2021-01-08T05:45:00+01:00,2021-01-08T06:00:00+01:00,48.31,EUR,,MWh
Power,Intraday,Continuous,NL,ID1,QH,2021-01-08T06:00:00+01:00,2021-01-08T06:15:00+01:00,42.51,EUR,,MWh
Power,Intraday,Continuous,NL,ID1,QH,2021-01-08T06:15:00+01:00,2021-01-08T06:30:00+01:00,50.20,EUR,,MWh
Power,Intraday,Continuous,NL,ID1,QH,2021-01-08T06:30:00+01:00,2021-01-08T06:45:00+01:00,64.57,EUR,,MWh
Power,Intraday,Continuous,NL,ID1,QH,2021-01-08T06:45:00+01:00,2021-01-08T07:00:00+01:00,72.51,EUR,,MWh
Power,Intraday,Continuous,NL,ID1,QH,2021-01-08T07:00:00+01:00,2021-01-08T07:15:00+01:00,53.75,EUR,,MWh
Power,Intraday,Continuous,NL,ID1,QH,2021-01-08T07:15:00+01:00,2021-01-08T07:30:00+01:00,65.85,EUR,,MWh
Power,Intraday,Continuous,NL,ID1,QH,2021-01-08T07:30:00+01:00,2021-01-08T07:45:00+01:00,77.92,EUR,,MWh
Power,Intraday,Continuous,NL,ID1,QH,2021-01-08T07:45:00+01:00,2021-01-08T08:00:00+01:00,96.92,EUR,,MWh
Power,Intraday,Continuous,NL,ID1,QH,2021-01-08T08:00:00+01:00,2021-01-08T08:15:00+01:00,74.65,EUR,,MWh
Power,Intraday,Continuous,NL,ID1,QH,2021-01-08T08:15:00+01:00,2021-01-08T08:30:00+01:00,95.61,EUR,,MWh
Power,Intraday,Continuous,NL,ID1,QH,2021-01-08T08:30:00+01:00,2021-01-08T08:45:00+01:00,98.94,EUR,,MWh
Power,Intraday,Continuous,NL,ID1,QH,2021-01-08T08:45:00+01:00,2021-01-08T09:00:00+01:00,119.99,EUR,2.500,MWh
Power,Intraday,Continuous,NL,ID1,QH,2021-01-08T09:00:00+01:00,2021-01-08T09:15:00+01:00,81.21,EUR,,MWh
Power,Intraday,Continuous,NL,ID1,QH,2021-01-08T09:15:00+01:00,2021-01-08T09:30:00+01:00,83.70,EUR,,MWh
Power,Intraday,Continuous,NL,ID1,QH,2021-01-08T09:30:00+01:00,2021-01-08T09:45:00+01:00,91.14,EUR,,MWh
Power,Intraday,Continuous,NL,ID1,QH,2021-01-08T09:45:00+01:00,2021-01-08T10:00:00+01:00,76.08,EUR,,MWh
Power,Intraday,Continuous,NL,ID1,QH,2021-01-08T10:00:00+01:00,2021-01-08T10:15:00+01:00,81.02,EUR,,MWh
Power,Intraday,Continuous,NL,ID1,QH,2021-01-08T10:15:00+01:00,2021-01-08T10:30:00+01:00,84.42,EUR,,MWh
Power,Intraday,Continuous,NL,ID1,QH,2021-01-08T10:30:00+01:00,2021-01-08T10:45:00+01:00,91.53,EUR,,MWh
Power,Intraday,Continuous,NL,ID1,QH,2021-01-08T10:45:00+01:00,2021-01-08T11:00:00+01:00,119.67,EUR,2.580,MWh
Power,Intraday,Continuous,NL,ID1,QH,2021-01-08T11:00:00+01:00,2021-01-08T11:15:00+01:00,78.88,EUR,,MWh
Power,Intraday,Continuous,NL,ID1,QH,2021-01-08T11:15:00+01:00,2021-01-08T11:30:00+01:00,80.02,EUR,,MWh
Power,Intraday,Continuous,NL,ID1,QH,2021-01-08T11:30:00+01:00,2021-01-08T11:45:00+01:00,74.51,EUR,,MWh
Power,Intraday,Continuous,NL,ID1,QH,2021-01-08T11:45:00+01:00,2021-01-08T12:00:00+01:00,71.26,EUR,,MWh
Power,Intraday,Continuous,NL,ID1,QH,2021-01-08T12:00:00+01:00,2021-01-08T12:15:00+01:00,82.84,EUR,,MWh
Power,Intraday,Continuous,NL,ID1,QH,2021-01-08T12:15:00+01:00,2021-01-08T12:30:00+01:00,77.32,EUR,,MWh
Power,Intraday,Continuous,NL,ID1,QH,2021-01-08T12:30:00+01:00,2021-01-08T12:45:00+01:00,73.46,EUR,,MWh
Power,Intraday,Continuous,NL,ID1,QH,2021-01-08T12:45:00+01:00,2021-01-08T13:00:00+01:00,68.69,EUR,,MWh
Power,Intraday,Continuous,NL,ID1,QH,2021-01-08T13:00:00+01:00,2021-01-08T13:15:00+01:00,93.54,EUR,,MWh
Power,Intraday,Continuous,NL,ID1,QH,2021-01-08T13:15:00+01:00,2021-01-08T13:30:00+01:00,82.05,EUR,,MWh
Power,Intraday,Continuous,NL,ID1,QH,2021-01-08T13:30:00+01:00,2021-01-08T13:45:00+01:00,75.19,EUR,,MWh
Power,Intraday,Continuous,NL,ID1,QH,2021-01-08T13:45:00+01:00,2021-01-08T14:00:00+01:00,65.47,EUR,,MWh
Power,Intraday,Continuous,NL,ID1,QH,2021-01-08T14:00:00+01:00,2021-01-08T14:15:00+01:00,77.53,EUR,,MWh
Power,Intraday,Continuous,NL,ID1,QH,2021-01-08T14:15:00+01:00,2021-01-08T14:30:00+01:00,76.67,EUR,,MWh
Power,Intraday,Continuous,NL,ID1,QH,2021-01-08T14:30:00+01:00,2021-01-08T14:45:00+01:00,72.99,EUR,,MWh
Power,Intraday,Continuous,NL,ID1,QH,2021-01-08T14:45:00+01:00,2021-01-08T15:00:00+01:00,73.16,EUR,,MWh
Power,Intraday,Continuous,NL,ID1,QH,2021-01-08T15:00:00+01:00,2021-01-08T15:15:00+01:00,71.96,EUR,,MWh
Power,Intraday,Continuous,NL,ID1,QH,2021-01-08T15:15:00+01:00,2021-01-08T15:30:00+01:00,69.62,EUR,,MWh
Power,Intraday,Continuous,NL,ID1,QH,2021-01-08T15:30:00+01:00,2021-01-08T15:45:00+01:00,72.96,EUR,,MWh
Power,Intraday,Continuous,NL,ID1,QH,2021-01-08T15:45:00+01:00,2021-01-08T16:00:00+01:00,75.46,EUR,,MWh
Power,Intraday,Continuous,NL,ID1,QH,2021-01-08T16:00:00+01:00,2021-01-08T16:15:00+01:00,63.96,EUR,,MWh
Power,Intraday,Continuous,NL,ID1,QH,2021-01-08T16:15:00+01:00,2021-01-08T16:30:00+01:00,68.68,EUR,,MWh
Power,Intraday,Continuous,NL,ID1,QH,2021-01-08T16:30:00+01:00,2021-01-08T16:45:00+01:00,71.71,EUR,,MWh
Power,Intraday,Continuous,NL,ID1,QH,2021-01-08T16:45:00+01:00,2021-01-08T17:00:00+01:00,85.88,EUR,,MWh
Power,Intraday,Continuous,NL,ID1,QH,2021-01-08T17:00:00+01:00,2021-01-08T17:15:00+01:00,71.77,EUR,,MWh
Power,Intraday,Continuous,NL,ID1,QH,2021-01-08T17:15:00+01:00,2021-01-08T17:30:00+01:00,82.76,EUR,,MWh
Power,Intraday,Continuous,NL,ID1,QH,2021-01-08T17:30:00+01:00,2021-01-08T17:45:00+01:00,89.57,EUR,,MWh
Power,Intraday,Continuous,NL,ID1,QH,2021-01-08T17:45:00+01:00,2021-01-08T18:00:00+01:00,95.77,EUR,,MWh
Power,Intraday,Continuous,NL,ID1,QH,2021-01-08T18:00:00+01:00,2021-01-08T18:15:00+01:00,84.17,EUR,,MWh
Power,Intraday,Continuous,NL,ID1,QH,2021-01-08T18:15:00+01:00,2021-01-08T18:30:00+01:00,68.17,EUR,,MWh
Power,Intraday,Continuous,NL,ID1,QH,2021-01-08T18:30:00+01:00,2021-01-08T18:45:00+01:00,65.91,EUR,,MWh
Power,Intraday,Continuous,NL,ID1,QH,2021-01-08T18:45:00+01:00,2021-01-08T19:00:00+01:00,60.14,EUR,,MWh
Power,Intraday,Continuous,NL,ID1,QH,2021-01-08T19:00:00+01:00,2021-01-08T19:15:00+01:00,79.82,EUR,,MWh
Power,Intraday,Continuous,NL,ID1,QH,2021-01-08T19:15:00+01:00,2021-01-08T19:30:00+01:00,60.19,EUR,,MWh
Power,Intraday,Continuous,NL,ID1,QH,2021-01-08T19:30:00+01:00,2021-01-08T19:45:00+01:00,67.90,EUR,,MWh
Power,Intraday,Continuous,NL,ID1,QH,2021-01-08T19:45:00+01:00,2021-01-08T20:00:00+01:00,60.95,EUR,,MWh
Power,Intraday,Continuous,NL,ID1,QH,2021-01-08T20:00:00+01:00,2021-01-08T20:15:00+01:00,68.92,EUR,,MWh
Power,Intraday,Continuous,NL,ID1,QH,2021-01-08T20:15:00+01:00,2021-01-08T20:30:00+01:00,69.36,EUR,,MWh
Power,Intraday,Continuous,NL,ID1,QH,2021-01-08T20:30:00+01:00,2021-01-08T20:45:00+01:00,60.47,EUR,,MWh
Power,Intraday,Continuous,NL,ID1,QH,2021-01-08T20:45:00+01:00,2021-01-08T21:00:00+01:00,48.06,EUR,,MWh
Power,Intraday,Continuous,NL,ID1,QH,2021-01-08T21:00:00+01:00,2021-01-08T21:15:00+01:00,68.84,EUR,,MWh
Power,Intraday,Continuous,NL,ID1,QH,2021-01-08T21:15:00+01:00,2021-01-08T21:30:00+01:00,50.00,EUR,,MWh
Power,Intraday,Continuous,NL,ID1,QH,2021-01-08T21:30:00+01:00,2021-01-08T21:45:00+01:00,52.03,EUR,,MWh
Power,Intraday,Continuous,NL,ID1,QH,2021-01-08T21:45:00+01:00,2021-01-08T22:00:00+01:00,44.89,EUR,,MWh
Power,Intraday,Continuous,NL,ID1,QH,2021-01-08T22:00:00+01:00,2021-01-08T22:15:00+01:00,71.70,EUR,,MWh
Power,Intraday,Continuous,NL,ID1,QH,2021-01-08T22:15:00+01:00,2021-01-08T22:30:00+01:00,64.55,EUR,,MWh
Power,Intraday,Continuous,NL,ID1,QH,2021-01-08T22:30:00+01:00,2021-01-08T22:45:00+01:00,52.54,EUR,,MWh
Power,Intraday,Continuous,NL,ID1,QH,2021-01-08T22:45:00+01:00,2021-01-08T23:00:00+01:00,21.03,EUR,,MWh
Power,Intraday,Continuous,NL,ID1,QH,2021-01-08T23:00:00+01:00,2021-01-08T23:15:00+01:00,47.03,EUR,,MWh
Power,Intraday,Continuous,NL,ID1,QH,2021-01-08T23:15:00+01:00,2021-01-08T23:30:00+01:00,47.03,EUR,,MWh
Power,Intraday,Continuous,NL,ID1,QH,2021-01-08T23:30:00+01:00,2021-01-08T23:45:00+01:00,47.03,EUR,,MWh
Power,Intraday,Continuous,NL,ID1,QH,2021-01-08T23:45:00+01:00,2021-01-09T00:00:00+01:00,47.03,EUR,,MWh
Power,Intraday,Continuous,NL,ID3,QH,2021-01-08T00:00:00+01:00,2021-01-08T00:15:00+01:00,49.50,EUR,19.900,MWh
Power,Intraday,Continuous,NL,ID3,QH,2021-01-08T00:15:00+01:00,2021-01-08T00:30:00+01:00,54.46,EUR,,MWh
Power,Intraday,Continuous,NL,ID3,QH,2021-01-08T00:30:00+01:00,2021-01-08T00:45:00+01:00,37.00,EUR,10.000,MWh
Power,Intraday,Continuous,NL,ID3,QH,2021-01-08T00:45:00+01:00,2021-01-08T01:00:00+01:00,37.00,EUR,12.500,MWh
Power,Intraday,Continuous,NL,ID3,QH,2021-01-08T01:00:00+01:00,2021-01-08T01:15:00+01:00,57.25,EUR,14.500,MWh
Power,Intraday,Continuous,NL,ID3,QH,2021-01-08T01:15:00+01:00,2021-01-08T01:30:00+01:00,41.18,EUR,,MWh
Power,Intraday,Continuous,NL,ID3,QH,2021-01-08T01:30:00+01:00,2021-01-08T01:45:00+01:00,41.18,EUR,,MWh
Power,Intraday,Continuous,NL,ID3,QH,2021-01-08T01:45:00+01:00,2021-01-08T02:00:00+01:00,41.18,EUR,,MWh
Power,Intraday,Continuous,NL,ID3,QH,2021-01-08T02:00:00+01:00,2021-01-08T02:15:00+01:00,46.59,EUR,,MWh
Power,Intraday,Continuous,NL,ID3,QH,2021-01-08T02:15:00+01:00,2021-01-08T02:30:00+01:00,46.59,EUR,,MWh
Power,Intraday,Continuous,NL,ID3,QH,2021-01-08T02:30:00+01:00,2021-01-08T02:45:00+01:00,46.59,EUR,,MWh
Power,Intraday,Continuous,NL,ID3,QH,2021-01-08T02:45:00+01:00,2021-01-08T03:00:00+01:00,38.64,EUR,5.180,MWh
Power,Intraday,Continuous,NL,ID3,QH,2021-01-08T03:00:00+01:00,2021-01-08T03:15:00+01:00,44.41,EUR,,MWh
Power,Intraday,Continuous,NL,ID3,QH,2021-01-08T03:15:00+01:00,2021-01-08T03:30:00+01:00,44.41,EUR,,MWh
Power,Intraday,Continuous,NL,ID3,QH,2021-01-08T03:30:00+01:00,2021-01-08T03:45:00+01:00,44.41,EUR,,MWh
Power,Intraday,Continuous,NL,ID3,QH,2021-01-08T03:45:00+01:00,2021-01-08T04:00:00+01:00,44.41,EUR,,MWh
Power,Intraday,Continuous,NL,ID3,QH,2021-01-08T04:00:00+01:00,2021-01-08T04:15:00+01:00,44.75,EUR,,MWh
Power,Intraday,Continuous,NL,ID3,QH,2021-01-08T04:15:00+01:00,2021-01-08T04:30:00+01:00,44.75,EUR,,MWh
Power,Intraday,Continuous,NL,ID3,QH,2021-01-08T04:30:00+01:00,2021-01-08T04:45:00+01:00,44.75,EUR,,MWh
Power,Intraday,Continuous,NL,ID3,QH,2021-01-08T04:45:00+01:00,2021-01-08T05:00:00+01:00,44.75,EUR,,MWh
Power,Intraday,Continuous,NL,ID3,QH,2021-01-08T05:00:00+01:00,2021-01-08T05:15:00+01:00,48.31,EUR,,MWh
Power,Intraday,Continuous,NL,ID3,QH,2021-01-08T05:15:00+01:00,2021-01-08T05:30:00+01:00,48.31,EUR,,MWh
Power,Intraday,Continuous,NL,ID3,QH,2021-01-08T05:30:00+01:00,2021-01-08T05:45:00+01:00,48.31,EUR,,MWh
Power,Intraday,Continuous,NL,ID3,QH,2021-01-08T05:45:00+01:00,2021-01-08T06:00:00+01:00,48.31,EUR,,MWh
Power,Intraday,Continuous,NL,ID3,QH,2021-01-08T06:00:00+01:00,2021-01-08T06:15:00+01:00,42.51,EUR,9.750,MWh
Power,Intraday,Continuous,NL,ID3,QH,2021-01-08T06:15:00+01:00,2021-01-08T06:30:00+01:00,50.20,EUR,6.350,MWh
Power,Intraday,Continuous,NL,ID3,QH,2021-01-08T06:30:00+01:00,2021-01-08T06:45:00+01:00,64.57,EUR,6.830,MWh
Power,Intraday,Continuous,NL,ID3,QH,2021-01-08T06:45:00+01:00,2021-01-08T07:00:00+01:00,72.51,EUR,12.500,MWh
Power,Intraday,Continuous,NL,ID3,QH,2021-01-08T07:00:00+01:00,2021-01-08T07:15:00+01:00,53.75,EUR,10.450,MWh
Power,Intraday,Continuous,NL,ID3,QH,2021-01-08T07:15:00+01:00,2021-01-08T07:30:00+01:00,65.85,EUR,4.850,MWh
Power,Intraday,Continuous,NL,ID3,QH,2021-01-08T07:30:00+01:00,2021-01-08T07:45:00+01:00,77.92,EUR,20.550,MWh
Power,Intraday,Continuous,NL,ID3,QH,2021-01-08T07:45:00+01:00,2021-01-08T08:00:00+01:00,96.92,EUR,44.300,MWh
Power,Intraday,Continuous,NL,ID3,QH,2021-01-08T08:00:00+01:00,2021-01-08T08:15:00+01:00,74.65,EUR,21.400,MWh
Power,Intraday,Continuous,NL,ID3,QH,2021-01-08T08:15:00+01:00,2021-01-08T08:30:00+01:00,95.61,EUR,22.000,MWh
Power,Intraday,Continuous,NL,ID3,QH,2021-01-08T08:30:00+01:00,2021-01-08T08:45:00+01:00,98.94,EUR,34.080,MWh
Power,Intraday,Continuous,NL,ID3,QH,2021-01-08T08:45:00+01:00,2021-01-08T09:00:00+01:00,97.62,EUR,53.580,MWh
Power,Intraday,Continuous,NL,ID3,QH,2021-01-08T09:00:00+01:00,2021-01-08T09:15:00+01:00,81.21,EUR,16.500,MWh
Power,Intraday,Continuous,NL,ID3,QH,2021-01-08T09:15:00+01:00,2021-01-08T09:30:00+01:00,83.70,EUR,7.300,MWh
Power,Intraday,Continuous,NL,ID3,QH,2021-01-08T09:30:00+01:00,2021-01-08T09:45:00+01:00,91.14,EUR,7.630,MWh
Power,Intraday,Continuous,NL,ID3,QH,2021-01-08T09:45:00+01:00,2021-01-08T10:00:00+01:00,76.08,EUR,15.180,MWh
Power,Intraday,Continuous,NL,ID3,QH,2021-01-08T10:00:00+01:00,2021-01-08T10:15:00+01:00,81.02,EUR,15.180,MWh
Power,Intraday,Continuous,NL,ID3,QH,2021-01-08T10:15:00+01:00,2021-01-08T10:30:00+01:00,84.42,EUR,10.100,MWh
Power,Intraday,Continuous,NL,ID3,QH,2021-01-08T10:30:00+01:00,2021-01-08T10:45:00+01:00,91.53,EUR,9.850,MWh
Power,Intraday,Continuous,NL,ID3,QH,2021-01-08T10:45:00+01:00,2021-01-08T11:00:00+01:00,95.07,EUR,12.080,MWh
Power,Intraday,Continuous,NL,ID3,QH,2021-01-08T11:00:00+01:00,2021-01-08T11:15:00+01:00,78.88,EUR,22.530,MWh
Power,Intraday,Continuous,NL,ID3,QH,2021-01-08T11:15:00+01:00,2021-01-08T11:30:00+01:00,80.02,EUR,12.700,MWh
Power,Intraday,Continuous,NL,ID3,QH,2021-01-08T11:30:00+01:00,2021-01-08T11:45:00+01:00,74.51,EUR,36.150,MWh
Power,Intraday,Continuous,NL,ID3,QH,2021-01-08T11:45:00+01:00,2021-01-08T12:00:00+01:00,71.26,EUR,34.150,MWh
Power,Intraday,Continuous,NL,ID3,QH,2021-01-08T12:00:00+01:00,2021-01-08T12:15:00+01:00,82.84,EUR,9.900,MWh
Power,Intraday,Continuous,NL,ID3,QH,2021-01-08T12:15:00+01:00,2021-01-08T12:30:00+01:00,77.32,EUR,14.630,MWh
Power,Intraday,Continuous,NL,ID3,QH,2021-01-08T12:30:00+01:00,2021-01-08T12:45:00+01:00,73.46,EUR,7.680,MWh
Power,Intraday,Continuous,NL,ID3,QH,2021-01-08T12:45:00+01:00,2021-01-08T13:00:00+01:00,68.69,EUR,17.200,MWh
Power,Intraday,Continuous,NL,ID3,QH,2021-01-08T13:00:00+01:00,2021-01-08T13:15:00+01:00,93.54,EUR,15.800,MWh
Power,Intraday,Continuous,NL,ID3,QH,2021-01-08T13:15:00+01:00,2021-01-08T13:30:00+01:00,82.05,EUR,10.980,MWh
Power,Intraday,Continuous,NL,ID3,QH,2021-01-08T13:30:00+01:00,2021-01-08T13:45:00+01:00,75.19,EUR,9.000,MWh
Power,Intraday,Continuous,NL,ID3,QH,2021-01-08T13:45:00+01:00,2021-01-08T14:00:00+01:00,65.47,EUR,26.630,MWh
Power,Intraday,Continuous,NL,ID3,QH,2021-01-08T14:00:00+01:00,2021-01-08T14:15:00+01:00,77.53,EUR,22.780,MWh
Power,Intraday,Continuous,NL,ID3,QH,2021-01-08T14:15:00+01:00,2021-01-08T14:30:00+01:00,76.67,EUR,23.400,MWh
Power,Intraday,Continuous,NL,ID3,QH,2021-01-08T14:30:00+01:00,2021-01-08T14:45:00+01:00,72.99,EUR,26.350,MWh
Power,Intraday,Continuous,NL,ID3,QH,2021-01-08T14:45:00+01:00,2021-01-08T15:00:00+01:00,73.16,EUR,21.550,MWh
Power,Intraday,Continuous,NL,ID3,QH,2021-01-08T15:00:00+01:00,2021-01-08T15:15:00+01:00,71.96,EUR,32.380,MWh
Power,Intraday,Continuous,NL,ID3,QH,2021-01-08T15:15:00+01:00,2021-01-08T15:30:00+01:00,69.62,EUR,29.080,MWh
Power,Intraday,Continuous,NL,ID3,QH,2021-01-08T15:30:00+01:00,2021-01-08T15:45:00+01:00,72.96,EUR,6.880,MWh
Power,Intraday,Continuous,NL,ID3,QH,2021-01-08T15:45:00+01:00,2021-01-08T16:00:00+01:00,75.46,EUR,32.050,MWh
Power,Intraday,Continuous,NL,ID3,QH,2021-01-08T16:00:00+01:00,2021-01-08T16:15:00+01:00,63.96,EUR,46.530,MWh
Power,Intraday,Continuous,NL,ID3,QH,2021-01-08T16:15:00+01:00,2021-01-08T16:30:00+01:00,68.68,EUR,27.350,MWh
Power,Intraday,Continuous,NL,ID3,QH,2021-01-08T16:30:00+01:00,2021-01-08T16:45:00+01:00,71.71,EUR,21.450,MWh
Power,Intraday,Continuous,NL,ID3,QH,2021-01-08T16:45:00+01:00,2021-01-08T17:00:00+01:00,85.88,EUR,34.150,MWh
Power,Intraday,Continuous,NL,ID3,QH,2021-01-08T17:00:00+01:00,2021-01-08T17:15:00+01:00,71.77,EUR,32.400,MWh
Power,Intraday,Continuous,NL,ID3,QH,2021-01-08T17:15:00+01:00,2021-01-08T17:30:00+01:00,82.76,EUR,12.380,MWh
Power,Intraday,Continuous,NL,ID3,QH,2021-01-08T17:30:00+01:00,2021-01-08T17:45:00+01:00,89.57,EUR,8.150,MWh
Power,Intraday,Continuous,NL,ID3,QH,2021-01-08T17:45:00+01:00,2021-01-08T18:00:00+01:00,95.77,EUR,26.130,MWh
Power,Intraday,Continuous,NL,ID3,QH,2021-01-08T18:00:00+01:00,2021-01-08T18:15:00+01:00,84.17,EUR,,MWh
Power,Intraday,Continuous,NL,ID3,QH,2021-01-08T18:15:00+01:00,2021-01-08T18:30:00+01:00,68.17,EUR,9.500,MWh
Power,Intraday,Continuous,NL,ID3,QH,2021-01-08T18:30:00+01:00,2021-01-08T18:45:00+01:00,65.91,EUR,24.950,MWh
Power,Intraday,Continuous,NL,ID3,QH,2021-01-08T18:45:00+01:00,2021-01-08T19:00:00+01:00,60.14,EUR,29.200,MWh
Power,Intraday,Continuous,NL,ID3,QH,2021-01-08T19:00:00+01:00,2021-01-08T19:15:00+01:00,79.82,EUR,9.450,MWh
Power,Intraday,Continuous,NL,ID3,QH,2021-01-08T19:15:00+01:00,2021-01-08T19:30:00+01:00,60.19,EUR,,MWh
Power,Intraday,Continuous,NL,ID3,QH,2021-01-08T19:30:00+01:00,2021-01-08T19:45:00+01:00,67.90,EUR,18.100,MWh
Power,Intraday,Continuous,NL,ID3,QH,2021-01-08T19:45:00+01:00,2021-01-08T20:00:00+01:00,60.95,EUR,34.980,MWh
Power,Intraday,Continuous,NL,ID3,QH,2021-01-08T20:00:00+01:00,2021-01-08T20:15:00+01:00,68.92,EUR,12.200,MWh
Power,Intraday,Continuous,NL,ID3,QH,2021-01-08T20:15:00+01:00,2021-01-08T20:30:00+01:00,69.36,EUR,13.050,MWh
Power,Intraday,Continuous,NL,ID3,QH,2021-01-08T20:30:00+01:00,2021-01-08T20:45:00+01:00,60.47,EUR,5.250,MWh
Power,Intraday,Continuous,NL,ID3,QH,2021-01-08T20:45:00+01:00,2021-01-08T21:00:00+01:00,48.06,EUR,18.130,MWh
Power,Intraday,Continuous,NL,ID3,QH,2021-01-08T21:00:00+01:00,2021-01-08T21:15:00+01:00,68.84,EUR,10.500,MWh
Power,Intraday,Continuous,NL,ID3,QH,2021-01-08T21:15:00+01:00,2021-01-08T21:30:00+01:00,50.00,EUR,2.500,MWh
Power,Intraday,Continuous,NL,ID3,QH,2021-01-08T21:30:00+01:00,2021-01-08T21:45:00+01:00,52.03,EUR,4.650,MWh
Power,Intraday,Continuous,NL,ID3,QH,2021-01-08T21:45:00+01:00,2021-01-08T22:00:00+01:00,44.89,EUR,22.980,MWh
Power,Intraday,Continuous,NL,ID3,QH,2021-01-08T22:00:00+01:00,2021-01-08T22:15:00+01:00,71.70,EUR,25.500,MWh
Power,Intraday,Continuous,NL,ID3,QH,2021-01-08T22:15:00+01:00,2021-01-08T22:30:00+01:00,64.55,EUR,22.500,MWh
Power,Intraday,Continuous,NL,ID3,QH,2021-01-08T22:30:00+01:00,2021-01-08T22:45:00+01:00,52.54,EUR,24.450,MWh
Power,Intraday,Continuous,NL,ID3,QH,2021-01-08T22:45:00+01:00,2021-01-08T23:00:00+01:00,21.03,EUR,,MWh
Power,Intraday,Continuous,NL,ID3,QH,2021-01-08T23:00:00+01:00,2021-01-08T23:15:00+01:00,47.03,EUR,,MWh
Power,Intraday,Continuous,NL,ID3,QH,2021-01-08T23:15:00+01:00,2021-01-08T23:30:00+01:00,47.03,EUR,,MWh
Power,Intraday,Continuous,NL,ID3,QH,2021-01-08T23:30:00+01:00,2021-01-08T23:45:00+01:00,47.03,EUR,,MWh
Power,Intraday,Continuous,NL,ID3,QH,2021-01-08T23:45:00+01:00,2021-01-09T00:00:00+01:00,47.03,EUR,,MWh
Power,Intraday,Continuous,NL,IDFULL,BASE,2021-01-08T00:00:00+01:00,2021-01-09T00:00:00+01:00,67.53,EUR,16662.000,MWh
Power,Intraday,Continuous,NL,IDFULL,PEAK,2021-01-08T08:00:00+01:00,2021-01-08T20:00:00+01:00,83.13,EUR,10608.400,MWh
