Commodity,NominationModality,TradingModality,MarketArea,IndexName,TimeResolution,DeliveryStart,DeliveryEnd,IndexPrice,Currency,Volume,VolumeUnit
Power,Intraday,Continuous,NL,IDFULL,H,2021-04-23T00:00:00+02:00,2021-04-23T01:00:00+02:00,55.02,EUR,233.800,MWh
Power,Intraday,Continuous,NL,IDFULL,H,2021-04-23T01:00:00+02:00,2021-04-23T02:00:00+02:00,51.30,EUR,526.100,MWh
Power,Intraday,Continuous,NL,IDFULL,H,2021-04-23T02:00:00+02:00,2021-04-23T03:00:00+02:00,53.13,EUR,282.400,MWh
Power,Intraday,Continuous,NL,IDFULL,H,2021-04-23T03:00:00+02:00,2021-04-23T04:00:00+02:00,56.62,EUR,717.700,MWh
Power,Intraday,Continuous,NL,IDFULL,H,2021-04-23T04:00:00+02:00,2021-04-23T05:00:00+02:00,58.52,EUR,692.300,MWh
Power,Intraday,Continuous,NL,IDFULL,H,2021-04-23T05:00:00+02:00,2021-04-23T06:00:00+02:00,68.10,EUR,651.600,MWh
Power,Intraday,Continuous,NL,IDFULL,H,2021-04-23T06:00:00+02:00,2021-04-23T07:00:00+02:00,78.28,EUR,518.400,MWh
Power,Intraday,Continuous,NL,IDFULL,H,2021-04-23T07:00:00+02:00,2021-04-23T08:00:00+02:00,87.14,EUR,687.800,MWh
Power,Intraday,Continuous,NL,IDFULL,H,2021-04-23T08:00:00+02:00,2021-04-23T09:00:00+02:00,85.49,EUR,717.700,MWh
Power,Intraday,Continuous,NL,IDFULL,H,2021-04-23T09:00:00+02:00,2021-04-23T10:00:00+02:00,59.75,EUR,770.300,MWh
Power,Intraday,Continuous,NL,IDFULL,H,2021-04-23T10:00:00+02:00,2021-04-23T11:00:00+02:00,54.93,EUR,1773.300,MWh
Power,Intraday,Continuous,NL,IDFULL,H,2021-04-23T11:00:00+02:00,2021-04-23T12:00:00+02:00,52.62,EUR,1419.200,MWh
Power,Intraday,Continuous,NL,IDFULL,H,2021-04-23T12:00:00+02:00,2021-04-23T13:00:00+02:00,45.46,EUR,1455.500,MWh
Power,Intraday,Continuous,NL,IDFULL,H,2021-04-23T13:00:00+02:00,2021-04-23T14:00:00+02:00,40.80,EUR,1559.900,MWh
Power,Intraday,Continuous,NL,IDFULL,H,2021-04-23T14:00:00+02:00,2021-04-23T15:00:00+02:00,39.58,EUR,1468.200,MWh
Power,Intraday,Continuous,NL,IDFULL,H,2021-04-23T15:00:00+02:00,2021-04-23T16:00:00+02:00,38.29,EUR,1241.900,MWh
Power,Intraday,Continuous,NL,IDFULL,H,2021-04-23T16:00:00+02:00,2021-04-23T17:00:00+02:00,41.59,EUR,1177.700,MWh
Power,Intraday,Continuous,NL,IDFULL,H,2021-04-23T17:00:00+02:00,2021-04-23T18:00:00+02:00,51.76,EUR,987.600,MWh
Power,Intraday,Continuous,NL,IDFULL,H,2021-04-23T18:00:00+02:00,2021-04-23T19:00:00+02:00,63.71,EUR,823.800,MWh
Power,Intraday,Continuous,NL,IDFULL,H,2021-04-23T19:00:00+02:00,2021-04-23T20:00:00+02:00,79.23,EUR,594.100,MWh
Power,Intraday,Continuous,NL,IDFULL,H,2021-04-23T20:00:00+02:00,2021-04-23T21:00:00+02:00,82.22,EUR,596.600,MWh
Power,Intraday,Continuous,NL,IDFULL,H,2021-04-23T21:00:00+02:00,2021-04-23T22:00:00+02:00,79.15,EUR,466.400,MWh
Power,Intraday,Continuous,NL,IDFULL,H,2021-04-23T22:00:00+02:00,2021-04-23T23:00:00+02:00,71.63,EUR,412.400,MWh
Power,Intraday,Continuous,NL,IDFULL,H,2021-04-23T23:00:00+02:00,2021-04-24T00:00:00+02:00,65.33,EUR,668.900,MWh
Power,Intraday,Continuous,NL,ID1,H,2021-04-23T00:00:00+02:00,2021-04-23T01:00:00+02:00,55.03,EUR,,MWh
Power,Intraday,Continuous,NL,ID1,H,2021-04-23T01:00:00+02:00,2021-04-23T02:00:00+02:00,51.84,EUR,31.000,MWh
Power,Intraday,Continuous,NL,ID1,H,2021-04-23T02:00:00+02:00,2021-04-23T03:00:00+02:00,45.04,EUR,27.300,MWh
Power,Intraday,Continuous,NL,ID1,H,2021-04-23T03:00:00+02:00,2021-04-23T04:00:00+02:00,68.19,EUR,40.000,MWh
Power,Intraday,Continuous,NL,ID1,H,2021-04-23T04:00:00+02:00,2021-04-23T05:00:00+02:00,59.12,EUR,,MWh
Power,Intraday,Continuous,NL,ID1,H,2021-04-23T05:00:00+02:00,2021-04-23T06:00:00+02:00,72.26,EUR,,MWh
Power,Intraday,Continuous,NL,ID1,H,2021-04-23T06:00:00+02:00,2021-04-23T07:00:00+02:00,77.43,EUR,,MWh
Power,Intraday,Continuous,NL,ID1,H,2021-04-23T07:00:00+02:00,2021-04-23T08:00:00+02:00,87.67,EUR,,MWh
Power,Intraday,Continuous,NL,ID1,H,2021-04-23T08:00:00+02:00,2021-04-23T09:00:00+02:00,70.00,EUR,11.500,MWh
Power,Intraday,Continuous,NL,ID1,H,2021-04-23T09:00:00+02:00,2021-04-23T10:00:00+02:00,66.03,EUR,169.200,MWh
Power,Intraday,Continuous,NL,ID1,H,2021-04-23T10:00:00+02:00,2021-04-23T11:00:00+02:00,47.18,EUR,83.000,MWh
Power,Intraday,Continuous,NL,ID1,H,2021-04-23T11:00:00+02:00,2021-04-23T12:00:00+02:00,40.34,EUR,147.100,MWh
Power,Intraday,Continuous,NL,ID1,H,2021-04-23T12:00:00+02:00,2021-04-23T13:00:00+02:00,27.02,EUR,13.500,MWh
Power,Intraday,Continuous,NL,ID1,H,2021-04-23T13:00:00+02:00,2021-04-23T14:00:00+02:00,46.80,EUR,26.500,MWh
Power,Intraday,Continuous,NL,ID1,H,2021-04-23T14:00:00+02:00,2021-04-23T15:00:00+02:00,44.24,EUR,45.000,MWh
Power,Intraday,Continuous,NL,ID1,H,2021-04-23T15:00:00+02:00,2021-04-23T16:00:00+02:00,17.07,EUR,48.000,MWh
Power,Intraday,Continuous,NL,ID1,H,2021-04-23T16:00:00+02:00,2021-04-23T17:00:00+02:00,31.46,EUR,33.700,MWh
Power,Intraday,Continuous,NL,ID1,H,2021-04-23T17:00:00+02:00,2021-04-23T18:00:00+02:00,49.66,EUR,,MWh
Power,Intraday,Continuous,NL,ID1,H,2021-04-23T18:00:00+02:00,2021-04-23T19:00:00+02:00,65.00,EUR,27.100,MWh
Power,Intraday,Continuous,NL,ID1,H,2021-04-23T19:00:00+02:00,2021-04-23T20:00:00+02:00,76.50,EUR,10.000,MWh
Power,Intraday,Continuous,NL,ID1,H,2021-04-23T20:00:00+02:00,2021-04-23T21:00:00+02:00,83.70,EUR,77.400,MWh
Power,Intraday,Continuous,NL,ID1,H,2021-04-23T21:00:00+02:00,2021-04-23T22:00:00+02:00,78.33,EUR,13.100,MWh
Power,Intraday,Continuous,NL,ID1,H,2021-04-23T22:00:00+02:00,2021-04-23T23:00:00+02:00,71.46,EUR,,MWh
Power,Intraday,Continuous,NL,ID1,H,2021-04-23T23:00:00+02:00,2021-04-24T00:00:00+02:00,65.64,EUR,,MWh
Power,Intraday,Continuous,NL,ID3,H,2021-04-23T00:00:00+02:00,2021-04-23T01:00:00+02:00,55.03,EUR,233.700,MWh
Power,Intraday,Continuous,NL,ID3,H,2021-04-23T01:00:00+02:00,2021-04-23T02:00:00+02:00,51.25,EUR,499.900,MWh
Power,Intraday,Continuous,NL,ID3,H,2021-04-23T02:00:00+02:00,2021-04-23T03:00:00+02:00,50.49,EUR,148.900,MWh
Power,Intraday,Continuous,NL,ID3,H,2021-04-23T03:00:00+02:00,2021-04-23T04:00:00+02:00,55.60,EUR,423.000,MWh
Power,Intraday,Continuous,NL,ID3,H,2021-04-23T04:00:00+02:00,2021-04-23T05:00:00+02:00,59.12,EUR,357.300,MWh
Power,Intraday,Continuous,NL,ID3,H,2021-04-23T05:00:00+02:00,2021-04-23T06:00:00+02:00,72.26,EUR,349.700,MWh
Power,Intraday,Continuous,NL,ID3,H,2021-04-23T06:00:00+02:00,2021-04-23T07:00:00+02:00,77.43,EUR,273.800,MWh
Power,Intraday,Continuous,NL,ID3,H,2021-04-23T07:00:00+02:00,2021-04-23T08:00:00+02:00,87.67,EUR,297.700,MWh
Power,Intraday,Continuous,NL,ID3,H,2021-04-23T08:00:00+02:00,2021-04-23T09:00:00+02:00,84.19,EUR,265.600,MWh
Power,Intraday,Continuous,NL,ID3,H,2021-04-23T09:00:00+02:00,2021-04-23T10:00:00+02:00,55.56,EUR,574.600,MWh
Power,Intraday,Continuous,NL,ID3,H,2021-04-23T10:00:00+02:00,2021-04-23T11:00:00+02:00,48.47,EUR,973.300,MWh
Power,Intraday,Continuous,NL,ID3,H,2021-04-23T11:00:00+02:00,2021-04-23T12:00:00+02:00,47.18,EUR,811.800,MWh
Power,Intraday,Continuous,NL,ID3,H,2021-04-23T12:00:00+02:00,2021-04-23T13:00:00+02:00,42.98,EUR,827.500,MWh
Power,Intraday,Continuous,NL,ID3,H,2021-04-23T13:00:00+02:00,2021-04-23T14:00:00+02:00,40.87,EUR,929.000,MWh
Power,Intraday,Continuous,NL,ID3,H,2021-04-23T14:00:00+02:00,2021-04-23T15:00:00+02:00,37.40,EUR,720.000,MWh
Power,Intraday,Continuous,NL,ID3,H,2021-04-23T15:00:00+02:00,2021-04-23T16:00:00+02:00,36.23,EUR,594.200,MWh
Power,Intraday,Continuous,NL,ID3,H,2021-04-23T16:00:00+02:00,2021-04-23T17:00:00+02:00,38.95,EUR,795.600,MWh
Power,Intraday,Continuous,NL,ID3,H,2021-04-23T17:00:00+02:00,2021-04-23T18:00:00+02:00,49.66,EUR,653.900,MWh
Power,Intraday,Continuous,NL,ID3,H,2021-04-23T18:00:00+02:00,2021-04-23T19:00:00+02:00,62.05,EUR,551.600,MWh
Power,Intraday,Continuous,NL,ID3,H,2021-04-23T19:00:00+02:00,2021-04-23T20:00:00+02:00,78.53,EUR,325.400,MWh
Power,Intraday,Continuous,NL,ID3,H,2021-04-23T20:00:00+02:00,2021-04-23T21:00:00+02:00,81.86,EUR,290.500,MWh
Power,Intraday,Continuous,NL,ID3,H,2021-04-23T21:00:00+02:00,2021-04-23T22:00:00+02:00,77.59,EUR,242.000,MWh
Power,Intraday,Continuous,NL,ID3,H,2021-04-23T22:00:00+02:00,2021-04-23T23:00:00+02:00,71.46,EUR,223.900,MWh
Power,Intraday,Continuous,NL,ID3,H,2021-04-23T23:00:00+02:00,2021-04-24T00:00:00+02:00,65.64,EUR,230.900,MWh
Power,Intraday,Continuous,NL,IDFULL,HH,2021-04-23T00:00:00+02:00,2021-04-23T00:30:00+02:00,55.02,EUR,,MWh
Power,Intraday,Continuous,NL,IDFULL,HH,2021-04-23T00:30:00+02:00,2021-04-23T01:00:00+02:00,55.02,EUR,,MWh
Power,Intraday,Continuous,NL,IDFULL,HH,2021-04-23T01:00:00+02:00,2021-04-23T01:30:00+02:00,51.30,EUR,,MWh
Power,Intraday,Continuous,NL,IDFULL,HH,2021-04-23T01:30:00+02:00,2021-04-23T02:00:00+02:00,51.30,EUR,,MWh
Power,Intraday,Continuous,NL,IDFULL,HH,2021-04-23T02:00:00+02:00,2021-04-23T02:30:00+02:00,53.13,EUR,,MWh
Power,Intraday,Continuous,NL,IDFULL,HH,2021-04-23T02:30:00+02:00,2021-04-23T03:00:00+02:00,53.13,EUR,,MWh
Power,Intraday,Continuous,NL,IDFULL,HH,2021-04-23T03:00:00+02:00,2021-04-23T03:30:00+02:00,56.62,EUR,,MWh
Power,Intraday,Continuous,NL,IDFULL,HH,2021-04-23T03:30:00+02:00,2021-04-23T04:00:00+02:00,56.62,EUR,,MWh
Power,Intraday,Continuous,NL,IDFULL,HH,2021-04-23T04:00:00+02:00,2021-04-23T04:30:00+02:00,58.52,EUR,,MWh
Power,Intraday,Continuous,NL,IDFULL,HH,2021-04-23T04:30:00+02:00,2021-04-23T05:00:00+02:00,58.52,EUR,,MWh
Power,Intraday,Continuous,NL,IDFULL,HH,2021-04-23T05:00:00+02:00,2021-04-23T05:30:00+02:00,68.10,EUR,,MWh
Power,Intraday,Continuous,NL,IDFULL,HH,2021-04-23T05:30:00+02:00,2021-04-23T06:00:00+02:00,68.10,EUR,,MWh
Power,Intraday,Continuous,NL,IDFULL,HH,2021-04-23T06:00:00+02:00,2021-04-23T06:30:00+02:00,78.28,EUR,,MWh
Power,Intraday,Continuous,NL,IDFULL,HH,2021-04-23T06:30:00+02:00,2021-04-23T07:00:00+02:00,78.28,EUR,,MWh
Power,Intraday,Continuous,NL,IDFULL,HH,2021-04-23T07:00:00+02:00,2021-04-23T07:30:00+02:00,87.14,EUR,,MWh
Power,Intraday,Continuous,NL,IDFULL,HH,2021-04-23T07:30:00+02:00,2021-04-23T08:00:00+02:00,87.14,EUR,,MWh
Power,Intraday,Continuous,NL,IDFULL,HH,2021-04-23T08:00:00+02:00,2021-04-23T08:30:00+02:00,101.71,EUR,,MWh
Power,Intraday,Continuous,NL,IDFULL,HH,2021-04-23T08:30:00+02:00,2021-04-23T09:00:00+02:00,69.27,EUR,14.500,MWh
Power,Intraday,Continuous,NL,IDFULL,HH,2021-04-23T09:00:00+02:00,2021-04-23T09:30:00+02:00,59.75,EUR,,MWh
Power,Intraday,Continuous,NL,IDFULL,HH,2021-04-23T09:30:00+02:00,2021-04-23T10:00:00+02:00,59.75,EUR,,MWh
Power,Intraday,Continuous,NL,IDFULL,HH,2021-04-23T10:00:00+02:00,2021-04-23T10:30:00+02:00,54.93,EUR,,MWh
Power,Intraday,Continuous,NL,IDFULL,HH,2021-04-23T10:30:00+02:00,2021-04-23T11:00:00+02:00,54.93,EUR,,MWh
Power,Intraday,Continuous,NL,IDFULL,HH,2021-04-23T11:00:00+02:00,2021-04-23T11:30:00+02:00,72.25,EUR,8.250,MWh
Power,Intraday,Continuous,NL,IDFULL,HH,2021-04-23T11:30:00+02:00,2021-04-23T12:00:00+02:00,32.99,EUR,,MWh
Power,Intraday,Continuous,NL,IDFULL,HH,2021-04-23T12:00:00+02:00,2021-04-23T12:30:00+02:00,45.46,EUR,,MWh
Power,Intraday,Continuous,NL,IDFULL,HH,2021-04-23T12:30:00+02:00,2021-04-23T13:00:00+02:00,45.46,EUR,,MWh
Power,Intraday,Continuous,NL,IDFULL,HH,2021-04-23T13:00:00+02:00,2021-04-23T13:30:00+02:00,40.80,EUR,,MWh
Power,Intraday,Continuous,NL,IDFULL,HH,2021-04-23T13:30:00+02:00,2021-04-23T14:00:00+02:00,40.80,EUR,,MWh
Power,Intraday,Continuous,NL,IDFULL,HH,2021-04-23T14:00:00+02:00,2021-04-23T14:30:00+02:00,39.58,EUR,,MWh
Power,Intraday,Continuous,NL,IDFULL,HH,2021-04-23T14:30:00+02:00,2021-04-23T15:00:00+02:00,39.58,EUR,,MWh
Power,Intraday,Continuous,NL,IDFULL,HH,2021-04-23T15:00:00+02:00,2021-04-23T15:30:00+02:00,38.29,EUR,,MWh
Power,Intraday,Continuous,NL,IDFULL,HH,2021-04-23T15:30:00+02:00,2021-04-23T16:00:00+02:00,38.29,EUR,,MWh
Power,Intraday,Continuous,NL,IDFULL,HH,2021-04-23T16:00:00+02:00,2021-04-23T16:30:00+02:00,41.59,EUR,,MWh
Power,Intraday,Continuous,NL,IDFULL,HH,2021-04-23T16:30:00+02:00,2021-04-23T17:00:00+02:00,41.59,EUR,,MWh
Power,Intraday,Continuous,NL,IDFULL,HH,2021-04-23T17:00:00+02:00,2021-04-23T17:30:00+02:00,51.76,EUR,,MWh
Power,Intraday,Continuous,NL,IDFULL,HH,2021-04-23T17:30:00+02:00,2021-04-23T18:00:00+02:00,51.76,EUR,,MWh
Power,Intraday,Continuous,NL,IDFULL,HH,2021-04-23T18:00:00+02:00,2021-04-23T18:30:00+02:00,63.71,EUR,,MWh
Power,Intraday,Continuous,NL,IDFULL,HH,2021-04-23T18:30:00+02:00,2021-04-23T19:00:00+02:00,63.71,EUR,,MWh
Power,Intraday,Continuous,NL,IDFULL,HH,2021-04-23T19:00:00+02:00,2021-04-23T19:30:00+02:00,79.23,EUR,,MWh
Power,Intraday,Continuous,NL,IDFULL,HH,2021-04-23T19:30:00+02:00,2021-04-23T20:00:00+02:00,79.23,EUR,,MWh
Power,Intraday,Continuous,NL,IDFULL,HH,2021-04-23T20:00:00+02:00,2021-04-23T20:30:00+02:00,82.22,EUR,,MWh
Power,Intraday,Continuous,NL,IDFULL,HH,2021-04-23T20:30:00+02:00,2021-04-23T21:00:00+02:00,82.22,EUR,,MWh
Power,Intraday,Continuous,NL,IDFULL,HH,2021-04-23T21:00:00+02:00,2021-04-23T21:30:00+02:00,79.15,EUR,,MWh
Power,Intraday,Continuous,NL,IDFULL,HH,2021-04-23T21:30:00+02:00,2021-04-23T22:00:00+02:00,79.15,EUR,,MWh
Power,Intraday,Continuous,NL,IDFULL,HH,2021-04-23T22:00:00+02:00,2021-04-23T22:30:00+02:00,71.63,EUR,,MWh
Power,Intraday,Continuous,NL,IDFULL,HH,2021-04-23T22:30:00+02:00,2021-04-23T23:00:00+02:00,71.63,EUR,,MWh
Power,Intraday,Continuous,NL,IDFULL,HH,2021-04-23T23:00:00+02:00,2021-04-23T23:30:00+02:00,65.33,EUR,,MWh
Power,Intraday,Continuous,NL,IDFULL,HH,2021-04-23T23:30:00+02:00,2021-04-24T00:00:00+02:00,65.33,EUR,,MWh
Power,Intraday,Continuous,NL,ID1,HH,2021-04-23T00:00:00+02:00,2021-04-23T00:30:00+02:00,55.02,EUR,,MWh
Power,Intraday,Continuous,NL,ID1,HH,2021-04-23T00:30:00+02:00,2021-04-23T01:00:00+02:00,55.02,EUR,,MWh
Power,Intraday,Continuous,NL,ID1,HH,2021-04-23T01:00:00+02:00,2021-04-23T01:30:00+02:00,51.30,EUR,,MWh
Power,Intraday,Continuous,NL,ID1,HH,2021-04-23T01:30:00+02:00,2021-04-23T02:00:00+02:00,51.30,EUR,,MWh
Power,Intraday,Continuous,NL,ID1,HH,2021-04-23T02:00:00+02:00,2021-04-23T02:30:00+02:00,53.13,EUR,,MWh
Power,Intraday,Continuous,NL,ID1,HH,2021-04-23T02:30:00+02:00,2021-04-23T03:00:00+02:00,53.13,EUR,,MWh
Power,Intraday,Continuous,NL,ID1,HH,2021-04-23T03:00:00+02:00,2021-04-23T03:30:00+02:00,56.62,EUR,,MWh
Power,Intraday,Continuous,NL,ID1,HH,2021-04-23T03:30:00+02:00,2021-04-23T04:00:00+02:00,56.62,EUR,,MWh
Power,Intraday,Continuous,NL,ID1,HH,2021-04-23T04:00:00+02:00,2021-04-23T04:30:00+02:00,58.52,EUR,,MWh
Power,Intraday,Continuous,NL,ID1,HH,2021-04-23T04:30:00+02:00,2021-04-23T05:00:00+02:00,58.52,EUR,,MWh
Power,Intraday,Continuous,NL,ID1,HH,2021-04-23T05:00:00+02:00,2021-04-23T05:30:00+02:00,68.10,EUR,,MWh
Power,Intraday,Continuous,NL,ID1,HH,2021-04-23T05:30:00+02:00,2021-04-23T06:00:00+02:00,68.10,EUR,,MWh
Power,Intraday,Continuous,NL,ID1,HH,2021-04-23T06:00:00+02:00,2021-04-23T06:30:00+02:00,78.28,EUR,,MWh
Power,Intraday,Continuous,NL,ID1,HH,2021-04-23T06:30:00+02:00,2021-04-23T07:00:00+02:00,78.28,EUR,,MWh
Power,Intraday,Continuous,NL,ID1,HH,2021-04-23T07:00:00+02:00,2021-04-23T07:30:00+02:00,87.14,EUR,,MWh
Power,Intraday,Continuous,NL,ID1,HH,2021-04-23T07:30:00+02:00,2021-04-23T08:00:00+02:00,87.14,EUR,,MWh
Power,Intraday,Continuous,NL,ID1,HH,2021-04-23T08:00:00+02:00,2021-04-23T08:30:00+02:00,101.71,EUR,,MWh
Power,Intraday,Continuous,NL,ID1,HH,2021-04-23T08:30:00+02:00,2021-04-23T09:00:00+02:00,69.27,EUR,,MWh
Power,Intraday,Continuous,NL,ID1,HH,2021-04-23T09:00:00+02:00,2021-04-23T09:30:00+02:00,59.75,EUR,,MWh
Power,Intraday,Continuous,NL,ID1,HH,2021-04-23T09:30:00+02:00,2021-04-23T10:00:00+02:00,59.75,EUR,,MWh
Power,Intraday,Continuous,NL,ID1,HH,2021-04-23T10:00:00+02:00,2021-04-23T10:30:00+02:00,54.93,EUR,,MWh
Power,Intraday,Continuous,NL,ID1,HH,2021-04-23T10:30:00+02:00,2021-04-23T11:00:00+02:00,54.93,EUR,,MWh
Power,Intraday,Continuous,NL,ID1,HH,2021-04-23T11:00:00+02:00,2021-04-23T11:30:00+02:00,72.25,EUR,,MWh
Power,Intraday,Continuous,NL,ID1,HH,2021-04-23T11:30:00+02:00,2021-04-23T12:00:00+02:00,32.99,EUR,,MWh
Power,Intraday,Continuous,NL,ID1,HH,2021-04-23T12:00:00+02:00,2021-04-23T12:30:00+02:00,45.46,EUR,,MWh
Power,Intraday,Continuous,NL,ID1,HH,2021-04-23T12:30:00+02:00,2021-04-23T13:00:00+02:00,45.46,EUR,,MWh
Power,Intraday,Continuous,NL,ID1,HH,2021-04-23T13:00:00+02:00,2021-04-23T13:30:00+02:00,40.80,EUR,,MWh
Power,Intraday,Continuous,NL,ID1,HH,2021-04-23T13:30:00+02:00,2021-04-23T14:00:00+02:00,40.80,EUR,,MWh
Power,Intraday,Continuous,NL,ID1,HH,2021-04-23T14:00:00+02:00,2021-04-23T14:30:00+02:00,39.58,EUR,,MWh
Power,Intraday,Continuous,NL,ID1,HH,2021-04-23T14:30:00+02:00,2021-04-23T15:00:00+02:00,39.58,EUR,,MWh
Power,Intraday,Continuous,NL,ID1,HH,2021-04-23T15:00:00+02:00,2021-04-23T15:30:00+02:00,38.29,EUR,,MWh
Power,Intraday,Continuous,NL,ID1,HH,2021-04-23T15:30:00+02:00,2021-04-23T16:00:00+02:00,38.29,EUR,,MWh
Power,Intraday,Continuous,NL,ID1,HH,2021-04-23T16:00:00+02:00,2021-04-23T16:30:00+02:00,41.59,EUR,,MWh
Power,Intraday,Continuous,NL,ID1,HH,2021-04-23T16:30:00+02:00,2021-04-23T17:00:00+02:00,41.59,EUR,,MWh
Power,Intraday,Continuous,NL,ID1,HH,2021-04-23T17:00:00+02:00,2021-04-23T17:30:00+02:00,51.76,EUR,,MWh
Power,Intraday,Continuous,NL,ID1,HH,2021-04-23T17:30:00+02:00,2021-04-23T18:00:00+02:00,51.76,EUR,,MWh
Power,Intraday,Continuous,NL,ID1,HH,2021-04-23T18:00:00+02:00,2021-04-23T18:30:00+02:00,63.71,EUR,,MWh
Power,Intraday,Continuous,NL,ID1,HH,2021-04-23T18:30:00+02:00,2021-04-23T19:00:00+02:00,63.71,EUR,,MWh
Power,Intraday,Continuous,NL,ID1,HH,2021-04-23T19:00:00+02:00,2021-04-23T19:30:00+02:00,79.23,EUR,,MWh
Power,Intraday,Continuous,NL,ID1,HH,2021-04-23T19:30:00+02:00,2021-04-23T20:00:00+02:00,79.23,EUR,,MWh
Power,Intraday,Continuous,NL,ID1,HH,2021-04-23T20:00:00+02:00,2021-04-23T20:30:00+02:00,82.22,EUR,,MWh
Power,Intraday,Continuous,NL,ID1,HH,2021-04-23T20:30:00+02:00,2021-04-23T21:00:00+02:00,82.22,EUR,,MWh
Power,Intraday,Continuous,NL,ID1,HH,2021-04-23T21:00:00+02:00,2021-04-23T21:30:00+02:00,79.15,EUR,,MWh
Power,Intraday,Continuous,NL,ID1,HH,2021-04-23T21:30:00+02:00,2021-04-23T22:00:00+02:00,79.15,EUR,,MWh
Power,Intraday,Continuous,NL,ID1,HH,2021-04-23T22:00:00+02:00,2021-04-23T22:30:00+02:00,71.63,EUR,,MWh
Power,Intraday,Continuous,NL,ID1,HH,2021-04-23T22:30:00+02:00,2021-04-23T23:00:00+02:00,71.63,EUR,,MWh
Power,Intraday,Continuous,NL,ID1,HH,2021-04-23T23:00:00+02:00,2021-04-23T23:30:00+02:00,65.33,EUR,,MWh
Power,Intraday,Continuous,NL,ID1,HH,2021-04-23T23:30:00+02:00,2021-04-24T00:00:00+02:00,65.33,EUR,,MWh
Power,Intraday,Continuous,NL,ID3,HH,2021-04-23T00:00:00+02:00,2021-04-23T00:30:00+02:00,55.02,EUR,,MWh
Power,Intraday,Continuous,NL,ID3,HH,2021-04-23T00:30:00+02:00,2021-04-23T01:00:00+02:00,55.02,EUR,,MWh
Power,Intraday,Continuous,NL,ID3,HH,2021-04-23T01:00:00+02:00,2021-04-23T01:30:00+02:00,51.30,EUR,,MWh
Power,Intraday,Continuous,NL,ID3,HH,2021-04-23T01:30:00+02:00,2021-04-23T02:00:00+02:00,51.30,EUR,,MWh
Power,Intraday,Continuous,NL,ID3,HH,2021-04-23T02:00:00+02:00,2021-04-23T02:30:00+02:00,53.13,EUR,,MWh
Power,Intraday,Continuous,NL,ID3,HH,2021-04-23T02:30:00+02:00,2021-04-23T03:00:00+02:00,53.13,EUR,,MWh
Power,Intraday,Continuous,NL,ID3,HH,2021-04-23T03:00:00+02:00,2021-04-23T03:30:00+02:00,56.62,EUR,,MWh
Power,Intraday,Continuous,NL,ID3,HH,2021-04-23T03:30:00+02:00,2021-04-23T04:00:00+02:00,56.62,EUR,,MWh
Power,Intraday,Continuous,NL,ID3,HH,2021-04-23T04:00:00+02:00,2021-04-23T04:30:00+02:00,58.52,EUR,,MWh
Power,Intraday,Continuous,NL,ID3,HH,2021-04-23T04:30:00+02:00,2021-04-23T05:00:00+02:00,58.52,EUR,,MWh
Power,Intraday,Continuous,NL,ID3,HH,2021-04-23T05:00:00+02:00,2021-04-23T05:30:00+02:00,68.10,EUR,,MWh
Power,Intraday,Continuous,NL,ID3,HH,2021-04-23T05:30:00+02:00,2021-04-23T06:00:00+02:00,68.10,EUR,,MWh
Power,Intraday,Continuous,NL,ID3,HH,2021-04-23T06:00:00+02:00,2021-04-23T06:30:00+02:00,78.28,EUR,,MWh
Power,Intraday,Continuous,NL,ID3,HH,2021-04-23T06:30:00+02:00,2021-04-23T07:00:00+02:00,78.28,EUR,,MWh
Power,Intraday,Continuous,NL,ID3,HH,2021-04-23T07:00:00+02:00,2021-04-23T07:30:00+02:00,87.14,EUR,,MWh
Power,Intraday,Continuous,NL,ID3,HH,2021-04-23T07:30:00+02:00,2021-04-23T08:00:00+02:00,87.14,EUR,,MWh
Power,Intraday,Continuous,NL,ID3,HH,2021-04-23T08:00:00+02:00,2021-04-23T08:30:00+02:00,101.71,EUR,,MWh
Power,Intraday,Continuous,NL,ID3,HH,2021-04-23T08:30:00+02:00,2021-04-23T09:00:00+02:00,69.27,EUR,,MWh
Power,Intraday,Continuous,NL,ID3,HH,2021-04-23T09:00:00+02:00,2021-04-23T09:30:00+02:00,59.75,EUR,,MWh
Power,Intraday,Continuous,NL,ID3,HH,2021-04-23T09:30:00+02:00,2021-04-23T10:00:00+02:00,59.75,EUR,,MWh
Power,Intraday,Continuous,NL,ID3,HH,2021-04-23T10:00:00+02:00,2021-04-23T10:30:00+02:00,54.93,EUR,,MWh
Power,Intraday,Continuous,NL,ID3,HH,2021-04-23T10:30:00+02:00,2021-04-23T11:00:00+02:00,54.93,EUR,,MWh
Power,Intraday,Continuous,NL,ID3,HH,2021-04-23T11:00:00+02:00,2021-04-23T11:30:00+02:00,72.25,EUR,8.250,MWh
Power,Intraday,Continuous,NL,ID3,HH,2021-04-23T11:30:00+02:00,2021-04-23T12:00:00+02:00,32.99,EUR,,MWh
Power,Intraday,Continuous,NL,ID3,HH,2021-04-23T12:00:00+02:00,2021-04-23T12:30:00+02:00,45.46,EUR,,MWh
Power,Intraday,Continuous,NL,ID3,HH,2021-04-23T12:30:00+02:00,2021-04-23T13:00:00+02:00,45.46,EUR,,MWh
Power,Intraday,Continuous,NL,ID3,HH,2021-04-23T13:00:00+02:00,2021-04-23T13:30:00+02:00,40.80,EUR,,MWh
Power,Intraday,Continuous,NL,ID3,HH,2021-04-23T13:30:00+02:00,2021-04-23T14:00:00+02:00,40.80,EUR,,MWh
Power,Intraday,Continuous,NL,ID3,HH,2021-04-23T14:00:00+02:00,2021-04-23T14:30:00+02:00,39.58,EUR,,MWh
Power,Intraday,Continuous,NL,ID3,HH,2021-04-23T14:30:00+02:00,2021-04-23T15:00:00+02:00,39.58,EUR,,MWh
Power,Intraday,Continuous,NL,ID3,HH,2021-04-23T15:00:00+02:00,2021-04-23T15:30:00+02:00,38.29,EUR,,MWh
Power,Intraday,Continuous,NL,ID3,HH,2021-04-23T15:30:00+02:00,2021-04-23T16:00:00+02:00,38.29,EUR,,MWh
Power,Intraday,Continuous,NL,ID3,HH,2021-04-23T16:00:00+02:00,2021-04-23T16:30:00+02:00,41.59,EUR,,MWh
Power,Intraday,Continuous,NL,ID3,HH,2021-04-23T16:30:00+02:00,2021-04-23T17:00:00+02:00,41.59,EUR,,MWh
Power,Intraday,Continuous,NL,ID3,HH,2021-04-23T17:00:00+02:00,2021-04-23T17:30:00+02:00,51.76,EUR,,MWh
Power,Intraday,Continuous,NL,ID3,HH,2021-04-23T17:30:00+02:00,2021-04-23T18:00:00+02:00,51.76,EUR,,MWh
Power,Intraday,Continuous,NL,ID3,HH,2021-04-23T18:00:00+02:00,2021-04-23T18:30:00+02:00,63.71,EUR,,MWh
Power,Intraday,Continuous,NL,ID3,HH,2021-04-23T18:30:00+02:00,2021-04-23T19:00:00+02:00,63.71,EUR,,MWh
Power,Intraday,Continuous,NL,ID3,HH,2021-04-23T19:00:00+02:00,2021-04-23T19:30:00+02:00,79.23,EUR,,MWh
Power,Intraday,Continuous,NL,ID3,HH,2021-04-23T19:30:00+02:00,2021-04-23T20:00:00+02:00,79.23,EUR,,MWh
Power,Intraday,Continuous,NL,ID3,HH,2021-04-23T20:00:00+02:00,2021-04-23T20:30:00+02:00,82.22,EUR,,MWh
Power,Intraday,Continuous,NL,ID3,HH,2021-04-23T20:30:00+02:00,2021-04-23T21:00:00+02:00,82.22,EUR,,MWh
Power,Intraday,Continuous,NL,ID3,HH,2021-04-23T21:00:00+02:00,2021-04-23T21:30:00+02:00,79.15,EUR,,MWh
Power,Intraday,Continuous,NL,ID3,HH,2021-04-23T21:30:00+02:00,2021-04-23T22:00:00+02:00,79.15,EUR,,MWh
Power,Intraday,Continuous,NL,ID3,HH,2021-04-23T22:00:00+02:00,2021-04-23T22:30:00+02:00,71.63,EUR,,MWh
Power,Intraday,Continuous,NL,ID3,HH,2021-04-23T22:30:00+02:00,2021-04-23T23:00:00+02:00,71.63,EUR,,MWh
Power,Intraday,Continuous,NL,ID3,HH,2021-04-23T23:00:00+02:00,2021-04-23T23:30:00+02:00,65.33,EUR,,MWh
Power,Intraday,Continuous,NL,ID3,HH,2021-04-23T23:30:00+02:00,2021-04-24T00:00:00+02:00,65.33,EUR,,MWh
Power,Intraday,Continuous,NL,IDFULL,QH,2021-04-23T00:00:00+02:00,2021-04-23T00:15:00+02:00,62.80,EUR,21.030,MWh
Power,Intraday,Continuous,NL,IDFULL,QH,2021-04-23T00:15:00+02:00,2021-04-23T00:30:00+02:00,64.03,EUR,9.480,MWh
Power,Intraday,Continuous,NL,IDFULL,QH,2021-04-23T00:30:00+02:00,2021-04-23T00:45:00+02:00,37.80,EUR,,MWh
Power,Intraday,Continuous,NL,IDFULL,QH,2021-04-23T00:45:00+02:00,2021-04-23T01:00:00+02:00,55.45,EUR,6.380,MWh
Power,Intraday,Continuous,NL,IDFULL,QH,2021-04-23T01:00:00+02:00,2021-04-23T01:15:00+02:00,63.28,EUR,6.650,MWh
Power,Intraday,Continuous,NL,IDFULL,QH,2021-04-23T01:15:00+02:00,2021-04-23T01:30:00+02:00,45.47,EUR,22.080,MWh
Power,Intraday,Continuous,NL,IDFULL,QH,2021-04-23T01:30:00+02:00,2021-04-23T01:45:00+02:00,46.85,EUR,14.530,MWh
Power,Intraday,Continuous,NL,IDFULL,QH,2021-04-23T01:45:00+02:00,2021-04-23T02:00:00+02:00,41.53,EUR,25.730,MWh
Power,Intraday,Continuous,NL,IDFULL,QH,2021-04-23T02:00:00+02:00,2021-04-23T02:15:00+02:00,52.93,EUR,9.480,MWh
Power,Intraday,Continuous,NL,IDFULL,QH,2021-04-23T02:15:00+02:00,2021-04-23T02:30:00+02:00,51.59,EUR,4.730,MWh
Power,Intraday,Continuous,NL,IDFULL,QH,2021-04-23T02:30:00+02:00,2021-04-23T02:45:00+02:00,57.61,EUR,5.930,MWh
Power,Intraday,Continuous,NL,IDFULL,QH,2021-04-23T02:45:00+02:00,2021-04-23T03:00:00+02:00,60.37,EUR,5.980,MWh
Power,Intraday,Continuous,NL,IDFULL,QH,2021-04-23T03:00:00+02:00,2021-04-23T03:15:00+02:00,52.78,EUR,20.950,MWh
Power,Intraday,Continuous,NL,IDFULL,QH,2021-04-23T03:15:00+02:00,2021-04-23T03:30:00+02:00,54.49,EUR,13.150,MWh
Power,Intraday,Continuous,NL,IDFULL,QH,2021-04-23T03:30:00+02:00,2021-04-23T03:45:00+02:00,61.72,EUR,16.250,MWh
Power,Intraday,Continuous,NL,IDFULL,QH,2021-04-23T03:45:00+02:00,2021-04-23T04:00:00+02:00,71.03,EUR,14.580,MWh
Power,Intraday,Continuous,NL,IDFULL,QH,2021-04-23T04:00:00+02:00,2021-04-23T04:15:00+02:00,52.55,EUR,21.100,MWh
Power,Intraday,Continuous,NL,IDFULL,QH,2021-04-23T04:15:00+02:00,2021-04-23T04:30:00+02:00,56.47,EUR,16.200,MWh
Power,Intraday,Continuous,NL,IDFULL,QH,2021-04-23T04:30:00+02:00,2021-04-23T04:45:00+02:00,61.23,EUR,21.230,MWh
Power,Intraday,Continuous,NL,IDFULL,QH,2021-04-23T04:45:00+02:00,2021-04-23T05:00:00+02:00,72.32,EUR,19.980,MWh
Power,Intraday,Continuous,NL,IDFULL,QH,2021-04-23T05:00:00+02:00,2021-04-23T05:15:00+02:00,49.31,EUR,26.750,MWh
Power,Intraday,Continuous,NL,IDFULL,QH,2021-04-23T05:15:00+02:00,2021-04-23T05:30:00+02:00,59.26,EUR,22.430,MWh
Power,Intraday,Continuous,NL,IDFULL,QH,2021-04-23T05:30:00+02:00,2021-04-23T05:45:00+02:00,78.14,EUR,23.880,MWh
Power,Intraday,Continuous,NL,IDFULL,QH,2021-04-23T05:45:00+02:00,2021-04-23T06:00:00+02:00,89.34,EUR,35.750,MWh
Power,Intraday,Continuous,NL,IDFULL,QH,2021-04-23T06:00:00+02:00,2021-04-23T06:15:00+02:00,55.17,EUR,61.650,MWh
Power,Intraday,Continuous,NL,IDFULL,QH,2021-04-23T06:15:00+02:00,2021-04-23T06:30:00+02:00,76.97,EUR,31.730,MWh
Power,Intraday,Continuous,NL,IDFULL,QH,2021-04-23T06:30:00+02:00,2021-04-23T06:45:00+02:00,82.20,EUR,40.580,MWh
Power,Intraday,Continuous,NL,IDFULL,QH,2021-04-23T06:45:00+02:00,2021-04-23T07:00:00+02:00,96.46,EUR,48.850,MWh
Power,Intraday,Continuous,NL,IDFULL,QH,2021-04-23T07:00:00+02:00,2021-04-23T07:15:00+02:00,91.10,EUR,43.650,MWh
Power,Intraday,Continuous,NL,IDFULL,QH,2021-04-23T07:15:00+02:00,2021-04-23T07:30:00+02:00,98.17,EUR,31.530,MWh
Power,Intraday,Continuous,NL,IDFULL,QH,2021-04-23T07:30:00+02:00,2021-04-23T07:45:00+02:00,90.06,EUR,32.380,MWh
Power,Intraday,Continuous,NL,IDFULL,QH,2021-04-23T07:45:00+02:00,2021-04-23T08:00:00+02:00,78.59,EUR,62.500,MWh
Power,Intraday,Continuous,NL,IDFULL,QH,2021-04-23T08:00:00+02:00,2021-04-23T08:15:00+02:00,127.76,EUR,55.980,MWh
Power,Intraday,Continuous,NL,IDFULL,QH,2021-04-23T08:15:00+02:00,2021-04-23T08:30:00+02:00,83.40,EUR,50.850,MWh
Power,Intraday,Continuous,NL,IDFULL,QH,2021-04-23T08:30:00+02:00,2021-04-23T08:45:00+02:00,73.42,EUR,72.350,MWh
Power,Intraday,Continuous,NL,IDFULL,QH,2021-04-23T08:45:00+02:00,2021-04-23T09:00:00+02:00,54.81,EUR,70.800,MWh
Power,Intraday,Continuous,NL,IDFULL,QH,2021-04-23T09:00:00+02:00,2021-04-23T09:15:00+02:00,99.95,EUR,27.300,MWh
Power,Intraday,Continuous,NL,IDFULL,QH,2021-04-23T09:15:00+02:00,2021-04-23T09:30:00+02:00,68.32,EUR,12.180,MWh
Power,Intraday,Continuous,NL,IDFULL,QH,2021-04-23T09:30:00+02:00,2021-04-23T09:45:00+02:00,54.49,EUR,14.250,MWh
Power,Intraday,Continuous,NL,IDFULL,QH,2021-04-23T09:45:00+02:00,2021-04-23T10:00:00+02:00,42.62,EUR,22.700,MWh
Power,Intraday,Continuous,NL,IDFULL,QH,2021-04-23T10:00:00+02:00,2021-04-23T10:15:00+02:00,83.23,EUR,78.080,MWh
Power,Intraday,Continuous,NL,IDFULL,QH,2021-04-23T10:15:00+02:00,2021-04-23T10:30:00+02:00,60.52,EUR,29.880,MWh
Power,Intraday,Continuous,NL,IDFULL,QH,2021-04-23T10:30:00+02:00,2021-04-23T10:45:00+02:00,57.55,EUR,17.780,MWh
Power,Intraday,Continuous,NL,IDFULL,QH,2021-04-23T10:45:00+02:00,2021-04-23T11:00:00+02:00,41.69,EUR,36.300,MWh
Power,Intraday,Continuous,NL,IDFULL,QH,2021-04-23T11:00:00+02:00,2021-04-23T11:15:00+02:00,69.38,EUR,51.550,MWh
Power,Intraday,Continuous,NL,IDFULL,QH,2021-04-23T11:15:00+02:00,2021-04-23T11:30:00+02:00,65.53,EUR,24.250,MWh
Power,Intraday,Continuous,NL,IDFULL,QH,2021-04-23T11:30:00+02:00,2021-04-23T11:45:00+02:00,53.82,EUR,57.130,MWh
Power,Intraday,Continuous,NL,IDFULL,QH,2021-04-23T11:45:00+02:00,2021-04-23T12:00:00+02:00,43.86,EUR,65.780,MWh
Power,Intraday,Continuous,NL,IDFULL,QH,2021-04-23T12:00:00+02:00,2021-04-23T12:15:00+02:00,69.09,EUR,12.200,MWh
Power,Intraday,Continuous,NL,IDFULL,QH,2021-04-23T12:15:00+02:00,2021-04-23T12:30:00+02:00,56.14,EUR,9.700,MWh
Power,Intraday,Continuous,NL,IDFULL,QH,2021-04-23T12:30:00+02:00,2021-04-23T12:45:00+02:00,44.80,EUR,26.150,MWh
Power,Intraday,Continuous,NL,IDFULL,QH,2021-04-23T12:45:00+02:00,2021-04-23T13:00:00+02:00,47.22,EUR,23.080,MWh
Power,Intraday,Continuous,NL,IDFULL,QH,2021-04-23T13:00:00+02:00,2021-04-23T13:15:00+02:00,40.80,EUR,,MWh
Power,Intraday,Continuous,NL,IDFULL,QH,2021-04-23T13:15:00+02:00,2021-04-23T13:30:00+02:00,40.80,EUR,,MWh
Power,Intraday,Continuous,NL,IDFULL,QH,2021-04-23T13:30:00+02:00,2021-04-23T13:45:00+02:00,40.80,EUR,,MWh
Power,Intraday,Continuous,NL,IDFULL,QH,2021-04-23T13:45:00+02:00,2021-04-23T14:00:00+02:00,40.80,EUR,,MWh
Power,Intraday,Continuous,NL,IDFULL,QH,2021-04-23T14:00:00+02:00,2021-04-23T14:15:00+02:00,26.44,EUR,40.680,MWh
Power,Intraday,Continuous,NL,IDFULL,QH,2021-04-23T14:15:00+02:00,2021-04-23T14:30:00+02:00,39.53,EUR,22.950,MWh
Power,Intraday,Continuous,NL,IDFULL,QH,2021-04-23T14:30:00+02:00,2021-04-23T14:45:00+02:00,43.06,EUR,24.300,MWh
Power,Intraday,Continuous,NL,IDFULL,QH,2021-04-23T14:45:00+02:00,2021-04-23T15:00:00+02:00,47.80,EUR,32.700,MWh
Power,Intraday,Continuous,NL,IDFULL,QH,2021-04-23T15:00:00+02:00,2021-04-23T15:15:00+02:00,15.15,EUR,41.200,MWh
Power,Intraday,Continuous,NL,IDFULL,QH,2021-04-23T15:15:00+02:00,2021-04-23T15:30:00+02:00,34.65,EUR,50.480,MWh
Power,Intraday,Continuous,NL,IDFULL,QH,2021-04-23T15:30:00+02:00,2021-04-23T15:45:00+02:00,44.38,EUR,38.750,MWh
Power,Intraday,Continuous,NL,IDFULL,QH,2021-04-23T15:45:00+02:00,2021-04-23T16:00:00+02:00,53.56,EUR,53.080,MWh
Power,Intraday,Continuous,NL,IDFULL,QH,2021-04-23T16:00:00+02:00,2021-04-23T16:15:00+02:00,18.69,EUR,69.550,MWh
Power,Intraday,Continuous,NL,IDFULL,QH,2021-04-23T16:15:00+02:00,2021-04-23T16:30:00+02:00,42.80,EUR,56.600,MWh
Power,Intraday,Continuous,NL,IDFULL,QH,2021-04-23T16:30:00+02:00,2021-04-23T16:45:00+02:00,52.08,EUR,42.430,MWh
Power,Intraday,Continuous,NL,IDFULL,QH,2021-04-23T16:45:00+02:00,2021-04-23T17:00:00+02:00,59.18,EUR,56.680,MWh
Power,Intraday,Continuous,NL,IDFULL,QH,2021-04-23T17:00:00+02:00,2021-04-23T17:15:00+02:00,29.78,EUR,66.130,MWh
Power,Intraday,Continuous,NL,IDFULL,QH,2021-04-23T17:15:00+02:00,2021-04-23T17:30:00+02:00,46.01,EUR,59.130,MWh
Power,Intraday,Continuous,NL,IDFULL,QH,2021-04-23T17:30:00+02:00,2021-04-23T17:45:00+02:00,49.05,EUR,46.950,MWh
Power,Intraday,Continuous,NL,IDFULL,QH,2021-04-23T17:45:00+02:00,2021-04-23T18:00:00+02:00,80.47,EUR,43.000,MWh
Power,Intraday,Continuous,NL,IDFULL,QH,2021-04-23T18:00:00+02:00,2021-04-23T18:15:00+02:00,43.36,EUR,25.200,MWh
Power,Intraday,Continuous,NL,IDFULL,QH,2021-04-23T18:15:00+02:00,2021-04-23T18:30:00+02:00,52.46,EUR,34.100,MWh
Power,Intraday,Continuous,NL,IDFULL,QH,2021-04-23T18:30:00+02:00,2021-04-23T18:45:00+02:00,75.31,EUR,13.130,MWh
Power,Intraday,Continuous,NL,IDFULL,QH,2021-04-23T18:45:00+02:00,2021-04-23T19:00:00+02:00,91.58,EUR,22.830,MWh
Power,Intraday,Continuous,NL,IDFULL,QH,2021-04-23T19:00:00+02:00,2021-04-23T19:15:00+02:00,63.44,EUR,78.500,MWh
Power,Intraday,Continuous,NL,IDFULL,QH,2021-04-23T19:15:00+02:00,2021-04-23T19:30:00+02:00,71.68,EUR,58.900,MWh
Power,Intraday,Continuous,NL,IDFULL,QH,2021-04-23T19:30:00+02:00,2021-04-23T19:45:00+02:00,83.44,EUR,46.530,MWh
Power,Intraday,Continuous,NL,IDFULL,QH,2021-04-23T19:45:00+02:00,2021-04-23T20:00:00+02:00,95.99,EUR,57.500,MWh
Power,Intraday,Continuous,NL,IDFULL,QH,2021-04-23T20:00:00+02:00,2021-04-23T20:15:00+02:00,95.20,EUR,69.900,MWh
Power,Intraday,Continuous,NL,IDFULL,QH,2021-04-23T20:15:00+02:00,2021-04-23T20:30:00+02:00,82.66,EUR,32.800,MWh
Power,Intraday,Continuous,NL,IDFULL,QH,2021-04-23T20:30:00+02:00,2021-04-23T20:45:00+02:00,78.50,EUR,45.350,MWh
Power,Intraday,Continuous,NL,IDFULL,QH,2021-04-23T20:45:00+02:00,2021-04-23T21:00:00+02:00,70.18,EUR,72.180,MWh
Power,Intraday,Continuous,NL,IDFULL,QH,2021-04-23T21:00:00+02:00,2021-04-23T21:15:00+02:00,93.46,EUR,51.580,MWh
Power,Intraday,Continuous,NL,IDFULL,QH,2021-04-23T21:15:00+02:00,2021-04-23T21:30:00+02:00,83.41,EUR,41.200,MWh
Power,Intraday,Continuous,NL,IDFULL,QH,2021-04-23T21:30:00+02:00,2021-04-23T21:45:00+02:00,74.01,EUR,29.250,MWh
Power,Intraday,Continuous,NL,IDFULL,QH,2021-04-23T21:45:00+02:00,2021-04-23T22:00:00+02:00,59.98,EUR,46.750,MWh
Power,Intraday,Continuous,NL,IDFULL,QH,2021-04-23T22:00:00+02:00,2021-04-23T22:15:00+02:00,88.88,EUR,71.780,MWh
Power,Intraday,Continuous,NL,IDFULL,QH,2021-04-23T22:15:00+02:00,2021-04-23T22:30:00+02:00,71.39,EUR,43.080,MWh
Power,Intraday,Continuous,NL,IDFULL,QH,2021-04-23T22:30:00+02:00,2021-04-23T22:45:00+02:00,75.57,EUR,38.730,MWh
Power,Intraday,Continuous,NL,IDFULL,QH,2021-04-23T22:45:00+02:00,2021-04-23T23:00:00+02:00,54.39,EUR,34.050,MWh
Power,Intraday,Continuous,NL,IDFULL,QH,2021-04-23T23:00:00+02:00,2021-04-23T23:15:00+02:00,79.25,EUR,31.900,MWh
Power,Intraday,Continuous,NL,IDFULL,QH,2021-04-23T23:15:00+02:00,2021-04-23T23:30:00+02:00,65.67,EUR,23.330,MWh
Power,Intraday,Continuous,NL,IDFULL,QH,2021-04-23T23:30:00+02:00,2021-04-23T23:45:00+02:00,61.50,EUR,19.400,MWh
Power,Intraday,Continuous,NL,IDFULL,QH,2021-04-23T23:45:00+02:00,2021-04-24T00:00:00+02:00,47.80,EUR,23.530,MWh
Power,Intraday,Continuous,NL,ID1,QH,2021-04-23T00:00:00+02:00,2021-04-23T00:15:00+02:00,62.80,EUR,,MWh
Power,Intraday,Continuous,NL,ID1,QH,2021-04-23T00:15:00+02:00,2021-04-23T00:30:00+02:00,64.03,EUR,,MWh
Power,Intraday,Continuous,NL,ID1,QH,2021-04-23T00:30:00+02:00,2021-04-23T00:45:00+02:00,37.80,EUR,,MWh
Power,Intraday,Continuous,NL,ID1,QH,2021-04-23T00:45:00+02:00,2021-04-23T01:00:00+02:00,55.45,EUR,,MWh
Power,Intraday,Continuous,NL,ID1,QH,2021-04-23T01:00:00+02:00,2021-04-23T01:15:00+02:00,63.28,EUR,,MWh
Power,Intraday,Continuous,NL,ID1,QH,2021-04-23T01:15:00+02:00,2021-04-23T01:30:00+02:00,45.47,EUR,,MWh
Power,Intraday,Continuous,NL,ID1,QH,2021-04-23T01:30:00+02:00,2021-04-23T01:45:00+02:00,46.85,EUR,,MWh
Power,Intraday,Continuous,NL,ID1,QH,2021-04-23T01:45:00+02:00,2021-04-23T02:00:00+02:00,41.53,EUR,,MWh
Power,Intraday,Continuous,NL,ID1,QH,2021-04-23T02:00:00+02:00,2021-04-23T02:15:00+02:00,51.42,EUR,,MWh
Power,Intraday,Continuous,NL,ID1,QH,2021-04-23T02:15:00+02:00,2021-04-23T02:30:00+02:00,51.59,EUR,,MWh
Power,Intraday,Continuous,NL,ID1,QH,2021-04-23T02:30:00+02:00,2021-04-23T02:45:00+02:00,57.61,EUR,,MWh
Power,Intraday,Continuous,NL,ID1,QH,2021-04-23T02:45:00+02:00,2021-04-23T03:00:00+02:00,60.37,EUR,,MWh
Power,Intraday,Continuous,NL,ID1,QH,2021-04-23T03:00:00+02:00,2021-04-23T03:15:00+02:00,61.88,EUR,2.780,MWh
Power,Intraday,Continuous,NL,ID1,QH,2021-04-23T03:15:00+02:00,2021-04-23T03:30:00+02:00,51.71,EUR,,MWh
Power,Intraday,Continuous,NL,ID1,QH,2021-04-23T03:30:00+02:00,2021-04-23T03:45:00+02:00,65.67,EUR,,MWh
Power,Intraday,Continuous,NL,ID1,QH,2021-04-23T03:45:00+02:00,2021-04-23T04:00:00+02:00,78.89,EUR,,MWh
Power,Intraday,Continuous,NL,ID1,QH,2021-04-23T04:00:00+02:00,2021-04-23T04:15:00+02:00,52.15,EUR,,MWh
Power,Intraday,Continuous,NL,ID1,QH,2021-04-23T04:15:00+02:00,2021-04-23T04:30:00+02:00,56.03,EUR,,MWh
Power,Intraday,Continuous,NL,ID1,QH,2021-04-23T04:30:00+02:00,2021-04-23T04:45:00+02:00,60.94,EUR,,MWh
Power,Intraday,Continuous,NL,ID1,QH,2021-04-23T04:45:00+02:00,2021-04-23T05:00:00+02:00,72.55,EUR,,MWh
Power,Intraday,Continuous,NL,ID1,QH,2021-04-23T05:00:00+02:00,2021-04-23T05:15:00+02:00,55.87,EUR,,MWh
Power,Intraday,Continuous,NL,ID1,QH,2021-04-23T05:15:00+02:00,2021-04-23T05:30:00+02:00,71.20,EUR,,MWh
Power,Intraday,Continuous,NL,ID1,QH,2021-04-23T05:30:00+02:00,2021-04-23T05:45:00+02:00,76.21,EUR,,MWh
Power,Intraday,Continuous,NL,ID1,QH,2021-04-23T05:45:00+02:00,2021-04-23T06:00:00+02:00,92.27,EUR,,MWh
Power,Intraday,Continuous,NL,ID1,QH,2021-04-23T06:00:00+02:00,2021-04-23T06:15:00+02:00,50.02,EUR,,MWh
Power,Intraday,Continuous,NL,ID1,QH,2021-04-23T06:15:00+02:00,2021-04-23T06:30:00+02:00,74.68,EUR,,MWh
Power,Intraday,Continuous,NL,ID1,QH,2021-04-23T06:30:00+02:00,2021-04-23T06:45:00+02:00,79.64,EUR,,MWh
Power,Intraday,Continuous,NL,ID1,QH,2021-04-23T06:45:00+02:00,2021-04-23T07:00:00+02:00,95.72,EUR,,MWh
Power,Intraday,Continuous,NL,ID1,QH,2021-04-23T07:00:00+02:00,2021-04-23T07:15:00+02:00,98.78,EUR,,MWh
Power,Intraday,Continuous,NL,ID1,QH,2021-04-23T07:15:00+02:00,2021-04-23T07:30:00+02:00,97.14,EUR,,MWh
Power,Intraday,Continuous,NL,ID1,QH,2021-04-23T07:30:00+02:00,2021-04-23T07:45:00+02:00,90.35,EUR,,MWh
Power,Intraday,Continuous,NL,ID1,QH,2021-04-23T07:45:00+02:00,2021-04-23T08:00:00+02:00,77.48,EUR,,MWh
Power,Intraday,Continuous,NL,ID1,QH,2021-04-23T08:00:00+02:00,2021-04-23T08:15:00+02:00,142.34,EUR,,MWh
Power,Intraday,Continuous,NL,ID1,QH,2021-04-23T08:15:00+02:00,2021-04-23T08:30:00+02:00,73.09,EUR,,MWh
Power,Intraday,Continuous,NL,ID1,QH,2021-04-23T08:30:00+02:00,2021-04-23T08:45:00+02:00,72.73,EUR,,MWh
Power,Intraday,Continuous,NL,ID1,QH,2021-04-23T08:45:00+02:00,2021-04-23T09:00:00+02:00,48.95,EUR,,MWh
Power,Intraday,Continuous,NL,ID1,QH,2021-04-23T09:00:00+02:00,2021-04-23T09:15:00+02:00,96.76,EUR,,MWh
Power,Intraday,Continuous,NL,ID1,QH,2021-04-23T09:15:00+02:00,2021-04-23T09:30:00+02:00,50.44,EUR,3.150,MWh
Power,Intraday,Continuous,NL,ID1,QH,2021-04-23T09:30:00+02:00,2021-04-23T09:45:00+02:00,54.49,EUR,,MWh
Power,Intraday,Continuous,NL,ID1,QH,2021-04-23T09:45:00+02:00,2021-04-23T10:00:00+02:00,10.00,EUR,2.500,MWh
Power,Intraday,Continuous,NL,ID1,QH,2021-04-23T10:00:00+02:00,2021-04-23T10:15:00+02:00,83.50,EUR,,MWh
Power,Intraday,Continuous,NL,ID1,QH,2021-04-23T10:15:00+02:00,2021-04-23T10:30:00+02:00,58.26,EUR,,MWh
Power,Intraday,Continuous,NL,ID1,QH,2021-04-23T10:30:00+02:00,2021-04-23T10:45:00+02:00,57.55,EUR,,MWh
Power,Intraday,Continuous,NL,ID1,QH,2021-04-23T10:45:00+02:00,2021-04-23T11:00:00+02:00,30.31,EUR,15.330,MWh
Power,Intraday,Continuous,NL,ID1,QH,2021-04-23T11:00:00+02:00,2021-04-23T11:15:00+02:00,70.78,EUR,,MWh
Power,Intraday,Continuous,NL,ID1,QH,2021-04-23T11:15:00+02:00,2021-04-23T11:30:00+02:00,67.18,EUR,,MWh
Power,Intraday,Continuous,NL,ID1,QH,2021-04-23T11:30:00+02:00,2021-04-23T11:45:00+02:00,48.86,EUR,7.500,MWh
Power,Intraday,Continuous,NL,ID1,QH,2021-04-23T11:45:00+02:00,2021-04-23T12:00:00+02:00,35.18,EUR,,MWh
Power,Intraday,Continuous,NL,ID1,QH,2021-04-23T12:00:00+02:00,2021-04-23T12:15:00+02:00,71.59,EUR,,MWh
Power,Intraday,Continuous,NL,ID1,QH,2021-04-23T12:15:00+02:00,2021-04-23T12:30:00+02:00,54.30,EUR,,MWh
Power,Intraday,Continuous,NL,ID1,QH,2021-04-23T12:30:00+02:00,2021-04-23T12:45:00+02:00,47.31,EUR,,MWh
Power,Intraday,Continuous,NL,ID1,QH,2021-04-23T12:45:00+02:00,2021-04-23T13:00:00+02:00,40.00,EUR,3.750,MWh
Power,Intraday,Continuous,NL,ID1,QH,2021-04-23T13:00:00+02:00,2021-04-23T13:15:00+02:00,40.80,EUR,,MWh
Power,Intraday,Continuous,NL,ID1,QH,2021-04-23T13:15:00+02:00,2021-04-23T13:30:00+02:00,40.80,EUR,,MWh
Power,Intraday,Continuous,NL,ID1,QH,2021-04-23T13:30:00+02:00,2021-04-23T13:45:00+02:00,40.80,EUR,,MWh
Power,Intraday,Continuous,NL,ID1,QH,2021-04-23T13:45:00+02:00,2021-04-23T14:00:00+02:00,40.80,EUR,,MWh
Power,Intraday,Continuous,NL,ID1,QH,2021-04-23T14:00:00+02:00,2021-04-23T14:15:00+02:00,16.90,EUR,,MWh
Power,Intraday,Continuous,NL,ID1,QH,2021-04-23T14:15:00+02:00,2021-04-23T14:30:00+02:00,34.63,EUR,,MWh
Power,Intraday,Continuous,NL,ID1,QH,2021-04-23T14:30:00+02:00,2021-04-23T14:45:00+02:00,41.94,EUR,,MWh
Power,Intraday,Continuous,NL,ID1,QH,2021-04-23T14:45:00+02:00,2021-04-23T15:00:00+02:00,44.38,EUR,,MWh
Power,Intraday,Continuous,NL,ID1,QH,2021-04-23T15:00:00+02:00,2021-04-23T15:15:00+02:00,9.35,EUR,,MWh
Power,Intraday,Continuous,NL,ID1,QH,2021-04-23T15:15:00+02:00,2021-04-23T15:30:00+02:00,32.39,EUR,,MWh
Power,Intraday,Continuous,NL,ID1,QH,2021-04-23T15:30:00+02:00,2021-04-23T15:45:00+02:00,41.78,EUR,,MWh
Power,Intraday,Continuous,NL,ID1,QH,2021-04-23T15:45:00+02:00,2021-04-23T16:00:00+02:00,53.11,EUR,4.830,MWh
Power,Intraday,Continuous,NL,ID1,QH,2021-04-23T16:00:00+02:00,2021-04-23T16:15:00+02:00,1.81,EUR,,MWh
Power,Intraday,Continuous,NL,ID1,QH,2021-04-23T16:15:00+02:00,2021-04-23T16:30:00+02:00,40.19,EUR,,MWh
Power,Intraday,Continuous,NL,ID1,QH,2021-04-23T16:30:00+02:00,2021-04-23T16:45:00+02:00,53.70,EUR,,MWh
Power,Intraday,Continuous,NL,ID1,QH,2021-04-23T16:45:00+02:00,2021-04-23T17:00:00+02:00,57.87,EUR,,MWh
Power,Intraday,Continuous,NL,ID1,QH,2021-04-23T17:00:00+02:00,2021-04-23T17:15:00+02:00,27.99,EUR,,MWh
Power,Intraday,Continuous,NL,ID1,QH,2021-04-23T17:15:00+02:00,2021-04-23T17:30:00+02:00,42.21,EUR,,MWh
Power,Intraday,Continuous,NL,ID1,QH,2021-04-23T17:30:00+02:00,2021-04-23T17:45:00+02:00,45.75,EUR,,MWh
Power,Intraday,Continuous,NL,ID1,QH,2021-04-23T17:45:00+02:00,2021-04-23T18:00:00+02:00,78.89,EUR,,MWh
Power,Intraday,Continuous,NL,ID1,QH,2021-04-23T18:00:00+02:00,2021-04-23T18:15:00+02:00,43.36,EUR,,MWh
Power,Intraday,Continuous,NL,ID1,QH,2021-04-23T18:15:00+02:00,2021-04-23T18:30:00+02:00,52.46,EUR,,MWh
Power,Intraday,Continuous,NL,ID1,QH,2021-04-23T18:30:00+02:00,2021-04-23T18:45:00+02:00,67.91,EUR,,MWh
Power,Intraday,Continuous,NL,ID1,QH,2021-04-23T18:45:00+02:00,2021-04-23T19:00:00+02:00,70.00,EUR,2.500,MWh
Power,Intraday,Continuous,NL,ID1,QH,2021-04-23T19:00:00+02:00,2021-04-23T19:15:00+02:00,63.16,EUR,,MWh
Power,Intraday,Continuous,NL,ID1,QH,2021-04-23T19:15:00+02:00,2021-04-23T19:30:00+02:00,78.02,EUR,2.500,MWh
Power,Intraday,Continuous,NL,ID1,QH,2021-04-23T19:30:00+02:00,2021-04-23T19:45:00+02:00,80.71,EUR,,MWh
Power,Intraday,Continuous,NL,ID1,QH,2021-04-23T19:45:00+02:00,2021-04-23T20:00:00+02:00,95.10,EUR,,MWh
Power,Intraday,Continuous,NL,ID1,QH,2021-04-23T20:00:00+02:00,2021-04-23T20:15:00+02:00,93.82,EUR,,MWh
Power,Intraday,Continuous,NL,ID1,QH,2021-04-23T20:15:00+02:00,2021-04-23T20:30:00+02:00,82.16,EUR,,MWh
Power,Intraday,Continuous,NL,ID1,QH,2021-04-23T20:30:00+02:00,2021-04-23T20:45:00+02:00,75.92,EUR,,MWh
Power,Intraday,Continuous,NL,ID1,QH,2021-04-23T20:45:00+02:00,2021-04-23T21:00:00+02:00,69.43,EUR,,MWh
Power,Intraday,Continuous,NL,ID1,QH,2021-04-23T21:00:00+02:00,2021-04-23T21:15:00+02:00,91.79,EUR,,MWh
Power,Intraday,Continuous,NL,ID1,QH,2021-04-23T21:15:00+02:00,2021-04-23T21:30:00+02:00,82.00,EUR,,MWh
Power,Intraday,Continuous,NL,ID1,QH,2021-04-23T21:30:00+02:00,2021-04-23T21:45:00+02:00,72.50,EUR,,MWh
Power,Intraday,Continuous,NL,ID1,QH,2021-04-23T21:45:00+02:00,2021-04-23T22:00:00+02:00,59.51,EUR,,MWh
Power,Intraday,Continuous,NL,ID1,QH,2021-04-23T22:00:00+02:00,2021-04-23T22:15:00+02:00,89.12,EUR,,MWh
Power,Intraday,Continuous,NL,ID1,QH,2021-04-23T22:15:00+02:00,2021-04-23T22:30:00+02:00,60.90,EUR,5.730,MWh
Power,Intraday,Continuous,NL,ID1,QH,2021-04-23T22:30:00+02:00,2021-04-23T22:45:00+02:00,60.90,EUR,2.500,MWh
Power,Intraday,Continuous,NL,ID1,QH,2021-04-23T22:45:00+02:00,2021-04-23T23:00:00+02:00,60.90,EUR,2.500,MWh
Power,Intraday,Continuous,NL,ID1,QH,2021-04-23T23:00:00+02:00,2021-04-23T23:15:00+02:00,78.75,EUR,,MWh
Power,Intraday,Continuous,NL,ID1,QH,2021-04-23T23:15:00+02:00,2021-04-23T23:30:00+02:00,65.98,EUR,,MWh
Power,Intraday,Continuous,NL,ID1,QH,2021-04-23T23:30:00+02:00,2021-04-23T23:45:00+02:00,63.38,EUR,,MWh
Power,Intraday,Continuous,NL,ID1,QH,2021-04-23T23:45:00+02:00,2021-04-24T00:00:00+02:00,49.30,EUR,,MWh
Power,Intraday,Continuous,NL,ID3,QH,2021-04-23T00:00:00+02:00,2021-04-23T00:15:00+02:00,62.80,EUR,21.030,MWh
Power,Intraday,Continuous,NL,ID3,QH,2021-04-23T00:15:00+02:00,2021-04-23T00:30:00+02:00,64.03,EUR,9.480,MWh
Power,Intraday,Continuous,NL,ID3,QH,2021-04-23T00:30:00+02:00,2021-04-23T00:45:00+02:00,37.80,EUR,,MWh
Power,Intraday,Continuous,NL,ID3,QH,2021-04-23T00:45:00+02:00,2021-04-23T01:00:00+02:00,55.45,EUR,6.380,MWh
Power,Intraday,Continuous,NL,ID3,QH,2021-04-23T01:00:00+02:00,2021-04-23T01:15:00+02:00,63.28,EUR,6.650,MWh
Power,Intraday,Continuous,NL,ID3,QH,2021-04-23T01:15:00+02:00,2021-04-23T01:30:00+02:00,45.47,EUR,22.080,MWh
Power,Intraday,Continuous,NL,ID3,QH,2021-04-23T01:30:00+02:00,2021-04-23T01:45:00+02:00,46.85,EUR,14.530,MWh
Power,Intraday,Continuous,NL,ID3,QH,2021-04-23T01:45:00+02:00,2021-04-23T02:00:00+02:00,41.53,EUR,25.730,MWh
Power,Intraday,Continuous,NL,ID3,QH,2021-04-23T02:00:00+02:00,2021-04-23T02:15:00+02:00,51.42,EUR,3.050,MWh
Power,Intraday,Continuous,NL,ID3,QH,2021-04-23T02:15:00+02:00,2021-04-23T02:30:00+02:00,51.59,EUR,,MWh
Power,Intraday,Continuous,NL,ID3,QH,2021-04-23T02:30:00+02:00,2021-04-23T02:45:00+02:00,57.61,EUR,,MWh
Power,Intraday,Continuous,NL,ID3,QH,2021-04-23T02:45:00+02:00,2021-04-23T03:00:00+02:00,60.37,EUR,,MWh
Power,Intraday,Continuous,NL,ID3,QH,2021-04-23T03:00:00+02:00,2021-04-23T03:15:00+02:00,50.41,EUR,11.700,MWh
Power,Intraday,Continuous,NL,ID3,QH,2021-04-23T03:15:00+02:00,2021-04-23T03:30:00+02:00,51.71,EUR,6.730,MWh
Power,Intraday,Continuous,NL,ID3,QH,2021-04-23T03:30:00+02:00,2021-04-23T03:45:00+02:00,65.67,EUR,6.100,MWh
Power,Intraday,Continuous,NL,ID3,QH,2021-04-23T03:45:00+02:00,2021-04-23T04:00:00+02:00,78.89,EUR,4.400,MWh
Power,Intraday,Continuous,NL,ID3,QH,2021-04-23T04:00:00+02:00,2021-04-23T04:15:00+02:00,52.15,EUR,15.950,MWh
Power,Intraday,Continuous,NL,ID3,QH,2021-04-23T04:15:00+02:00,2021-04-23T04:30:00+02:00,56.03,EUR,11.950,MWh
Power,Intraday,Continuous,NL,ID3,QH,2021-04-23T04:30:00+02:00,2021-04-23T04:45:00+02:00,60.94,EUR,17.480,MWh
Power,Intraday,Continuous,NL,ID3,QH,2021-04-23T04:45:00+02:00,2021-04-23T05:00:00+02:00,72.55,EUR,15.980,MWh
Power,Intraday,Continuous,NL,ID3,QH,2021-04-23T05:00:00+02:00,2021-04-23T05:15:00+02:00,55.87,EUR,9.550,MWh
Power,Intraday,Continuous,NL,ID3,QH,2021-04-23T05:15:00+02:00,2021-04-23T05:30:00+02:00,71.20,EUR,5.700,MWh
Power,Intraday,Continuous,NL,ID3,QH,2021-04-23T05:30:00+02:00,2021-04-23T05:45:00+02:00,76.21,EUR,3.630,MWh
Power,Intraday,Continuous,NL,ID3,QH,2021-04-23T05:45:00+02:00,2021-04-23T06:00:00+02:00,92.27,EUR,5.330,MWh
Power,Intraday,Continuous,NL,ID3,QH,2021-04-23T06:00:00+02:00,2021-04-23T06:15:00+02:00,50.02,EUR,17.880,MWh
Power,Intraday,Continuous,NL,ID3,QH,2021-04-23T06:15:00+02:00,2021-04-23T06:30:00+02:00,74.68,EUR,14.950,MWh
Power,Intraday,Continuous,NL,ID3,QH,2021-04-23T06:30:00+02:00,2021-04-23T06:45:00+02:00,79.64,EUR,26.880,MWh
Power,Intraday,Continuous,NL,ID3,QH,2021-04-23T06:45:00+02:00,2021-04-23T07:00:00+02:00,95.72,EUR,36.280,MWh
Power,Intraday,Continuous,NL,ID3,QH,2021-04-23T07:00:00+02:00,2021-04-23T07:15:00+02:00,98.78,EUR,11.880,MWh
Power,Intraday,Continuous,NL,ID3,QH,2021-04-23T07:15:00+02:00,2021-04-23T07:30:00+02:00,97.14,EUR,10.100,MWh
Power,Intraday,Continuous,NL,ID3,QH,2021-04-23T07:30:00+02:00,2021-04-23T07:45:00+02:00,90.35,EUR,9.850,MWh
Power,Intraday,Continuous,NL,ID3,QH,2021-04-23T07:45:00+02:00,2021-04-23T08:00:00+02:00,77.48,EUR,34.750,MWh
Power,Intraday,Continuous,NL,ID3,QH,2021-04-23T08:00:00+02:00,2021-04-23T08:15:00+02:00,142.34,EUR,29.180,MWh
Power,Intraday,Continuous,NL,ID3,QH,2021-04-23T08:15:00+02:00,2021-04-23T08:30:00+02:00,73.09,EUR,15.150,MWh
Power,Intraday,Continuous,NL,ID3,QH,2021-04-23T08:30:00+02:00,2021-04-23T08:45:00+02:00,72.73,EUR,27.730,MWh
Power,Intraday,Continuous,NL,ID3,QH,2021-04-23T08:45:00+02:00,2021-04-23T09:00:00+02:00,48.95,EUR,24.730,MWh
Power,Intraday,Continuous,NL,ID3,QH,2021-04-23T09:00:00+02:00,2021-04-23T09:15:00+02:00,96.76,EUR,20.400,MWh
Power,Intraday,Continuous,NL,ID3,QH,2021-04-23T09:15:00+02:00,2021-04-23T09:30:00+02:00,54.63,EUR,5.700,MWh
Power,Intraday,Continuous,NL,ID3,QH,2021-04-23T09:30:00+02:00,2021-04-23T09:45:00+02:00,54.49,EUR,,MWh
Power,Intraday,Continuous,NL,ID3,QH,2021-04-23T09:45:00+02:00,2021-04-23T10:00:00+02:00,37.13,EUR,11.500,MWh
Power,Intraday,Continuous,NL,ID3,QH,2021-04-23T10:00:00+02:00,2021-04-23T10:15:00+02:00,83.50,EUR,63.880,MWh
Power,Intraday,Continuous,NL,ID3,QH,2021-04-23T10:15:00+02:00,2021-04-23T10:30:00+02:00,58.26,EUR,16.880,MWh
Power,Intraday,Continuous,NL,ID3,QH,2021-04-23T10:30:00+02:00,2021-04-23T10:45:00+02:00,57.55,EUR,,MWh
Power,Intraday,Continuous,NL,ID3,QH,2021-04-23T10:45:00+02:00,2021-04-23T11:00:00+02:00,30.31,EUR,15.330,MWh
Power,Intraday,Continuous,NL,ID3,QH,2021-04-23T11:00:00+02:00,2021-04-23T11:15:00+02:00,70.78,EUR,38.500,MWh
Power,Intraday,Continuous,NL,ID3,QH,2021-04-23T11:15:00+02:00,2021-04-23T11:30:00+02:00,67.18,EUR,10.250,MWh
Power,Intraday,Continuous,NL,ID3,QH,2021-04-23T11:30:00+02:00,2021-04-23T11:45:00+02:00,42.26,EUR,22.050,MWh
Power,Intraday,Continuous,NL,ID3,QH,2021-04-23T11:45:00+02:00,2021-04-23T12:00:00+02:00,35.18,EUR,27.800,MWh
Power,Intraday,Continuous,NL,ID3,QH,2021-04-23T12:00:00+02:00,2021-04-23T12:15:00+02:00,71.59,EUR,6.700,MWh
Power,Intraday,Continuous,NL,ID3,QH,2021-04-23T12:15:00+02:00,2021-04-23T12:30:00+02:00,54.30,EUR,5.350,MWh
Power,Intraday,Continuous,NL,ID3,QH,2021-04-23T12:30:00+02:00,2021-04-23T12:45:00+02:00,47.31,EUR,9.530,MWh
Power,Intraday,Continuous,NL,ID3,QH,2021-04-23T12:45:00+02:00,2021-04-23T13:00:00+02:00,40.68,EUR,4.750,MWh
Power,Intraday,Continuous,NL,ID3,QH,2021-04-23T13:00:00+02:00,2021-04-23T13:15:00+02:00,40.80,EUR,,MWh
Power,Intraday,Continuous,NL,ID3,QH,2021-04-23T13:15:00+02:00,2021-04-23T13:30:00+02:00,40.80,EUR,,MWh
Power,Intraday,Continuous,NL,ID3,QH,2021-04-23T13:30:00+02:00,2021-04-23T13:45:00+02:00,40.80,EUR,,MWh
Power,Intraday,Continuous,NL,ID3,QH,2021-04-23T13:45:00+02:00,2021-04-23T14:00:00+02:00,40.80,EUR,,MWh
Power,Intraday,Continuous,NL,ID3,QH,2021-04-23T14:00:00+02:00,2021-04-23T14:15:00+02:00,16.90,EUR,19.580,MWh
Power,Intraday,Continuous,NL,ID3,QH,2021-04-23T14:15:00+02:00,2021-04-23T14:30:00+02:00,34.63,EUR,6.150,MWh
Power,Intraday,Continuous,NL,ID3,QH,2021-04-23T14:30:00+02:00,2021-04-23T14:45:00+02:00,41.94,EUR,9.030,MWh
Power,Intraday,Continuous,NL,ID3,QH,2021-04-23T14:45:00+02:00,2021-04-23T15:00:00+02:00,44.38,EUR,17.280,MWh
Power,Intraday,Continuous,NL,ID3,QH,2021-04-23T15:00:00+02:00,2021-04-23T15:15:00+02:00,9.35,EUR,22.000,MWh
Power,Intraday,Continuous,NL,ID3,QH,2021-04-23T15:15:00+02:00,2021-04-23T15:30:00+02:00,32.39,EUR,24.180,MWh
Power,Intraday,Continuous,NL,ID3,QH,2021-04-23T15:30:00+02:00,2021-04-23T15:45:00+02:00,41.78,EUR,24.680,MWh
Power,Intraday,Continuous,NL,ID3,QH,2021-04-23T15:45:00+02:00,2021-04-23T16:00:00+02:00,53.36,EUR,33.200,MWh
Power,Intraday,Continuous,NL,ID3,QH,2021-04-23T16:00:00+02:00,2021-04-23T16:15:00+02:00,1.81,EUR,22.630,MWh
Power,Intraday,Continuous,NL,ID3,QH,2021-04-23T16:15:00+02:00,2021-04-23T16:30:00+02:00,40.19,EUR,20.850,MWh
Power,Intraday,Continuous,NL,ID3,QH,2021-04-23T16:30:00+02:00,2021-04-23T16:45:00+02:00,53.70,EUR,21.030,MWh
Power,Intraday,Continuous,NL,ID3,QH,2021-04-23T16:45:00+02:00,2021-04-23T17:00:00+02:00,57.87,EUR,24.550,MWh
Power,Intraday,Continuous,NL,ID3,QH,2021-04-23T17:00:00+02:00,2021-04-23T17:15:00+02:00,27.99,EUR,39.100,MWh
Power,Intraday,Continuous,NL,ID3,QH,2021-04-23T17:15:00+02:00,2021-04-23T17:30:00+02:00,42.21,EUR,35.780,MWh
Power,Intraday,Continuous,NL,ID3,QH,2021-04-23T17:30:00+02:00,2021-04-23T17:45:00+02:00,45.75,EUR,32.100,MWh
Power,Intraday,Continuous,NL,ID3,QH,2021-04-23T17:45:00+02:00,2021-04-23T18:00:00+02:00,78.89,EUR,16.430,MWh
Power,Intraday,Continuous,NL,ID3,QH,2021-04-23T18:00:00+02:00,2021-04-23T18:15:00+02:00,43.36,EUR,,MWh
Power,Intraday,Continuous,NL,ID3,QH,2021-04-23T18:15:00+02:00,2021-04-23T18:30:00+02:00,52.46,EUR,,MWh
Power,Intraday,Continuous,NL,ID3,QH,2021-04-23T18:30:00+02:00,2021-04-23T18:45:00+02:00,67.91,EUR,3.250,MWh
Power,Intraday,Continuous,NL,ID3,QH,2021-04-23T18:45:00+02:00,2021-04-23T19:00:00+02:00,84.14,EUR,12.680,MWh
Power,Intraday,Continuous,NL,ID3,QH,2021-04-23T19:00:00+02:00,2021-04-23T19:15:00+02:00,63.16,EUR,27.180,MWh
Power,Intraday,Continuous,NL,ID3,QH,2021-04-23T19:15:00+02:00,2021-04-23T19:30:00+02:00,72.19,EUR,26.650,MWh
Power,Intraday,Continuous,NL,ID3,QH,2021-04-23T19:30:00+02:00,2021-04-23T19:45:00+02:00,80.71,EUR,22.650,MWh
Power,Intraday,Continuous,NL,ID3,QH,2021-04-23T19:45:00+02:00,2021-04-23T20:00:00+02:00,95.10,EUR,33.350,MWh
Power,Intraday,Continuous,NL,ID3,QH,2021-04-23T20:00:00+02:00,2021-04-23T20:15:00+02:00,93.82,EUR,35.050,MWh
Power,Intraday,Continuous,NL,ID3,QH,2021-04-23T20:15:00+02:00,2021-04-23T20:30:00+02:00,82.16,EUR,11.450,MWh
Power,Intraday,Continuous,NL,ID3,QH,2021-04-23T20:30:00+02:00,2021-04-23T20:45:00+02:00,75.92,EUR,25.230,MWh
Power,Intraday,Continuous,NL,ID3,QH,2021-04-23T20:45:00+02:00,2021-04-23T21:00:00+02:00,69.43,EUR,44.050,MWh
Power,Intraday,Continuous,NL,ID3,QH,2021-04-23T21:00:00+02:00,2021-04-23T21:15:00+02:00,91.79,EUR,43.450,MWh
Power,Intraday,Continuous,NL,ID3,QH,2021-04-23T21:15:00+02:00,2021-04-23T21:30:00+02:00,82.00,EUR,32.280,MWh
Power,Intraday,Continuous,NL,ID3,QH,2021-04-23T21:30:00+02:00,2021-04-23T21:45:00+02:00,72.50,EUR,18.230,MWh
Power,Intraday,Continuous,NL,ID3,QH,2021-04-23T21:45:00+02:00,2021-04-23T22:00:00+02:00,59.51,EUR,27.250,MWh
Power,Intraday,Continuous,NL,ID3,QH,2021-04-23T22:00:00+02:00,2021-04-23T22:15:00+02:00,89.12,EUR,63.530,MWh
Power,Intraday,Continuous,NL,ID3,QH,2021-04-23T22:15:00+02:00,2021-04-23T22:30:00+02:00,70.77,EUR,34.150,MWh
Power,Intraday,Continuous,NL,ID3,QH,2021-04-23T22:30:00+02:00,2021-04-23T22:45:00+02:00,75.21,EUR,23.630,MWh
Power,Intraday,Continuous,NL,ID3,QH,2021-04-23T22:45:00+02:00,2021-04-23T23:00:00+02:00,55.34,EUR,19.980,MWh
Power,Intraday,Continuous,NL,ID3,QH,2021-04-23T23:00:00+02:00,2021-04-23T23:15:00+02:00,78.75,EUR,24.550,MWh
Power,Intraday,Continuous,NL,ID3,QH,2021-04-23T23:15:00+02:00,2021-04-23T23:30:00+02:00,65.98,EUR,15.000,MWh
Power,Intraday,Continuous,NL,ID3,QH,2021-04-23T23:30:00+02:00,2021-04-23T23:45:00+02:00,63.38,EUR,8.580,MWh
Power,Intraday,Continuous,NL,ID3,QH,2021-04-23T23:45:00+02:00,2021-04-24T00:00:00+02:00,49.30,EUR,11.630,MWh
Power,Intraday,Continuous,NL,IDFULL,BASE,2021-04-23T00:00:00+02:00,2021-04-24T00:00:00+02:00,60.82,EUR,20443.600,MWh
Power,Intraday,Continuous,NL,IDFULL,PEAK,2021-04-23T08:00:00+02:00,2021-04-23T20:00:00+02:00,54.43,EUR,13989.200,MWh
