Commodity,NominationModality,TradingModality,MarketArea,IndexName,TimeResolution,DeliveryStart,DeliveryEnd,IndexPrice,Currency,Volume,VolumeUnit
Power,Intraday,Continuous,NL,IDFULL,H,2021-03-07T00:00:00+01:00,2021-03-07T01:00:00+01:00,46.61,EUR,212.200,MWh
Power,Intraday,Continuous,NL,IDFULL,H,2021-03-07T01:00:00+01:00,2021-03-07T02:00:00+01:00,44.93,EUR,223.000,MWh
Power,Intraday,Continuous,NL,IDFULL,H,2021-03-07T02:00:00+01:00,2021-03-07T03:00:00+01:00,43.60,EUR,134.200,MWh
Power,Intraday,Continuous,NL,IDFULL,H,2021-03-07T03:00:00+01:00,2021-03-07T04:00:00+01:00,42.55,EUR,72.500,MWh
Power,Intraday,Continuous,NL,IDFULL,H,2021-03-07T04:00:00+01:00,2021-03-07T05:00:00+01:00,44.07,EUR,260.200,MWh
Power,Intraday,Continuous,NL,IDFULL,H,2021-03-07T05:00:00+01:00,2021-03-07T06:00:00+01:00,42.71,EUR,259.200,MWh
Power,Intraday,Continuous,NL,IDFULL,H,2021-03-07T06:00:00+01:00,2021-03-07T07:00:00+01:00,45.01,EUR,115.000,MWh
Power,Intraday,Continuous,NL,IDFULL,H,2021-03-07T07:00:00+01:00,2021-03-07T08:00:00+01:00,40.32,EUR,69.400,MWh
Power,Intraday,Continuous,NL,IDFULL,H,2021-03-07T08:00:00+01:00,2021-03-07T09:00:00+01:00,42.32,EUR,283.800,MWh
Power,Intraday,Continuous,NL,IDFULL,H,2021-03-07T09:00:00+01:00,2021-03-07T10:00:00+01:00,62.48,EUR,72.500,MWh
Power,Intraday,Continuous,NL,IDFULL,H,2021-03-07T10:00:00+01:00,2021-03-07T11:00:00+01:00,64.43,EUR,344.100,MWh
Power,Intraday,Continuous,NL,IDFULL,H,2021-03-07T11:00:00+01:00,2021-03-07T12:00:00+01:00,48.71,EUR,644.600,MWh
Power,Intraday,Continuous,NL,IDFULL,H,2021-03-07T12:00:00+01:00,2021-03-07T13:00:00+01:00,46.95,EUR,467.900,MWh
Power,Intraday,Continuous,NL,IDFULL,H,2021-03-07T13:00:00+01:00,2021-03-07T14:00:00+01:00,44.60,EUR,472.900,MWh
Power,Intraday,Continuous,NL,IDFULL,H,2021-03-07T14:00:00+01:00,2021-03-07T15:00:00+01:00,30.35,EUR,1280.600,MWh
Power,Intraday,Continuous,NL,IDFULL,H,2021-03-07T15:00:00+01:00,2021-03-07T16:00:00+01:00,36.02,EUR,865.300,MWh
Power,Intraday,Continuous,NL,IDFULL,H,2021-03-07T16:00:00+01:00,2021-03-07T17:00:00+01:00,36.18,EUR,1296.100,MWh
Power,Intraday,Continuous,NL,IDFULL,H,2021-03-07T17:00:00+01:00,2021-03-07T18:00:00+01:00,42.09,EUR,1071.600,MWh
Power,Intraday,Continuous,NL,IDFULL,H,2021-03-07T18:00:00+01:00,2021-03-07T19:00:00+01:00,50.99,EUR,806.400,MWh
Power,Intraday,Continuous,NL,IDFULL,H,2021-03-07T19:00:00+01:00,2021-03-07T20:00:00+01:00,52.67,EUR,650.800,MWh
Power,Intraday,Continuous,NL,IDFULL,H,2021-03-07T20:00:00+01:00,2021-03-07T21:00:00+01:00,50.94,EUR,453.800,MWh
Power,Intraday,Continuous,NL,IDFULL,H,2021-03-07T21:00:00+01:00,2021-03-07T22:00:00+01:00,49.76,EUR,517.900,MWh
Power,Intraday,Continuous,NL,IDFULL,H,2021-03-07T22:00:00+01:00,2021-03-07T23:00:00+01:00,49.75,EUR,550.800,MWh
Power,Intraday,Continuous,NL,IDFULL,H,2021-03-07T23:00:00+01:00,2021-03-08T00:00:00+01:00,46.72,EUR,633.500,MWh
Power,Intraday,Continuous,NL,ID1,H,2021-03-07T00:00:00+01:00,2021-03-07T01:00:00+01:00,46.61,EUR,,MWh
Power,Intraday,Continuous,NL,ID1,H,2021-03-07T01:00:00+01:00,2021-03-07T02:00:00+01:00,45.51,EUR,,MWh
Power,Intraday,Continuous,NL,ID1,H,2021-03-07T02:00:00+01:00,2021-03-07T03:00:00+01:00,42.66,EUR,,MWh
Power,Intraday,Continuous,NL,ID1,H,2021-03-07T03:00:00+01:00,2021-03-07T04:00:00+01:00,41.36,EUR,,MWh
Power,Intraday,Continuous,NL,ID1,H,2021-03-07T04:00:00+01:00,2021-03-07T05:00:00+01:00,46.05,EUR,,MWh
Power,Intraday,Continuous,NL,ID1,H,2021-03-07T05:00:00+01:00,2021-03-07T06:00:00+01:00,45.63,EUR,,MWh
Power,Intraday,Continuous,NL,ID1,H,2021-03-07T06:00:00+01:00,2021-03-07T07:00:00+01:00,46.17,EUR,,MWh
Power,Intraday,Continuous,NL,ID1,H,2021-03-07T07:00:00+01:00,2021-03-07T08:00:00+01:00,41.41,EUR,,MWh
Power,Intraday,Continuous,NL,ID1,H,2021-03-07T08:00:00+01:00,2021-03-07T09:00:00+01:00,60.42,EUR,35.000,MWh
Power,Intraday,Continuous,NL,ID1,H,2021-03-07T09:00:00+01:00,2021-03-07T10:00:00+01:00,66.56,EUR,,MWh
Power,Intraday,Continuous,NL,ID1,H,2021-03-07T10:00:00+01:00,2021-03-07T11:00:00+01:00,79.08,EUR,146.100,MWh
Power,Intraday,Continuous,NL,ID1,H,2021-03-07T11:00:00+01:00,2021-03-07T12:00:00+01:00,36.49,EUR,200.800,MWh
Power,Intraday,Continuous,NL,ID1,H,2021-03-07T12:00:00+01:00,2021-03-07T13:00:00+01:00,30.54,EUR,61.600,MWh
Power,Intraday,Continuous,NL,ID1,H,2021-03-07T13:00:00+01:00,2021-03-07T14:00:00+01:00,57.09,EUR,120.000,MWh
Power,Intraday,Continuous,NL,ID1,H,2021-03-07T14:00:00+01:00,2021-03-07T15:00:00+01:00,36.65,EUR,24.200,MWh
Power,Intraday,Continuous,NL,ID1,H,2021-03-07T15:00:00+01:00,2021-03-07T16:00:00+01:00,39.84,EUR,31.000,MWh
Power,Intraday,Continuous,NL,ID1,H,2021-03-07T16:00:00+01:00,2021-03-07T17:00:00+01:00,35.45,EUR,68.000,MWh
Power,Intraday,Continuous,NL,ID1,H,2021-03-07T17:00:00+01:00,2021-03-07T18:00:00+01:00,42.00,EUR,,MWh
Power,Intraday,Continuous,NL,ID1,H,2021-03-07T18:00:00+01:00,2021-03-07T19:00:00+01:00,50.64,EUR,,MWh
Power,Intraday,Continuous,NL,ID1,H,2021-03-07T19:00:00+01:00,2021-03-07T20:00:00+01:00,51.80,EUR,,MWh
Power,Intraday,Continuous,NL,ID1,H,2021-03-07T20:00:00+01:00,2021-03-07T21:00:00+01:00,50.98,EUR,,MWh
Power,Intraday,Continuous,NL,ID1,H,2021-03-07T21:00:00+01:00,2021-03-07T22:00:00+01:00,48.90,EUR,,MWh
Power,Intraday,Continuous,NL,ID1,H,2021-03-07T22:00:00+01:00,2021-03-07T23:00:00+01:00,49.54,EUR,,MWh
Power,Intraday,Continuous,NL,ID1,H,2021-03-07T23:00:00+01:00,2021-03-08T00:00:00+01:00,46.39,EUR,,MWh
Power,Intraday,Continuous,NL,ID3,H,2021-03-07T00:00:00+01:00,2021-03-07T01:00:00+01:00,46.61,EUR,212.200,MWh
Power,Intraday,Continuous,NL,ID3,H,2021-03-07T01:00:00+01:00,2021-03-07T02:00:00+01:00,45.51,EUR,119.100,MWh
Power,Intraday,Continuous,NL,ID3,H,2021-03-07T02:00:00+01:00,2021-03-07T03:00:00+01:00,42.66,EUR,67.600,MWh
Power,Intraday,Continuous,NL,ID3,H,2021-03-07T03:00:00+01:00,2021-03-07T04:00:00+01:00,41.36,EUR,21.200,MWh
Power,Intraday,Continuous,NL,ID3,H,2021-03-07T04:00:00+01:00,2021-03-07T05:00:00+01:00,46.05,EUR,166.100,MWh
Power,Intraday,Continuous,NL,ID3,H,2021-03-07T05:00:00+01:00,2021-03-07T06:00:00+01:00,45.63,EUR,127.900,MWh
Power,Intraday,Continuous,NL,ID3,H,2021-03-07T06:00:00+01:00,2021-03-07T07:00:00+01:00,46.17,EUR,69.400,MWh
Power,Intraday,Continuous,NL,ID3,H,2021-03-07T07:00:00+01:00,2021-03-07T08:00:00+01:00,41.41,EUR,22.500,MWh
Power,Intraday,Continuous,NL,ID3,H,2021-03-07T08:00:00+01:00,2021-03-07T09:00:00+01:00,44.60,EUR,199.200,MWh
Power,Intraday,Continuous,NL,ID3,H,2021-03-07T09:00:00+01:00,2021-03-07T10:00:00+01:00,66.56,EUR,47.000,MWh
Power,Intraday,Continuous,NL,ID3,H,2021-03-07T10:00:00+01:00,2021-03-07T11:00:00+01:00,69.75,EUR,285.000,MWh
Power,Intraday,Continuous,NL,ID3,H,2021-03-07T11:00:00+01:00,2021-03-07T12:00:00+01:00,53.80,EUR,445.100,MWh
Power,Intraday,Continuous,NL,ID3,H,2021-03-07T12:00:00+01:00,2021-03-07T13:00:00+01:00,46.22,EUR,377.700,MWh
Power,Intraday,Continuous,NL,ID3,H,2021-03-07T13:00:00+01:00,2021-03-07T14:00:00+01:00,42.48,EUR,339.800,MWh
Power,Intraday,Continuous,NL,ID3,H,2021-03-07T14:00:00+01:00,2021-03-07T15:00:00+01:00,29.51,EUR,1045.100,MWh
Power,Intraday,Continuous,NL,ID3,H,2021-03-07T15:00:00+01:00,2021-03-07T16:00:00+01:00,35.03,EUR,482.100,MWh
Power,Intraday,Continuous,NL,ID3,H,2021-03-07T16:00:00+01:00,2021-03-07T17:00:00+01:00,36.04,EUR,731.400,MWh
Power,Intraday,Continuous,NL,ID3,H,2021-03-07T17:00:00+01:00,2021-03-07T18:00:00+01:00,42.00,EUR,659.100,MWh
Power,Intraday,Continuous,NL,ID3,H,2021-03-07T18:00:00+01:00,2021-03-07T19:00:00+01:00,50.64,EUR,685.900,MWh
Power,Intraday,Continuous,NL,ID3,H,2021-03-07T19:00:00+01:00,2021-03-07T20:00:00+01:00,51.80,EUR,539.400,MWh
Power,Intraday,Continuous,NL,ID3,H,2021-03-07T20:00:00+01:00,2021-03-07T21:00:00+01:00,50.98,EUR,445.200,MWh
Power,Intraday,Continuous,NL,ID3,H,2021-03-07T21:00:00+01:00,2021-03-07T22:00:00+01:00,48.90,EUR,309.100,MWh
Power,Intraday,Continuous,NL,ID3,H,2021-03-07T22:00:00+01:00,2021-03-07T23:00:00+01:00,49.54,EUR,428.500,MWh
Power,Intraday,Continuous,NL,ID3,H,2021-03-07T23:00:00+01:00,2021-03-08T00:00:00+01:00,46.39,EUR,309.300,MWh
Power,Intraday,Continuous,NL,IDFULL,HH,2021-03-07T00:00:00+01:00,2021-03-07T00:30:00+01:00,46.61,EUR,,MWh
Power,Intraday,Continuous,NL,IDFULL,HH,2021-03-07T00:30:00+01:00,2021-03-07T01:00:00+01:00,46.61,EUR,,MWh
Power,Intraday,Continuous,NL,IDFULL,HH,2021-03-07T01:00:00+01:00,2021-03-07T01:30:00+01:00,44.93,EUR,,MWh
Power,Intraday,Continuous,NL,IDFULL,HH,2021-03-07T01:30:00+01:00,2021-03-07T02:00:00+01:00,44.93,EUR,,MWh
Power,Intraday,Continuous,NL,IDFULL,HH,2021-03-07T02:00:00+01:00,2021-03-07T02:30:00+01:00,43.60,EUR,,MWh
Power,Intraday,Continuous,NL,IDFULL,HH,2021-03-07T02:30:00+01:00,2021-03-07T03:00:00+01:00,43.60,EUR,,MWh
Power,Intraday,Continuous,NL,IDFULL,HH,2021-03-07T03:00:00+01:00,2021-03-07T03:30:00+01:00,42.55,EUR,,MWh
Power,Intraday,Continuous,NL,IDFULL,HH,2021-03-07T03:30:00+01:00,2021-03-07T04:00:00+01:00,42.55,EUR,,MWh
Power,Intraday,Continuous,NL,IDFULL,HH,2021-03-07T04:00:00+01:00,2021-03-07T04:30:00+01:00,44.07,EUR,,MWh
Power,Intraday,Continuous,NL,IDFULL,HH,2021-03-07T04:30:00+01:00,2021-03-07T05:00:00+01:00,44.07,EUR,,MWh
Power,Intraday,Continuous,NL,IDFULL,HH,2021-03-07T05:00:00+01:00,2021-03-07T05:30:00+01:00,42.71,EUR,,MWh
Power,Intraday,Continuous,NL,IDFULL,HH,2021-03-07T05:30:00+01:00,2021-03-07T06:00:00+01:00,42.71,EUR,,MWh
Power,Intraday,Continuous,NL,IDFULL,HH,2021-03-07T06:00:00+01:00,2021-03-07T06:30:00+01:00,45.01,EUR,,MWh
Power,Intraday,Continuous,NL,IDFULL,HH,2021-03-07T06:30:00+01:00,2021-03-07T07:00:00+01:00,45.01,EUR,,MWh
Power,Intraday,Continuous,NL,IDFULL,HH,2021-03-07T07:00:00+01:00,2021-03-07T07:30:00+01:00,40.32,EUR,,MWh
Power,Intraday,Continuous,NL,IDFULL,HH,2021-03-07T07:30:00+01:00,2021-03-07T08:00:00+01:00,40.32,EUR,,MWh
Power,Intraday,Continuous,NL,IDFULL,HH,2021-03-07T08:00:00+01:00,2021-03-07T08:30:00+01:00,42.32,EUR,,MWh
Power,Intraday,Continuous,NL,IDFULL,HH,2021-03-07T08:30:00+01:00,2021-03-07T09:00:00+01:00,42.32,EUR,,MWh
Power,Intraday,Continuous,NL,IDFULL,HH,2021-03-07T09:00:00+01:00,2021-03-07T09:30:00+01:00,62.48,EUR,,MWh
Power,Intraday,Continuous,NL,IDFULL,HH,2021-03-07T09:30:00+01:00,2021-03-07T10:00:00+01:00,62.48,EUR,,MWh
Power,Intraday,Continuous,NL,IDFULL,HH,2021-03-07T10:00:00+01:00,2021-03-07T10:30:00+01:00,64.43,EUR,,MWh
Power,Intraday,Continuous,NL,IDFULL,HH,2021-03-07T10:30:00+01:00,2021-03-07T11:00:00+01:00,64.43,EUR,,MWh
Power,Intraday,Continuous,NL,IDFULL,HH,2021-03-07T11:00:00+01:00,2021-03-07T11:30:00+01:00,48.71,EUR,,MWh
Power,Intraday,Continuous,NL,IDFULL,HH,2021-03-07T11:30:00+01:00,2021-03-07T12:00:00+01:00,48.71,EUR,,MWh
Power,Intraday,Continuous,NL,IDFULL,HH,2021-03-07T12:00:00+01:00,2021-03-07T12:30:00+01:00,46.95,EUR,,MWh
Power,Intraday,Continuous,NL,IDFULL,HH,2021-03-07T12:30:00+01:00,2021-03-07T13:00:00+01:00,46.95,EUR,,MWh
Power,Intraday,Continuous,NL,IDFULL,HH,2021-03-07T13:00:00+01:00,2021-03-07T13:30:00+01:00,44.60,EUR,,MWh
Power,Intraday,Continuous,NL,IDFULL,HH,2021-03-07T13:30:00+01:00,2021-03-07T14:00:00+01:00,44.60,EUR,,MWh
Power,Intraday,Continuous,NL,IDFULL,HH,2021-03-07T14:00:00+01:00,2021-03-07T14:30:00+01:00,30.35,EUR,,MWh
Power,Intraday,Continuous,NL,IDFULL,HH,2021-03-07T14:30:00+01:00,2021-03-07T15:00:00+01:00,30.35,EUR,,MWh
Power,Intraday,Continuous,NL,IDFULL,HH,2021-03-07T15:00:00+01:00,2021-03-07T15:30:00+01:00,36.02,EUR,,MWh
Power,Intraday,Continuous,NL,IDFULL,HH,2021-03-07T15:30:00+01:00,2021-03-07T16:00:00+01:00,36.02,EUR,,MWh
Power,Intraday,Continuous,NL,IDFULL,HH,2021-03-07T16:00:00+01:00,2021-03-07T16:30:00+01:00,24.36,EUR,,MWh
Power,Intraday,Continuous,NL,IDFULL,HH,2021-03-07T16:30:00+01:00,2021-03-07T17:00:00+01:00,48.00,EUR,7.850,MWh
Power,Intraday,Continuous,NL,IDFULL,HH,2021-03-07T17:00:00+01:00,2021-03-07T17:30:00+01:00,42.09,EUR,,MWh
Power,Intraday,Continuous,NL,IDFULL,HH,2021-03-07T17:30:00+01:00,2021-03-07T18:00:00+01:00,42.09,EUR,,MWh
Power,Intraday,Continuous,NL,IDFULL,HH,2021-03-07T18:00:00+01:00,2021-03-07T18:30:00+01:00,50.99,EUR,,MWh
Power,Intraday,Continuous,NL,IDFULL,HH,2021-03-07T18:30:00+01:00,2021-03-07T19:00:00+01:00,50.99,EUR,,MWh
Power,Intraday,Continuous,NL,IDFULL,HH,2021-03-07T19:00:00+01:00,2021-03-07T19:30:00+01:00,52.67,EUR,,MWh
Power,Intraday,Continuous,NL,IDFULL,HH,2021-03-07T19:30:00+01:00,2021-03-07T20:00:00+01:00,52.67,EUR,,MWh
Power,Intraday,Continuous,NL,IDFULL,HH,2021-03-07T20:00:00+01:00,2021-03-07T20:30:00+01:00,50.94,EUR,,MWh
Power,Intraday,Continuous,NL,IDFULL,HH,2021-03-07T20:30:00+01:00,2021-03-07T21:00:00+01:00,50.94,EUR,,MWh
Power,Intraday,Continuous,NL,IDFULL,HH,2021-03-07T21:00:00+01:00,2021-03-07T21:30:00+01:00,49.76,EUR,,MWh
Power,Intraday,Continuous,NL,IDFULL,HH,2021-03-07T21:30:00+01:00,2021-03-07T22:00:00+01:00,49.76,EUR,,MWh
Power,Intraday,Continuous,NL,IDFULL,HH,2021-03-07T22:00:00+01:00,2021-03-07T22:30:00+01:00,49.75,EUR,,MWh
Power,Intraday,Continuous,NL,IDFULL,HH,2021-03-07T22:30:00+01:00,2021-03-07T23:00:00+01:00,49.75,EUR,,MWh
Power,Intraday,Continuous,NL,IDFULL,HH,2021-03-07T23:00:00+01:00,2021-03-07T23:30:00+01:00,46.72,EUR,,MWh
Power,Intraday,Continuous,NL,IDFULL,HH,2021-03-07T23:30:00+01:00,2021-03-08T00:00:00+01:00,46.72,EUR,,MWh
Power,Intraday,Continuous,NL,ID1,HH,2021-03-07T00:00:00+01:00,2021-03-07T00:30:00+01:00,46.61,EUR,,MWh
Power,Intraday,Continuous,NL,ID1,HH,2021-03-07T00:30:00+01:00,2021-03-07T01:00:00+01:00,46.61,EUR,,MWh
Power,Intraday,Continuous,NL,ID1,HH,2021-03-07T01:00:00+01:00,2021-03-07T01:30:00+01:00,44.93,EUR,,MWh
Power,Intraday,Continuous,NL,ID1,HH,2021-03-07T01:30:00+01:00,2021-03-07T02:00:00+01:00,44.93,EUR,,MWh
Power,Intraday,Continuous,NL,ID1,HH,2021-03-07T02:00:00+01:00,2021-03-07T02:30:00+01:00,43.60,EUR,,MWh
Power,Intraday,Continuous,NL,ID1,HH,2021-03-07T02:30:00+01:00,2021-03-07T03:00:00+01:00,43.60,EUR,,MWh
Power,Intraday,Continuous,NL,ID1,HH,2021-03-07T03:00:00+01:00,2021-03-07T03:30:00+01:00,42.55,EUR,,MWh
Power,Intraday,Continuous,NL,ID1,HH,2021-03-07T03:30:00+01:00,2021-03-07T04:00:00+01:00,42.55,EUR,,MWh
Power,Intraday,Continuous,NL,ID1,HH,2021-03-07T04:00:00+01:00,2021-03-07T04:30:00+01:00,44.07,EUR,,MWh
Power,Intraday,Continuous,NL,ID1,HH,2021-03-07T04:30:00+01:00,2021-03-07T05:00:00+01:00,44.07,EUR,,MWh
Power,Intraday,Continuous,NL,ID1,HH,2021-03-07T05:00:00+01:00,2021-03-07T05:30:00+01:00,42.71,EUR,,MWh
Power,Intraday,Continuous,NL,ID1,HH,2021-03-07T05:30:00+01:00,2021-03-07T06:00:00+01:00,42.71,EUR,,MWh
Power,Intraday,Continuous,NL,ID1,HH,2021-03-07T06:00:00+01:00,2021-03-07T06:30:00+01:00,45.01,EUR,,MWh
Power,Intraday,Continuous,NL,ID1,HH,2021-03-07T06:30:00+01:00,2021-03-07T07:00:00+01:00,45.01,EUR,,MWh
Power,Intraday,Continuous,NL,ID1,HH,2021-03-07T07:00:00+01:00,2021-03-07T07:30:00+01:00,40.32,EUR,,MWh
Power,Intraday,Continuous,NL,ID1,HH,2021-03-07T07:30:00+01:00,2021-03-07T08:00:00+01:00,40.32,EUR,,MWh
Power,Intraday,Continuous,NL,ID1,HH,2021-03-07T08:00:00+01:00,2021-03-07T08:30:00+01:00,42.32,EUR,,MWh
Power,Intraday,Continuous,NL,ID1,HH,2021-03-07T08:30:00+01:00,2021-03-07T09:00:00+01:00,42.32,EUR,,MWh
Power,Intraday,Continuous,NL,ID1,HH,2021-03-07T09:00:00+01:00,2021-03-07T09:30:00+01:00,62.48,EUR,,MWh
Power,Intraday,Continuous,NL,ID1,HH,2021-03-07T09:30:00+01:00,2021-03-07T10:00:00+01:00,62.48,EUR,,MWh
Power,Intraday,Continuous,NL,ID1,HH,2021-03-07T10:00:00+01:00,2021-03-07T10:30:00+01:00,64.43,EUR,,MWh
Power,Intraday,Continuous,NL,ID1,HH,2021-03-07T10:30:00+01:00,2021-03-07T11:00:00+01:00,64.43,EUR,,MWh
Power,Intraday,Continuous,NL,ID1,HH,2021-03-07T11:00:00+01:00,2021-03-07T11:30:00+01:00,48.71,EUR,,MWh
Power,Intraday,Continuous,NL,ID1,HH,2021-03-07T11:30:00+01:00,2021-03-07T12:00:00+01:00,48.71,EUR,,MWh
Power,Intraday,Continuous,NL,ID1,HH,2021-03-07T12:00:00+01:00,2021-03-07T12:30:00+01:00,46.95,EUR,,MWh
Power,Intraday,Continuous,NL,ID1,HH,2021-03-07T12:30:00+01:00,2021-03-07T13:00:00+01:00,46.95,EUR,,MWh
Power,Intraday,Continuous,NL,ID1,HH,2021-03-07T13:00:00+01:00,2021-03-07T13:30:00+01:00,44.60,EUR,,MWh
Power,Intraday,Continuous,NL,ID1,HH,2021-03-07T13:30:00+01:00,2021-03-07T14:00:00+01:00,44.60,EUR,,MWh
Power,Intraday,Continuous,NL,ID1,HH,2021-03-07T14:00:00+01:00,2021-03-07T14:30:00+01:00,30.35,EUR,,MWh
Power,Intraday,Continuous,NL,ID1,HH,2021-03-07T14:30:00+01:00,2021-03-07T15:00:00+01:00,30.35,EUR,,MWh
Power,Intraday,Continuous,NL,ID1,HH,2021-03-07T15:00:00+01:00,2021-03-07T15:30:00+01:00,36.02,EUR,,MWh
Power,Intraday,Continuous,NL,ID1,HH,2021-03-07T15:30:00+01:00,2021-03-07T16:00:00+01:00,36.02,EUR,,MWh
Power,Intraday,Continuous,NL,ID1,HH,2021-03-07T16:00:00+01:00,2021-03-07T16:30:00+01:00,24.36,EUR,,MWh
Power,Intraday,Continuous,NL,ID1,HH,2021-03-07T16:30:00+01:00,2021-03-07T17:00:00+01:00,48.00,EUR,,MWh
Power,Intraday,Continuous,NL,ID1,HH,2021-03-07T17:00:00+01:00,2021-03-07T17:30:00+01:00,42.09,EUR,,MWh
Power,Intraday,Continuous,NL,ID1,HH,2021-03-07T17:30:00+01:00,2021-03-07T18:00:00+01:00,42.09,EUR,,MWh
Power,Intraday,Continuous,NL,ID1,HH,2021-03-07T18:00:00+01:00,2021-03-07T18:30:00+01:00,50.99,EUR,,MWh
Power,Intraday,Continuous,NL,ID1,HH,2021-03-07T18:30:00+01:00,2021-03-07T19:00:00+01:00,50.99,EUR,,MWh
Power,Intraday,Continuous,NL,ID1,HH,2021-03-07T19:00:00+01:00,2021-03-07T19:30:00+01:00,52.67,EUR,,MWh
Power,Intraday,Continuous,NL,ID1,HH,2021-03-07T19:30:00+01:00,2021-03-07T20:00:00+01:00,52.67,EUR,,MWh
Power,Intraday,Continuous,NL,ID1,HH,2021-03-07T20:00:00+01:00,2021-03-07T20:30:00+01:00,50.94,EUR,,MWh
Power,Intraday,Continuous,NL,ID1,HH,2021-03-07T20:30:00+01:00,2021-03-07T21:00:00+01:00,50.94,EUR,,MWh
Power,Intraday,Continuous,NL,ID1,HH,2021-03-07T21:00:00+01:00,2021-03-07T21:30:00+01:00,49.76,EUR,,MWh
Power,Intraday,Continuous,NL,ID1,HH,2021-03-07T21:30:00+01:00,2021-03-07T22:00:00+01:00,49.76,EUR,,MWh
Power,Intraday,Continuous,NL,ID1,HH,2021-03-07T22:00:00+01:00,2021-03-07T22:30:00+01:00,49.75,EUR,,MWh
Power,Intraday,Continuous,NL,ID1,HH,2021-03-07T22:30:00+01:00,2021-03-07T23:00:00+01:00,49.75,EUR,,MWh
Power,Intraday,Continuous,NL,ID1,HH,2021-03-07T23:00:00+01:00,2021-03-07T23:30:00+01:00,46.72,EUR,,MWh
Power,Intraday,Continuous,NL,ID1,HH,2021-03-07T23:30:00+01:00,2021-03-08T00:00:00+01:00,46.72,EUR,,MWh
Power,Intraday,Continuous,NL,ID3,HH,2021-03-07T00:00:00+01:00,2021-03-07T00:30:00+01:00,46.61,EUR,,MWh
Power,Intraday,Continuous,NL,ID3,HH,2021-03-07T00:30:00+01:00,2021-03-07T01:00:00+01:00,46.61,EUR,,MWh
Power,Intraday,Continuous,NL,ID3,HH,2021-03-07T01:00:00+01:00,2021-03-07T01:30:00+01:00,44.93,EUR,,MWh
Power,Intraday,Continuous,NL,ID3,HH,2021-03-07T01:30:00+01:00,2021-03-07T02:00:00+01:00,44.93,EUR,,MWh
Power,Intraday,Continuous,NL,ID3,HH,2021-03-07T02:00:00+01:00,2021-03-07T02:30:00+01:00,43.60,EUR,,MWh
Power,Intraday,Continuous,NL,ID3,HH,2021-03-07T02:30:00+01:00,2021-03-07T03:00:00+01:00,43.60,EUR,,MWh
Power,Intraday,Continuous,NL,ID3,HH,2021-03-07T03:00:00+01:00,2021-03-07T03:30:00+01:00,42.55,EUR,,MWh
Power,Intraday,Continuous,NL,ID3,HH,2021-03-07T03:30:00+01:00,2021-03-07T04:00:00+01:00,42.55,EUR,,MWh
Power,Intraday,Continuous,NL,ID3,HH,2021-03-07T04:00:00+01:00,2021-03-07T04:30:00+01:00,44.07,EUR,,MWh
Power,Intraday,Continuous,NL,ID3,HH,2021-03-07T04:30:00+01:00,2021-03-07T05:00:00+01:00,44.07,EUR,,MWh
Power,Intraday,Continuous,NL,ID3,HH,2021-03-07T05:00:00+01:00,2021-03-07T05:30:00+01:00,42.71,EUR,,MWh
Power,Intraday,Continuous,NL,ID3,HH,2021-03-07T05:30:00+01:00,2021-03-07T06:00:00+01:00,42.71,EUR,,MWh
Power,Intraday,Continuous,NL,ID3,HH,2021-03-07T06:00:00+01:00,2021-03-07T06:30:00+01:00,45.01,EUR,,MWh
Power,Intraday,Continuous,NL,ID3,HH,2021-03-07T06:30:00+01:00,2021-03-07T07:00:00+01:00,45.01,EUR,,MWh
Power,Intraday,Continuous,NL,ID3,HH,2021-03-07T07:00:00+01:00,2021-03-07T07:30:00+01:00,40.32,EUR,,MWh
Power,Intraday,Continuous,NL,ID3,HH,2021-03-07T07:30:00+01:00,2021-03-07T08:00:00+01:00,40.32,EUR,,MWh
Power,Intraday,Continuous,NL,ID3,HH,2021-03-07T08:00:00+01:00,2021-03-07T08:30:00+01:00,42.32,EUR,,MWh
Power,Intraday,Continuous,NL,ID3,HH,2021-03-07T08:30:00+01:00,2021-03-07T09:00:00+01:00,42.32,EUR,,MWh
Power,Intraday,Continuous,NL,ID3,HH,2021-03-07T09:00:00+01:00,2021-03-07T09:30:00+01:00,62.48,EUR,,MWh
Power,Intraday,Continuous,NL,ID3,HH,2021-03-07T09:30:00+01:00,2021-03-07T10:00:00+01:00,62.48,EUR,,MWh
Power,Intraday,Continuous,NL,ID3,HH,2021-03-07T10:00:00+01:00,2021-03-07T10:30:00+01:00,64.43,EUR,,MWh
Power,Intraday,Continuous,NL,ID3,HH,2021-03-07T10:30:00+01:00,2021-03-07T11:00:00+01:00,64.43,EUR,,MWh
Power,Intraday,Continuous,NL,ID3,HH,2021-03-07T11:00:00+01:00,2021-03-07T11:30:00+01:00,48.71,EUR,,MWh
Power,Intraday,Continuous,NL,ID3,HH,2021-03-07T11:30:00+01:00,2021-03-07T12:00:00+01:00,48.71,EUR,,MWh
Power,Intraday,Continuous,NL,ID3,HH,2021-03-07T12:00:00+01:00,2021-03-07T12:30:00+01:00,46.95,EUR,,MWh
Power,Intraday,Continuous,NL,ID3,HH,2021-03-07T12:30:00+01:00,2021-03-07T13:00:00+01:00,46.95,EUR,,MWh
Power,Intraday,Continuous,NL,ID3,HH,2021-03-07T13:00:00+01:00,2021-03-07T13:30:00+01:00,44.60,EUR,,MWh
Power,Intraday,Continuous,NL,ID3,HH,2021-03-07T13:30:00+01:00,2021-03-07T14:00:00+01:00,44.60,EUR,,MWh
Power,Intraday,Continuous,NL,ID3,HH,2021-03-07T14:00:00+01:00,2021-03-07T14:30:00+01:00,30.35,EUR,,MWh
Power,Intraday,Continuous,NL,ID3,HH,2021-03-07T14:30:00+01:00,2021-03-07T15:00:00+01:00,30.35,EUR,,MWh
Power,Intraday,Continuous,NL,ID3,HH,2021-03-07T15:00:00+01:00,2021-03-07T15:30:00+01:00,36.02,EUR,,MWh
Power,Intraday,Continuous,NL,ID3,HH,2021-03-07T15:30:00+01:00,2021-03-07T16:00:00+01:00,36.02,EUR,,MWh
Power,Intraday,Continuous,NL,ID3,HH,2021-03-07T16:00:00+01:00,2021-03-07T16:30:00+01:00,24.36,EUR,,MWh
Power,Intraday,Continuous,NL,ID3,HH,2021-03-07T16:30:00+01:00,2021-03-07T17:00:00+01:00,48.00,EUR,,MWh
Power,Intraday,Continuous,NL,ID3,HH,2021-03-07T17:00:00+01:00,2021-03-07T17:30:00+01:00,42.09,EUR,,MWh
Power,Intraday,Continuous,NL,ID3,HH,2021-03-07T17:30:00+01:00,2021-03-07T18:00:00+01:00,42.09,EUR,,MWh
Power,Intraday,Continuous,NL,ID3,HH,2021-03-07T18:00:00+01:00,2021-03-07T18:30:00+01:00,50.99,EUR,,MWh
Power,Intraday,Continuous,NL,ID3,HH,2021-03-07T18:30:00+01:00,2021-03-07T19:00:00+01:00,50.99,EUR,,MWh
Power,Intraday,Continuous,NL,ID3,HH,2021-03-07T19:00:00+01:00,2021-03-07T19:30:00+01:00,52.67,EUR,,MWh
Power,Intraday,Continuous,NL,ID3,HH,2021-03-07T19:30:00+01:00,2021-03-07T20:00:00+01:00,52.67,EUR,,MWh
Power,Intraday,Continuous,NL,ID3,HH,2021-03-07T20:00:00+01:00,2021-03-07T20:30:00+01:00,50.94,EUR,,MWh
Power,Intraday,Continuous,NL,ID3,HH,2021-03-07T20:30:00+01:00,2021-03-07T21:00:00+01:00,50.94,EUR,,MWh
Power,Intraday,Continuous,NL,ID3,HH,2021-03-07T21:00:00+01:00,2021-03-07T21:30:00+01:00,49.76,EUR,,MWh
Power,Intraday,Continuous,NL,ID3,HH,2021-03-07T21:30:00+01:00,2021-03-07T22:00:00+01:00,49.76,EUR,,MWh
Power,Intraday,Continuous,NL,ID3,HH,2021-03-07T22:00:00+01:00,2021-03-07T22:30:00+01:00,49.75,EUR,,MWh
Power,Intraday,Continuous,NL,ID3,HH,2021-03-07T22:30:00+01:00,2021-03-07T23:00:00+01:00,49.75,EUR,,MWh
Power,Intraday,Continuous,NL,ID3,HH,2021-03-07T23:00:00+01:00,2021-03-07T23:30:00+01:00,46.72,EUR,,MWh
Power,Intraday,Continuous,NL,ID3,HH,2021-03-07T23:30:00+01:00,2021-03-08T00:00:00+01:00,46.72,EUR,,MWh
Power,Intraday,Continuous,NL,IDFULL,QH,2021-03-07T00:00:00+01:00,2021-03-07T00:15:00+01:00,52.12,EUR,14.300,MWh
Power,Intraday,Continuous,NL,IDFULL,QH,2021-03-07T00:15:00+01:00,2021-03-07T00:30:00+01:00,48.55,EUR,11.250,MWh
Power,Intraday,Continuous,NL,IDFULL,QH,2021-03-07T00:30:00+01:00,2021-03-07T00:45:00+01:00,46.31,EUR,11.130,MWh
Power,Intraday,Continuous,NL,IDFULL,QH,2021-03-07T00:45:00+01:00,2021-03-07T01:00:00+01:00,40.57,EUR,7.280,MWh
Power,Intraday,Continuous,NL,IDFULL,QH,2021-03-07T01:00:00+01:00,2021-03-07T01:15:00+01:00,50.39,EUR,8.550,MWh
Power,Intraday,Continuous,NL,IDFULL,QH,2021-03-07T01:15:00+01:00,2021-03-07T01:30:00+01:00,47.87,EUR,5.900,MWh
Power,Intraday,Continuous,NL,IDFULL,QH,2021-03-07T01:30:00+01:00,2021-03-07T01:45:00+01:00,43.16,EUR,7.600,MWh
Power,Intraday,Continuous,NL,IDFULL,QH,2021-03-07T01:45:00+01:00,2021-03-07T02:00:00+01:00,39.84,EUR,6.780,MWh
Power,Intraday,Continuous,NL,IDFULL,QH,2021-03-07T02:00:00+01:00,2021-03-07T02:15:00+01:00,44.58,EUR,3.680,MWh
Power,Intraday,Continuous,NL,IDFULL,QH,2021-03-07T02:15:00+01:00,2021-03-07T02:30:00+01:00,46.49,EUR,4.550,MWh
Power,Intraday,Continuous,NL,IDFULL,QH,2021-03-07T02:30:00+01:00,2021-03-07T02:45:00+01:00,39.54,EUR,4.180,MWh
Power,Intraday,Continuous,NL,IDFULL,QH,2021-03-07T02:45:00+01:00,2021-03-07T03:00:00+01:00,38.06,EUR,4.380,MWh
Power,Intraday,Continuous,NL,IDFULL,QH,2021-03-07T03:00:00+01:00,2021-03-07T03:15:00+01:00,45.80,EUR,5.930,MWh
Power,Intraday,Continuous,NL,IDFULL,QH,2021-03-07T03:15:00+01:00,2021-03-07T03:30:00+01:00,44.06,EUR,4.300,MWh
Power,Intraday,Continuous,NL,IDFULL,QH,2021-03-07T03:30:00+01:00,2021-03-07T03:45:00+01:00,43.03,EUR,3.800,MWh
Power,Intraday,Continuous,NL,IDFULL,QH,2021-03-07T03:45:00+01:00,2021-03-07T04:00:00+01:00,43.42,EUR,5.730,MWh
Power,Intraday,Continuous,NL,IDFULL,QH,2021-03-07T04:00:00+01:00,2021-03-07T04:15:00+01:00,42.33,EUR,7.500,MWh
Power,Intraday,Continuous,NL,IDFULL,QH,2021-03-07T04:15:00+01:00,2021-03-07T04:30:00+01:00,38.75,EUR,4.800,MWh
Power,Intraday,Continuous,NL,IDFULL,QH,2021-03-07T04:30:00+01:00,2021-03-07T04:45:00+01:00,44.56,EUR,4.980,MWh
Power,Intraday,Continuous,NL,IDFULL,QH,2021-03-07T04:45:00+01:00,2021-03-07T05:00:00+01:00,47.52,EUR,4.480,MWh
Power,Intraday,Continuous,NL,IDFULL,QH,2021-03-07T05:00:00+01:00,2021-03-07T05:15:00+01:00,42.54,EUR,8.030,MWh
Power,Intraday,Continuous,NL,IDFULL,QH,2021-03-07T05:15:00+01:00,2021-03-07T05:30:00+01:00,40.68,EUR,5.630,MWh
Power,Intraday,Continuous,NL,IDFULL,QH,2021-03-07T05:30:00+01:00,2021-03-07T05:45:00+01:00,41.76,EUR,3.350,MWh
Power,Intraday,Continuous,NL,IDFULL,QH,2021-03-07T05:45:00+01:00,2021-03-07T06:00:00+01:00,42.71,EUR,7.130,MWh
Power,Intraday,Continuous,NL,IDFULL,QH,2021-03-07T06:00:00+01:00,2021-03-07T06:15:00+01:00,39.36,EUR,9.000,MWh
Power,Intraday,Continuous,NL,IDFULL,QH,2021-03-07T06:15:00+01:00,2021-03-07T06:30:00+01:00,46.25,EUR,8.230,MWh
Power,Intraday,Continuous,NL,IDFULL,QH,2021-03-07T06:30:00+01:00,2021-03-07T06:45:00+01:00,46.90,EUR,5.250,MWh
Power,Intraday,Continuous,NL,IDFULL,QH,2021-03-07T06:45:00+01:00,2021-03-07T07:00:00+01:00,43.70,EUR,11.150,MWh
Power,Intraday,Continuous,NL,IDFULL,QH,2021-03-07T07:00:00+01:00,2021-03-07T07:15:00+01:00,42.95,EUR,8.530,MWh
Power,Intraday,Continuous,NL,IDFULL,QH,2021-03-07T07:15:00+01:00,2021-03-07T07:30:00+01:00,42.10,EUR,6.880,MWh
Power,Intraday,Continuous,NL,IDFULL,QH,2021-03-07T07:30:00+01:00,2021-03-07T07:45:00+01:00,37.57,EUR,5.950,MWh
Power,Intraday,Continuous,NL,IDFULL,QH,2021-03-07T07:45:00+01:00,2021-03-07T08:00:00+01:00,38.93,EUR,5.250,MWh
Power,Intraday,Continuous,NL,IDFULL,QH,2021-03-07T08:00:00+01:00,2021-03-07T08:15:00+01:00,41.24,EUR,7.350,MWh
Power,Intraday,Continuous,NL,IDFULL,QH,2021-03-07T08:15:00+01:00,2021-03-07T08:30:00+01:00,39.79,EUR,6.600,MWh
Power,Intraday,Continuous,NL,IDFULL,QH,2021-03-07T08:30:00+01:00,2021-03-07T08:45:00+01:00,34.80,EUR,4.050,MWh
Power,Intraday,Continuous,NL,IDFULL,QH,2021-03-07T08:45:00+01:00,2021-03-07T09:00:00+01:00,31.31,EUR,2.850,MWh
Power,Intraday,Continuous,NL,IDFULL,QH,2021-03-07T09:00:00+01:00,2021-03-07T09:15:00+01:00,62.48,EUR,,MWh
Power,Intraday,Continuous,NL,IDFULL,QH,2021-03-07T09:15:00+01:00,2021-03-07T09:30:00+01:00,62.48,EUR,,MWh
Power,Intraday,Continuous,NL,IDFULL,QH,2021-03-07T09:30:00+01:00,2021-03-07T09:45:00+01:00,62.48,EUR,,MWh
Power,Intraday,Continuous,NL,IDFULL,QH,2021-03-07T09:45:00+01:00,2021-03-07T10:00:00+01:00,62.48,EUR,,MWh
Power,Intraday,Continuous,NL,IDFULL,QH,2021-03-07T10:00:00+01:00,2021-03-07T10:15:00+01:00,64.43,EUR,,MWh
Power,Intraday,Continuous,NL,IDFULL,QH,2021-03-07T10:15:00+01:00,2021-03-07T10:30:00+01:00,64.43,EUR,,MWh
Power,Intraday,Continuous,NL,IDFULL,QH,2021-03-07T10:30:00+01:00,2021-03-07T10:45:00+01:00,64.43,EUR,,MWh
Power,Intraday,Continuous,NL,IDFULL,QH,2021-03-07T10:45:00+01:00,2021-03-07T11:00:00+01:00,64.43,EUR,,MWh
Power,Intraday,Continuous,NL,IDFULL,QH,2021-03-07T11:00:00+01:00,2021-03-07T11:15:00+01:00,55.85,EUR,,MWh
Power,Intraday,Continuous,NL,IDFULL,QH,2021-03-07T11:15:00+01:00,2021-03-07T11:30:00+01:00,55.85,EUR,,MWh
Power,Intraday,Continuous,NL,IDFULL,QH,2021-03-07T11:30:00+01:00,2021-03-07T11:45:00+01:00,44.29,EUR,6.350,MWh
Power,Intraday,Continuous,NL,IDFULL,QH,2021-03-07T11:45:00+01:00,2021-03-07T12:00:00+01:00,38.86,EUR,22.200,MWh
Power,Intraday,Continuous,NL,IDFULL,QH,2021-03-07T12:00:00+01:00,2021-03-07T12:15:00+01:00,46.95,EUR,,MWh
Power,Intraday,Continuous,NL,IDFULL,QH,2021-03-07T12:15:00+01:00,2021-03-07T12:30:00+01:00,46.95,EUR,,MWh
Power,Intraday,Continuous,NL,IDFULL,QH,2021-03-07T12:30:00+01:00,2021-03-07T12:45:00+01:00,46.95,EUR,,MWh
Power,Intraday,Continuous,NL,IDFULL,QH,2021-03-07T12:45:00+01:00,2021-03-07T13:00:00+01:00,46.95,EUR,,MWh
Power,Intraday,Continuous,NL,IDFULL,QH,2021-03-07T13:00:00+01:00,2021-03-07T13:15:00+01:00,33.52,EUR,11.980,MWh
Power,Intraday,Continuous,NL,IDFULL,QH,2021-03-07T13:15:00+01:00,2021-03-07T13:30:00+01:00,32.47,EUR,16.800,MWh
Power,Intraday,Continuous,NL,IDFULL,QH,2021-03-07T13:30:00+01:00,2021-03-07T13:45:00+01:00,34.43,EUR,2.630,MWh
Power,Intraday,Continuous,NL,IDFULL,QH,2021-03-07T13:45:00+01:00,2021-03-07T14:00:00+01:00,37.27,EUR,2.780,MWh
Power,Intraday,Continuous,NL,IDFULL,QH,2021-03-07T14:00:00+01:00,2021-03-07T14:15:00+01:00,5.59,EUR,17.950,MWh
Power,Intraday,Continuous,NL,IDFULL,QH,2021-03-07T14:15:00+01:00,2021-03-07T14:30:00+01:00,32.85,EUR,7.750,MWh
Power,Intraday,Continuous,NL,IDFULL,QH,2021-03-07T14:30:00+01:00,2021-03-07T14:45:00+01:00,36.34,EUR,14.880,MWh
Power,Intraday,Continuous,NL,IDFULL,QH,2021-03-07T14:45:00+01:00,2021-03-07T15:00:00+01:00,45.21,EUR,22.480,MWh
Power,Intraday,Continuous,NL,IDFULL,QH,2021-03-07T15:00:00+01:00,2021-03-07T15:15:00+01:00,14.61,EUR,3.050,MWh
Power,Intraday,Continuous,NL,IDFULL,QH,2021-03-07T15:15:00+01:00,2021-03-07T15:30:00+01:00,33.50,EUR,3.850,MWh
Power,Intraday,Continuous,NL,IDFULL,QH,2021-03-07T15:30:00+01:00,2021-03-07T15:45:00+01:00,53.24,EUR,4.830,MWh
Power,Intraday,Continuous,NL,IDFULL,QH,2021-03-07T15:45:00+01:00,2021-03-07T16:00:00+01:00,42.73,EUR,,MWh
Power,Intraday,Continuous,NL,IDFULL,QH,2021-03-07T16:00:00+01:00,2021-03-07T16:15:00+01:00,20.20,EUR,18.850,MWh
Power,Intraday,Continuous,NL,IDFULL,QH,2021-03-07T16:15:00+01:00,2021-03-07T16:30:00+01:00,35.95,EUR,47.200,MWh
Power,Intraday,Continuous,NL,IDFULL,QH,2021-03-07T16:30:00+01:00,2021-03-07T16:45:00+01:00,44.77,EUR,39.000,MWh
Power,Intraday,Continuous,NL,IDFULL,QH,2021-03-07T16:45:00+01:00,2021-03-07T17:00:00+01:00,47.72,EUR,98.630,MWh
Power,Intraday,Continuous,NL,IDFULL,QH,2021-03-07T17:00:00+01:00,2021-03-07T17:15:00+01:00,25.25,EUR,44.000,MWh
Power,Intraday,Continuous,NL,IDFULL,QH,2021-03-07T17:15:00+01:00,2021-03-07T17:30:00+01:00,38.58,EUR,28.400,MWh
Power,Intraday,Continuous,NL,IDFULL,QH,2021-03-07T17:30:00+01:00,2021-03-07T17:45:00+01:00,47.16,EUR,53.430,MWh
Power,Intraday,Continuous,NL,IDFULL,QH,2021-03-07T17:45:00+01:00,2021-03-07T18:00:00+01:00,52.57,EUR,49.630,MWh
Power,Intraday,Continuous,NL,IDFULL,QH,2021-03-07T18:00:00+01:00,2021-03-07T18:15:00+01:00,44.55,EUR,59.250,MWh
Power,Intraday,Continuous,NL,IDFULL,QH,2021-03-07T18:15:00+01:00,2021-03-07T18:30:00+01:00,47.44,EUR,35.980,MWh
Power,Intraday,Continuous,NL,IDFULL,QH,2021-03-07T18:30:00+01:00,2021-03-07T18:45:00+01:00,50.98,EUR,31.980,MWh
Power,Intraday,Continuous,NL,IDFULL,QH,2021-03-07T18:45:00+01:00,2021-03-07T19:00:00+01:00,56.07,EUR,37.680,MWh
Power,Intraday,Continuous,NL,IDFULL,QH,2021-03-07T19:00:00+01:00,2021-03-07T19:15:00+01:00,67.88,EUR,41.630,MWh
Power,Intraday,Continuous,NL,IDFULL,QH,2021-03-07T19:15:00+01:00,2021-03-07T19:30:00+01:00,53.38,EUR,20.300,MWh
Power,Intraday,Continuous,NL,IDFULL,QH,2021-03-07T19:30:00+01:00,2021-03-07T19:45:00+01:00,47.44,EUR,26.230,MWh
Power,Intraday,Continuous,NL,IDFULL,QH,2021-03-07T19:45:00+01:00,2021-03-07T20:00:00+01:00,43.14,EUR,44.400,MWh
Power,Intraday,Continuous,NL,IDFULL,QH,2021-03-07T20:00:00+01:00,2021-03-07T20:15:00+01:00,64.49,EUR,30.300,MWh
Power,Intraday,Continuous,NL,IDFULL,QH,2021-03-07T20:15:00+01:00,2021-03-07T20:30:00+01:00,55.87,EUR,5.400,MWh
Power,Intraday,Continuous,NL,IDFULL,QH,2021-03-07T20:30:00+01:00,2021-03-07T20:45:00+01:00,47.20,EUR,22.930,MWh
Power,Intraday,Continuous,NL,IDFULL,QH,2021-03-07T20:45:00+01:00,2021-03-07T21:00:00+01:00,38.31,EUR,31.480,MWh
Power,Intraday,Continuous,NL,IDFULL,QH,2021-03-07T21:00:00+01:00,2021-03-07T21:15:00+01:00,53.03,EUR,20.200,MWh
Power,Intraday,Continuous,NL,IDFULL,QH,2021-03-07T21:15:00+01:00,2021-03-07T21:30:00+01:00,50.57,EUR,8.130,MWh
Power,Intraday,Continuous,NL,IDFULL,QH,2021-03-07T21:30:00+01:00,2021-03-07T21:45:00+01:00,47.99,EUR,12.530,MWh
Power,Intraday,Continuous,NL,IDFULL,QH,2021-03-07T21:45:00+01:00,2021-03-07T22:00:00+01:00,43.80,EUR,17.650,MWh
Power,Intraday,Continuous,NL,IDFULL,QH,2021-03-07T22:00:00+01:00,2021-03-07T22:15:00+01:00,56.75,EUR,24.080,MWh
Power,Intraday,Continuous,NL,IDFULL,QH,2021-03-07T22:15:00+01:00,2021-03-07T22:30:00+01:00,54.03,EUR,10.480,MWh
Power,Intraday,Continuous,NL,IDFULL,QH,2021-03-07T22:30:00+01:00,2021-03-07T22:45:00+01:00,49.22,EUR,8.130,MWh
Power,Intraday,Continuous,NL,IDFULL,QH,2021-03-07T22:45:00+01:00,2021-03-07T23:00:00+01:00,39.87,EUR,20.450,MWh
Power,Intraday,Continuous,NL,IDFULL,QH,2021-03-07T23:00:00+01:00,2021-03-07T23:15:00+01:00,58.37,EUR,30.200,MWh
Power,Intraday,Continuous,NL,IDFULL,QH,2021-03-07T23:15:00+01:00,2021-03-07T23:30:00+01:00,51.78,EUR,9.800,MWh
Power,Intraday,Continuous,NL,IDFULL,QH,2021-03-07T23:30:00+01:00,2021-03-07T23:45:00+01:00,43.29,EUR,17.430,MWh
Power,Intraday,Continuous,NL,IDFULL,QH,2021-03-07T23:45:00+01:00,2021-03-08T00:00:00+01:00,30.50,EUR,23.030,MWh
Power,Intraday,Continuous,NL,ID1,QH,2021-03-07T00:00:00+01:00,2021-03-07T00:15:00+01:00,52.12,EUR,,MWh
Power,Intraday,Continuous,NL,ID1,QH,2021-03-07T00:15:00+01:00,2021-03-07T00:30:00+01:00,48.55,EUR,,MWh
Power,Intraday,Continuous,NL,ID1,QH,2021-03-07T00:30:00+01:00,2021-03-07T00:45:00+01:00,46.31,EUR,,MWh
Power,Intraday,Continuous,NL,ID1,QH,2021-03-07T00:45:00+01:00,2021-03-07T01:00:00+01:00,40.57,EUR,,MWh
Power,Intraday,Continuous,NL,ID1,QH,2021-03-07T01:00:00+01:00,2021-03-07T01:15:00+01:00,50.94,EUR,,MWh
Power,Intraday,Continuous,NL,ID1,QH,2021-03-07T01:15:00+01:00,2021-03-07T01:30:00+01:00,48.65,EUR,,MWh
Power,Intraday,Continuous,NL,ID1,QH,2021-03-07T01:30:00+01:00,2021-03-07T01:45:00+01:00,43.62,EUR,,MWh
Power,Intraday,Continuous,NL,ID1,QH,2021-03-07T01:45:00+01:00,2021-03-07T02:00:00+01:00,39.79,EUR,,MWh
Power,Intraday,Continuous,NL,ID1,QH,2021-03-07T02:00:00+01:00,2021-03-07T02:15:00+01:00,44.32,EUR,,MWh
Power,Intraday,Continuous,NL,ID1,QH,2021-03-07T02:15:00+01:00,2021-03-07T02:30:00+01:00,46.40,EUR,,MWh
Power,Intraday,Continuous,NL,ID1,QH,2021-03-07T02:30:00+01:00,2021-03-07T02:45:00+01:00,39.11,EUR,,MWh
Power,Intraday,Continuous,NL,ID1,QH,2021-03-07T02:45:00+01:00,2021-03-07T03:00:00+01:00,37.74,EUR,,MWh
Power,Intraday,Continuous,NL,ID1,QH,2021-03-07T03:00:00+01:00,2021-03-07T03:15:00+01:00,44.15,EUR,,MWh
Power,Intraday,Continuous,NL,ID1,QH,2021-03-07T03:15:00+01:00,2021-03-07T03:30:00+01:00,44.06,EUR,,MWh
Power,Intraday,Continuous,NL,ID1,QH,2021-03-07T03:30:00+01:00,2021-03-07T03:45:00+01:00,43.03,EUR,,MWh
Power,Intraday,Continuous,NL,ID1,QH,2021-03-07T03:45:00+01:00,2021-03-07T04:00:00+01:00,44.42,EUR,,MWh
Power,Intraday,Continuous,NL,ID1,QH,2021-03-07T04:00:00+01:00,2021-03-07T04:15:00+01:00,43.04,EUR,,MWh
Power,Intraday,Continuous,NL,ID1,QH,2021-03-07T04:15:00+01:00,2021-03-07T04:30:00+01:00,38.45,EUR,,MWh
Power,Intraday,Continuous,NL,ID1,QH,2021-03-07T04:30:00+01:00,2021-03-07T04:45:00+01:00,45.67,EUR,,MWh
Power,Intraday,Continuous,NL,ID1,QH,2021-03-07T04:45:00+01:00,2021-03-07T05:00:00+01:00,48.03,EUR,,MWh
Power,Intraday,Continuous,NL,ID1,QH,2021-03-07T05:00:00+01:00,2021-03-07T05:15:00+01:00,42.54,EUR,,MWh
Power,Intraday,Continuous,NL,ID1,QH,2021-03-07T05:15:00+01:00,2021-03-07T05:30:00+01:00,43.69,EUR,,MWh
Power,Intraday,Continuous,NL,ID1,QH,2021-03-07T05:30:00+01:00,2021-03-07T05:45:00+01:00,41.76,EUR,,MWh
Power,Intraday,Continuous,NL,ID1,QH,2021-03-07T05:45:00+01:00,2021-03-07T06:00:00+01:00,42.71,EUR,,MWh
Power,Intraday,Continuous,NL,ID1,QH,2021-03-07T06:00:00+01:00,2021-03-07T06:15:00+01:00,40.44,EUR,,MWh
Power,Intraday,Continuous,NL,ID1,QH,2021-03-07T06:15:00+01:00,2021-03-07T06:30:00+01:00,47.18,EUR,,MWh
Power,Intraday,Continuous,NL,ID1,QH,2021-03-07T06:30:00+01:00,2021-03-07T06:45:00+01:00,46.90,EUR,,MWh
Power,Intraday,Continuous,NL,ID1,QH,2021-03-07T06:45:00+01:00,2021-03-07T07:00:00+01:00,48.12,EUR,,MWh
Power,Intraday,Continuous,NL,ID1,QH,2021-03-07T07:00:00+01:00,2021-03-07T07:15:00+01:00,48.68,EUR,,MWh
Power,Intraday,Continuous,NL,ID1,QH,2021-03-07T07:15:00+01:00,2021-03-07T07:30:00+01:00,44.49,EUR,,MWh
Power,Intraday,Continuous,NL,ID1,QH,2021-03-07T07:30:00+01:00,2021-03-07T07:45:00+01:00,37.57,EUR,,MWh
Power,Intraday,Continuous,NL,ID1,QH,2021-03-07T07:45:00+01:00,2021-03-07T08:00:00+01:00,38.61,EUR,,MWh
Power,Intraday,Continuous,NL,ID1,QH,2021-03-07T08:00:00+01:00,2021-03-07T08:15:00+01:00,41.24,EUR,,MWh
Power,Intraday,Continuous,NL,ID1,QH,2021-03-07T08:15:00+01:00,2021-03-07T08:30:00+01:00,39.79,EUR,,MWh
Power,Intraday,Continuous,NL,ID1,QH,2021-03-07T08:30:00+01:00,2021-03-07T08:45:00+01:00,34.80,EUR,,MWh
Power,Intraday,Continuous,NL,ID1,QH,2021-03-07T08:45:00+01:00,2021-03-07T09:00:00+01:00,31.31,EUR,,MWh
Power,Intraday,Continuous,NL,ID1,QH,2021-03-07T09:00:00+01:00,2021-03-07T09:15:00+01:00,62.48,EUR,,MWh
Power,Intraday,Continuous,NL,ID1,QH,2021-03-07T09:15:00+01:00,2021-03-07T09:30:00+01:00,62.48,EUR,,MWh
Power,Intraday,Continuous,NL,ID1,QH,2021-03-07T09:30:00+01:00,2021-03-07T09:45:00+01:00,62.48,EUR,,MWh
Power,Intraday,Continuous,NL,ID1,QH,2021-03-07T09:45:00+01:00,2021-03-07T10:00:00+01:00,62.48,EUR,,MWh
Power,Intraday,Continuous,NL,ID1,QH,2021-03-07T10:00:00+01:00,2021-03-07T10:15:00+01:00,64.43,EUR,,MWh
Power,Intraday,Continuous,NL,ID1,QH,2021-03-07T10:15:00+01:00,2021-03-07T10:30:00+01:00,64.43,EUR,,MWh
Power,Intraday,Continuous,NL,ID1,QH,2021-03-07T10:30:00+01:00,2021-03-07T10:45:00+01:00,64.43,EUR,,MWh
Power,Intraday,Continuous,NL,ID1,QH,2021-03-07T10:45:00+01:00,2021-03-07T11:00:00+01:00,64.43,EUR,,MWh
Power,Intraday,Continuous,NL,ID1,QH,2021-03-07T11:00:00+01:00,2021-03-07T11:15:00+01:00,55.85,EUR,,MWh
Power,Intraday,Continuous,NL,ID1,QH,2021-03-07T11:15:00+01:00,2021-03-07T11:30:00+01:00,55.85,EUR,,MWh
Power,Intraday,Continuous,NL,ID1,QH,2021-03-07T11:30:00+01:00,2021-03-07T11:45:00+01:00,44.29,EUR,,MWh
Power,Intraday,Continuous,NL,ID1,QH,2021-03-07T11:45:00+01:00,2021-03-07T12:00:00+01:00,38.86,EUR,,MWh
Power,Intraday,Continuous,NL,ID1,QH,2021-03-07T12:00:00+01:00,2021-03-07T12:15:00+01:00,46.95,EUR,,MWh
Power,Intraday,Continuous,NL,ID1,QH,2021-03-07T12:15:00+01:00,2021-03-07T12:30:00+01:00,46.95,EUR,,MWh
Power,Intraday,Continuous,NL,ID1,QH,2021-03-07T12:30:00+01:00,2021-03-07T12:45:00+01:00,46.95,EUR,,MWh
Power,Intraday,Continuous,NL,ID1,QH,2021-03-07T12:45:00+01:00,2021-03-07T13:00:00+01:00,46.95,EUR,,MWh
Power,Intraday,Continuous,NL,ID1,QH,2021-03-07T13:00:00+01:00,2021-03-07T13:15:00+01:00,33.52,EUR,,MWh
Power,Intraday,Continuous,NL,ID1,QH,2021-03-07T13:15:00+01:00,2021-03-07T13:30:00+01:00,32.47,EUR,,MWh
Power,Intraday,Continuous,NL,ID1,QH,2021-03-07T13:30:00+01:00,2021-03-07T13:45:00+01:00,34.43,EUR,,MWh
Power,Intraday,Continuous,NL,ID1,QH,2021-03-07T13:45:00+01:00,2021-03-07T14:00:00+01:00,37.27,EUR,,MWh
Power,Intraday,Continuous,NL,ID1,QH,2021-03-07T14:00:00+01:00,2021-03-07T14:15:00+01:00,-3.61,EUR,,MWh
Power,Intraday,Continuous,NL,ID1,QH,2021-03-07T14:15:00+01:00,2021-03-07T14:30:00+01:00,32.85,EUR,,MWh
Power,Intraday,Continuous,NL,ID1,QH,2021-03-07T14:30:00+01:00,2021-03-07T14:45:00+01:00,35.79,EUR,,MWh
Power,Intraday,Continuous,NL,ID1,QH,2021-03-07T14:45:00+01:00,2021-03-07T15:00:00+01:00,41.95,EUR,,MWh
Power,Intraday,Continuous,NL,ID1,QH,2021-03-07T15:00:00+01:00,2021-03-07T15:15:00+01:00,14.61,EUR,,MWh
Power,Intraday,Continuous,NL,ID1,QH,2021-03-07T15:15:00+01:00,2021-03-07T15:30:00+01:00,33.50,EUR,,MWh
Power,Intraday,Continuous,NL,ID1,QH,2021-03-07T15:30:00+01:00,2021-03-07T15:45:00+01:00,63.00,EUR,3.080,MWh
Power,Intraday,Continuous,NL,ID1,QH,2021-03-07T15:45:00+01:00,2021-03-07T16:00:00+01:00,42.73,EUR,,MWh
Power,Intraday,Continuous,NL,ID1,QH,2021-03-07T16:00:00+01:00,2021-03-07T16:15:00+01:00,11.30,EUR,,MWh
Power,Intraday,Continuous,NL,ID1,QH,2021-03-07T16:15:00+01:00,2021-03-07T16:30:00+01:00,38.70,EUR,3.750,MWh
Power,Intraday,Continuous,NL,ID1,QH,2021-03-07T16:30:00+01:00,2021-03-07T16:45:00+01:00,46.16,EUR,,MWh
Power,Intraday,Continuous,NL,ID1,QH,2021-03-07T16:45:00+01:00,2021-03-07T17:00:00+01:00,47.87,EUR,,MWh
Power,Intraday,Continuous,NL,ID1,QH,2021-03-07T17:00:00+01:00,2021-03-07T17:15:00+01:00,24.56,EUR,,MWh
Power,Intraday,Continuous,NL,ID1,QH,2021-03-07T17:15:00+01:00,2021-03-07T17:30:00+01:00,37.71,EUR,,MWh
Power,Intraday,Continuous,NL,ID1,QH,2021-03-07T17:30:00+01:00,2021-03-07T17:45:00+01:00,46.84,EUR,,MWh
Power,Intraday,Continuous,NL,ID1,QH,2021-03-07T17:45:00+01:00,2021-03-07T18:00:00+01:00,51.41,EUR,,MWh
Power,Intraday,Continuous,NL,ID1,QH,2021-03-07T18:00:00+01:00,2021-03-07T18:15:00+01:00,44.35,EUR,,MWh
Power,Intraday,Continuous,NL,ID1,QH,2021-03-07T18:15:00+01:00,2021-03-07T18:30:00+01:00,46.31,EUR,,MWh
Power,Intraday,Continuous,NL,ID1,QH,2021-03-07T18:30:00+01:00,2021-03-07T18:45:00+01:00,50.72,EUR,,MWh
Power,Intraday,Continuous,NL,ID1,QH,2021-03-07T18:45:00+01:00,2021-03-07T19:00:00+01:00,55.45,EUR,,MWh
Power,Intraday,Continuous,NL,ID1,QH,2021-03-07T19:00:00+01:00,2021-03-07T19:15:00+01:00,67.85,EUR,,MWh
Power,Intraday,Continuous,NL,ID1,QH,2021-03-07T19:15:00+01:00,2021-03-07T19:30:00+01:00,50.57,EUR,,MWh
Power,Intraday,Continuous,NL,ID1,QH,2021-03-07T19:30:00+01:00,2021-03-07T19:45:00+01:00,45.91,EUR,,MWh
Power,Intraday,Continuous,NL,ID1,QH,2021-03-07T19:45:00+01:00,2021-03-07T20:00:00+01:00,42.59,EUR,,MWh
Power,Intraday,Continuous,NL,ID1,QH,2021-03-07T20:00:00+01:00,2021-03-07T20:15:00+01:00,64.49,EUR,,MWh
Power,Intraday,Continuous,NL,ID1,QH,2021-03-07T20:15:00+01:00,2021-03-07T20:30:00+01:00,55.87,EUR,,MWh
Power,Intraday,Continuous,NL,ID1,QH,2021-03-07T20:30:00+01:00,2021-03-07T20:45:00+01:00,47.20,EUR,,MWh
Power,Intraday,Continuous,NL,ID1,QH,2021-03-07T20:45:00+01:00,2021-03-07T21:00:00+01:00,38.31,EUR,,MWh
Power,Intraday,Continuous,NL,ID1,QH,2021-03-07T21:00:00+01:00,2021-03-07T21:15:00+01:00,52.99,EUR,,MWh
Power,Intraday,Continuous,NL,ID1,QH,2021-03-07T21:15:00+01:00,2021-03-07T21:30:00+01:00,50.58,EUR,,MWh
Power,Intraday,Continuous,NL,ID1,QH,2021-03-07T21:30:00+01:00,2021-03-07T21:45:00+01:00,47.97,EUR,,MWh
Power,Intraday,Continuous,NL,ID1,QH,2021-03-07T21:45:00+01:00,2021-03-07T22:00:00+01:00,42.83,EUR,,MWh
Power,Intraday,Continuous,NL,ID1,QH,2021-03-07T22:00:00+01:00,2021-03-07T22:15:00+01:00,57.13,EUR,,MWh
Power,Intraday,Continuous,NL,ID1,QH,2021-03-07T22:15:00+01:00,2021-03-07T22:30:00+01:00,54.01,EUR,,MWh
Power,Intraday,Continuous,NL,ID1,QH,2021-03-07T22:30:00+01:00,2021-03-07T22:45:00+01:00,50.37,EUR,,MWh
Power,Intraday,Continuous,NL,ID1,QH,2021-03-07T22:45:00+01:00,2021-03-07T23:00:00+01:00,39.40,EUR,,MWh
Power,Intraday,Continuous,NL,ID1,QH,2021-03-07T23:00:00+01:00,2021-03-07T23:15:00+01:00,58.45,EUR,,MWh
Power,Intraday,Continuous,NL,ID1,QH,2021-03-07T23:15:00+01:00,2021-03-07T23:30:00+01:00,51.57,EUR,,MWh
Power,Intraday,Continuous,NL,ID1,QH,2021-03-07T23:30:00+01:00,2021-03-07T23:45:00+01:00,43.56,EUR,,MWh
Power,Intraday,Continuous,NL,ID1,QH,2021-03-07T23:45:00+01:00,2021-03-08T00:00:00+01:00,29.09,EUR,,MWh
Power,Intraday,Continuous,NL,ID3,QH,2021-03-07T00:00:00+01:00,2021-03-07T00:15:00+01:00,52.12,EUR,14.300,MWh
Power,Intraday,Continuous,NL,ID3,QH,2021-03-07T00:15:00+01:00,2021-03-07T00:30:00+01:00,48.55,EUR,11.250,MWh
Power,Intraday,Continuous,NL,ID3,QH,2021-03-07T00:30:00+01:00,2021-03-07T00:45:00+01:00,46.31,EUR,11.130,MWh
Power,Intraday,Continuous,NL,ID3,QH,2021-03-07T00:45:00+01:00,2021-03-07T01:00:00+01:00,40.57,EUR,7.280,MWh
Power,Intraday,Continuous,NL,ID3,QH,2021-03-07T01:00:00+01:00,2021-03-07T01:15:00+01:00,50.94,EUR,5.730,MWh
Power,Intraday,Continuous,NL,ID3,QH,2021-03-07T01:15:00+01:00,2021-03-07T01:30:00+01:00,48.65,EUR,4.030,MWh
Power,Intraday,Continuous,NL,ID3,QH,2021-03-07T01:30:00+01:00,2021-03-07T01:45:00+01:00,43.62,EUR,6.380,MWh
Power,Intraday,Continuous,NL,ID3,QH,2021-03-07T01:45:00+01:00,2021-03-07T02:00:00+01:00,39.79,EUR,5.900,MWh
Power,Intraday,Continuous,NL,ID3,QH,2021-03-07T02:00:00+01:00,2021-03-07T02:15:00+01:00,44.32,EUR,3.200,MWh
Power,Intraday,Continuous,NL,ID3,QH,2021-03-07T02:15:00+01:00,2021-03-07T02:30:00+01:00,46.40,EUR,4.080,MWh
Power,Intraday,Continuous,NL,ID3,QH,2021-03-07T02:30:00+01:00,2021-03-07T02:45:00+01:00,39.11,EUR,3.750,MWh
Power,Intraday,Continuous,NL,ID3,QH,2021-03-07T02:45:00+01:00,2021-03-07T03:00:00+01:00,37.74,EUR,4.000,MWh
Power,Intraday,Continuous,NL,ID3,QH,2021-03-07T03:00:00+01:00,2021-03-07T03:15:00+01:00,44.15,EUR,2.650,MWh
Power,Intraday,Continuous,NL,ID3,QH,2021-03-07T03:15:00+01:00,2021-03-07T03:30:00+01:00,44.06,EUR,,MWh
Power,Intraday,Continuous,NL,ID3,QH,2021-03-07T03:30:00+01:00,2021-03-07T03:45:00+01:00,43.03,EUR,,MWh
Power,Intraday,Continuous,NL,ID3,QH,2021-03-07T03:45:00+01:00,2021-03-07T04:00:00+01:00,44.42,EUR,2.650,MWh
Power,Intraday,Continuous,NL,ID3,QH,2021-03-07T04:00:00+01:00,2021-03-07T04:15:00+01:00,43.04,EUR,6.080,MWh
Power,Intraday,Continuous,NL,ID3,QH,2021-03-07T04:15:00+01:00,2021-03-07T04:30:00+01:00,38.45,EUR,3.530,MWh
Power,Intraday,Continuous,NL,ID3,QH,2021-03-07T04:30:00+01:00,2021-03-07T04:45:00+01:00,45.67,EUR,3.750,MWh
Power,Intraday,Continuous,NL,ID3,QH,2021-03-07T04:45:00+01:00,2021-03-07T05:00:00+01:00,48.03,EUR,2.730,MWh
Power,Intraday,Continuous,NL,ID3,QH,2021-03-07T05:00:00+01:00,2021-03-07T05:15:00+01:00,42.54,EUR,,MWh
Power,Intraday,Continuous,NL,ID3,QH,2021-03-07T05:15:00+01:00,2021-03-07T05:30:00+01:00,43.69,EUR,2.830,MWh
Power,Intraday,Continuous,NL,ID3,QH,2021-03-07T05:30:00+01:00,2021-03-07T05:45:00+01:00,41.76,EUR,,MWh
Power,Intraday,Continuous,NL,ID3,QH,2021-03-07T05:45:00+01:00,2021-03-07T06:00:00+01:00,42.71,EUR,,MWh
Power,Intraday,Continuous,NL,ID3,QH,2021-03-07T06:00:00+01:00,2021-03-07T06:15:00+01:00,40.44,EUR,2.800,MWh
Power,Intraday,Continuous,NL,ID3,QH,2021-03-07T06:15:00+01:00,2021-03-07T06:30:00+01:00,47.18,EUR,2.850,MWh
Power,Intraday,Continuous,NL,ID3,QH,2021-03-07T06:30:00+01:00,2021-03-07T06:45:00+01:00,46.90,EUR,,MWh
Power,Intraday,Continuous,NL,ID3,QH,2021-03-07T06:45:00+01:00,2021-03-07T07:00:00+01:00,48.12,EUR,3.750,MWh
Power,Intraday,Continuous,NL,ID3,QH,2021-03-07T07:00:00+01:00,2021-03-07T07:15:00+01:00,48.68,EUR,3.480,MWh
Power,Intraday,Continuous,NL,ID3,QH,2021-03-07T07:15:00+01:00,2021-03-07T07:30:00+01:00,44.49,EUR,3.730,MWh
Power,Intraday,Continuous,NL,ID3,QH,2021-03-07T07:30:00+01:00,2021-03-07T07:45:00+01:00,37.57,EUR,,MWh
Power,Intraday,Continuous,NL,ID3,QH,2021-03-07T07:45:00+01:00,2021-03-07T08:00:00+01:00,38.61,EUR,2.980,MWh
Power,Intraday,Continuous,NL,ID3,QH,2021-03-07T08:00:00+01:00,2021-03-07T08:15:00+01:00,41.24,EUR,,MWh
Power,Intraday,Continuous,NL,ID3,QH,2021-03-07T08:15:00+01:00,2021-03-07T08:30:00+01:00,39.79,EUR,,MWh
Power,Intraday,Continuous,NL,ID3,QH,2021-03-07T08:30:00+01:00,2021-03-07T08:45:00+01:00,34.80,EUR,,MWh
Power,Intraday,Continuous,NL,ID3,QH,2021-03-07T08:45:00+01:00,2021-03-07T09:00:00+01:00,31.31,EUR,,MWh
Power,Intraday,Continuous,NL,ID3,QH,2021-03-07T09:00:00+01:00,2021-03-07T09:15:00+01:00,62.48,EUR,,MWh
Power,Intraday,Continuous,NL,ID3,QH,2021-03-07T09:15:00+01:00,2021-03-07T09:30:00+01:00,62.48,EUR,,MWh
Power,Intraday,Continuous,NL,ID3,QH,2021-03-07T09:30:00+01:00,2021-03-07T09:45:00+01:00,62.48,EUR,,MWh
Power,Intraday,Continuous,NL,ID3,QH,2021-03-07T09:45:00+01:00,2021-03-07T10:00:00+01:00,62.48,EUR,,MWh
Power,Intraday,Continuous,NL,ID3,QH,2021-03-07T10:00:00+01:00,2021-03-07T10:15:00+01:00,64.43,EUR,,MWh
Power,Intraday,Continuous,NL,ID3,QH,2021-03-07T10:15:00+01:00,2021-03-07T10:30:00+01:00,64.43,EUR,,MWh
Power,Intraday,Continuous,NL,ID3,QH,2021-03-07T10:30:00+01:00,2021-03-07T10:45:00+01:00,64.43,EUR,,MWh
Power,Intraday,Continuous,NL,ID3,QH,2021-03-07T10:45:00+01:00,2021-03-07T11:00:00+01:00,64.43,EUR,,MWh
Power,Intraday,Continuous,NL,ID3,QH,2021-03-07T11:00:00+01:00,2021-03-07T11:15:00+01:00,55.85,EUR,,MWh
Power,Intraday,Continuous,NL,ID3,QH,2021-03-07T11:15:00+01:00,2021-03-07T11:30:00+01:00,55.85,EUR,,MWh
Power,Intraday,Continuous,NL,ID3,QH,2021-03-07T11:30:00+01:00,2021-03-07T11:45:00+01:00,44.29,EUR,6.350,MWh
Power,Intraday,Continuous,NL,ID3,QH,2021-03-07T11:45:00+01:00,2021-03-07T12:00:00+01:00,38.86,EUR,22.200,MWh
Power,Intraday,Continuous,NL,ID3,QH,2021-03-07T12:00:00+01:00,2021-03-07T12:15:00+01:00,46.95,EUR,,MWh
Power,Intraday,Continuous,NL,ID3,QH,2021-03-07T12:15:00+01:00,2021-03-07T12:30:00+01:00,46.95,EUR,,MWh
Power,Intraday,Continuous,NL,ID3,QH,2021-03-07T12:30:00+01:00,2021-03-07T12:45:00+01:00,46.95,EUR,,MWh
Power,Intraday,Continuous,NL,ID3,QH,2021-03-07T12:45:00+01:00,2021-03-07T13:00:00+01:00,46.95,EUR,,MWh
Power,Intraday,Continuous,NL,ID3,QH,2021-03-07T13:00:00+01:00,2021-03-07T13:15:00+01:00,33.52,EUR,11.980,MWh
Power,Intraday,Continuous,NL,ID3,QH,2021-03-07T13:15:00+01:00,2021-03-07T13:30:00+01:00,32.47,EUR,16.800,MWh
Power,Intraday,Continuous,NL,ID3,QH,2021-03-07T13:30:00+01:00,2021-03-07T13:45:00+01:00,34.43,EUR,2.630,MWh
Power,Intraday,Continuous,NL,ID3,QH,2021-03-07T13:45:00+01:00,2021-03-07T14:00:00+01:00,37.27,EUR,2.780,MWh
Power,Intraday,Continuous,NL,ID3,QH,2021-03-07T14:00:00+01:00,2021-03-07T14:15:00+01:00,-3.61,EUR,7.200,MWh
Power,Intraday,Continuous,NL,ID3,QH,2021-03-07T14:15:00+01:00,2021-03-07T14:30:00+01:00,32.85,EUR,,MWh
Power,Intraday,Continuous,NL,ID3,QH,2021-03-07T14:30:00+01:00,2021-03-07T14:45:00+01:00,35.79,EUR,8.230,MWh
Power,Intraday,Continuous,NL,ID3,QH,2021-03-07T14:45:00+01:00,2021-03-07T15:00:00+01:00,41.95,EUR,10.880,MWh
Power,Intraday,Continuous,NL,ID3,QH,2021-03-07T15:00:00+01:00,2021-03-07T15:15:00+01:00,14.61,EUR,,MWh
Power,Intraday,Continuous,NL,ID3,QH,2021-03-07T15:15:00+01:00,2021-03-07T15:30:00+01:00,33.50,EUR,,MWh
Power,Intraday,Continuous,NL,ID3,QH,2021-03-07T15:30:00+01:00,2021-03-07T15:45:00+01:00,63.00,EUR,3.080,MWh
Power,Intraday,Continuous,NL,ID3,QH,2021-03-07T15:45:00+01:00,2021-03-07T16:00:00+01:00,42.73,EUR,,MWh
Power,Intraday,Continuous,NL,ID3,QH,2021-03-07T16:00:00+01:00,2021-03-07T16:15:00+01:00,11.30,EUR,8.200,MWh
Power,Intraday,Continuous,NL,ID3,QH,2021-03-07T16:15:00+01:00,2021-03-07T16:30:00+01:00,37.13,EUR,33.100,MWh
Power,Intraday,Continuous,NL,ID3,QH,2021-03-07T16:30:00+01:00,2021-03-07T16:45:00+01:00,46.16,EUR,21.630,MWh
Power,Intraday,Continuous,NL,ID3,QH,2021-03-07T16:45:00+01:00,2021-03-07T17:00:00+01:00,47.87,EUR,74.330,MWh
Power,Intraday,Continuous,NL,ID3,QH,2021-03-07T17:00:00+01:00,2021-03-07T17:15:00+01:00,24.56,EUR,34.930,MWh
Power,Intraday,Continuous,NL,ID3,QH,2021-03-07T17:15:00+01:00,2021-03-07T17:30:00+01:00,37.71,EUR,17.800,MWh
Power,Intraday,Continuous,NL,ID3,QH,2021-03-07T17:30:00+01:00,2021-03-07T17:45:00+01:00,46.84,EUR,31.080,MWh
Power,Intraday,Continuous,NL,ID3,QH,2021-03-07T17:45:00+01:00,2021-03-07T18:00:00+01:00,51.41,EUR,35.900,MWh
Power,Intraday,Continuous,NL,ID3,QH,2021-03-07T18:00:00+01:00,2021-03-07T18:15:00+01:00,44.35,EUR,56.050,MWh
Power,Intraday,Continuous,NL,ID3,QH,2021-03-07T18:15:00+01:00,2021-03-07T18:30:00+01:00,46.31,EUR,23.500,MWh
Power,Intraday,Continuous,NL,ID3,QH,2021-03-07T18:30:00+01:00,2021-03-07T18:45:00+01:00,50.72,EUR,30.350,MWh
Power,Intraday,Continuous,NL,ID3,QH,2021-03-07T18:45:00+01:00,2021-03-07T19:00:00+01:00,55.45,EUR,33.100,MWh
Power,Intraday,Continuous,NL,ID3,QH,2021-03-07T19:00:00+01:00,2021-03-07T19:15:00+01:00,67.85,EUR,36.150,MWh
Power,Intraday,Continuous,NL,ID3,QH,2021-03-07T19:15:00+01:00,2021-03-07T19:30:00+01:00,50.57,EUR,13.650,MWh
Power,Intraday,Continuous,NL,ID3,QH,2021-03-07T19:30:00+01:00,2021-03-07T19:45:00+01:00,45.91,EUR,20.150,MWh
Power,Intraday,Continuous,NL,ID3,QH,2021-03-07T19:45:00+01:00,2021-03-07T20:00:00+01:00,42.59,EUR,37.750,MWh
Power,Intraday,Continuous,NL,ID3,QH,2021-03-07T20:00:00+01:00,2021-03-07T20:15:00+01:00,64.49,EUR,30.300,MWh
Power,Intraday,Continuous,NL,ID3,QH,2021-03-07T20:15:00+01:00,2021-03-07T20:30:00+01:00,55.87,EUR,5.400,MWh
Power,Intraday,Continuous,NL,ID3,QH,2021-03-07T20:30:00+01:00,2021-03-07T20:45:00+01:00,47.20,EUR,22.930,MWh
Power,Intraday,Continuous,NL,ID3,QH,2021-03-07T20:45:00+01:00,2021-03-07T21:00:00+01:00,38.31,EUR,31.480,MWh
Power,Intraday,Continuous,NL,ID3,QH,2021-03-07T21:00:00+01:00,2021-03-07T21:15:00+01:00,52.99,EUR,19.950,MWh
Power,Intraday,Continuous,NL,ID3,QH,2021-03-07T21:15:00+01:00,2021-03-07T21:30:00+01:00,50.58,EUR,7.930,MWh
Power,Intraday,Continuous,NL,ID3,QH,2021-03-07T21:30:00+01:00,2021-03-07T21:45:00+01:00,47.97,EUR,12.430,MWh
Power,Intraday,Continuous,NL,ID3,QH,2021-03-07T21:45:00+01:00,2021-03-07T22:00:00+01:00,42.83,EUR,11.980,MWh
Power,Intraday,Continuous,NL,ID3,QH,2021-03-07T22:00:00+01:00,2021-03-07T22:15:00+01:00,57.13,EUR,22.100,MWh
Power,Intraday,Continuous,NL,ID3,QH,2021-03-07T22:15:00+01:00,2021-03-07T22:30:00+01:00,54.01,EUR,10.430,MWh
Power,Intraday,Continuous,NL,ID3,QH,2021-03-07T22:30:00+01:00,2021-03-07T22:45:00+01:00,50.37,EUR,3.330,MWh
Power,Intraday,Continuous,NL,ID3,QH,2021-03-07T22:45:00+01:00,2021-03-07T23:00:00+01:00,39.40,EUR,11.580,MWh
Power,Intraday,Continuous,NL,ID3,QH,2021-03-07T23:00:00+01:00,2021-03-07T23:15:00+01:00,58.45,EUR,14.050,MWh
Power,Intraday,Continuous,NL,ID3,QH,2021-03-07T23:15:00+01:00,2021-03-07T23:30:00+01:00,51.57,EUR,6.030,MWh
Power,Intraday,Continuous,NL,ID3,QH,2021-03-07T23:30:00+01:00,2021-03-07T23:45:00+01:00,43.56,EUR,10.880,MWh
Power,Intraday,Continuous,NL,ID3,QH,2021-03-07T23:45:00+01:00,2021-03-08T00:00:00+01:00,29.09,EUR,9.580,MWh
Power,Intraday,Continuous,NL,IDFULL,BASE,2021-03-07T00:00:00+01:00,2021-03-08T00:00:00+01:00,46.03,EUR,11758.300,MWh
Power,Intraday,Continuous,NL,IDFULL,PEAK,2021-03-07T08:00:00+01:00,2021-03-07T20:00:00+01:00,46.48,EUR,8256.600,MWh
