Commodity,NominationModality,TradingModality,MarketArea,IndexName,TimeResolution,DeliveryStart,DeliveryEnd,IndexPrice,Currency,Volume,VolumeUnit
Power,Intraday,Continuous,NL,IDFULL,H,2021-10-10T00:00:00+02:00,2021-10-10T01:00:00+02:00,131.75,EUR,31.200,MWh
Power,Intraday,Continuous,NL,IDFULL,H,2021-10-10T01:00:00+02:00,2021-10-10T02:00:00+02:00,122.96,EUR,112.200,MWh
Power,Intraday,Continuous,NL,IDFULL,H,2021-10-10T02:00:00+02:00,2021-10-10T03:00:00+02:00,115.56,EUR,342.500,MWh
Power,Intraday,Continuous,NL,IDFULL,H,2021-10-10T03:00:00+02:00,2021-10-10T04:00:00+02:00,111.72,EUR,286.300,MWh
Power,Intraday,Continuous,NL,IDFULL,H,2021-10-10T04:00:00+02:00,2021-10-10T05:00:00+02:00,114.57,EUR,348.300,MWh
Power,Intraday,Continuous,NL,IDFULL,H,2021-10-10T05:00:00+02:00,2021-10-10T06:00:00+02:00,115.44,EUR,407.300,MWh
Power,Intraday,Continuous,NL,IDFULL,H,2021-10-10T06:00:00+02:00,2021-10-10T07:00:00+02:00,138.95,EUR,176.300,MWh
Power,Intraday,Continuous,NL,IDFULL,H,2021-10-10T07:00:00+02:00,2021-10-10T08:00:00+02:00,156.68,EUR,286.600,MWh
Power,Intraday,Continuous,NL,IDFULL,H,2021-10-10T08:00:00+02:00,2021-10-10T09:00:00+02:00,149.37,EUR,411.100,MWh
Power,Intraday,Continuous,NL,IDFULL,H,2021-10-10T09:00:00+02:00,2021-10-10T10:00:00+02:00,173.00,EUR,196.600,MWh
Power,Intraday,Continuous,NL,IDFULL,H,2021-10-10T10:00:00+02:00,2021-10-10T11:00:00+02:00,137.84,EUR,485.900,MWh
Power,Intraday,Continuous,NL,IDFULL,H,2021-10-10T11:00:00+02:00,2021-10-10T12:00:00+02:00,121.95,EUR,466.100,MWh
Power,Intraday,Continuous,NL,IDFULL,H,2021-10-10T12:00:00+02:00,2021-10-10T13:00:00+02:00,108.69,EUR,645.200,MWh
Power,Intraday,Continuous,NL,IDFULL,H,2021-10-10T13:00:00+02:00,2021-10-10T14:00:00+02:00,102.61,EUR,1010.700,MWh
Power,Intraday,Continuous,NL,IDFULL,H,2021-10-10T14:00:00+02:00,2021-10-10T15:00:00+02:00,100.15,EUR,882.100,MWh
Power,Intraday,Continuous,NL,IDFULL,H,2021-10-10T15:00:00+02:00,2021-10-10T16:00:00+02:00,114.71,EUR,570.200,MWh
Power,Intraday,Continuous,NL,IDFULL,H,2021-10-10T16:00:00+02:00,2021-10-10T17:00:00+02:00,119.53,EUR,630.600,MWh
Power,Intraday,Continuous,NL,IDFULL,H,2021-10-10T17:00:00+02:00,2021-10-10T18:00:00+02:00,164.72,EUR,208.000,MWh
Power,Intraday,Continuous,NL,IDFULL,H,2021-10-10T18:00:00+02:00,2021-10-10T19:00:00+02:00,202.69,EUR,922.300,MWh
Power,Intraday,Continuous,NL,IDFULL,H,2021-10-10T19:00:00+02:00,2021-10-10T20:00:00+02:00,221.69,EUR,1182.800,MWh
Power,Intraday,Continuous,NL,IDFULL,H,2021-10-10T20:00:00+02:00,2021-10-10T21:00:00+02:00,206.57,EUR,1104.500,MWh
Power,Intraday,Continuous,NL,IDFULL,H,2021-10-10T21:00:00+02:00,2021-10-10T22:00:00+02:00,165.66,EUR,1007.500,MWh
Power,Intraday,Continuous,NL,IDFULL,H,2021-10-10T22:00:00+02:00,2021-10-10T23:00:00+02:00,156.19,EUR,917.700,MWh
Power,Intraday,Continuous,NL,IDFULL,H,2021-10-10T23:00:00+02:00,2021-10-11T00:00:00+02:00,140.24,EUR,877.900,MWh
Power,Intraday,Continuous,NL,ID1,H,2021-10-10T00:00:00+02:00,2021-10-10T01:00:00+02:00,131.76,EUR,,MWh
Power,Intraday,Continuous,NL,ID1,H,2021-10-10T01:00:00+02:00,2021-10-10T02:00:00+02:00,124.03,EUR,,MWh
Power,Intraday,Continuous,NL,ID1,H,2021-10-10T02:00:00+02:00,2021-10-10T03:00:00+02:00,117.30,EUR,,MWh
Power,Intraday,Continuous,NL,ID1,H,2021-10-10T03:00:00+02:00,2021-10-10T04:00:00+02:00,113.14,EUR,,MWh
Power,Intraday,Continuous,NL,ID1,H,2021-10-10T04:00:00+02:00,2021-10-10T05:00:00+02:00,119.37,EUR,,MWh
Power,Intraday,Continuous,NL,ID1,H,2021-10-10T05:00:00+02:00,2021-10-10T06:00:00+02:00,118.09,EUR,,MWh
Power,Intraday,Continuous,NL,ID1,H,2021-10-10T06:00:00+02:00,2021-10-10T07:00:00+02:00,140.94,EUR,,MWh
Power,Intraday,Continuous,NL,ID1,H,2021-10-10T07:00:00+02:00,2021-10-10T08:00:00+02:00,156.75,EUR,,MWh
Power,Intraday,Continuous,NL,ID1,H,2021-10-10T08:00:00+02:00,2021-10-10T09:00:00+02:00,140.00,EUR,35.200,MWh
Power,Intraday,Continuous,NL,ID1,H,2021-10-10T09:00:00+02:00,2021-10-10T10:00:00+02:00,157.73,EUR,21.500,MWh
Power,Intraday,Continuous,NL,ID1,H,2021-10-10T10:00:00+02:00,2021-10-10T11:00:00+02:00,139.23,EUR,103.800,MWh
Power,Intraday,Continuous,NL,ID1,H,2021-10-10T11:00:00+02:00,2021-10-10T12:00:00+02:00,112.37,EUR,102.500,MWh
Power,Intraday,Continuous,NL,ID1,H,2021-10-10T12:00:00+02:00,2021-10-10T13:00:00+02:00,98.60,EUR,118.400,MWh
Power,Intraday,Continuous,NL,ID1,H,2021-10-10T13:00:00+02:00,2021-10-10T14:00:00+02:00,31.68,EUR,19.300,MWh
Power,Intraday,Continuous,NL,ID1,H,2021-10-10T14:00:00+02:00,2021-10-10T15:00:00+02:00,118.69,EUR,181.300,MWh
Power,Intraday,Continuous,NL,ID1,H,2021-10-10T15:00:00+02:00,2021-10-10T16:00:00+02:00,125.00,EUR,10.000,MWh
Power,Intraday,Continuous,NL,ID1,H,2021-10-10T16:00:00+02:00,2021-10-10T17:00:00+02:00,118.00,EUR,,MWh
Power,Intraday,Continuous,NL,ID1,H,2021-10-10T17:00:00+02:00,2021-10-10T18:00:00+02:00,176.78,EUR,17.900,MWh
Power,Intraday,Continuous,NL,ID1,H,2021-10-10T18:00:00+02:00,2021-10-10T19:00:00+02:00,202.26,EUR,,MWh
Power,Intraday,Continuous,NL,ID1,H,2021-10-10T19:00:00+02:00,2021-10-10T20:00:00+02:00,177.63,EUR,58.000,MWh
Power,Intraday,Continuous,NL,ID1,H,2021-10-10T20:00:00+02:00,2021-10-10T21:00:00+02:00,200.20,EUR,,MWh
Power,Intraday,Continuous,NL,ID1,H,2021-10-10T21:00:00+02:00,2021-10-10T22:00:00+02:00,72.56,EUR,50.100,MWh
Power,Intraday,Continuous,NL,ID1,H,2021-10-10T22:00:00+02:00,2021-10-10T23:00:00+02:00,143.85,EUR,,MWh
Power,Intraday,Continuous,NL,ID1,H,2021-10-10T23:00:00+02:00,2021-10-11T00:00:00+02:00,126.18,EUR,,MWh
Power,Intraday,Continuous,NL,ID3,H,2021-10-10T00:00:00+02:00,2021-10-10T01:00:00+02:00,131.76,EUR,31.100,MWh
Power,Intraday,Continuous,NL,ID3,H,2021-10-10T01:00:00+02:00,2021-10-10T02:00:00+02:00,124.03,EUR,86.700,MWh
Power,Intraday,Continuous,NL,ID3,H,2021-10-10T02:00:00+02:00,2021-10-10T03:00:00+02:00,117.30,EUR,262.800,MWh
Power,Intraday,Continuous,NL,ID3,H,2021-10-10T03:00:00+02:00,2021-10-10T04:00:00+02:00,113.14,EUR,184.400,MWh
Power,Intraday,Continuous,NL,ID3,H,2021-10-10T04:00:00+02:00,2021-10-10T05:00:00+02:00,119.37,EUR,217.000,MWh
Power,Intraday,Continuous,NL,ID3,H,2021-10-10T05:00:00+02:00,2021-10-10T06:00:00+02:00,118.09,EUR,268.300,MWh
Power,Intraday,Continuous,NL,ID3,H,2021-10-10T06:00:00+02:00,2021-10-10T07:00:00+02:00,140.94,EUR,95.800,MWh
Power,Intraday,Continuous,NL,ID3,H,2021-10-10T07:00:00+02:00,2021-10-10T08:00:00+02:00,156.75,EUR,215.900,MWh
Power,Intraday,Continuous,NL,ID3,H,2021-10-10T08:00:00+02:00,2021-10-10T09:00:00+02:00,146.67,EUR,333.100,MWh
Power,Intraday,Continuous,NL,ID3,H,2021-10-10T09:00:00+02:00,2021-10-10T10:00:00+02:00,172.95,EUR,194.900,MWh
Power,Intraday,Continuous,NL,ID3,H,2021-10-10T10:00:00+02:00,2021-10-10T11:00:00+02:00,135.52,EUR,380.200,MWh
Power,Intraday,Continuous,NL,ID3,H,2021-10-10T11:00:00+02:00,2021-10-10T12:00:00+02:00,121.12,EUR,373.800,MWh
Power,Intraday,Continuous,NL,ID3,H,2021-10-10T12:00:00+02:00,2021-10-10T13:00:00+02:00,110.97,EUR,521.600,MWh
Power,Intraday,Continuous,NL,ID3,H,2021-10-10T13:00:00+02:00,2021-10-10T14:00:00+02:00,104.77,EUR,808.600,MWh
Power,Intraday,Continuous,NL,ID3,H,2021-10-10T14:00:00+02:00,2021-10-10T15:00:00+02:00,100.96,EUR,589.100,MWh
Power,Intraday,Continuous,NL,ID3,H,2021-10-10T15:00:00+02:00,2021-10-10T16:00:00+02:00,118.21,EUR,426.100,MWh
Power,Intraday,Continuous,NL,ID3,H,2021-10-10T16:00:00+02:00,2021-10-10T17:00:00+02:00,118.00,EUR,452.500,MWh
Power,Intraday,Continuous,NL,ID3,H,2021-10-10T17:00:00+02:00,2021-10-10T18:00:00+02:00,164.00,EUR,181.700,MWh
Power,Intraday,Continuous,NL,ID3,H,2021-10-10T18:00:00+02:00,2021-10-10T19:00:00+02:00,202.26,EUR,864.300,MWh
Power,Intraday,Continuous,NL,ID3,H,2021-10-10T19:00:00+02:00,2021-10-10T20:00:00+02:00,219.29,EUR,808.700,MWh
Power,Intraday,Continuous,NL,ID3,H,2021-10-10T20:00:00+02:00,2021-10-10T21:00:00+02:00,200.20,EUR,664.100,MWh
Power,Intraday,Continuous,NL,ID3,H,2021-10-10T21:00:00+02:00,2021-10-10T22:00:00+02:00,149.63,EUR,483.900,MWh
Power,Intraday,Continuous,NL,ID3,H,2021-10-10T22:00:00+02:00,2021-10-10T23:00:00+02:00,143.85,EUR,397.300,MWh
Power,Intraday,Continuous,NL,ID3,H,2021-10-10T23:00:00+02:00,2021-10-11T00:00:00+02:00,126.18,EUR,254.800,MWh
Power,Intraday,Continuous,NL,IDFULL,HH,2021-10-10T00:00:00+02:00,2021-10-10T00:30:00+02:00,131.75,EUR,,MWh
Power,Intraday,Continuous,NL,IDFULL,HH,2021-10-10T00:30:00+02:00,2021-10-10T01:00:00+02:00,131.75,EUR,,MWh
Power,Intraday,Continuous,NL,IDFULL,HH,2021-10-10T01:00:00+02:00,2021-10-10T01:30:00+02:00,122.96,EUR,,MWh
Power,Intraday,Continuous,NL,IDFULL,HH,2021-10-10T01:30:00+02:00,2021-10-10T02:00:00+02:00,122.96,EUR,,MWh
Power,Intraday,Continuous,NL,IDFULL,HH,2021-10-10T02:00:00+02:00,2021-10-10T02:30:00+02:00,115.56,EUR,,MWh
Power,Intraday,Continuous,NL,IDFULL,HH,2021-10-10T02:30:00+02:00,2021-10-10T03:00:00+02:00,115.56,EUR,,MWh
Power,Intraday,Continuous,NL,IDFULL,HH,2021-10-10T03:00:00+02:00,2021-10-10T03:30:00+02:00,111.72,EUR,,MWh
Power,Intraday,Continuous,NL,IDFULL,HH,2021-10-10T03:30:00+02:00,2021-10-10T04:00:00+02:00,111.72,EUR,,MWh
Power,Intraday,Continuous,NL,IDFULL,HH,2021-10-10T04:00:00+02:00,2021-10-10T04:30:00+02:00,114.57,EUR,,MWh
Power,Intraday,Continuous,NL,IDFULL,HH,2021-10-10T04:30:00+02:00,2021-10-10T05:00:00+02:00,114.57,EUR,,MWh
Power,Intraday,Continuous,NL,IDFULL,HH,2021-10-10T05:00:00+02:00,2021-10-10T05:30:00+02:00,115.44,EUR,,MWh
Power,Intraday,Continuous,NL,IDFULL,HH,2021-10-10T05:30:00+02:00,2021-10-10T06:00:00+02:00,115.44,EUR,,MWh
Power,Intraday,Continuous,NL,IDFULL,HH,2021-10-10T06:00:00+02:00,2021-10-10T06:30:00+02:00,138.95,EUR,,MWh
Power,Intraday,Continuous,NL,IDFULL,HH,2021-10-10T06:30:00+02:00,2021-10-10T07:00:00+02:00,138.95,EUR,,MWh
Power,Intraday,Continuous,NL,IDFULL,HH,2021-10-10T07:00:00+02:00,2021-10-10T07:30:00+02:00,156.68,EUR,,MWh
Power,Intraday,Continuous,NL,IDFULL,HH,2021-10-10T07:30:00+02:00,2021-10-10T08:00:00+02:00,156.68,EUR,,MWh
Power,Intraday,Continuous,NL,IDFULL,HH,2021-10-10T08:00:00+02:00,2021-10-10T08:30:00+02:00,149.37,EUR,,MWh
Power,Intraday,Continuous,NL,IDFULL,HH,2021-10-10T08:30:00+02:00,2021-10-10T09:00:00+02:00,149.37,EUR,,MWh
Power,Intraday,Continuous,NL,IDFULL,HH,2021-10-10T09:00:00+02:00,2021-10-10T09:30:00+02:00,228.75,EUR,,MWh
Power,Intraday,Continuous,NL,IDFULL,HH,2021-10-10T09:30:00+02:00,2021-10-10T10:00:00+02:00,117.25,EUR,12.150,MWh
Power,Intraday,Continuous,NL,IDFULL,HH,2021-10-10T10:00:00+02:00,2021-10-10T10:30:00+02:00,176.85,EUR,41.650,MWh
Power,Intraday,Continuous,NL,IDFULL,HH,2021-10-10T10:30:00+02:00,2021-10-10T11:00:00+02:00,98.83,EUR,,MWh
Power,Intraday,Continuous,NL,IDFULL,HH,2021-10-10T11:00:00+02:00,2021-10-10T11:30:00+02:00,151.37,EUR,41.050,MWh
Power,Intraday,Continuous,NL,IDFULL,HH,2021-10-10T11:30:00+02:00,2021-10-10T12:00:00+02:00,92.53,EUR,,MWh
Power,Intraday,Continuous,NL,IDFULL,HH,2021-10-10T12:00:00+02:00,2021-10-10T12:30:00+02:00,108.69,EUR,,MWh
Power,Intraday,Continuous,NL,IDFULL,HH,2021-10-10T12:30:00+02:00,2021-10-10T13:00:00+02:00,108.69,EUR,,MWh
Power,Intraday,Continuous,NL,IDFULL,HH,2021-10-10T13:00:00+02:00,2021-10-10T13:30:00+02:00,102.61,EUR,,MWh
Power,Intraday,Continuous,NL,IDFULL,HH,2021-10-10T13:30:00+02:00,2021-10-10T14:00:00+02:00,102.61,EUR,,MWh
Power,Intraday,Continuous,NL,IDFULL,HH,2021-10-10T14:00:00+02:00,2021-10-10T14:30:00+02:00,68.88,EUR,33.000,MWh
Power,Intraday,Continuous,NL,IDFULL,HH,2021-10-10T14:30:00+02:00,2021-10-10T15:00:00+02:00,131.42,EUR,,MWh
Power,Intraday,Continuous,NL,IDFULL,HH,2021-10-10T15:00:00+02:00,2021-10-10T15:30:00+02:00,81.05,EUR,12.850,MWh
Power,Intraday,Continuous,NL,IDFULL,HH,2021-10-10T15:30:00+02:00,2021-10-10T16:00:00+02:00,148.37,EUR,,MWh
Power,Intraday,Continuous,NL,IDFULL,HH,2021-10-10T16:00:00+02:00,2021-10-10T16:30:00+02:00,94.65,EUR,8.250,MWh
Power,Intraday,Continuous,NL,IDFULL,HH,2021-10-10T16:30:00+02:00,2021-10-10T17:00:00+02:00,144.41,EUR,,MWh
Power,Intraday,Continuous,NL,IDFULL,HH,2021-10-10T17:00:00+02:00,2021-10-10T17:30:00+02:00,164.72,EUR,,MWh
Power,Intraday,Continuous,NL,IDFULL,HH,2021-10-10T17:30:00+02:00,2021-10-10T18:00:00+02:00,164.72,EUR,,MWh
Power,Intraday,Continuous,NL,IDFULL,HH,2021-10-10T18:00:00+02:00,2021-10-10T18:30:00+02:00,202.69,EUR,,MWh
Power,Intraday,Continuous,NL,IDFULL,HH,2021-10-10T18:30:00+02:00,2021-10-10T19:00:00+02:00,202.69,EUR,,MWh
Power,Intraday,Continuous,NL,IDFULL,HH,2021-10-10T19:00:00+02:00,2021-10-10T19:30:00+02:00,221.69,EUR,,MWh
Power,Intraday,Continuous,NL,IDFULL,HH,2021-10-10T19:30:00+02:00,2021-10-10T20:00:00+02:00,221.69,EUR,,MWh
Power,Intraday,Continuous,NL,IDFULL,HH,2021-10-10T20:00:00+02:00,2021-10-10T20:30:00+02:00,206.57,EUR,,MWh
Power,Intraday,Continuous,NL,IDFULL,HH,2021-10-10T20:30:00+02:00,2021-10-10T21:00:00+02:00,206.57,EUR,,MWh
Power,Intraday,Continuous,NL,IDFULL,HH,2021-10-10T21:00:00+02:00,2021-10-10T21:30:00+02:00,165.66,EUR,,MWh
Power,Intraday,Continuous,NL,IDFULL,HH,2021-10-10T21:30:00+02:00,2021-10-10T22:00:00+02:00,165.66,EUR,,MWh
Power,Intraday,Continuous,NL,IDFULL,HH,2021-10-10T22:00:00+02:00,2021-10-10T22:30:00+02:00,156.19,EUR,,MWh
Power,Intraday,Continuous,NL,IDFULL,HH,2021-10-10T22:30:00+02:00,2021-10-10T23:00:00+02:00,156.19,EUR,,MWh
Power,Intraday,Continuous,NL,IDFULL,HH,2021-10-10T23:00:00+02:00,2021-10-10T23:30:00+02:00,140.24,EUR,,MWh
Power,Intraday,Continuous,NL,IDFULL,HH,2021-10-10T23:30:00+02:00,2021-10-11T00:00:00+02:00,140.24,EUR,,MWh
Power,Intraday,Continuous,NL,ID1,HH,2021-10-10T00:00:00+02:00,2021-10-10T00:30:00+02:00,131.75,EUR,,MWh
Power,Intraday,Continuous,NL,ID1,HH,2021-10-10T00:30:00+02:00,2021-10-10T01:00:00+02:00,131.75,EUR,,MWh
Power,Intraday,Continuous,NL,ID1,HH,2021-10-10T01:00:00+02:00,2021-10-10T01:30:00+02:00,122.96,EUR,,MWh
Power,Intraday,Continuous,NL,ID1,HH,2021-10-10T01:30:00+02:00,2021-10-10T02:00:00+02:00,122.96,EUR,,MWh
Power,Intraday,Continuous,NL,ID1,HH,2021-10-10T02:00:00+02:00,2021-10-10T02:30:00+02:00,115.56,EUR,,MWh
Power,Intraday,Continuous,NL,ID1,HH,2021-10-10T02:30:00+02:00,2021-10-10T03:00:00+02:00,115.56,EUR,,MWh
Power,Intraday,Continuous,NL,ID1,HH,2021-10-10T03:00:00+02:00,2021-10-10T03:30:00+02:00,111.72,EUR,,MWh
Power,Intraday,Continuous,NL,ID1,HH,2021-10-10T03:30:00+02:00,2021-10-10T04:00:00+02:00,111.72,EUR,,MWh
Power,Intraday,Continuous,NL,ID1,HH,2021-10-10T04:00:00+02:00,2021-10-10T04:30:00+02:00,114.57,EUR,,MWh
Power,Intraday,Continuous,NL,ID1,HH,2021-10-10T04:30:00+02:00,2021-10-10T05:00:00+02:00,114.57,EUR,,MWh
Power,Intraday,Continuous,NL,ID1,HH,2021-10-10T05:00:00+02:00,2021-10-10T05:30:00+02:00,115.44,EUR,,MWh
Power,Intraday,Continuous,NL,ID1,HH,2021-10-10T05:30:00+02:00,2021-10-10T06:00:00+02:00,115.44,EUR,,MWh
Power,Intraday,Continuous,NL,ID1,HH,2021-10-10T06:00:00+02:00,2021-10-10T06:30:00+02:00,138.95,EUR,,MWh
Power,Intraday,Continuous,NL,ID1,HH,2021-10-10T06:30:00+02:00,2021-10-10T07:00:00+02:00,138.95,EUR,,MWh
Power,Intraday,Continuous,NL,ID1,HH,2021-10-10T07:00:00+02:00,2021-10-10T07:30:00+02:00,156.68,EUR,,MWh
Power,Intraday,Continuous,NL,ID1,HH,2021-10-10T07:30:00+02:00,2021-10-10T08:00:00+02:00,156.68,EUR,,MWh
Power,Intraday,Continuous,NL,ID1,HH,2021-10-10T08:00:00+02:00,2021-10-10T08:30:00+02:00,149.37,EUR,,MWh
Power,Intraday,Continuous,NL,ID1,HH,2021-10-10T08:30:00+02:00,2021-10-10T09:00:00+02:00,149.37,EUR,,MWh
Power,Intraday,Continuous,NL,ID1,HH,2021-10-10T09:00:00+02:00,2021-10-10T09:30:00+02:00,228.75,EUR,,MWh
Power,Intraday,Continuous,NL,ID1,HH,2021-10-10T09:30:00+02:00,2021-10-10T10:00:00+02:00,117.25,EUR,,MWh
Power,Intraday,Continuous,NL,ID1,HH,2021-10-10T10:00:00+02:00,2021-10-10T10:30:00+02:00,176.85,EUR,,MWh
Power,Intraday,Continuous,NL,ID1,HH,2021-10-10T10:30:00+02:00,2021-10-10T11:00:00+02:00,98.83,EUR,,MWh
Power,Intraday,Continuous,NL,ID1,HH,2021-10-10T11:00:00+02:00,2021-10-10T11:30:00+02:00,151.37,EUR,,MWh
Power,Intraday,Continuous,NL,ID1,HH,2021-10-10T11:30:00+02:00,2021-10-10T12:00:00+02:00,92.53,EUR,,MWh
Power,Intraday,Continuous,NL,ID1,HH,2021-10-10T12:00:00+02:00,2021-10-10T12:30:00+02:00,108.69,EUR,,MWh
Power,Intraday,Continuous,NL,ID1,HH,2021-10-10T12:30:00+02:00,2021-10-10T13:00:00+02:00,108.69,EUR,,MWh
Power,Intraday,Continuous,NL,ID1,HH,2021-10-10T13:00:00+02:00,2021-10-10T13:30:00+02:00,102.61,EUR,,MWh
Power,Intraday,Continuous,NL,ID1,HH,2021-10-10T13:30:00+02:00,2021-10-10T14:00:00+02:00,102.61,EUR,,MWh
Power,Intraday,Continuous,NL,ID1,HH,2021-10-10T14:00:00+02:00,2021-10-10T14:30:00+02:00,60.84,EUR,,MWh
Power,Intraday,Continuous,NL,ID1,HH,2021-10-10T14:30:00+02:00,2021-10-10T15:00:00+02:00,131.42,EUR,,MWh
Power,Intraday,Continuous,NL,ID1,HH,2021-10-10T15:00:00+02:00,2021-10-10T15:30:00+02:00,81.05,EUR,,MWh
Power,Intraday,Continuous,NL,ID1,HH,2021-10-10T15:30:00+02:00,2021-10-10T16:00:00+02:00,148.37,EUR,,MWh
Power,Intraday,Continuous,NL,ID1,HH,2021-10-10T16:00:00+02:00,2021-10-10T16:30:00+02:00,94.65,EUR,,MWh
Power,Intraday,Continuous,NL,ID1,HH,2021-10-10T16:30:00+02:00,2021-10-10T17:00:00+02:00,144.41,EUR,,MWh
Power,Intraday,Continuous,NL,ID1,HH,2021-10-10T17:00:00+02:00,2021-10-10T17:30:00+02:00,164.72,EUR,,MWh
Power,Intraday,Continuous,NL,ID1,HH,2021-10-10T17:30:00+02:00,2021-10-10T18:00:00+02:00,164.72,EUR,,MWh
Power,Intraday,Continuous,NL,ID1,HH,2021-10-10T18:00:00+02:00,2021-10-10T18:30:00+02:00,202.69,EUR,,MWh
Power,Intraday,Continuous,NL,ID1,HH,2021-10-10T18:30:00+02:00,2021-10-10T19:00:00+02:00,202.69,EUR,,MWh
Power,Intraday,Continuous,NL,ID1,HH,2021-10-10T19:00:00+02:00,2021-10-10T19:30:00+02:00,221.69,EUR,,MWh
Power,Intraday,Continuous,NL,ID1,HH,2021-10-10T19:30:00+02:00,2021-10-10T20:00:00+02:00,221.69,EUR,,MWh
Power,Intraday,Continuous,NL,ID1,HH,2021-10-10T20:00:00+02:00,2021-10-10T20:30:00+02:00,206.57,EUR,,MWh
Power,Intraday,Continuous,NL,ID1,HH,2021-10-10T20:30:00+02:00,2021-10-10T21:00:00+02:00,206.57,EUR,,MWh
Power,Intraday,Continuous,NL,ID1,HH,2021-10-10T21:00:00+02:00,2021-10-10T21:30:00+02:00,165.66,EUR,,MWh
Power,Intraday,Continuous,NL,ID1,HH,2021-10-10T21:30:00+02:00,2021-10-10T22:00:00+02:00,165.66,EUR,,MWh
Power,Intraday,Continuous,NL,ID1,HH,2021-10-10T22:00:00+02:00,2021-10-10T22:30:00+02:00,156.19,EUR,,MWh
Power,Intraday,Continuous,NL,ID1,HH,2021-10-10T22:30:00+02:00,2021-10-10T23:00:00+02:00,156.19,EUR,,MWh
Power,Intraday,Continuous,NL,ID1,HH,2021-10-10T23:00:00+02:00,2021-10-10T23:30:00+02:00,140.24,EUR,,MWh
Power,Intraday,Continuous,NL,ID1,HH,2021-10-10T23:30:00+02:00,2021-10-11T00:00:00+02:00,140.24,EUR,,MWh
Power,Intraday,Continuous,NL,ID3,HH,2021-10-10T00:00:00+02:00,2021-10-10T00:30:00+02:00,131.75,EUR,,MWh
Power,Intraday,Continuous,NL,ID3,HH,2021-10-10T00:30:00+02:00,2021-10-10T01:00:00+02:00,131.75,EUR,,MWh
Power,Intraday,Continuous,NL,ID3,HH,2021-10-10T01:00:00+02:00,2021-10-10T01:30:00+02:00,122.96,EUR,,MWh
Power,Intraday,Continuous,NL,ID3,HH,2021-10-10T01:30:00+02:00,2021-10-10T02:00:00+02:00,122.96,EUR,,MWh
Power,Intraday,Continuous,NL,ID3,HH,2021-10-10T02:00:00+02:00,2021-10-10T02:30:00+02:00,115.56,EUR,,MWh
Power,Intraday,Continuous,NL,ID3,HH,2021-10-10T02:30:00+02:00,2021-10-10T03:00:00+02:00,115.56,EUR,,MWh
Power,Intraday,Continuous,NL,ID3,HH,2021-10-10T03:00:00+02:00,2021-10-10T03:30:00+02:00,111.72,EUR,,MWh
Power,Intraday,Continuous,NL,ID3,HH,2021-10-10T03:30:00+02:00,2021-10-10T04:00:00+02:00,111.72,EUR,,MWh
Power,Intraday,Continuous,NL,ID3,HH,2021-10-10T04:00:00+02:00,2021-10-10T04:30:00+02:00,114.57,EUR,,MWh
Power,Intraday,Continuous,NL,ID3,HH,2021-10-10T04:30:00+02:00,2021-10-10T05:00:00+02:00,114.57,EUR,,MWh
Power,Intraday,Continuous,NL,ID3,HH,2021-10-10T05:00:00+02:00,2021-10-10T05:30:00+02:00,115.44,EUR,,MWh
Power,Intraday,Continuous,NL,ID3,HH,2021-10-10T05:30:00+02:00,2021-10-10T06:00:00+02:00,115.44,EUR,,MWh
Power,Intraday,Continuous,NL,ID3,HH,2021-10-10T06:00:00+02:00,2021-10-10T06:30:00+02:00,138.95,EUR,,MWh
Power,Intraday,Continuous,NL,ID3,HH,2021-10-10T06:30:00+02:00,2021-10-10T07:00:00+02:00,138.95,EUR,,MWh
Power,Intraday,Continuous,NL,ID3,HH,2021-10-10T07:00:00+02:00,2021-10-10T07:30:00+02:00,156.68,EUR,,MWh
Power,Intraday,Continuous,NL,ID3,HH,2021-10-10T07:30:00+02:00,2021-10-10T08:00:00+02:00,156.68,EUR,,MWh
Power,Intraday,Continuous,NL,ID3,HH,2021-10-10T08:00:00+02:00,2021-10-10T08:30:00+02:00,149.37,EUR,,MWh
Power,Intraday,Continuous,NL,ID3,HH,2021-10-10T08:30:00+02:00,2021-10-10T09:00:00+02:00,149.37,EUR,,MWh
Power,Intraday,Continuous,NL,ID3,HH,2021-10-10T09:00:00+02:00,2021-10-10T09:30:00+02:00,228.75,EUR,,MWh
Power,Intraday,Continuous,NL,ID3,HH,2021-10-10T09:30:00+02:00,2021-10-10T10:00:00+02:00,117.25,EUR,12.150,MWh
Power,Intraday,Continuous,NL,ID3,HH,2021-10-10T10:00:00+02:00,2021-10-10T10:30:00+02:00,176.85,EUR,41.650,MWh
Power,Intraday,Continuous,NL,ID3,HH,2021-10-10T10:30:00+02:00,2021-10-10T11:00:00+02:00,98.83,EUR,,MWh
Power,Intraday,Continuous,NL,ID3,HH,2021-10-10T11:00:00+02:00,2021-10-10T11:30:00+02:00,151.37,EUR,41.050,MWh
Power,Intraday,Continuous,NL,ID3,HH,2021-10-10T11:30:00+02:00,2021-10-10T12:00:00+02:00,92.53,EUR,,MWh
Power,Intraday,Continuous,NL,ID3,HH,2021-10-10T12:00:00+02:00,2021-10-10T12:30:00+02:00,108.69,EUR,,MWh
Power,Intraday,Continuous,NL,ID3,HH,2021-10-10T12:30:00+02:00,2021-10-10T13:00:00+02:00,108.69,EUR,,MWh
Power,Intraday,Continuous,NL,ID3,HH,2021-10-10T13:00:00+02:00,2021-10-10T13:30:00+02:00,102.61,EUR,,MWh
Power,Intraday,Continuous,NL,ID3,HH,2021-10-10T13:30:00+02:00,2021-10-10T14:00:00+02:00,102.61,EUR,,MWh
Power,Intraday,Continuous,NL,ID3,HH,2021-10-10T14:00:00+02:00,2021-10-10T14:30:00+02:00,60.84,EUR,26.150,MWh
Power,Intraday,Continuous,NL,ID3,HH,2021-10-10T14:30:00+02:00,2021-10-10T15:00:00+02:00,131.42,EUR,,MWh
Power,Intraday,Continuous,NL,ID3,HH,2021-10-10T15:00:00+02:00,2021-10-10T15:30:00+02:00,81.05,EUR,,MWh
Power,Intraday,Continuous,NL,ID3,HH,2021-10-10T15:30:00+02:00,2021-10-10T16:00:00+02:00,148.37,EUR,,MWh
Power,Intraday,Continuous,NL,ID3,HH,2021-10-10T16:00:00+02:00,2021-10-10T16:30:00+02:00,94.65,EUR,,MWh
Power,Intraday,Continuous,NL,ID3,HH,2021-10-10T16:30:00+02:00,2021-10-10T17:00:00+02:00,144.41,EUR,,MWh
Power,Intraday,Continuous,NL,ID3,HH,2021-10-10T17:00:00+02:00,2021-10-10T17:30:00+02:00,164.72,EUR,,MWh
Power,Intraday,Continuous,NL,ID3,HH,2021-10-10T17:30:00+02:00,2021-10-10T18:00:00+02:00,164.72,EUR,,MWh
Power,Intraday,Continuous,NL,ID3,HH,2021-10-10T18:00:00+02:00,2021-10-10T18:30:00+02:00,202.69,EUR,,MWh
Power,Intraday,Continuous,NL,ID3,HH,2021-10-10T18:30:00+02:00,2021-10-10T19:00:00+02:00,202.69,EUR,,MWh
Power,Intraday,Continuous,NL,ID3,HH,2021-10-10T19:00:00+02:00,2021-10-10T19:30:00+02:00,221.69,EUR,,MWh
Power,Intraday,Continuous,NL,ID3,HH,2021-10-10T19:30:00+02:00,2021-10-10T20:00:00+02:00,221.69,EUR,,MWh
Power,Intraday,Continuous,NL,ID3,HH,2021-10-10T20:00:00+02:00,2021-10-10T20:30:00+02:00,206.57,EUR,,MWh
Power,Intraday,Continuous,NL,ID3,HH,2021-10-10T20:30:00+02:00,2021-10-10T21:00:00+02:00,206.57,EUR,,MWh
Power,Intraday,Continuous,NL,ID3,HH,2021-10-10T21:00:00+02:00,2021-10-10T21:30:00+02:00,165.66,EUR,,MWh
Power,Intraday,Continuous,NL,ID3,HH,2021-10-10T21:30:00+02:00,2021-10-10T22:00:00+02:00,165.66,EUR,,MWh
Power,Intraday,Continuous,NL,ID3,HH,2021-10-10T22:00:00+02:00,2021-10-10T22:30:00+02:00,156.19,EUR,,MWh
Power,Intraday,Continuous,NL,ID3,HH,2021-10-10T22:30:00+02:00,2021-10-10T23:00:00+02:00,156.19,EUR,,MWh
Power,Intraday,Continuous,NL,ID3,HH,2021-10-10T23:00:00+02:00,2021-10-10T23:30:00+02:00,140.24,EUR,,MWh
Power,Intraday,Continuous,NL,ID3,HH,2021-10-10T23:30:00+02:00,2021-10-11T00:00:00+02:00,140.24,EUR,,MWh
Power,Intraday,Continuous,NL,IDFULL,QH,2021-10-10T00:00:00+02:00,2021-10-10T00:15:00+02:00,131.75,EUR,,MWh
Power,Intraday,Continuous,NL,IDFULL,QH,2021-10-10T00:15:00+02:00,2021-10-10T00:30:00+02:00,131.75,EUR,,MWh
Power,Intraday,Continuous,NL,IDFULL,QH,2021-10-10T00:30:00+02:00,2021-10-10T00:45:00+02:00,131.75,EUR,,MWh
Power,Intraday,Continuous,NL,IDFULL,QH,2021-10-10T00:45:00+02:00,2021-10-10T01:00:00+02:00,131.75,EUR,,MWh
Power,Intraday,Continuous,NL,IDFULL,QH,2021-10-10T01:00:00+02:00,2021-10-10T01:15:00+02:00,119.87,EUR,4.080,MWh
Power,Intraday,Continuous,NL,IDFULL,QH,2021-10-10T01:15:00+02:00,2021-10-10T01:30:00+02:00,220.46,EUR,3.000,MWh
Power,Intraday,Continuous,NL,IDFULL,QH,2021-10-10T01:30:00+02:00,2021-10-10T01:45:00+02:00,75.76,EUR,,MWh
Power,Intraday,Continuous,NL,IDFULL,QH,2021-10-10T01:45:00+02:00,2021-10-10T02:00:00+02:00,75.76,EUR,,MWh
Power,Intraday,Continuous,NL,IDFULL,QH,2021-10-10T02:00:00+02:00,2021-10-10T02:15:00+02:00,106.45,EUR,2.530,MWh
Power,Intraday,Continuous,NL,IDFULL,QH,2021-10-10T02:15:00+02:00,2021-10-10T02:30:00+02:00,100.72,EUR,7.230,MWh
Power,Intraday,Continuous,NL,IDFULL,QH,2021-10-10T02:30:00+02:00,2021-10-10T02:45:00+02:00,136.41,EUR,,MWh
Power,Intraday,Continuous,NL,IDFULL,QH,2021-10-10T02:45:00+02:00,2021-10-10T03:00:00+02:00,118.66,EUR,3.250,MWh
Power,Intraday,Continuous,NL,IDFULL,QH,2021-10-10T03:00:00+02:00,2021-10-10T03:15:00+02:00,102.13,EUR,51.830,MWh
Power,Intraday,Continuous,NL,IDFULL,QH,2021-10-10T03:15:00+02:00,2021-10-10T03:30:00+02:00,104.46,EUR,20.100,MWh
Power,Intraday,Continuous,NL,IDFULL,QH,2021-10-10T03:30:00+02:00,2021-10-10T03:45:00+02:00,111.09,EUR,6.550,MWh
Power,Intraday,Continuous,NL,IDFULL,QH,2021-10-10T03:45:00+02:00,2021-10-10T04:00:00+02:00,121.60,EUR,6.780,MWh
Power,Intraday,Continuous,NL,IDFULL,QH,2021-10-10T04:00:00+02:00,2021-10-10T04:15:00+02:00,113.00,EUR,9.130,MWh
Power,Intraday,Continuous,NL,IDFULL,QH,2021-10-10T04:15:00+02:00,2021-10-10T04:30:00+02:00,113.74,EUR,9.430,MWh
Power,Intraday,Continuous,NL,IDFULL,QH,2021-10-10T04:30:00+02:00,2021-10-10T04:45:00+02:00,110.31,EUR,5.050,MWh
Power,Intraday,Continuous,NL,IDFULL,QH,2021-10-10T04:45:00+02:00,2021-10-10T05:00:00+02:00,116.60,EUR,6.030,MWh
Power,Intraday,Continuous,NL,IDFULL,QH,2021-10-10T05:00:00+02:00,2021-10-10T05:15:00+02:00,110.74,EUR,9.050,MWh
Power,Intraday,Continuous,NL,IDFULL,QH,2021-10-10T05:15:00+02:00,2021-10-10T05:30:00+02:00,108.64,EUR,6.800,MWh
Power,Intraday,Continuous,NL,IDFULL,QH,2021-10-10T05:30:00+02:00,2021-10-10T05:45:00+02:00,111.23,EUR,5.850,MWh
Power,Intraday,Continuous,NL,IDFULL,QH,2021-10-10T05:45:00+02:00,2021-10-10T06:00:00+02:00,119.12,EUR,10.580,MWh
Power,Intraday,Continuous,NL,IDFULL,QH,2021-10-10T06:00:00+02:00,2021-10-10T06:15:00+02:00,128.20,EUR,22.100,MWh
Power,Intraday,Continuous,NL,IDFULL,QH,2021-10-10T06:15:00+02:00,2021-10-10T06:30:00+02:00,139.11,EUR,13.030,MWh
Power,Intraday,Continuous,NL,IDFULL,QH,2021-10-10T06:30:00+02:00,2021-10-10T06:45:00+02:00,139.01,EUR,5.580,MWh
Power,Intraday,Continuous,NL,IDFULL,QH,2021-10-10T06:45:00+02:00,2021-10-10T07:00:00+02:00,151.71,EUR,14.130,MWh
Power,Intraday,Continuous,NL,IDFULL,QH,2021-10-10T07:00:00+02:00,2021-10-10T07:15:00+02:00,143.12,EUR,26.080,MWh
Power,Intraday,Continuous,NL,IDFULL,QH,2021-10-10T07:15:00+02:00,2021-10-10T07:30:00+02:00,157.26,EUR,21.430,MWh
Power,Intraday,Continuous,NL,IDFULL,QH,2021-10-10T07:30:00+02:00,2021-10-10T07:45:00+02:00,159.15,EUR,18.580,MWh
Power,Intraday,Continuous,NL,IDFULL,QH,2021-10-10T07:45:00+02:00,2021-10-10T08:00:00+02:00,167.12,EUR,27.500,MWh
Power,Intraday,Continuous,NL,IDFULL,QH,2021-10-10T08:00:00+02:00,2021-10-10T08:15:00+02:00,169.01,EUR,36.800,MWh
Power,Intraday,Continuous,NL,IDFULL,QH,2021-10-10T08:15:00+02:00,2021-10-10T08:30:00+02:00,145.77,EUR,18.880,MWh
Power,Intraday,Continuous,NL,IDFULL,QH,2021-10-10T08:30:00+02:00,2021-10-10T08:45:00+02:00,153.63,EUR,25.900,MWh
Power,Intraday,Continuous,NL,IDFULL,QH,2021-10-10T08:45:00+02:00,2021-10-10T09:00:00+02:00,132.23,EUR,36.400,MWh
Power,Intraday,Continuous,NL,IDFULL,QH,2021-10-10T09:00:00+02:00,2021-10-10T09:15:00+02:00,350.33,EUR,4.080,MWh
Power,Intraday,Continuous,NL,IDFULL,QH,2021-10-10T09:15:00+02:00,2021-10-10T09:30:00+02:00,200.90,EUR,7.380,MWh
Power,Intraday,Continuous,NL,IDFULL,QH,2021-10-10T09:30:00+02:00,2021-10-10T09:45:00+02:00,124.81,EUR,37.630,MWh
Power,Intraday,Continuous,NL,IDFULL,QH,2021-10-10T09:45:00+02:00,2021-10-10T10:00:00+02:00,89.79,EUR,45.400,MWh
Power,Intraday,Continuous,NL,IDFULL,QH,2021-10-10T10:00:00+02:00,2021-10-10T10:15:00+02:00,264.89,EUR,15.830,MWh
Power,Intraday,Continuous,NL,IDFULL,QH,2021-10-10T10:15:00+02:00,2021-10-10T10:30:00+02:00,199.55,EUR,14.030,MWh
Power,Intraday,Continuous,NL,IDFULL,QH,2021-10-10T10:30:00+02:00,2021-10-10T10:45:00+02:00,88.60,EUR,57.570,MWh
Power,Intraday,Continuous,NL,IDFULL,QH,2021-10-10T10:45:00+02:00,2021-10-10T11:00:00+02:00,80.36,EUR,96.350,MWh
Power,Intraday,Continuous,NL,IDFULL,QH,2021-10-10T11:00:00+02:00,2021-10-10T11:15:00+02:00,205.32,EUR,10.380,MWh
Power,Intraday,Continuous,NL,IDFULL,QH,2021-10-10T11:15:00+02:00,2021-10-10T11:30:00+02:00,115.54,EUR,16.180,MWh
Power,Intraday,Continuous,NL,IDFULL,QH,2021-10-10T11:30:00+02:00,2021-10-10T11:45:00+02:00,113.46,EUR,74.800,MWh
Power,Intraday,Continuous,NL,IDFULL,QH,2021-10-10T11:45:00+02:00,2021-10-10T12:00:00+02:00,95.01,EUR,103.380,MWh
Power,Intraday,Continuous,NL,IDFULL,QH,2021-10-10T12:00:00+02:00,2021-10-10T12:15:00+02:00,156.32,EUR,8.480,MWh
Power,Intraday,Continuous,NL,IDFULL,QH,2021-10-10T12:15:00+02:00,2021-10-10T12:30:00+02:00,135.02,EUR,10.230,MWh
Power,Intraday,Continuous,NL,IDFULL,QH,2021-10-10T12:30:00+02:00,2021-10-10T12:45:00+02:00,85.08,EUR,46.580,MWh
Power,Intraday,Continuous,NL,IDFULL,QH,2021-10-10T12:45:00+02:00,2021-10-10T13:00:00+02:00,24.80,EUR,19.150,MWh
Power,Intraday,Continuous,NL,IDFULL,QH,2021-10-10T13:00:00+02:00,2021-10-10T13:15:00+02:00,125.46,EUR,10.430,MWh
Power,Intraday,Continuous,NL,IDFULL,QH,2021-10-10T13:15:00+02:00,2021-10-10T13:30:00+02:00,94.99,EUR,,MWh
Power,Intraday,Continuous,NL,IDFULL,QH,2021-10-10T13:30:00+02:00,2021-10-10T13:45:00+02:00,94.99,EUR,,MWh
Power,Intraday,Continuous,NL,IDFULL,QH,2021-10-10T13:45:00+02:00,2021-10-10T14:00:00+02:00,94.99,EUR,,MWh
Power,Intraday,Continuous,NL,IDFULL,QH,2021-10-10T14:00:00+02:00,2021-10-10T14:15:00+02:00,86.34,EUR,,MWh
Power,Intraday,Continuous,NL,IDFULL,QH,2021-10-10T14:15:00+02:00,2021-10-10T14:30:00+02:00,86.34,EUR,,MWh
Power,Intraday,Continuous,NL,IDFULL,QH,2021-10-10T14:30:00+02:00,2021-10-10T14:45:00+02:00,96.70,EUR,28.480,MWh
Power,Intraday,Continuous,NL,IDFULL,QH,2021-10-10T14:45:00+02:00,2021-10-10T15:00:00+02:00,131.23,EUR,32.180,MWh
Power,Intraday,Continuous,NL,IDFULL,QH,2021-10-10T15:00:00+02:00,2021-10-10T15:15:00+02:00,13.35,EUR,3.180,MWh
Power,Intraday,Continuous,NL,IDFULL,QH,2021-10-10T15:15:00+02:00,2021-10-10T15:30:00+02:00,77.68,EUR,13.080,MWh
Power,Intraday,Continuous,NL,IDFULL,QH,2021-10-10T15:30:00+02:00,2021-10-10T15:45:00+02:00,121.16,EUR,11.230,MWh
Power,Intraday,Continuous,NL,IDFULL,QH,2021-10-10T15:45:00+02:00,2021-10-10T16:00:00+02:00,152.21,EUR,11.450,MWh
Power,Intraday,Continuous,NL,IDFULL,QH,2021-10-10T16:00:00+02:00,2021-10-10T16:15:00+02:00,42.36,EUR,68.600,MWh
Power,Intraday,Continuous,NL,IDFULL,QH,2021-10-10T16:15:00+02:00,2021-10-10T16:30:00+02:00,91.26,EUR,50.400,MWh
Power,Intraday,Continuous,NL,IDFULL,QH,2021-10-10T16:30:00+02:00,2021-10-10T16:45:00+02:00,134.50,EUR,30.230,MWh
Power,Intraday,Continuous,NL,IDFULL,QH,2021-10-10T16:45:00+02:00,2021-10-10T17:00:00+02:00,205.91,EUR,30.750,MWh
Power,Intraday,Continuous,NL,IDFULL,QH,2021-10-10T17:00:00+02:00,2021-10-10T17:15:00+02:00,93.19,EUR,87.830,MWh
Power,Intraday,Continuous,NL,IDFULL,QH,2021-10-10T17:15:00+02:00,2021-10-10T17:30:00+02:00,142.79,EUR,49.680,MWh
Power,Intraday,Continuous,NL,IDFULL,QH,2021-10-10T17:30:00+02:00,2021-10-10T17:45:00+02:00,197.97,EUR,15.330,MWh
Power,Intraday,Continuous,NL,IDFULL,QH,2021-10-10T17:45:00+02:00,2021-10-10T18:00:00+02:00,226.17,EUR,28.730,MWh
Power,Intraday,Continuous,NL,IDFULL,QH,2021-10-10T18:00:00+02:00,2021-10-10T18:15:00+02:00,164.55,EUR,79.000,MWh
Power,Intraday,Continuous,NL,IDFULL,QH,2021-10-10T18:15:00+02:00,2021-10-10T18:30:00+02:00,201.65,EUR,53.180,MWh
Power,Intraday,Continuous,NL,IDFULL,QH,2021-10-10T18:30:00+02:00,2021-10-10T18:45:00+02:00,219.44,EUR,46.800,MWh
Power,Intraday,Continuous,NL,IDFULL,QH,2021-10-10T18:45:00+02:00,2021-10-10T19:00:00+02:00,229.74,EUR,67.300,MWh
Power,Intraday,Continuous,NL,IDFULL,QH,2021-10-10T19:00:00+02:00,2021-10-10T19:15:00+02:00,238.65,EUR,45.780,MWh
Power,Intraday,Continuous,NL,IDFULL,QH,2021-10-10T19:15:00+02:00,2021-10-10T19:30:00+02:00,237.76,EUR,37.230,MWh
Power,Intraday,Continuous,NL,IDFULL,QH,2021-10-10T19:30:00+02:00,2021-10-10T19:45:00+02:00,217.58,EUR,56.700,MWh
Power,Intraday,Continuous,NL,IDFULL,QH,2021-10-10T19:45:00+02:00,2021-10-10T20:00:00+02:00,183.78,EUR,80.700,MWh
Power,Intraday,Continuous,NL,IDFULL,QH,2021-10-10T20:00:00+02:00,2021-10-10T20:15:00+02:00,231.56,EUR,36.650,MWh
Power,Intraday,Continuous,NL,IDFULL,QH,2021-10-10T20:15:00+02:00,2021-10-10T20:30:00+02:00,213.59,EUR,35.700,MWh
Power,Intraday,Continuous,NL,IDFULL,QH,2021-10-10T20:30:00+02:00,2021-10-10T20:45:00+02:00,204.26,EUR,67.630,MWh
Power,Intraday,Continuous,NL,IDFULL,QH,2021-10-10T20:45:00+02:00,2021-10-10T21:00:00+02:00,166.27,EUR,121.650,MWh
Power,Intraday,Continuous,NL,IDFULL,QH,2021-10-10T21:00:00+02:00,2021-10-10T21:15:00+02:00,201.83,EUR,74.380,MWh
Power,Intraday,Continuous,NL,IDFULL,QH,2021-10-10T21:15:00+02:00,2021-10-10T21:30:00+02:00,178.83,EUR,40.800,MWh
Power,Intraday,Continuous,NL,IDFULL,QH,2021-10-10T21:30:00+02:00,2021-10-10T21:45:00+02:00,142.54,EUR,80.900,MWh
Power,Intraday,Continuous,NL,IDFULL,QH,2021-10-10T21:45:00+02:00,2021-10-10T22:00:00+02:00,125.41,EUR,86.180,MWh
Power,Intraday,Continuous,NL,IDFULL,QH,2021-10-10T22:00:00+02:00,2021-10-10T22:15:00+02:00,184.41,EUR,37.550,MWh
Power,Intraday,Continuous,NL,IDFULL,QH,2021-10-10T22:15:00+02:00,2021-10-10T22:30:00+02:00,162.66,EUR,20.350,MWh
Power,Intraday,Continuous,NL,IDFULL,QH,2021-10-10T22:30:00+02:00,2021-10-10T22:45:00+02:00,165.14,EUR,51.250,MWh
Power,Intraday,Continuous,NL,IDFULL,QH,2021-10-10T22:45:00+02:00,2021-10-10T23:00:00+02:00,116.81,EUR,95.480,MWh
Power,Intraday,Continuous,NL,IDFULL,QH,2021-10-10T23:00:00+02:00,2021-10-10T23:15:00+02:00,174.70,EUR,27.350,MWh
Power,Intraday,Continuous,NL,IDFULL,QH,2021-10-10T23:15:00+02:00,2021-10-10T23:30:00+02:00,136.57,EUR,39.000,MWh
Power,Intraday,Continuous,NL,IDFULL,QH,2021-10-10T23:30:00+02:00,2021-10-10T23:45:00+02:00,137.35,EUR,81.630,MWh
Power,Intraday,Continuous,NL,IDFULL,QH,2021-10-10T23:45:00+02:00,2021-10-11T00:00:00+02:00,121.22,EUR,105.730,MWh
Power,Intraday,Continuous,NL,ID1,QH,2021-10-10T00:00:00+02:00,2021-10-10T00:15:00+02:00,131.75,EUR,,MWh
Power,Intraday,Continuous,NL,ID1,QH,2021-10-10T00:15:00+02:00,2021-10-10T00:30:00+02:00,131.75,EUR,,MWh
Power,Intraday,Continuous,NL,ID1,QH,2021-10-10T00:30:00+02:00,2021-10-10T00:45:00+02:00,131.75,EUR,,MWh
Power,Intraday,Continuous,NL,ID1,QH,2021-10-10T00:45:00+02:00,2021-10-10T01:00:00+02:00,131.75,EUR,,MWh
Power,Intraday,Continuous,NL,ID1,QH,2021-10-10T01:00:00+02:00,2021-10-10T01:15:00+02:00,120.05,EUR,,MWh
Power,Intraday,Continuous,NL,ID1,QH,2021-10-10T01:15:00+02:00,2021-10-10T01:30:00+02:00,227.67,EUR,,MWh
Power,Intraday,Continuous,NL,ID1,QH,2021-10-10T01:30:00+02:00,2021-10-10T01:45:00+02:00,75.76,EUR,,MWh
Power,Intraday,Continuous,NL,ID1,QH,2021-10-10T01:45:00+02:00,2021-10-10T02:00:00+02:00,75.76,EUR,,MWh
Power,Intraday,Continuous,NL,ID1,QH,2021-10-10T02:00:00+02:00,2021-10-10T02:15:00+02:00,106.45,EUR,,MWh
Power,Intraday,Continuous,NL,ID1,QH,2021-10-10T02:15:00+02:00,2021-10-10T02:30:00+02:00,100.72,EUR,,MWh
Power,Intraday,Continuous,NL,ID1,QH,2021-10-10T02:30:00+02:00,2021-10-10T02:45:00+02:00,136.41,EUR,,MWh
Power,Intraday,Continuous,NL,ID1,QH,2021-10-10T02:45:00+02:00,2021-10-10T03:00:00+02:00,118.66,EUR,,MWh
Power,Intraday,Continuous,NL,ID1,QH,2021-10-10T03:00:00+02:00,2021-10-10T03:15:00+02:00,107.35,EUR,,MWh
Power,Intraday,Continuous,NL,ID1,QH,2021-10-10T03:15:00+02:00,2021-10-10T03:30:00+02:00,107.31,EUR,,MWh
Power,Intraday,Continuous,NL,ID1,QH,2021-10-10T03:30:00+02:00,2021-10-10T03:45:00+02:00,111.09,EUR,,MWh
Power,Intraday,Continuous,NL,ID1,QH,2021-10-10T03:45:00+02:00,2021-10-10T04:00:00+02:00,121.60,EUR,,MWh
Power,Intraday,Continuous,NL,ID1,QH,2021-10-10T04:00:00+02:00,2021-10-10T04:15:00+02:00,116.29,EUR,,MWh
Power,Intraday,Continuous,NL,ID1,QH,2021-10-10T04:15:00+02:00,2021-10-10T04:30:00+02:00,118.36,EUR,,MWh
Power,Intraday,Continuous,NL,ID1,QH,2021-10-10T04:30:00+02:00,2021-10-10T04:45:00+02:00,110.31,EUR,,MWh
Power,Intraday,Continuous,NL,ID1,QH,2021-10-10T04:45:00+02:00,2021-10-10T05:00:00+02:00,116.60,EUR,,MWh
Power,Intraday,Continuous,NL,ID1,QH,2021-10-10T05:00:00+02:00,2021-10-10T05:15:00+02:00,116.32,EUR,,MWh
Power,Intraday,Continuous,NL,ID1,QH,2021-10-10T05:15:00+02:00,2021-10-10T05:30:00+02:00,108.64,EUR,,MWh
Power,Intraday,Continuous,NL,ID1,QH,2021-10-10T05:30:00+02:00,2021-10-10T05:45:00+02:00,111.23,EUR,,MWh
Power,Intraday,Continuous,NL,ID1,QH,2021-10-10T05:45:00+02:00,2021-10-10T06:00:00+02:00,128.49,EUR,,MWh
Power,Intraday,Continuous,NL,ID1,QH,2021-10-10T06:00:00+02:00,2021-10-10T06:15:00+02:00,129.97,EUR,,MWh
Power,Intraday,Continuous,NL,ID1,QH,2021-10-10T06:15:00+02:00,2021-10-10T06:30:00+02:00,142.98,EUR,,MWh
Power,Intraday,Continuous,NL,ID1,QH,2021-10-10T06:30:00+02:00,2021-10-10T06:45:00+02:00,135.30,EUR,,MWh
Power,Intraday,Continuous,NL,ID1,QH,2021-10-10T06:45:00+02:00,2021-10-10T07:00:00+02:00,151.62,EUR,,MWh
Power,Intraday,Continuous,NL,ID1,QH,2021-10-10T07:00:00+02:00,2021-10-10T07:15:00+02:00,143.31,EUR,,MWh
Power,Intraday,Continuous,NL,ID1,QH,2021-10-10T07:15:00+02:00,2021-10-10T07:30:00+02:00,159.50,EUR,,MWh
Power,Intraday,Continuous,NL,ID1,QH,2021-10-10T07:30:00+02:00,2021-10-10T07:45:00+02:00,160.89,EUR,,MWh
Power,Intraday,Continuous,NL,ID1,QH,2021-10-10T07:45:00+02:00,2021-10-10T08:00:00+02:00,168.82,EUR,,MWh
Power,Intraday,Continuous,NL,ID1,QH,2021-10-10T08:00:00+02:00,2021-10-10T08:15:00+02:00,169.09,EUR,,MWh
Power,Intraday,Continuous,NL,ID1,QH,2021-10-10T08:15:00+02:00,2021-10-10T08:30:00+02:00,141.18,EUR,,MWh
Power,Intraday,Continuous,NL,ID1,QH,2021-10-10T08:30:00+02:00,2021-10-10T08:45:00+02:00,152.64,EUR,,MWh
Power,Intraday,Continuous,NL,ID1,QH,2021-10-10T08:45:00+02:00,2021-10-10T09:00:00+02:00,122.09,EUR,,MWh
Power,Intraday,Continuous,NL,ID1,QH,2021-10-10T09:00:00+02:00,2021-10-10T09:15:00+02:00,363.40,EUR,,MWh
Power,Intraday,Continuous,NL,ID1,QH,2021-10-10T09:15:00+02:00,2021-10-10T09:30:00+02:00,205.52,EUR,,MWh
Power,Intraday,Continuous,NL,ID1,QH,2021-10-10T09:30:00+02:00,2021-10-10T09:45:00+02:00,124.71,EUR,,MWh
Power,Intraday,Continuous,NL,ID1,QH,2021-10-10T09:45:00+02:00,2021-10-10T10:00:00+02:00,88.31,EUR,,MWh
Power,Intraday,Continuous,NL,ID1,QH,2021-10-10T10:00:00+02:00,2021-10-10T10:15:00+02:00,262.92,EUR,,MWh
Power,Intraday,Continuous,NL,ID1,QH,2021-10-10T10:15:00+02:00,2021-10-10T10:30:00+02:00,167.70,EUR,,MWh
Power,Intraday,Continuous,NL,ID1,QH,2021-10-10T10:30:00+02:00,2021-10-10T10:45:00+02:00,92.41,EUR,,MWh
Power,Intraday,Continuous,NL,ID1,QH,2021-10-10T10:45:00+02:00,2021-10-10T11:00:00+02:00,79.92,EUR,,MWh
Power,Intraday,Continuous,NL,ID1,QH,2021-10-10T11:00:00+02:00,2021-10-10T11:15:00+02:00,188.77,EUR,,MWh
Power,Intraday,Continuous,NL,ID1,QH,2021-10-10T11:15:00+02:00,2021-10-10T11:30:00+02:00,115.98,EUR,,MWh
Power,Intraday,Continuous,NL,ID1,QH,2021-10-10T11:30:00+02:00,2021-10-10T11:45:00+02:00,117.91,EUR,,MWh
Power,Intraday,Continuous,NL,ID1,QH,2021-10-10T11:45:00+02:00,2021-10-10T12:00:00+02:00,102.90,EUR,,MWh
Power,Intraday,Continuous,NL,ID1,QH,2021-10-10T12:00:00+02:00,2021-10-10T12:15:00+02:00,156.32,EUR,,MWh
Power,Intraday,Continuous,NL,ID1,QH,2021-10-10T12:15:00+02:00,2021-10-10T12:30:00+02:00,135.02,EUR,,MWh
Power,Intraday,Continuous,NL,ID1,QH,2021-10-10T12:30:00+02:00,2021-10-10T12:45:00+02:00,85.74,EUR,,MWh
Power,Intraday,Continuous,NL,ID1,QH,2021-10-10T12:45:00+02:00,2021-10-10T13:00:00+02:00,24.28,EUR,,MWh
Power,Intraday,Continuous,NL,ID1,QH,2021-10-10T13:00:00+02:00,2021-10-10T13:15:00+02:00,125.46,EUR,,MWh
Power,Intraday,Continuous,NL,ID1,QH,2021-10-10T13:15:00+02:00,2021-10-10T13:30:00+02:00,94.99,EUR,,MWh
Power,Intraday,Continuous,NL,ID1,QH,2021-10-10T13:30:00+02:00,2021-10-10T13:45:00+02:00,94.99,EUR,,MWh
Power,Intraday,Continuous,NL,ID1,QH,2021-10-10T13:45:00+02:00,2021-10-10T14:00:00+02:00,94.99,EUR,,MWh
Power,Intraday,Continuous,NL,ID1,QH,2021-10-10T14:00:00+02:00,2021-10-10T14:15:00+02:00,86.34,EUR,,MWh
Power,Intraday,Continuous,NL,ID1,QH,2021-10-10T14:15:00+02:00,2021-10-10T14:30:00+02:00,86.34,EUR,,MWh
Power,Intraday,Continuous,NL,ID1,QH,2021-10-10T14:30:00+02:00,2021-10-10T14:45:00+02:00,93.47,EUR,,MWh
Power,Intraday,Continuous,NL,ID1,QH,2021-10-10T14:45:00+02:00,2021-10-10T15:00:00+02:00,137.18,EUR,,MWh
Power,Intraday,Continuous,NL,ID1,QH,2021-10-10T15:00:00+02:00,2021-10-10T15:15:00+02:00,13.35,EUR,,MWh
Power,Intraday,Continuous,NL,ID1,QH,2021-10-10T15:15:00+02:00,2021-10-10T15:30:00+02:00,79.43,EUR,,MWh
Power,Intraday,Continuous,NL,ID1,QH,2021-10-10T15:30:00+02:00,2021-10-10T15:45:00+02:00,107.88,EUR,,MWh
Power,Intraday,Continuous,NL,ID1,QH,2021-10-10T15:45:00+02:00,2021-10-10T16:00:00+02:00,152.21,EUR,,MWh
Power,Intraday,Continuous,NL,ID1,QH,2021-10-10T16:00:00+02:00,2021-10-10T16:15:00+02:00,9.13,EUR,,MWh
Power,Intraday,Continuous,NL,ID1,QH,2021-10-10T16:15:00+02:00,2021-10-10T16:30:00+02:00,84.86,EUR,,MWh
Power,Intraday,Continuous,NL,ID1,QH,2021-10-10T16:30:00+02:00,2021-10-10T16:45:00+02:00,123.54,EUR,,MWh
Power,Intraday,Continuous,NL,ID1,QH,2021-10-10T16:45:00+02:00,2021-10-10T17:00:00+02:00,184.35,EUR,2.580,MWh
Power,Intraday,Continuous,NL,ID1,QH,2021-10-10T17:00:00+02:00,2021-10-10T17:15:00+02:00,89.36,EUR,,MWh
Power,Intraday,Continuous,NL,ID1,QH,2021-10-10T17:15:00+02:00,2021-10-10T17:30:00+02:00,136.13,EUR,,MWh
Power,Intraday,Continuous,NL,ID1,QH,2021-10-10T17:30:00+02:00,2021-10-10T17:45:00+02:00,198.08,EUR,,MWh
Power,Intraday,Continuous,NL,ID1,QH,2021-10-10T17:45:00+02:00,2021-10-10T18:00:00+02:00,227.40,EUR,,MWh
Power,Intraday,Continuous,NL,ID1,QH,2021-10-10T18:00:00+02:00,2021-10-10T18:15:00+02:00,164.41,EUR,,MWh
Power,Intraday,Continuous,NL,ID1,QH,2021-10-10T18:15:00+02:00,2021-10-10T18:30:00+02:00,201.26,EUR,,MWh
Power,Intraday,Continuous,NL,ID1,QH,2021-10-10T18:30:00+02:00,2021-10-10T18:45:00+02:00,219.65,EUR,,MWh
Power,Intraday,Continuous,NL,ID1,QH,2021-10-10T18:45:00+02:00,2021-10-10T19:00:00+02:00,229.79,EUR,,MWh
Power,Intraday,Continuous,NL,ID1,QH,2021-10-10T19:00:00+02:00,2021-10-10T19:15:00+02:00,200.00,EUR,5.000,MWh
Power,Intraday,Continuous,NL,ID1,QH,2021-10-10T19:15:00+02:00,2021-10-10T19:30:00+02:00,200.00,EUR,2.750,MWh
Power,Intraday,Continuous,NL,ID1,QH,2021-10-10T19:30:00+02:00,2021-10-10T19:45:00+02:00,204.29,EUR,,MWh
Power,Intraday,Continuous,NL,ID1,QH,2021-10-10T19:45:00+02:00,2021-10-10T20:00:00+02:00,163.75,EUR,,MWh
Power,Intraday,Continuous,NL,ID1,QH,2021-10-10T20:00:00+02:00,2021-10-10T20:15:00+02:00,229.94,EUR,,MWh
Power,Intraday,Continuous,NL,ID1,QH,2021-10-10T20:15:00+02:00,2021-10-10T20:30:00+02:00,211.46,EUR,,MWh
Power,Intraday,Continuous,NL,ID1,QH,2021-10-10T20:30:00+02:00,2021-10-10T20:45:00+02:00,194.75,EUR,,MWh
Power,Intraday,Continuous,NL,ID1,QH,2021-10-10T20:45:00+02:00,2021-10-10T21:00:00+02:00,165.65,EUR,,MWh
Power,Intraday,Continuous,NL,ID1,QH,2021-10-10T21:00:00+02:00,2021-10-10T21:15:00+02:00,200.22,EUR,,MWh
Power,Intraday,Continuous,NL,ID1,QH,2021-10-10T21:15:00+02:00,2021-10-10T21:30:00+02:00,167.02,EUR,,MWh
Power,Intraday,Continuous,NL,ID1,QH,2021-10-10T21:30:00+02:00,2021-10-10T21:45:00+02:00,131.97,EUR,,MWh
Power,Intraday,Continuous,NL,ID1,QH,2021-10-10T21:45:00+02:00,2021-10-10T22:00:00+02:00,50.00,EUR,5.000,MWh
Power,Intraday,Continuous,NL,ID1,QH,2021-10-10T22:00:00+02:00,2021-10-10T22:15:00+02:00,180.57,EUR,,MWh
Power,Intraday,Continuous,NL,ID1,QH,2021-10-10T22:15:00+02:00,2021-10-10T22:30:00+02:00,152.84,EUR,,MWh
Power,Intraday,Continuous,NL,ID1,QH,2021-10-10T22:30:00+02:00,2021-10-10T22:45:00+02:00,153.09,EUR,,MWh
Power,Intraday,Continuous,NL,ID1,QH,2021-10-10T22:45:00+02:00,2021-10-10T23:00:00+02:00,108.74,EUR,,MWh
Power,Intraday,Continuous,NL,ID1,QH,2021-10-10T23:00:00+02:00,2021-10-10T23:15:00+02:00,161.54,EUR,,MWh
Power,Intraday,Continuous,NL,ID1,QH,2021-10-10T23:15:00+02:00,2021-10-10T23:30:00+02:00,107.84,EUR,,MWh
Power,Intraday,Continuous,NL,ID1,QH,2021-10-10T23:30:00+02:00,2021-10-10T23:45:00+02:00,110.68,EUR,,MWh
Power,Intraday,Continuous,NL,ID1,QH,2021-10-10T23:45:00+02:00,2021-10-11T00:00:00+02:00,109.54,EUR,,MWh
Power,Intraday,Continuous,NL,ID3,QH,2021-10-10T00:00:00+02:00,2021-10-10T00:15:00+02:00,131.75,EUR,,MWh
Power,Intraday,Continuous,NL,ID3,QH,2021-10-10T00:15:00+02:00,2021-10-10T00:30:00+02:00,131.75,EUR,,MWh
Power,Intraday,Continuous,NL,ID3,QH,2021-10-10T00:30:00+02:00,2021-10-10T00:45:00+02:00,131.75,EUR,,MWh
Power,Intraday,Continuous,NL,ID3,QH,2021-10-10T00:45:00+02:00,2021-10-10T01:00:00+02:00,131.75,EUR,,MWh
Power,Intraday,Continuous,NL,ID3,QH,2021-10-10T01:00:00+02:00,2021-10-10T01:15:00+02:00,120.05,EUR,3.530,MWh
Power,Intraday,Continuous,NL,ID3,QH,2021-10-10T01:15:00+02:00,2021-10-10T01:30:00+02:00,227.67,EUR,2.780,MWh
Power,Intraday,Continuous,NL,ID3,QH,2021-10-10T01:30:00+02:00,2021-10-10T01:45:00+02:00,75.76,EUR,,MWh
Power,Intraday,Continuous,NL,ID3,QH,2021-10-10T01:45:00+02:00,2021-10-10T02:00:00+02:00,75.76,EUR,,MWh
Power,Intraday,Continuous,NL,ID3,QH,2021-10-10T02:00:00+02:00,2021-10-10T02:15:00+02:00,106.45,EUR,,MWh
Power,Intraday,Continuous,NL,ID3,QH,2021-10-10T02:15:00+02:00,2021-10-10T02:30:00+02:00,100.72,EUR,,MWh
Power,Intraday,Continuous,NL,ID3,QH,2021-10-10T02:30:00+02:00,2021-10-10T02:45:00+02:00,136.41,EUR,,MWh
Power,Intraday,Continuous,NL,ID3,QH,2021-10-10T02:45:00+02:00,2021-10-10T03:00:00+02:00,118.66,EUR,,MWh
Power,Intraday,Continuous,NL,ID3,QH,2021-10-10T03:00:00+02:00,2021-10-10T03:15:00+02:00,107.35,EUR,11.750,MWh
Power,Intraday,Continuous,NL,ID3,QH,2021-10-10T03:15:00+02:00,2021-10-10T03:30:00+02:00,107.31,EUR,4.880,MWh
Power,Intraday,Continuous,NL,ID3,QH,2021-10-10T03:30:00+02:00,2021-10-10T03:45:00+02:00,111.09,EUR,,MWh
Power,Intraday,Continuous,NL,ID3,QH,2021-10-10T03:45:00+02:00,2021-10-10T04:00:00+02:00,121.60,EUR,,MWh
Power,Intraday,Continuous,NL,ID3,QH,2021-10-10T04:00:00+02:00,2021-10-10T04:15:00+02:00,116.29,EUR,5.300,MWh
Power,Intraday,Continuous,NL,ID3,QH,2021-10-10T04:15:00+02:00,2021-10-10T04:30:00+02:00,118.36,EUR,6.250,MWh
Power,Intraday,Continuous,NL,ID3,QH,2021-10-10T04:30:00+02:00,2021-10-10T04:45:00+02:00,110.31,EUR,,MWh
Power,Intraday,Continuous,NL,ID3,QH,2021-10-10T04:45:00+02:00,2021-10-10T05:00:00+02:00,116.60,EUR,,MWh
Power,Intraday,Continuous,NL,ID3,QH,2021-10-10T05:00:00+02:00,2021-10-10T05:15:00+02:00,116.32,EUR,3.800,MWh
Power,Intraday,Continuous,NL,ID3,QH,2021-10-10T05:15:00+02:00,2021-10-10T05:30:00+02:00,108.64,EUR,,MWh
Power,Intraday,Continuous,NL,ID3,QH,2021-10-10T05:30:00+02:00,2021-10-10T05:45:00+02:00,111.23,EUR,,MWh
Power,Intraday,Continuous,NL,ID3,QH,2021-10-10T05:45:00+02:00,2021-10-10T06:00:00+02:00,128.49,EUR,4.450,MWh
Power,Intraday,Continuous,NL,ID3,QH,2021-10-10T06:00:00+02:00,2021-10-10T06:15:00+02:00,129.97,EUR,17.230,MWh
Power,Intraday,Continuous,NL,ID3,QH,2021-10-10T06:15:00+02:00,2021-10-10T06:30:00+02:00,142.98,EUR,9.800,MWh
Power,Intraday,Continuous,NL,ID3,QH,2021-10-10T06:30:00+02:00,2021-10-10T06:45:00+02:00,135.30,EUR,2.730,MWh
Power,Intraday,Continuous,NL,ID3,QH,2021-10-10T06:45:00+02:00,2021-10-10T07:00:00+02:00,151.62,EUR,7.650,MWh
Power,Intraday,Continuous,NL,ID3,QH,2021-10-10T07:00:00+02:00,2021-10-10T07:15:00+02:00,143.31,EUR,18.700,MWh
Power,Intraday,Continuous,NL,ID3,QH,2021-10-10T07:15:00+02:00,2021-10-10T07:30:00+02:00,159.50,EUR,12.480,MWh
Power,Intraday,Continuous,NL,ID3,QH,2021-10-10T07:30:00+02:00,2021-10-10T07:45:00+02:00,160.89,EUR,11.080,MWh
Power,Intraday,Continuous,NL,ID3,QH,2021-10-10T07:45:00+02:00,2021-10-10T08:00:00+02:00,168.82,EUR,17.280,MWh
Power,Intraday,Continuous,NL,ID3,QH,2021-10-10T08:00:00+02:00,2021-10-10T08:15:00+02:00,169.09,EUR,29.700,MWh
Power,Intraday,Continuous,NL,ID3,QH,2021-10-10T08:15:00+02:00,2021-10-10T08:30:00+02:00,141.18,EUR,13.800,MWh
Power,Intraday,Continuous,NL,ID3,QH,2021-10-10T08:30:00+02:00,2021-10-10T08:45:00+02:00,152.64,EUR,23.100,MWh
Power,Intraday,Continuous,NL,ID3,QH,2021-10-10T08:45:00+02:00,2021-10-10T09:00:00+02:00,122.09,EUR,21.900,MWh
Power,Intraday,Continuous,NL,ID3,QH,2021-10-10T09:00:00+02:00,2021-10-10T09:15:00+02:00,363.40,EUR,3.330,MWh
Power,Intraday,Continuous,NL,ID3,QH,2021-10-10T09:15:00+02:00,2021-10-10T09:30:00+02:00,205.52,EUR,6.680,MWh
Power,Intraday,Continuous,NL,ID3,QH,2021-10-10T09:30:00+02:00,2021-10-10T09:45:00+02:00,124.71,EUR,37.230,MWh
Power,Intraday,Continuous,NL,ID3,QH,2021-10-10T09:45:00+02:00,2021-10-10T10:00:00+02:00,88.31,EUR,29.250,MWh
Power,Intraday,Continuous,NL,ID3,QH,2021-10-10T10:00:00+02:00,2021-10-10T10:15:00+02:00,262.92,EUR,11.050,MWh
Power,Intraday,Continuous,NL,ID3,QH,2021-10-10T10:15:00+02:00,2021-10-10T10:30:00+02:00,167.70,EUR,3.230,MWh
Power,Intraday,Continuous,NL,ID3,QH,2021-10-10T10:30:00+02:00,2021-10-10T10:45:00+02:00,92.41,EUR,35.700,MWh
Power,Intraday,Continuous,NL,ID3,QH,2021-10-10T10:45:00+02:00,2021-10-10T11:00:00+02:00,79.92,EUR,58.600,MWh
Power,Intraday,Continuous,NL,ID3,QH,2021-10-10T11:00:00+02:00,2021-10-10T11:15:00+02:00,188.77,EUR,8.250,MWh
Power,Intraday,Continuous,NL,ID3,QH,2021-10-10T11:15:00+02:00,2021-10-10T11:30:00+02:00,115.98,EUR,15.930,MWh
Power,Intraday,Continuous,NL,ID3,QH,2021-10-10T11:30:00+02:00,2021-10-10T11:45:00+02:00,117.91,EUR,51.800,MWh
Power,Intraday,Continuous,NL,ID3,QH,2021-10-10T11:45:00+02:00,2021-10-10T12:00:00+02:00,102.90,EUR,63.900,MWh
Power,Intraday,Continuous,NL,ID3,QH,2021-10-10T12:00:00+02:00,2021-10-10T12:15:00+02:00,156.32,EUR,8.480,MWh
Power,Intraday,Continuous,NL,ID3,QH,2021-10-10T12:15:00+02:00,2021-10-10T12:30:00+02:00,135.02,EUR,10.230,MWh
Power,Intraday,Continuous,NL,ID3,QH,2021-10-10T12:30:00+02:00,2021-10-10T12:45:00+02:00,85.74,EUR,43.280,MWh
Power,Intraday,Continuous,NL,ID3,QH,2021-10-10T12:45:00+02:00,2021-10-10T13:00:00+02:00,24.28,EUR,19.030,MWh
Power,Intraday,Continuous,NL,ID3,QH,2021-10-10T13:00:00+02:00,2021-10-10T13:15:00+02:00,125.46,EUR,10.430,MWh
Power,Intraday,Continuous,NL,ID3,QH,2021-10-10T13:15:00+02:00,2021-10-10T13:30:00+02:00,94.99,EUR,,MWh
Power,Intraday,Continuous,NL,ID3,QH,2021-10-10T13:30:00+02:00,2021-10-10T13:45:00+02:00,94.99,EUR,,MWh
Power,Intraday,Continuous,NL,ID3,QH,2021-10-10T13:45:00+02:00,2021-10-10T14:00:00+02:00,94.99,EUR,,MWh
Power,Intraday,Continuous,NL,ID3,QH,2021-10-10T14:00:00+02:00,2021-10-10T14:15:00+02:00,86.34,EUR,,MWh
Power,Intraday,Continuous,NL,ID3,QH,2021-10-10T14:15:00+02:00,2021-10-10T14:30:00+02:00,86.34,EUR,,MWh
Power,Intraday,Continuous,NL,ID3,QH,2021-10-10T14:30:00+02:00,2021-10-10T14:45:00+02:00,93.47,EUR,13.980,MWh
Power,Intraday,Continuous,NL,ID3,QH,2021-10-10T14:45:00+02:00,2021-10-10T15:00:00+02:00,137.18,EUR,11.500,MWh
Power,Intraday,Continuous,NL,ID3,QH,2021-10-10T15:00:00+02:00,2021-10-10T15:15:00+02:00,13.35,EUR,,MWh
Power,Intraday,Continuous,NL,ID3,QH,2021-10-10T15:15:00+02:00,2021-10-10T15:30:00+02:00,79.43,EUR,12.080,MWh
Power,Intraday,Continuous,NL,ID3,QH,2021-10-10T15:30:00+02:00,2021-10-10T15:45:00+02:00,107.88,EUR,2.580,MWh
Power,Intraday,Continuous,NL,ID3,QH,2021-10-10T15:45:00+02:00,2021-10-10T16:00:00+02:00,152.21,EUR,,MWh
Power,Intraday,Continuous,NL,ID3,QH,2021-10-10T16:00:00+02:00,2021-10-10T16:15:00+02:00,9.13,EUR,14.950,MWh
Power,Intraday,Continuous,NL,ID3,QH,2021-10-10T16:15:00+02:00,2021-10-10T16:30:00+02:00,84.86,EUR,20.780,MWh
Power,Intraday,Continuous,NL,ID3,QH,2021-10-10T16:30:00+02:00,2021-10-10T16:45:00+02:00,123.54,EUR,13.030,MWh
Power,Intraday,Continuous,NL,ID3,QH,2021-10-10T16:45:00+02:00,2021-10-10T17:00:00+02:00,225.47,EUR,12.800,MWh
Power,Intraday,Continuous,NL,ID3,QH,2021-10-10T17:00:00+02:00,2021-10-10T17:15:00+02:00,89.36,EUR,62.030,MWh
Power,Intraday,Continuous,NL,ID3,QH,2021-10-10T17:15:00+02:00,2021-10-10T17:30:00+02:00,136.13,EUR,36.680,MWh
Power,Intraday,Continuous,NL,ID3,QH,2021-10-10T17:30:00+02:00,2021-10-10T17:45:00+02:00,198.08,EUR,13.450,MWh
Power,Intraday,Continuous,NL,ID3,QH,2021-10-10T17:45:00+02:00,2021-10-10T18:00:00+02:00,227.40,EUR,27.000,MWh
Power,Intraday,Continuous,NL,ID3,QH,2021-10-10T18:00:00+02:00,2021-10-10T18:15:00+02:00,164.41,EUR,76.350,MWh
Power,Intraday,Continuous,NL,ID3,QH,2021-10-10T18:15:00+02:00,2021-10-10T18:30:00+02:00,201.26,EUR,50.950,MWh
Power,Intraday,Continuous,NL,ID3,QH,2021-10-10T18:30:00+02:00,2021-10-10T18:45:00+02:00,219.65,EUR,44.600,MWh
Power,Intraday,Continuous,NL,ID3,QH,2021-10-10T18:45:00+02:00,2021-10-10T19:00:00+02:00,229.79,EUR,65.100,MWh
Power,Intraday,Continuous,NL,ID3,QH,2021-10-10T19:00:00+02:00,2021-10-10T19:15:00+02:00,235.63,EUR,31.780,MWh
Power,Intraday,Continuous,NL,ID3,QH,2021-10-10T19:15:00+02:00,2021-10-10T19:30:00+02:00,231.47,EUR,22.530,MWh
Power,Intraday,Continuous,NL,ID3,QH,2021-10-10T19:30:00+02:00,2021-10-10T19:45:00+02:00,204.29,EUR,33.280,MWh
Power,Intraday,Continuous,NL,ID3,QH,2021-10-10T19:45:00+02:00,2021-10-10T20:00:00+02:00,163.75,EUR,47.230,MWh
Power,Intraday,Continuous,NL,ID3,QH,2021-10-10T20:00:00+02:00,2021-10-10T20:15:00+02:00,229.94,EUR,30.650,MWh
Power,Intraday,Continuous,NL,ID3,QH,2021-10-10T20:15:00+02:00,2021-10-10T20:30:00+02:00,211.46,EUR,28.780,MWh
Power,Intraday,Continuous,NL,ID3,QH,2021-10-10T20:30:00+02:00,2021-10-10T20:45:00+02:00,194.75,EUR,42.080,MWh
Power,Intraday,Continuous,NL,ID3,QH,2021-10-10T20:45:00+02:00,2021-10-10T21:00:00+02:00,165.65,EUR,77.250,MWh
Power,Intraday,Continuous,NL,ID3,QH,2021-10-10T21:00:00+02:00,2021-10-10T21:15:00+02:00,200.22,EUR,55.030,MWh
Power,Intraday,Continuous,NL,ID3,QH,2021-10-10T21:15:00+02:00,2021-10-10T21:30:00+02:00,167.02,EUR,20.430,MWh
Power,Intraday,Continuous,NL,ID3,QH,2021-10-10T21:30:00+02:00,2021-10-10T21:45:00+02:00,131.97,EUR,50.100,MWh
Power,Intraday,Continuous,NL,ID3,QH,2021-10-10T21:45:00+02:00,2021-10-10T22:00:00+02:00,87.79,EUR,34.080,MWh
Power,Intraday,Continuous,NL,ID3,QH,2021-10-10T22:00:00+02:00,2021-10-10T22:15:00+02:00,180.57,EUR,21.280,MWh
Power,Intraday,Continuous,NL,ID3,QH,2021-10-10T22:15:00+02:00,2021-10-10T22:30:00+02:00,152.84,EUR,6.380,MWh
Power,Intraday,Continuous,NL,ID3,QH,2021-10-10T22:30:00+02:00,2021-10-10T22:45:00+02:00,153.09,EUR,13.300,MWh
Power,Intraday,Continuous,NL,ID3,QH,2021-10-10T22:45:00+02:00,2021-10-10T23:00:00+02:00,108.74,EUR,42.750,MWh
Power,Intraday,Continuous,NL,ID3,QH,2021-10-10T23:00:00+02:00,2021-10-10T23:15:00+02:00,161.54,EUR,7.630,MWh
Power,Intraday,Continuous,NL,ID3,QH,2021-10-10T23:15:00+02:00,2021-10-10T23:30:00+02:00,107.84,EUR,11.930,MWh
Power,Intraday,Continuous,NL,ID3,QH,2021-10-10T23:30:00+02:00,2021-10-10T23:45:00+02:00,110.68,EUR,20.480,MWh
Power,Intraday,Continuous,NL,ID3,QH,2021-10-10T23:45:00+02:00,2021-10-11T00:00:00+02:00,109.54,EUR,19.730,MWh
Power,Intraday,Continuous,NL,IDFULL,BASE,2021-10-10T00:00:00+02:00,2021-10-11T00:00:00+02:00,141.39,EUR,13509.900,MWh
Power,Intraday,Continuous,NL,IDFULL,PEAK,2021-10-10T08:00:00+02:00,2021-10-10T20:00:00+02:00,143.08,EUR,7611.600,MWh
