Commodity,NominationModality,TradingModality,MarketArea,IndexName,TimeResolution,DeliveryStart,DeliveryEnd,IndexPrice,Currency,Volume,VolumeUnit
Power,Intraday,Continuous,NL,IDFULL,H,2021-06-30T00:00:00+02:00,2021-06-30T01:00:00+02:00,83.75,EUR,1544.500,MWh
Power,Intraday,Continuous,NL,IDFULL,H,2021-06-30T01:00:00+02:00,2021-06-30T02:00:00+02:00,78.68,EUR,1589.900,MWh
Power,Intraday,Continuous,NL,IDFULL,H,2021-06-30T02:00:00+02:00,2021-06-30T03:00:00+02:00,78.65,EUR,1566.500,MWh
Power,Intraday,Continuous,NL,IDFULL,H,2021-06-30T03:00:00+02:00,2021-06-30T04:00:00+02:00,76.32,EUR,2027.500,MWh
Power,Intraday,Continuous,NL,IDFULL,H,2021-06-30T04:00:00+02:00,2021-06-30T05:00:00+02:00,75.98,EUR,2067.400,MWh
Power,Intraday,Continuous,NL,IDFULL,H,2021-06-30T05:00:00+02:00,2021-06-30T06:00:00+02:00,81.01,EUR,2168.700,MWh
Power,Intraday,Continuous,NL,IDFULL,H,2021-06-30T06:00:00+02:00,2021-06-30T07:00:00+02:00,95.03,EUR,2554.800,MWh
Power,Intraday,Continuous,NL,IDFULL,H,2021-06-30T07:00:00+02:00,2021-06-30T08:00:00+02:00,114.23,EUR,2250.800,MWh
Power,Intraday,Continuous,NL,IDFULL,H,2021-06-30T08:00:00+02:00,2021-06-30T09:00:00+02:00,126.00,EUR,2468.600,MWh
Power,Intraday,Continuous,NL,IDFULL,H,2021-06-30T09:00:00+02:00,2021-06-30T10:00:00+02:00,124.08,EUR,3641.100,MWh
Power,Intraday,Continuous,NL,IDFULL,H,2021-06-30T10:00:00+02:00,2021-06-30T11:00:00+02:00,122.65,EUR,3579.400,MWh
Power,Intraday,Continuous,NL,IDFULL,H,2021-06-30T11:00:00+02:00,2021-06-30T12:00:00+02:00,119.84,EUR,3323.400,MWh
Power,Intraday,Continuous,NL,IDFULL,H,2021-06-30T12:00:00+02:00,2021-06-30T13:00:00+02:00,118.13,EUR,2464.500,MWh
Power,Intraday,Continuous,NL,IDFULL,H,2021-06-30T13:00:00+02:00,2021-06-30T14:00:00+02:00,104.39,EUR,2688.400,MWh
Power,Intraday,Continuous,NL,IDFULL,H,2021-06-30T14:00:00+02:00,2021-06-30T15:00:00+02:00,98.93,EUR,2270.400,MWh
Power,Intraday,Continuous,NL,IDFULL,H,2021-06-30T15:00:00+02:00,2021-06-30T16:00:00+02:00,94.61,EUR,2494.400,MWh
Power,Intraday,Continuous,NL,IDFULL,H,2021-06-30T16:00:00+02:00,2021-06-30T17:00:00+02:00,94.19,EUR,3167.100,MWh
Power,Intraday,Continuous,NL,IDFULL,H,2021-06-30T17:00:00+02:00,2021-06-30T18:00:00+02:00,101.57,EUR,2784.200,MWh
Power,Intraday,Continuous,NL,IDFULL,H,2021-06-30T18:00:00+02:00,2021-06-30T19:00:00+02:00,106.69,EUR,2371.500,MWh
Power,Intraday,Continuous,NL,IDFULL,H,2021-06-30T19:00:00+02:00,2021-06-30T20:00:00+02:00,110.15,EUR,1940.600,MWh
Power,Intraday,Continuous,NL,IDFULL,H,2021-06-30T20:00:00+02:00,2021-06-30T21:00:00+02:00,102.70,EUR,2343.500,MWh
Power,Intraday,Continuous,NL,IDFULL,H,2021-06-30T21:00:00+02:00,2021-06-30T22:00:00+02:00,97.13,EUR,2426.300,MWh
Power,Intraday,Continuous,NL,IDFULL,H,2021-06-30T22:00:00+02:00,2021-06-30T23:00:00+02:00,97.87,EUR,1868.500,MWh
Power,Intraday,Continuous,NL,IDFULL,H,2021-06-30T23:00:00+02:00,2021-07-01T00:00:00+02:00,90.82,EUR,2124.200,MWh
Power,Intraday,Continuous,NL,ID1,H,2021-06-30T00:00:00+02:00,2021-06-30T01:00:00+02:00,82.99,EUR,,MWh
Power,Intraday,Continuous,NL,ID1,H,2021-06-30T01:00:00+02:00,2021-06-30T02:00:00+02:00,76.63,EUR,,MWh
Power,Intraday,Continuous,NL,ID1,H,2021-06-30T02:00:00+02:00,2021-06-30T03:00:00+02:00,131.90,EUR,58.000,MWh
Power,Intraday,Continuous,NL,ID1,H,2021-06-30T03:00:00+02:00,2021-06-30T04:00:00+02:00,75.24,EUR,,MWh
Power,Intraday,Continuous,NL,ID1,H,2021-06-30T04:00:00+02:00,2021-06-30T05:00:00+02:00,76.15,EUR,,MWh
Power,Intraday,Continuous,NL,ID1,H,2021-06-30T05:00:00+02:00,2021-06-30T06:00:00+02:00,78.00,EUR,20.000,MWh
Power,Intraday,Continuous,NL,ID1,H,2021-06-30T06:00:00+02:00,2021-06-30T07:00:00+02:00,95.25,EUR,,MWh
Power,Intraday,Continuous,NL,ID1,H,2021-06-30T07:00:00+02:00,2021-06-30T08:00:00+02:00,95.52,EUR,71.000,MWh
Power,Intraday,Continuous,NL,ID1,H,2021-06-30T08:00:00+02:00,2021-06-30T09:00:00+02:00,219.91,EUR,44.600,MWh
Power,Intraday,Continuous,NL,ID1,H,2021-06-30T09:00:00+02:00,2021-06-30T10:00:00+02:00,159.73,EUR,80.600,MWh
Power,Intraday,Continuous,NL,ID1,H,2021-06-30T10:00:00+02:00,2021-06-30T11:00:00+02:00,96.34,EUR,155.200,MWh
Power,Intraday,Continuous,NL,ID1,H,2021-06-30T11:00:00+02:00,2021-06-30T12:00:00+02:00,96.50,EUR,40.000,MWh
Power,Intraday,Continuous,NL,ID1,H,2021-06-30T12:00:00+02:00,2021-06-30T13:00:00+02:00,107.23,EUR,54.000,MWh
Power,Intraday,Continuous,NL,ID1,H,2021-06-30T13:00:00+02:00,2021-06-30T14:00:00+02:00,103.69,EUR,103.400,MWh
Power,Intraday,Continuous,NL,ID1,H,2021-06-30T14:00:00+02:00,2021-06-30T15:00:00+02:00,146.94,EUR,28.200,MWh
Power,Intraday,Continuous,NL,ID1,H,2021-06-30T15:00:00+02:00,2021-06-30T16:00:00+02:00,112.69,EUR,45.200,MWh
Power,Intraday,Continuous,NL,ID1,H,2021-06-30T16:00:00+02:00,2021-06-30T17:00:00+02:00,112.34,EUR,67.900,MWh
Power,Intraday,Continuous,NL,ID1,H,2021-06-30T17:00:00+02:00,2021-06-30T18:00:00+02:00,91.15,EUR,40.300,MWh
Power,Intraday,Continuous,NL,ID1,H,2021-06-30T18:00:00+02:00,2021-06-30T19:00:00+02:00,71.89,EUR,63.000,MWh
Power,Intraday,Continuous,NL,ID1,H,2021-06-30T19:00:00+02:00,2021-06-30T20:00:00+02:00,114.68,EUR,135.300,MWh
Power,Intraday,Continuous,NL,ID1,H,2021-06-30T20:00:00+02:00,2021-06-30T21:00:00+02:00,120.66,EUR,58.700,MWh
Power,Intraday,Continuous,NL,ID1,H,2021-06-30T21:00:00+02:00,2021-06-30T22:00:00+02:00,63.76,EUR,68.000,MWh
Power,Intraday,Continuous,NL,ID1,H,2021-06-30T22:00:00+02:00,2021-06-30T23:00:00+02:00,95.64,EUR,,MWh
Power,Intraday,Continuous,NL,ID1,H,2021-06-30T23:00:00+02:00,2021-07-01T00:00:00+02:00,92.10,EUR,,MWh
Power,Intraday,Continuous,NL,ID3,H,2021-06-30T00:00:00+02:00,2021-06-30T01:00:00+02:00,82.99,EUR,1012.900,MWh
Power,Intraday,Continuous,NL,ID3,H,2021-06-30T01:00:00+02:00,2021-06-30T02:00:00+02:00,76.63,EUR,846.400,MWh
Power,Intraday,Continuous,NL,ID3,H,2021-06-30T02:00:00+02:00,2021-06-30T03:00:00+02:00,79.13,EUR,628.000,MWh
Power,Intraday,Continuous,NL,ID3,H,2021-06-30T03:00:00+02:00,2021-06-30T04:00:00+02:00,75.24,EUR,907.000,MWh
Power,Intraday,Continuous,NL,ID3,H,2021-06-30T04:00:00+02:00,2021-06-30T05:00:00+02:00,76.15,EUR,888.400,MWh
Power,Intraday,Continuous,NL,ID3,H,2021-06-30T05:00:00+02:00,2021-06-30T06:00:00+02:00,81.93,EUR,751.100,MWh
Power,Intraday,Continuous,NL,ID3,H,2021-06-30T06:00:00+02:00,2021-06-30T07:00:00+02:00,95.25,EUR,1041.300,MWh
Power,Intraday,Continuous,NL,ID3,H,2021-06-30T07:00:00+02:00,2021-06-30T08:00:00+02:00,115.23,EUR,873.900,MWh
Power,Intraday,Continuous,NL,ID3,H,2021-06-30T08:00:00+02:00,2021-06-30T09:00:00+02:00,125.50,EUR,1704.400,MWh
Power,Intraday,Continuous,NL,ID3,H,2021-06-30T09:00:00+02:00,2021-06-30T10:00:00+02:00,122.98,EUR,1989.600,MWh
Power,Intraday,Continuous,NL,ID3,H,2021-06-30T10:00:00+02:00,2021-06-30T11:00:00+02:00,122.43,EUR,1870.700,MWh
Power,Intraday,Continuous,NL,ID3,H,2021-06-30T11:00:00+02:00,2021-06-30T12:00:00+02:00,120.64,EUR,1363.000,MWh
Power,Intraday,Continuous,NL,ID3,H,2021-06-30T12:00:00+02:00,2021-06-30T13:00:00+02:00,115.44,EUR,964.200,MWh
Power,Intraday,Continuous,NL,ID3,H,2021-06-30T13:00:00+02:00,2021-06-30T14:00:00+02:00,102.85,EUR,1216.100,MWh
Power,Intraday,Continuous,NL,ID3,H,2021-06-30T14:00:00+02:00,2021-06-30T15:00:00+02:00,103.87,EUR,786.500,MWh
Power,Intraday,Continuous,NL,ID3,H,2021-06-30T15:00:00+02:00,2021-06-30T16:00:00+02:00,98.07,EUR,1246.400,MWh
Power,Intraday,Continuous,NL,ID3,H,2021-06-30T16:00:00+02:00,2021-06-30T17:00:00+02:00,95.60,EUR,1866.300,MWh
Power,Intraday,Continuous,NL,ID3,H,2021-06-30T17:00:00+02:00,2021-06-30T18:00:00+02:00,101.16,EUR,2155.900,MWh
Power,Intraday,Continuous,NL,ID3,H,2021-06-30T18:00:00+02:00,2021-06-30T19:00:00+02:00,98.99,EUR,1335.900,MWh
Power,Intraday,Continuous,NL,ID3,H,2021-06-30T19:00:00+02:00,2021-06-30T20:00:00+02:00,104.62,EUR,912.600,MWh
Power,Intraday,Continuous,NL,ID3,H,2021-06-30T20:00:00+02:00,2021-06-30T21:00:00+02:00,98.81,EUR,1323.000,MWh
Power,Intraday,Continuous,NL,ID3,H,2021-06-30T21:00:00+02:00,2021-06-30T22:00:00+02:00,94.68,EUR,1392.100,MWh
Power,Intraday,Continuous,NL,ID3,H,2021-06-30T22:00:00+02:00,2021-06-30T23:00:00+02:00,95.64,EUR,830.800,MWh
Power,Intraday,Continuous,NL,ID3,H,2021-06-30T23:00:00+02:00,2021-07-01T00:00:00+02:00,92.10,EUR,704.100,MWh
Power,Intraday,Continuous,NL,IDFULL,HH,2021-06-30T00:00:00+02:00,2021-06-30T00:30:00+02:00,83.75,EUR,,MWh
Power,Intraday,Continuous,NL,IDFULL,HH,2021-06-30T00:30:00+02:00,2021-06-30T01:00:00+02:00,83.75,EUR,,MWh
Power,Intraday,Continuous,NL,IDFULL,HH,2021-06-30T01:00:00+02:00,2021-06-30T01:30:00+02:00,78.68,EUR,,MWh
Power,Intraday,Continuous,NL,IDFULL,HH,2021-06-30T01:30:00+02:00,2021-06-30T02:00:00+02:00,78.68,EUR,,MWh
Power,Intraday,Continuous,NL,IDFULL,HH,2021-06-30T02:00:00+02:00,2021-06-30T02:30:00+02:00,78.65,EUR,,MWh
Power,Intraday,Continuous,NL,IDFULL,HH,2021-06-30T02:30:00+02:00,2021-06-30T03:00:00+02:00,78.65,EUR,,MWh
Power,Intraday,Continuous,NL,IDFULL,HH,2021-06-30T03:00:00+02:00,2021-06-30T03:30:00+02:00,76.32,EUR,,MWh
Power,Intraday,Continuous,NL,IDFULL,HH,2021-06-30T03:30:00+02:00,2021-06-30T04:00:00+02:00,76.32,EUR,,MWh
Power,Intraday,Continuous,NL,IDFULL,HH,2021-06-30T04:00:00+02:00,2021-06-30T04:30:00+02:00,75.98,EUR,,MWh
Power,Intraday,Continuous,NL,IDFULL,HH,2021-06-30T04:30:00+02:00,2021-06-30T05:00:00+02:00,75.98,EUR,,MWh
Power,Intraday,Continuous,NL,IDFULL,HH,2021-06-30T05:00:00+02:00,2021-06-30T05:30:00+02:00,81.01,EUR,,MWh
Power,Intraday,Continuous,NL,IDFULL,HH,2021-06-30T05:30:00+02:00,2021-06-30T06:00:00+02:00,81.01,EUR,,MWh
Power,Intraday,Continuous,NL,IDFULL,HH,2021-06-30T06:00:00+02:00,2021-06-30T06:30:00+02:00,95.03,EUR,,MWh
Power,Intraday,Continuous,NL,IDFULL,HH,2021-06-30T06:30:00+02:00,2021-06-30T07:00:00+02:00,95.03,EUR,,MWh
Power,Intraday,Continuous,NL,IDFULL,HH,2021-06-30T07:00:00+02:00,2021-06-30T07:30:00+02:00,114.23,EUR,,MWh
Power,Intraday,Continuous,NL,IDFULL,HH,2021-06-30T07:30:00+02:00,2021-06-30T08:00:00+02:00,114.23,EUR,,MWh
Power,Intraday,Continuous,NL,IDFULL,HH,2021-06-30T08:00:00+02:00,2021-06-30T08:30:00+02:00,126.00,EUR,,MWh
Power,Intraday,Continuous,NL,IDFULL,HH,2021-06-30T08:30:00+02:00,2021-06-30T09:00:00+02:00,126.00,EUR,,MWh
Power,Intraday,Continuous,NL,IDFULL,HH,2021-06-30T09:00:00+02:00,2021-06-30T09:30:00+02:00,124.08,EUR,,MWh
Power,Intraday,Continuous,NL,IDFULL,HH,2021-06-30T09:30:00+02:00,2021-06-30T10:00:00+02:00,124.08,EUR,,MWh
Power,Intraday,Continuous,NL,IDFULL,HH,2021-06-30T10:00:00+02:00,2021-06-30T10:30:00+02:00,122.65,EUR,,MWh
Power,Intraday,Continuous,NL,IDFULL,HH,2021-06-30T10:30:00+02:00,2021-06-30T11:00:00+02:00,122.65,EUR,,MWh
Power,Intraday,Continuous,NL,IDFULL,HH,2021-06-30T11:00:00+02:00,2021-06-30T11:30:00+02:00,119.84,EUR,,MWh
Power,Intraday,Continuous,NL,IDFULL,HH,2021-06-30T11:30:00+02:00,2021-06-30T12:00:00+02:00,119.84,EUR,,MWh
Power,Intraday,Continuous,NL,IDFULL,HH,2021-06-30T12:00:00+02:00,2021-06-30T12:30:00+02:00,118.13,EUR,,MWh
Power,Intraday,Continuous,NL,IDFULL,HH,2021-06-30T12:30:00+02:00,2021-06-30T13:00:00+02:00,118.13,EUR,,MWh
Power,Intraday,Continuous,NL,IDFULL,HH,2021-06-30T13:00:00+02:00,2021-06-30T13:30:00+02:00,104.39,EUR,,MWh
Power,Intraday,Continuous,NL,IDFULL,HH,2021-06-30T13:30:00+02:00,2021-06-30T14:00:00+02:00,104.39,EUR,,MWh
Power,Intraday,Continuous,NL,IDFULL,HH,2021-06-30T14:00:00+02:00,2021-06-30T14:30:00+02:00,98.93,EUR,,MWh
Power,Intraday,Continuous,NL,IDFULL,HH,2021-06-30T14:30:00+02:00,2021-06-30T15:00:00+02:00,98.93,EUR,,MWh
Power,Intraday,Continuous,NL,IDFULL,HH,2021-06-30T15:00:00+02:00,2021-06-30T15:30:00+02:00,94.61,EUR,,MWh
Power,Intraday,Continuous,NL,IDFULL,HH,2021-06-30T15:30:00+02:00,2021-06-30T16:00:00+02:00,94.61,EUR,,MWh
Power,Intraday,Continuous,NL,IDFULL,HH,2021-06-30T16:00:00+02:00,2021-06-30T16:30:00+02:00,94.19,EUR,,MWh
Power,Intraday,Continuous,NL,IDFULL,HH,2021-06-30T16:30:00+02:00,2021-06-30T17:00:00+02:00,94.19,EUR,,MWh
Power,Intraday,Continuous,NL,IDFULL,HH,2021-06-30T17:00:00+02:00,2021-06-30T17:30:00+02:00,101.57,EUR,,MWh
Power,Intraday,Continuous,NL,IDFULL,HH,2021-06-30T17:30:00+02:00,2021-06-30T18:00:00+02:00,101.57,EUR,,MWh
Power,Intraday,Continuous,NL,IDFULL,HH,2021-06-30T18:00:00+02:00,2021-06-30T18:30:00+02:00,106.69,EUR,,MWh
Power,Intraday,Continuous,NL,IDFULL,HH,2021-06-30T18:30:00+02:00,2021-06-30T19:00:00+02:00,106.69,EUR,,MWh
Power,Intraday,Continuous,NL,IDFULL,HH,2021-06-30T19:00:00+02:00,2021-06-30T19:30:00+02:00,110.15,EUR,,MWh
Power,Intraday,Continuous,NL,IDFULL,HH,2021-06-30T19:30:00+02:00,2021-06-30T20:00:00+02:00,110.15,EUR,,MWh
Power,Intraday,Continuous,NL,IDFULL,HH,2021-06-30T20:00:00+02:00,2021-06-30T20:30:00+02:00,102.70,EUR,,MWh
Power,Intraday,Continuous,NL,IDFULL,HH,2021-06-30T20:30:00+02:00,2021-06-30T21:00:00+02:00,102.70,EUR,,MWh
Power,Intraday,Continuous,NL,IDFULL,HH,2021-06-30T21:00:00+02:00,2021-06-30T21:30:00+02:00,97.13,EUR,,MWh
Power,Intraday,Continuous,NL,IDFULL,HH,2021-06-30T21:30:00+02:00,2021-06-30T22:00:00+02:00,97.13,EUR,,MWh
Power,Intraday,Continuous,NL,IDFULL,HH,2021-06-30T22:00:00+02:00,2021-06-30T22:30:00+02:00,97.87,EUR,,MWh
Power,Intraday,Continuous,NL,IDFULL,HH,2021-06-30T22:30:00+02:00,2021-06-30T23:00:00+02:00,97.87,EUR,,MWh
Power,Intraday,Continuous,NL,IDFULL,HH,2021-06-30T23:00:00+02:00,2021-06-30T23:30:00+02:00,90.82,EUR,,MWh
Power,Intraday,Continuous,NL,IDFULL,HH,2021-06-30T23:30:00+02:00,2021-07-01T00:00:00+02:00,90.82,EUR,,MWh
Power,Intraday,Continuous,NL,ID1,HH,2021-06-30T00:00:00+02:00,2021-06-30T00:30:00+02:00,83.75,EUR,,MWh
Power,Intraday,Continuous,NL,ID1,HH,2021-06-30T00:30:00+02:00,2021-06-30T01:00:00+02:00,83.75,EUR,,MWh
Power,Intraday,Continuous,NL,ID1,HH,2021-06-30T01:00:00+02:00,2021-06-30T01:30:00+02:00,78.68,EUR,,MWh
Power,Intraday,Continuous,NL,ID1,HH,2021-06-30T01:30:00+02:00,2021-06-30T02:00:00+02:00,78.68,EUR,,MWh
Power,Intraday,Continuous,NL,ID1,HH,2021-06-30T02:00:00+02:00,2021-06-30T02:30:00+02:00,78.65,EUR,,MWh
Power,Intraday,Continuous,NL,ID1,HH,2021-06-30T02:30:00+02:00,2021-06-30T03:00:00+02:00,78.65,EUR,,MWh
Power,Intraday,Continuous,NL,ID1,HH,2021-06-30T03:00:00+02:00,2021-06-30T03:30:00+02:00,76.32,EUR,,MWh
Power,Intraday,Continuous,NL,ID1,HH,2021-06-30T03:30:00+02:00,2021-06-30T04:00:00+02:00,76.32,EUR,,MWh
Power,Intraday,Continuous,NL,ID1,HH,2021-06-30T04:00:00+02:00,2021-06-30T04:30:00+02:00,75.98,EUR,,MWh
Power,Intraday,Continuous,NL,ID1,HH,2021-06-30T04:30:00+02:00,2021-06-30T05:00:00+02:00,75.98,EUR,,MWh
Power,Intraday,Continuous,NL,ID1,HH,2021-06-30T05:00:00+02:00,2021-06-30T05:30:00+02:00,81.01,EUR,,MWh
Power,Intraday,Continuous,NL,ID1,HH,2021-06-30T05:30:00+02:00,2021-06-30T06:00:00+02:00,81.01,EUR,,MWh
Power,Intraday,Continuous,NL,ID1,HH,2021-06-30T06:00:00+02:00,2021-06-30T06:30:00+02:00,95.03,EUR,,MWh
Power,Intraday,Continuous,NL,ID1,HH,2021-06-30T06:30:00+02:00,2021-06-30T07:00:00+02:00,95.03,EUR,,MWh
Power,Intraday,Continuous,NL,ID1,HH,2021-06-30T07:00:00+02:00,2021-06-30T07:30:00+02:00,114.23,EUR,,MWh
Power,Intraday,Continuous,NL,ID1,HH,2021-06-30T07:30:00+02:00,2021-06-30T08:00:00+02:00,114.23,EUR,,MWh
Power,Intraday,Continuous,NL,ID1,HH,2021-06-30T08:00:00+02:00,2021-06-30T08:30:00+02:00,126.00,EUR,,MWh
Power,Intraday,Continuous,NL,ID1,HH,2021-06-30T08:30:00+02:00,2021-06-30T09:00:00+02:00,126.00,EUR,,MWh
Power,Intraday,Continuous,NL,ID1,HH,2021-06-30T09:00:00+02:00,2021-06-30T09:30:00+02:00,124.08,EUR,,MWh
Power,Intraday,Continuous,NL,ID1,HH,2021-06-30T09:30:00+02:00,2021-06-30T10:00:00+02:00,124.08,EUR,,MWh
Power,Intraday,Continuous,NL,ID1,HH,2021-06-30T10:00:00+02:00,2021-06-30T10:30:00+02:00,122.65,EUR,,MWh
Power,Intraday,Continuous,NL,ID1,HH,2021-06-30T10:30:00+02:00,2021-06-30T11:00:00+02:00,122.65,EUR,,MWh
Power,Intraday,Continuous,NL,ID1,HH,2021-06-30T11:00:00+02:00,2021-06-30T11:30:00+02:00,119.84,EUR,,MWh
Power,Intraday,Continuous,NL,ID1,HH,2021-06-30T11:30:00+02:00,2021-06-30T12:00:00+02:00,119.84,EUR,,MWh
Power,Intraday,Continuous,NL,ID1,HH,2021-06-30T12:00:00+02:00,2021-06-30T12:30:00+02:00,118.13,EUR,,MWh
Power,Intraday,Continuous,NL,ID1,HH,2021-06-30T12:30:00+02:00,2021-06-30T13:00:00+02:00,118.13,EUR,,MWh
Power,Intraday,Continuous,NL,ID1,HH,2021-06-30T13:00:00+02:00,2021-06-30T13:30:00+02:00,104.39,EUR,,MWh
Power,Intraday,Continuous,NL,ID1,HH,2021-06-30T13:30:00+02:00,2021-06-30T14:00:00+02:00,104.39,EUR,,MWh
Power,Intraday,Continuous,NL,ID1,HH,2021-06-30T14:00:00+02:00,2021-06-30T14:30:00+02:00,98.93,EUR,,MWh
Power,Intraday,Continuous,NL,ID1,HH,2021-06-30T14:30:00+02:00,2021-06-30T15:00:00+02:00,98.93,EUR,,MWh
Power,Intraday,Continuous,NL,ID1,HH,2021-06-30T15:00:00+02:00,2021-06-30T15:30:00+02:00,94.61,EUR,,MWh
Power,Intraday,Continuous,NL,ID1,HH,2021-06-30T15:30:00+02:00,2021-06-30T16:00:00+02:00,94.61,EUR,,MWh
Power,Intraday,Continuous,NL,ID1,HH,2021-06-30T16:00:00+02:00,2021-06-30T16:30:00+02:00,94.19,EUR,,MWh
Power,Intraday,Continuous,NL,ID1,HH,2021-06-30T16:30:00+02:00,2021-06-30T17:00:00+02:00,94.19,EUR,,MWh
Power,Intraday,Continuous,NL,ID1,HH,2021-06-30T17:00:00+02:00,2021-06-30T17:30:00+02:00,101.57,EUR,,MWh
Power,Intraday,Continuous,NL,ID1,HH,2021-06-30T17:30:00+02:00,2021-06-30T18:00:00+02:00,101.57,EUR,,MWh
Power,Intraday,Continuous,NL,ID1,HH,2021-06-30T18:00:00+02:00,2021-06-30T18:30:00+02:00,106.69,EUR,,MWh
Power,Intraday,Continuous,NL,ID1,HH,2021-06-30T18:30:00+02:00,2021-06-30T19:00:00+02:00,106.69,EUR,,MWh
Power,Intraday,Continuous,NL,ID1,HH,2021-06-30T19:00:00+02:00,2021-06-30T19:30:00+02:00,110.15,EUR,,MWh
Power,Intraday,Continuous,NL,ID1,HH,2021-06-30T19:30:00+02:00,2021-06-30T20:00:00+02:00,110.15,EUR,,MWh
Power,Intraday,Continuous,NL,ID1,HH,2021-06-30T20:00:00+02:00,2021-06-30T20:30:00+02:00,102.70,EUR,,MWh
Power,Intraday,Continuous,NL,ID1,HH,2021-06-30T20:30:00+02:00,2021-06-30T21:00:00+02:00,102.70,EUR,,MWh
Power,Intraday,Continuous,NL,ID1,HH,2021-06-30T21:00:00+02:00,2021-06-30T21:30:00+02:00,97.13,EUR,,MWh
Power,Intraday,Continuous,NL,ID1,HH,2021-06-30T21:30:00+02:00,2021-06-30T22:00:00+02:00,97.13,EUR,,MWh
Power,Intraday,Continuous,NL,ID1,HH,2021-06-30T22:00:00+02:00,2021-06-30T22:30:00+02:00,97.87,EUR,,MWh
Power,Intraday,Continuous,NL,ID1,HH,2021-06-30T22:30:00+02:00,2021-06-30T23:00:00+02:00,97.87,EUR,,MWh
Power,Intraday,Continuous,NL,ID1,HH,2021-06-30T23:00:00+02:00,2021-06-30T23:30:00+02:00,90.82,EUR,,MWh
Power,Intraday,Continuous,NL,ID1,HH,2021-06-30T23:30:00+02:00,2021-07-01T00:00:00+02:00,90.82,EUR,,MWh
Power,Intraday,Continuous,NL,ID3,HH,2021-06-30T00:00:00+02:00,2021-06-30T00:30:00+02:00,83.75,EUR,,MWh
Power,Intraday,Continuous,NL,ID3,HH,2021-06-30T00:30:00+02:00,2021-06-30T01:00:00+02:00,83.75,EUR,,MWh
Power,Intraday,Continuous,NL,ID3,HH,2021-06-30T01:00:00+02:00,2021-06-30T01:30:00+02:00,78.68,EUR,,MWh
Power,Intraday,Continuous,NL,ID3,HH,2021-06-30T01:30:00+02:00,2021-06-30T02:00:00+02:00,78.68,EUR,,MWh
Power,Intraday,Continuous,NL,ID3,HH,2021-06-30T02:00:00+02:00,2021-06-30T02:30:00+02:00,78.65,EUR,,MWh
Power,Intraday,Continuous,NL,ID3,HH,2021-06-30T02:30:00+02:00,2021-06-30T03:00:00+02:00,78.65,EUR,,MWh
Power,Intraday,Continuous,NL,ID3,HH,2021-06-30T03:00:00+02:00,2021-06-30T03:30:00+02:00,76.32,EUR,,MWh
Power,Intraday,Continuous,NL,ID3,HH,2021-06-30T03:30:00+02:00,2021-06-30T04:00:00+02:00,76.32,EUR,,MWh
Power,Intraday,Continuous,NL,ID3,HH,2021-06-30T04:00:00+02:00,2021-06-30T04:30:00+02:00,75.98,EUR,,MWh
Power,Intraday,Continuous,NL,ID3,HH,2021-06-30T04:30:00+02:00,2021-06-30T05:00:00+02:00,75.98,EUR,,MWh
Power,Intraday,Continuous,NL,ID3,HH,2021-06-30T05:00:00+02:00,2021-06-30T05:30:00+02:00,81.01,EUR,,MWh
Power,Intraday,Continuous,NL,ID3,HH,2021-06-30T05:30:00+02:00,2021-06-30T06:00:00+02:00,81.01,EUR,,MWh
Power,Intraday,Continuous,NL,ID3,HH,2021-06-30T06:00:00+02:00,2021-06-30T06:30:00+02:00,95.03,EUR,,MWh
Power,Intraday,Continuous,NL,ID3,HH,2021-06-30T06:30:00+02:00,2021-06-30T07:00:00+02:00,95.03,EUR,,MWh
Power,Intraday,Continuous,NL,ID3,HH,2021-06-30T07:00:00+02:00,2021-06-30T07:30:00+02:00,114.23,EUR,,MWh
Power,Intraday,Continuous,NL,ID3,HH,2021-06-30T07:30:00+02:00,2021-06-30T08:00:00+02:00,114.23,EUR,,MWh
Power,Intraday,Continuous,NL,ID3,HH,2021-06-30T08:00:00+02:00,2021-06-30T08:30:00+02:00,126.00,EUR,,MWh
Power,Intraday,Continuous,NL,ID3,HH,2021-06-30T08:30:00+02:00,2021-06-30T09:00:00+02:00,126.00,EUR,,MWh
Power,Intraday,Continuous,NL,ID3,HH,2021-06-30T09:00:00+02:00,2021-06-30T09:30:00+02:00,124.08,EUR,,MWh
Power,Intraday,Continuous,NL,ID3,HH,2021-06-30T09:30:00+02:00,2021-06-30T10:00:00+02:00,124.08,EUR,,MWh
Power,Intraday,Continuous,NL,ID3,HH,2021-06-30T10:00:00+02:00,2021-06-30T10:30:00+02:00,122.65,EUR,,MWh
Power,Intraday,Continuous,NL,ID3,HH,2021-06-30T10:30:00+02:00,2021-06-30T11:00:00+02:00,122.65,EUR,,MWh
Power,Intraday,Continuous,NL,ID3,HH,2021-06-30T11:00:00+02:00,2021-06-30T11:30:00+02:00,119.84,EUR,,MWh
Power,Intraday,Continuous,NL,ID3,HH,2021-06-30T11:30:00+02:00,2021-06-30T12:00:00+02:00,119.84,EUR,,MWh
Power,Intraday,Continuous,NL,ID3,HH,2021-06-30T12:00:00+02:00,2021-06-30T12:30:00+02:00,118.13,EUR,,MWh
Power,Intraday,Continuous,NL,ID3,HH,2021-06-30T12:30:00+02:00,2021-06-30T13:00:00+02:00,118.13,EUR,,MWh
Power,Intraday,Continuous,NL,ID3,HH,2021-06-30T13:00:00+02:00,2021-06-30T13:30:00+02:00,104.39,EUR,,MWh
Power,Intraday,Continuous,NL,ID3,HH,2021-06-30T13:30:00+02:00,2021-06-30T14:00:00+02:00,104.39,EUR,,MWh
Power,Intraday,Continuous,NL,ID3,HH,2021-06-30T14:00:00+02:00,2021-06-30T14:30:00+02:00,98.93,EUR,,MWh
Power,Intraday,Continuous,NL,ID3,HH,2021-06-30T14:30:00+02:00,2021-06-30T15:00:00+02:00,98.93,EUR,,MWh
Power,Intraday,Continuous,NL,ID3,HH,2021-06-30T15:00:00+02:00,2021-06-30T15:30:00+02:00,94.61,EUR,,MWh
Power,Intraday,Continuous,NL,ID3,HH,2021-06-30T15:30:00+02:00,2021-06-30T16:00:00+02:00,94.61,EUR,,MWh
Power,Intraday,Continuous,NL,ID3,HH,2021-06-30T16:00:00+02:00,2021-06-30T16:30:00+02:00,94.19,EUR,,MWh
Power,Intraday,Continuous,NL,ID3,HH,2021-06-30T16:30:00+02:00,2021-06-30T17:00:00+02:00,94.19,EUR,,MWh
Power,Intraday,Continuous,NL,ID3,HH,2021-06-30T17:00:00+02:00,2021-06-30T17:30:00+02:00,101.57,EUR,,MWh
Power,Intraday,Continuous,NL,ID3,HH,2021-06-30T17:30:00+02:00,2021-06-30T18:00:00+02:00,101.57,EUR,,MWh
Power,Intraday,Continuous,NL,ID3,HH,2021-06-30T18:00:00+02:00,2021-06-30T18:30:00+02:00,106.69,EUR,,MWh
Power,Intraday,Continuous,NL,ID3,HH,2021-06-30T18:30:00+02:00,2021-06-30T19:00:00+02:00,106.69,EUR,,MWh
Power,Intraday,Continuous,NL,ID3,HH,2021-06-30T19:00:00+02:00,2021-06-30T19:30:00+02:00,110.15,EUR,,MWh
Power,Intraday,Continuous,NL,ID3,HH,2021-06-30T19:30:00+02:00,2021-06-30T20:00:00+02:00,110.15,EUR,,MWh
Power,Intraday,Continuous,NL,ID3,HH,2021-06-30T20:00:00+02:00,2021-06-30T20:30:00+02:00,102.70,EUR,,MWh
Power,Intraday,Continuous,NL,ID3,HH,2021-06-30T20:30:00+02:00,2021-06-30T21:00:00+02:00,102.70,EUR,,MWh
Power,Intraday,Continuous,NL,ID3,HH,2021-06-30T21:00:00+02:00,2021-06-30T21:30:00+02:00,97.13,EUR,,MWh
Power,Intraday,Continuous,NL,ID3,HH,2021-06-30T21:30:00+02:00,2021-06-30T22:00:00+02:00,97.13,EUR,,MWh
Power,Intraday,Continuous,NL,ID3,HH,2021-06-30T22:00:00+02:00,2021-06-30T22:30:00+02:00,97.87,EUR,,MWh
Power,Intraday,Continuous,NL,ID3,HH,2021-06-30T22:30:00+02:00,2021-06-30T23:00:00+02:00,97.87,EUR,,MWh
Power,Intraday,Continuous,NL,ID3,HH,2021-06-30T23:00:00+02:00,2021-06-30T23:30:00+02:00,90.82,EUR,,MWh
Power,Intraday,Continuous,NL,ID3,HH,2021-06-30T23:30:00+02:00,2021-07-01T00:00:00+02:00,90.82,EUR,,MWh
Power,Intraday,Continuous,NL,IDFULL,QH,2021-06-30T00:00:00+02:00,2021-06-30T00:15:00+02:00,89.67,EUR,20.200,MWh
Power,Intraday,Continuous,NL,IDFULL,QH,2021-06-30T00:15:00+02:00,2021-06-30T00:30:00+02:00,87.59,EUR,14.050,MWh
Power,Intraday,Continuous,NL,IDFULL,QH,2021-06-30T00:30:00+02:00,2021-06-30T00:45:00+02:00,87.90,EUR,10.850,MWh
Power,Intraday,Continuous,NL,IDFULL,QH,2021-06-30T00:45:00+02:00,2021-06-30T01:00:00+02:00,67.81,EUR,25.250,MWh
Power,Intraday,Continuous,NL,IDFULL,QH,2021-06-30T01:00:00+02:00,2021-06-30T01:15:00+02:00,86.89,EUR,12.700,MWh
Power,Intraday,Continuous,NL,IDFULL,QH,2021-06-30T01:15:00+02:00,2021-06-30T01:30:00+02:00,75.96,EUR,15.350,MWh
Power,Intraday,Continuous,NL,IDFULL,QH,2021-06-30T01:30:00+02:00,2021-06-30T01:45:00+02:00,77.35,EUR,11.500,MWh
Power,Intraday,Continuous,NL,IDFULL,QH,2021-06-30T01:45:00+02:00,2021-06-30T02:00:00+02:00,71.68,EUR,32.400,MWh
Power,Intraday,Continuous,NL,IDFULL,QH,2021-06-30T02:00:00+02:00,2021-06-30T02:15:00+02:00,81.84,EUR,11.630,MWh
Power,Intraday,Continuous,NL,IDFULL,QH,2021-06-30T02:15:00+02:00,2021-06-30T02:30:00+02:00,70.26,EUR,17.880,MWh
Power,Intraday,Continuous,NL,IDFULL,QH,2021-06-30T02:30:00+02:00,2021-06-30T02:45:00+02:00,74.21,EUR,34.600,MWh
Power,Intraday,Continuous,NL,IDFULL,QH,2021-06-30T02:45:00+02:00,2021-06-30T03:00:00+02:00,73.11,EUR,31.850,MWh
Power,Intraday,Continuous,NL,IDFULL,QH,2021-06-30T03:00:00+02:00,2021-06-30T03:15:00+02:00,79.06,EUR,11.030,MWh
Power,Intraday,Continuous,NL,IDFULL,QH,2021-06-30T03:15:00+02:00,2021-06-30T03:30:00+02:00,79.78,EUR,11.780,MWh
Power,Intraday,Continuous,NL,IDFULL,QH,2021-06-30T03:30:00+02:00,2021-06-30T03:45:00+02:00,76.00,EUR,18.350,MWh
Power,Intraday,Continuous,NL,IDFULL,QH,2021-06-30T03:45:00+02:00,2021-06-30T04:00:00+02:00,77.23,EUR,17.650,MWh
Power,Intraday,Continuous,NL,IDFULL,QH,2021-06-30T04:00:00+02:00,2021-06-30T04:15:00+02:00,71.76,EUR,6.980,MWh
Power,Intraday,Continuous,NL,IDFULL,QH,2021-06-30T04:15:00+02:00,2021-06-30T04:30:00+02:00,72.89,EUR,11.330,MWh
Power,Intraday,Continuous,NL,IDFULL,QH,2021-06-30T04:30:00+02:00,2021-06-30T04:45:00+02:00,76.54,EUR,14.930,MWh
Power,Intraday,Continuous,NL,IDFULL,QH,2021-06-30T04:45:00+02:00,2021-06-30T05:00:00+02:00,80.29,EUR,19.680,MWh
Power,Intraday,Continuous,NL,IDFULL,QH,2021-06-30T05:00:00+02:00,2021-06-30T05:15:00+02:00,70.86,EUR,31.180,MWh
Power,Intraday,Continuous,NL,IDFULL,QH,2021-06-30T05:15:00+02:00,2021-06-30T05:30:00+02:00,78.29,EUR,15.050,MWh
Power,Intraday,Continuous,NL,IDFULL,QH,2021-06-30T05:30:00+02:00,2021-06-30T05:45:00+02:00,78.59,EUR,10.930,MWh
Power,Intraday,Continuous,NL,IDFULL,QH,2021-06-30T05:45:00+02:00,2021-06-30T06:00:00+02:00,93.63,EUR,37.180,MWh
Power,Intraday,Continuous,NL,IDFULL,QH,2021-06-30T06:00:00+02:00,2021-06-30T06:15:00+02:00,72.17,EUR,85.400,MWh
Power,Intraday,Continuous,NL,IDFULL,QH,2021-06-30T06:15:00+02:00,2021-06-30T06:30:00+02:00,80.00,EUR,106.200,MWh
Power,Intraday,Continuous,NL,IDFULL,QH,2021-06-30T06:30:00+02:00,2021-06-30T06:45:00+02:00,95.90,EUR,113.430,MWh
Power,Intraday,Continuous,NL,IDFULL,QH,2021-06-30T06:45:00+02:00,2021-06-30T07:00:00+02:00,125.11,EUR,113.980,MWh
Power,Intraday,Continuous,NL,IDFULL,QH,2021-06-30T07:00:00+02:00,2021-06-30T07:15:00+02:00,97.01,EUR,40.800,MWh
Power,Intraday,Continuous,NL,IDFULL,QH,2021-06-30T07:15:00+02:00,2021-06-30T07:30:00+02:00,112.41,EUR,41.050,MWh
Power,Intraday,Continuous,NL,IDFULL,QH,2021-06-30T07:30:00+02:00,2021-06-30T07:45:00+02:00,116.02,EUR,37.700,MWh
Power,Intraday,Continuous,NL,IDFULL,QH,2021-06-30T07:45:00+02:00,2021-06-30T08:00:00+02:00,124.85,EUR,44.050,MWh
Power,Intraday,Continuous,NL,IDFULL,QH,2021-06-30T08:00:00+02:00,2021-06-30T08:15:00+02:00,129.78,EUR,53.180,MWh
Power,Intraday,Continuous,NL,IDFULL,QH,2021-06-30T08:15:00+02:00,2021-06-30T08:30:00+02:00,124.00,EUR,13.850,MWh
Power,Intraday,Continuous,NL,IDFULL,QH,2021-06-30T08:30:00+02:00,2021-06-30T08:45:00+02:00,117.14,EUR,27.280,MWh
Power,Intraday,Continuous,NL,IDFULL,QH,2021-06-30T08:45:00+02:00,2021-06-30T09:00:00+02:00,128.94,EUR,57.030,MWh
Power,Intraday,Continuous,NL,IDFULL,QH,2021-06-30T09:00:00+02:00,2021-06-30T09:15:00+02:00,136.24,EUR,57.230,MWh
Power,Intraday,Continuous,NL,IDFULL,QH,2021-06-30T09:15:00+02:00,2021-06-30T09:30:00+02:00,125.19,EUR,34.450,MWh
Power,Intraday,Continuous,NL,IDFULL,QH,2021-06-30T09:30:00+02:00,2021-06-30T09:45:00+02:00,117.20,EUR,44.900,MWh
Power,Intraday,Continuous,NL,IDFULL,QH,2021-06-30T09:45:00+02:00,2021-06-30T10:00:00+02:00,105.27,EUR,92.680,MWh
Power,Intraday,Continuous,NL,IDFULL,QH,2021-06-30T10:00:00+02:00,2021-06-30T10:15:00+02:00,129.97,EUR,72.400,MWh
Power,Intraday,Continuous,NL,IDFULL,QH,2021-06-30T10:15:00+02:00,2021-06-30T10:30:00+02:00,119.92,EUR,57.400,MWh
Power,Intraday,Continuous,NL,IDFULL,QH,2021-06-30T10:30:00+02:00,2021-06-30T10:45:00+02:00,118.34,EUR,61.280,MWh
Power,Intraday,Continuous,NL,IDFULL,QH,2021-06-30T10:45:00+02:00,2021-06-30T11:00:00+02:00,109.50,EUR,71.380,MWh
Power,Intraday,Continuous,NL,IDFULL,QH,2021-06-30T11:00:00+02:00,2021-06-30T11:15:00+02:00,121.64,EUR,45.130,MWh
Power,Intraday,Continuous,NL,IDFULL,QH,2021-06-30T11:15:00+02:00,2021-06-30T11:30:00+02:00,119.94,EUR,39.250,MWh
Power,Intraday,Continuous,NL,IDFULL,QH,2021-06-30T11:30:00+02:00,2021-06-30T11:45:00+02:00,122.06,EUR,37.780,MWh
Power,Intraday,Continuous,NL,IDFULL,QH,2021-06-30T11:45:00+02:00,2021-06-30T12:00:00+02:00,114.92,EUR,53.100,MWh
Power,Intraday,Continuous,NL,IDFULL,QH,2021-06-30T12:00:00+02:00,2021-06-30T12:15:00+02:00,138.59,EUR,34.050,MWh
Power,Intraday,Continuous,NL,IDFULL,QH,2021-06-30T12:15:00+02:00,2021-06-30T12:30:00+02:00,124.55,EUR,33.300,MWh
Power,Intraday,Continuous,NL,IDFULL,QH,2021-06-30T12:30:00+02:00,2021-06-30T12:45:00+02:00,116.01,EUR,39.150,MWh
Power,Intraday,Continuous,NL,IDFULL,QH,2021-06-30T12:45:00+02:00,2021-06-30T13:00:00+02:00,103.59,EUR,38.680,MWh
Power,Intraday,Continuous,NL,IDFULL,QH,2021-06-30T13:00:00+02:00,2021-06-30T13:15:00+02:00,120.64,EUR,26.700,MWh
Power,Intraday,Continuous,NL,IDFULL,QH,2021-06-30T13:15:00+02:00,2021-06-30T13:30:00+02:00,118.59,EUR,34.100,MWh
Power,Intraday,Continuous,NL,IDFULL,QH,2021-06-30T13:30:00+02:00,2021-06-30T13:45:00+02:00,113.75,EUR,40.880,MWh
Power,Intraday,Continuous,NL,IDFULL,QH,2021-06-30T13:45:00+02:00,2021-06-30T14:00:00+02:00,103.63,EUR,54.330,MWh
Power,Intraday,Continuous,NL,IDFULL,QH,2021-06-30T14:00:00+02:00,2021-06-30T14:15:00+02:00,105.23,EUR,19.380,MWh
Power,Intraday,Continuous,NL,IDFULL,QH,2021-06-30T14:15:00+02:00,2021-06-30T14:30:00+02:00,102.20,EUR,13.580,MWh
Power,Intraday,Continuous,NL,IDFULL,QH,2021-06-30T14:30:00+02:00,2021-06-30T14:45:00+02:00,97.07,EUR,81.200,MWh
Power,Intraday,Continuous,NL,IDFULL,QH,2021-06-30T14:45:00+02:00,2021-06-30T15:00:00+02:00,95.66,EUR,99.170,MWh
Power,Intraday,Continuous,NL,IDFULL,QH,2021-06-30T15:00:00+02:00,2021-06-30T15:15:00+02:00,93.87,EUR,28.300,MWh
Power,Intraday,Continuous,NL,IDFULL,QH,2021-06-30T15:15:00+02:00,2021-06-30T15:30:00+02:00,92.92,EUR,27.130,MWh
Power,Intraday,Continuous,NL,IDFULL,QH,2021-06-30T15:30:00+02:00,2021-06-30T15:45:00+02:00,92.14,EUR,50.750,MWh
Power,Intraday,Continuous,NL,IDFULL,QH,2021-06-30T15:45:00+02:00,2021-06-30T16:00:00+02:00,94.24,EUR,79.250,MWh
Power,Intraday,Continuous,NL,IDFULL,QH,2021-06-30T16:00:00+02:00,2021-06-30T16:15:00+02:00,84.05,EUR,33.830,MWh
Power,Intraday,Continuous,NL,IDFULL,QH,2021-06-30T16:15:00+02:00,2021-06-30T16:30:00+02:00,88.19,EUR,35.100,MWh
Power,Intraday,Continuous,NL,IDFULL,QH,2021-06-30T16:30:00+02:00,2021-06-30T16:45:00+02:00,89.97,EUR,77.870,MWh
Power,Intraday,Continuous,NL,IDFULL,QH,2021-06-30T16:45:00+02:00,2021-06-30T17:00:00+02:00,101.18,EUR,153.300,MWh
Power,Intraday,Continuous,NL,IDFULL,QH,2021-06-30T17:00:00+02:00,2021-06-30T17:15:00+02:00,77.82,EUR,42.550,MWh
Power,Intraday,Continuous,NL,IDFULL,QH,2021-06-30T17:15:00+02:00,2021-06-30T17:30:00+02:00,90.56,EUR,60.000,MWh
Power,Intraday,Continuous,NL,IDFULL,QH,2021-06-30T17:30:00+02:00,2021-06-30T17:45:00+02:00,101.48,EUR,85.430,MWh
Power,Intraday,Continuous,NL,IDFULL,QH,2021-06-30T17:45:00+02:00,2021-06-30T18:00:00+02:00,125.51,EUR,86.680,MWh
Power,Intraday,Continuous,NL,IDFULL,QH,2021-06-30T18:00:00+02:00,2021-06-30T18:15:00+02:00,87.25,EUR,59.950,MWh
Power,Intraday,Continuous,NL,IDFULL,QH,2021-06-30T18:15:00+02:00,2021-06-30T18:30:00+02:00,96.53,EUR,39.700,MWh
Power,Intraday,Continuous,NL,IDFULL,QH,2021-06-30T18:30:00+02:00,2021-06-30T18:45:00+02:00,110.26,EUR,43.180,MWh
Power,Intraday,Continuous,NL,IDFULL,QH,2021-06-30T18:45:00+02:00,2021-06-30T19:00:00+02:00,124.22,EUR,63.900,MWh
Power,Intraday,Continuous,NL,IDFULL,QH,2021-06-30T19:00:00+02:00,2021-06-30T19:15:00+02:00,97.87,EUR,55.200,MWh
Power,Intraday,Continuous,NL,IDFULL,QH,2021-06-30T19:15:00+02:00,2021-06-30T19:30:00+02:00,103.79,EUR,43.150,MWh
Power,Intraday,Continuous,NL,IDFULL,QH,2021-06-30T19:30:00+02:00,2021-06-30T19:45:00+02:00,110.18,EUR,57.250,MWh
Power,Intraday,Continuous,NL,IDFULL,QH,2021-06-30T19:45:00+02:00,2021-06-30T20:00:00+02:00,112.39,EUR,72.750,MWh
Power,Intraday,Continuous,NL,IDFULL,QH,2021-06-30T20:00:00+02:00,2021-06-30T20:15:00+02:00,112.38,EUR,33.050,MWh
Power,Intraday,Continuous,NL,IDFULL,QH,2021-06-30T20:15:00+02:00,2021-06-30T20:30:00+02:00,107.10,EUR,62.730,MWh
Power,Intraday,Continuous,NL,IDFULL,QH,2021-06-30T20:30:00+02:00,2021-06-30T20:45:00+02:00,98.13,EUR,80.350,MWh
Power,Intraday,Continuous,NL,IDFULL,QH,2021-06-30T20:45:00+02:00,2021-06-30T21:00:00+02:00,91.63,EUR,101.730,MWh
Power,Intraday,Continuous,NL,IDFULL,QH,2021-06-30T21:00:00+02:00,2021-06-30T21:15:00+02:00,105.82,EUR,46.180,MWh
Power,Intraday,Continuous,NL,IDFULL,QH,2021-06-30T21:15:00+02:00,2021-06-30T21:30:00+02:00,91.84,EUR,25.800,MWh
Power,Intraday,Continuous,NL,IDFULL,QH,2021-06-30T21:30:00+02:00,2021-06-30T21:45:00+02:00,88.27,EUR,29.050,MWh
Power,Intraday,Continuous,NL,IDFULL,QH,2021-06-30T21:45:00+02:00,2021-06-30T22:00:00+02:00,90.74,EUR,32.680,MWh
Power,Intraday,Continuous,NL,IDFULL,QH,2021-06-30T22:00:00+02:00,2021-06-30T22:15:00+02:00,107.08,EUR,37.230,MWh
Power,Intraday,Continuous,NL,IDFULL,QH,2021-06-30T22:15:00+02:00,2021-06-30T22:30:00+02:00,96.69,EUR,28.480,MWh
Power,Intraday,Continuous,NL,IDFULL,QH,2021-06-30T22:30:00+02:00,2021-06-30T22:45:00+02:00,97.69,EUR,28.730,MWh
Power,Intraday,Continuous,NL,IDFULL,QH,2021-06-30T22:45:00+02:00,2021-06-30T23:00:00+02:00,91.40,EUR,37.580,MWh
Power,Intraday,Continuous,NL,IDFULL,QH,2021-06-30T23:00:00+02:00,2021-06-30T23:15:00+02:00,100.70,EUR,75.150,MWh
Power,Intraday,Continuous,NL,IDFULL,QH,2021-06-30T23:15:00+02:00,2021-06-30T23:30:00+02:00,91.63,EUR,30.400,MWh
Power,Intraday,Continuous,NL,IDFULL,QH,2021-06-30T23:30:00+02:00,2021-06-30T23:45:00+02:00,88.39,EUR,35.350,MWh
Power,Intraday,Continuous,NL,IDFULL,QH,2021-06-30T23:45:00+02:00,2021-07-01T00:00:00+02:00,76.01,EUR,49.830,MWh
Power,Intraday,Continuous,NL,ID1,QH,2021-06-30T00:00:00+02:00,2021-06-30T00:15:00+02:00,89.67,EUR,,MWh
Power,Intraday,Continuous,NL,ID1,QH,2021-06-30T00:15:00+02:00,2021-06-30T00:30:00+02:00,87.59,EUR,,MWh
Power,Intraday,Continuous,NL,ID1,QH,2021-06-30T00:30:00+02:00,2021-06-30T00:45:00+02:00,87.61,EUR,,MWh
Power,Intraday,Continuous,NL,ID1,QH,2021-06-30T00:45:00+02:00,2021-06-30T01:00:00+02:00,64.90,EUR,,MWh
Power,Intraday,Continuous,NL,ID1,QH,2021-06-30T01:00:00+02:00,2021-06-30T01:15:00+02:00,86.26,EUR,,MWh
Power,Intraday,Continuous,NL,ID1,QH,2021-06-30T01:15:00+02:00,2021-06-30T01:30:00+02:00,73.90,EUR,,MWh
Power,Intraday,Continuous,NL,ID1,QH,2021-06-30T01:30:00+02:00,2021-06-30T01:45:00+02:00,78.01,EUR,,MWh
Power,Intraday,Continuous,NL,ID1,QH,2021-06-30T01:45:00+02:00,2021-06-30T02:00:00+02:00,71.58,EUR,,MWh
Power,Intraday,Continuous,NL,ID1,QH,2021-06-30T02:00:00+02:00,2021-06-30T02:15:00+02:00,79.72,EUR,,MWh
Power,Intraday,Continuous,NL,ID1,QH,2021-06-30T02:15:00+02:00,2021-06-30T02:30:00+02:00,80.00,EUR,2.500,MWh
Power,Intraday,Continuous,NL,ID1,QH,2021-06-30T02:30:00+02:00,2021-06-30T02:45:00+02:00,73.97,EUR,,MWh
Power,Intraday,Continuous,NL,ID1,QH,2021-06-30T02:45:00+02:00,2021-06-30T03:00:00+02:00,72.73,EUR,,MWh
Power,Intraday,Continuous,NL,ID1,QH,2021-06-30T03:00:00+02:00,2021-06-30T03:15:00+02:00,79.22,EUR,,MWh
Power,Intraday,Continuous,NL,ID1,QH,2021-06-30T03:15:00+02:00,2021-06-30T03:30:00+02:00,80.01,EUR,,MWh
Power,Intraday,Continuous,NL,ID1,QH,2021-06-30T03:30:00+02:00,2021-06-30T03:45:00+02:00,76.06,EUR,,MWh
Power,Intraday,Continuous,NL,ID1,QH,2021-06-30T03:45:00+02:00,2021-06-30T04:00:00+02:00,77.34,EUR,,MWh
Power,Intraday,Continuous,NL,ID1,QH,2021-06-30T04:00:00+02:00,2021-06-30T04:15:00+02:00,74.14,EUR,,MWh
Power,Intraday,Continuous,NL,ID1,QH,2021-06-30T04:15:00+02:00,2021-06-30T04:30:00+02:00,73.06,EUR,,MWh
Power,Intraday,Continuous,NL,ID1,QH,2021-06-30T04:30:00+02:00,2021-06-30T04:45:00+02:00,75.16,EUR,,MWh
Power,Intraday,Continuous,NL,ID1,QH,2021-06-30T04:45:00+02:00,2021-06-30T05:00:00+02:00,76.50,EUR,,MWh
Power,Intraday,Continuous,NL,ID1,QH,2021-06-30T05:00:00+02:00,2021-06-30T05:15:00+02:00,75.25,EUR,,MWh
Power,Intraday,Continuous,NL,ID1,QH,2021-06-30T05:15:00+02:00,2021-06-30T05:30:00+02:00,82.25,EUR,,MWh
Power,Intraday,Continuous,NL,ID1,QH,2021-06-30T05:30:00+02:00,2021-06-30T05:45:00+02:00,78.88,EUR,,MWh
Power,Intraday,Continuous,NL,ID1,QH,2021-06-30T05:45:00+02:00,2021-06-30T06:00:00+02:00,87.09,EUR,,MWh
Power,Intraday,Continuous,NL,ID1,QH,2021-06-30T06:00:00+02:00,2021-06-30T06:15:00+02:00,71.78,EUR,,MWh
Power,Intraday,Continuous,NL,ID1,QH,2021-06-30T06:15:00+02:00,2021-06-30T06:30:00+02:00,83.45,EUR,,MWh
Power,Intraday,Continuous,NL,ID1,QH,2021-06-30T06:30:00+02:00,2021-06-30T06:45:00+02:00,92.05,EUR,,MWh
Power,Intraday,Continuous,NL,ID1,QH,2021-06-30T06:45:00+02:00,2021-06-30T07:00:00+02:00,117.58,EUR,,MWh
Power,Intraday,Continuous,NL,ID1,QH,2021-06-30T07:00:00+02:00,2021-06-30T07:15:00+02:00,95.64,EUR,,MWh
Power,Intraday,Continuous,NL,ID1,QH,2021-06-30T07:15:00+02:00,2021-06-30T07:30:00+02:00,112.23,EUR,,MWh
Power,Intraday,Continuous,NL,ID1,QH,2021-06-30T07:30:00+02:00,2021-06-30T07:45:00+02:00,114.99,EUR,,MWh
Power,Intraday,Continuous,NL,ID1,QH,2021-06-30T07:45:00+02:00,2021-06-30T08:00:00+02:00,122.62,EUR,,MWh
Power,Intraday,Continuous,NL,ID1,QH,2021-06-30T08:00:00+02:00,2021-06-30T08:15:00+02:00,129.21,EUR,,MWh
Power,Intraday,Continuous,NL,ID1,QH,2021-06-30T08:15:00+02:00,2021-06-30T08:30:00+02:00,120.37,EUR,,MWh
Power,Intraday,Continuous,NL,ID1,QH,2021-06-30T08:30:00+02:00,2021-06-30T08:45:00+02:00,116.89,EUR,,MWh
Power,Intraday,Continuous,NL,ID1,QH,2021-06-30T08:45:00+02:00,2021-06-30T09:00:00+02:00,135.00,EUR,5.000,MWh
Power,Intraday,Continuous,NL,ID1,QH,2021-06-30T09:00:00+02:00,2021-06-30T09:15:00+02:00,135.51,EUR,,MWh
Power,Intraday,Continuous,NL,ID1,QH,2021-06-30T09:15:00+02:00,2021-06-30T09:30:00+02:00,125.48,EUR,,MWh
Power,Intraday,Continuous,NL,ID1,QH,2021-06-30T09:30:00+02:00,2021-06-30T09:45:00+02:00,114.45,EUR,,MWh
Power,Intraday,Continuous,NL,ID1,QH,2021-06-30T09:45:00+02:00,2021-06-30T10:00:00+02:00,60.78,EUR,6.250,MWh
Power,Intraday,Continuous,NL,ID1,QH,2021-06-30T10:00:00+02:00,2021-06-30T10:15:00+02:00,85.60,EUR,12.250,MWh
Power,Intraday,Continuous,NL,ID1,QH,2021-06-30T10:15:00+02:00,2021-06-30T10:30:00+02:00,73.04,EUR,2.500,MWh
Power,Intraday,Continuous,NL,ID1,QH,2021-06-30T10:30:00+02:00,2021-06-30T10:45:00+02:00,117.98,EUR,,MWh
Power,Intraday,Continuous,NL,ID1,QH,2021-06-30T10:45:00+02:00,2021-06-30T11:00:00+02:00,52.91,EUR,3.750,MWh
Power,Intraday,Continuous,NL,ID1,QH,2021-06-30T11:00:00+02:00,2021-06-30T11:15:00+02:00,124.60,EUR,,MWh
Power,Intraday,Continuous,NL,ID1,QH,2021-06-30T11:15:00+02:00,2021-06-30T11:30:00+02:00,119.81,EUR,,MWh
Power,Intraday,Continuous,NL,ID1,QH,2021-06-30T11:30:00+02:00,2021-06-30T11:45:00+02:00,124.63,EUR,,MWh
Power,Intraday,Continuous,NL,ID1,QH,2021-06-30T11:45:00+02:00,2021-06-30T12:00:00+02:00,117.50,EUR,,MWh
Power,Intraday,Continuous,NL,ID1,QH,2021-06-30T12:00:00+02:00,2021-06-30T12:15:00+02:00,138.27,EUR,,MWh
Power,Intraday,Continuous,NL,ID1,QH,2021-06-30T12:15:00+02:00,2021-06-30T12:30:00+02:00,123.76,EUR,,MWh
Power,Intraday,Continuous,NL,ID1,QH,2021-06-30T12:30:00+02:00,2021-06-30T12:45:00+02:00,119.23,EUR,,MWh
Power,Intraday,Continuous,NL,ID1,QH,2021-06-30T12:45:00+02:00,2021-06-30T13:00:00+02:00,99.05,EUR,,MWh
Power,Intraday,Continuous,NL,ID1,QH,2021-06-30T13:00:00+02:00,2021-06-30T13:15:00+02:00,105.00,EUR,2.500,MWh
Power,Intraday,Continuous,NL,ID1,QH,2021-06-30T13:15:00+02:00,2021-06-30T13:30:00+02:00,117.74,EUR,,MWh
Power,Intraday,Continuous,NL,ID1,QH,2021-06-30T13:30:00+02:00,2021-06-30T13:45:00+02:00,118.82,EUR,,MWh
Power,Intraday,Continuous,NL,ID1,QH,2021-06-30T13:45:00+02:00,2021-06-30T14:00:00+02:00,112.08,EUR,,MWh
Power,Intraday,Continuous,NL,ID1,QH,2021-06-30T14:00:00+02:00,2021-06-30T14:15:00+02:00,105.98,EUR,,MWh
Power,Intraday,Continuous,NL,ID1,QH,2021-06-30T14:15:00+02:00,2021-06-30T14:30:00+02:00,106.06,EUR,,MWh
Power,Intraday,Continuous,NL,ID1,QH,2021-06-30T14:30:00+02:00,2021-06-30T14:45:00+02:00,97.40,EUR,,MWh
Power,Intraday,Continuous,NL,ID1,QH,2021-06-30T14:45:00+02:00,2021-06-30T15:00:00+02:00,95.72,EUR,,MWh
Power,Intraday,Continuous,NL,ID1,QH,2021-06-30T15:00:00+02:00,2021-06-30T15:15:00+02:00,96.51,EUR,,MWh
Power,Intraday,Continuous,NL,ID1,QH,2021-06-30T15:15:00+02:00,2021-06-30T15:30:00+02:00,93.34,EUR,,MWh
Power,Intraday,Continuous,NL,ID1,QH,2021-06-30T15:30:00+02:00,2021-06-30T15:45:00+02:00,92.29,EUR,,MWh
Power,Intraday,Continuous,NL,ID1,QH,2021-06-30T15:45:00+02:00,2021-06-30T16:00:00+02:00,94.19,EUR,,MWh
Power,Intraday,Continuous,NL,ID1,QH,2021-06-30T16:00:00+02:00,2021-06-30T16:15:00+02:00,84.16,EUR,,MWh
Power,Intraday,Continuous,NL,ID1,QH,2021-06-30T16:15:00+02:00,2021-06-30T16:30:00+02:00,87.22,EUR,,MWh
Power,Intraday,Continuous,NL,ID1,QH,2021-06-30T16:30:00+02:00,2021-06-30T16:45:00+02:00,89.18,EUR,,MWh
Power,Intraday,Continuous,NL,ID1,QH,2021-06-30T16:45:00+02:00,2021-06-30T17:00:00+02:00,99.66,EUR,,MWh
Power,Intraday,Continuous,NL,ID1,QH,2021-06-30T17:00:00+02:00,2021-06-30T17:15:00+02:00,76.96,EUR,,MWh
Power,Intraday,Continuous,NL,ID1,QH,2021-06-30T17:15:00+02:00,2021-06-30T17:30:00+02:00,88.10,EUR,,MWh
Power,Intraday,Continuous,NL,ID1,QH,2021-06-30T17:30:00+02:00,2021-06-30T17:45:00+02:00,64.35,EUR,5.000,MWh
Power,Intraday,Continuous,NL,ID1,QH,2021-06-30T17:45:00+02:00,2021-06-30T18:00:00+02:00,122.57,EUR,,MWh
Power,Intraday,Continuous,NL,ID1,QH,2021-06-30T18:00:00+02:00,2021-06-30T18:15:00+02:00,50.08,EUR,5.000,MWh
Power,Intraday,Continuous,NL,ID1,QH,2021-06-30T18:15:00+02:00,2021-06-30T18:30:00+02:00,90.11,EUR,,MWh
Power,Intraday,Continuous,NL,ID1,QH,2021-06-30T18:30:00+02:00,2021-06-30T18:45:00+02:00,102.84,EUR,,MWh
Power,Intraday,Continuous,NL,ID1,QH,2021-06-30T18:45:00+02:00,2021-06-30T19:00:00+02:00,116.42,EUR,,MWh
Power,Intraday,Continuous,NL,ID1,QH,2021-06-30T19:00:00+02:00,2021-06-30T19:15:00+02:00,92.21,EUR,,MWh
Power,Intraday,Continuous,NL,ID1,QH,2021-06-30T19:15:00+02:00,2021-06-30T19:30:00+02:00,97.94,EUR,,MWh
Power,Intraday,Continuous,NL,ID1,QH,2021-06-30T19:30:00+02:00,2021-06-30T19:45:00+02:00,106.73,EUR,,MWh
Power,Intraday,Continuous,NL,ID1,QH,2021-06-30T19:45:00+02:00,2021-06-30T20:00:00+02:00,90.00,EUR,3.750,MWh
Power,Intraday,Continuous,NL,ID1,QH,2021-06-30T20:00:00+02:00,2021-06-30T20:15:00+02:00,104.29,EUR,,MWh
Power,Intraday,Continuous,NL,ID1,QH,2021-06-30T20:15:00+02:00,2021-06-30T20:30:00+02:00,106.23,EUR,,MWh
Power,Intraday,Continuous,NL,ID1,QH,2021-06-30T20:30:00+02:00,2021-06-30T20:45:00+02:00,53.03,EUR,3.750,MWh
Power,Intraday,Continuous,NL,ID1,QH,2021-06-30T20:45:00+02:00,2021-06-30T21:00:00+02:00,53.03,EUR,3.750,MWh
Power,Intraday,Continuous,NL,ID1,QH,2021-06-30T21:00:00+02:00,2021-06-30T21:15:00+02:00,79.33,EUR,3.750,MWh
Power,Intraday,Continuous,NL,ID1,QH,2021-06-30T21:15:00+02:00,2021-06-30T21:30:00+02:00,55.02,EUR,3.000,MWh
Power,Intraday,Continuous,NL,ID1,QH,2021-06-30T21:30:00+02:00,2021-06-30T21:45:00+02:00,55.40,EUR,2.830,MWh
Power,Intraday,Continuous,NL,ID1,QH,2021-06-30T21:45:00+02:00,2021-06-30T22:00:00+02:00,55.40,EUR,2.830,MWh
Power,Intraday,Continuous,NL,ID1,QH,2021-06-30T22:00:00+02:00,2021-06-30T22:15:00+02:00,105.29,EUR,,MWh
Power,Intraday,Continuous,NL,ID1,QH,2021-06-30T22:15:00+02:00,2021-06-30T22:30:00+02:00,94.10,EUR,,MWh
Power,Intraday,Continuous,NL,ID1,QH,2021-06-30T22:30:00+02:00,2021-06-30T22:45:00+02:00,96.64,EUR,,MWh
Power,Intraday,Continuous,NL,ID1,QH,2021-06-30T22:45:00+02:00,2021-06-30T23:00:00+02:00,93.42,EUR,,MWh
Power,Intraday,Continuous,NL,ID1,QH,2021-06-30T23:00:00+02:00,2021-06-30T23:15:00+02:00,100.01,EUR,,MWh
Power,Intraday,Continuous,NL,ID1,QH,2021-06-30T23:15:00+02:00,2021-06-30T23:30:00+02:00,93.37,EUR,,MWh
Power,Intraday,Continuous,NL,ID1,QH,2021-06-30T23:30:00+02:00,2021-06-30T23:45:00+02:00,86.22,EUR,,MWh
Power,Intraday,Continuous,NL,ID1,QH,2021-06-30T23:45:00+02:00,2021-07-01T00:00:00+02:00,83.33,EUR,,MWh
Power,Intraday,Continuous,NL,ID3,QH,2021-06-30T00:00:00+02:00,2021-06-30T00:15:00+02:00,89.67,EUR,20.200,MWh
Power,Intraday,Continuous,NL,ID3,QH,2021-06-30T00:15:00+02:00,2021-06-30T00:30:00+02:00,87.59,EUR,14.050,MWh
Power,Intraday,Continuous,NL,ID3,QH,2021-06-30T00:30:00+02:00,2021-06-30T00:45:00+02:00,87.61,EUR,9.050,MWh
Power,Intraday,Continuous,NL,ID3,QH,2021-06-30T00:45:00+02:00,2021-06-30T01:00:00+02:00,64.90,EUR,20.230,MWh
Power,Intraday,Continuous,NL,ID3,QH,2021-06-30T01:00:00+02:00,2021-06-30T01:15:00+02:00,86.26,EUR,11.450,MWh
Power,Intraday,Continuous,NL,ID3,QH,2021-06-30T01:15:00+02:00,2021-06-30T01:30:00+02:00,73.90,EUR,9.100,MWh
Power,Intraday,Continuous,NL,ID3,QH,2021-06-30T01:30:00+02:00,2021-06-30T01:45:00+02:00,78.01,EUR,3.850,MWh
Power,Intraday,Continuous,NL,ID3,QH,2021-06-30T01:45:00+02:00,2021-06-30T02:00:00+02:00,71.58,EUR,25.650,MWh
Power,Intraday,Continuous,NL,ID3,QH,2021-06-30T02:00:00+02:00,2021-06-30T02:15:00+02:00,79.72,EUR,7.780,MWh
Power,Intraday,Continuous,NL,ID3,QH,2021-06-30T02:15:00+02:00,2021-06-30T02:30:00+02:00,69.01,EUR,13.400,MWh
Power,Intraday,Continuous,NL,ID3,QH,2021-06-30T02:30:00+02:00,2021-06-30T02:45:00+02:00,73.97,EUR,30.330,MWh
Power,Intraday,Continuous,NL,ID3,QH,2021-06-30T02:45:00+02:00,2021-06-30T03:00:00+02:00,72.73,EUR,29.130,MWh
Power,Intraday,Continuous,NL,ID3,QH,2021-06-30T03:00:00+02:00,2021-06-30T03:15:00+02:00,79.22,EUR,9.880,MWh
Power,Intraday,Continuous,NL,ID3,QH,2021-06-30T03:15:00+02:00,2021-06-30T03:30:00+02:00,80.01,EUR,10.850,MWh
Power,Intraday,Continuous,NL,ID3,QH,2021-06-30T03:30:00+02:00,2021-06-30T03:45:00+02:00,76.06,EUR,17.950,MWh
Power,Intraday,Continuous,NL,ID3,QH,2021-06-30T03:45:00+02:00,2021-06-30T04:00:00+02:00,77.34,EUR,17.100,MWh
Power,Intraday,Continuous,NL,ID3,QH,2021-06-30T04:00:00+02:00,2021-06-30T04:15:00+02:00,74.14,EUR,3.180,MWh
Power,Intraday,Continuous,NL,ID3,QH,2021-06-30T04:15:00+02:00,2021-06-30T04:30:00+02:00,73.06,EUR,6.030,MWh
Power,Intraday,Continuous,NL,ID3,QH,2021-06-30T04:30:00+02:00,2021-06-30T04:45:00+02:00,75.16,EUR,9.400,MWh
Power,Intraday,Continuous,NL,ID3,QH,2021-06-30T04:45:00+02:00,2021-06-30T05:00:00+02:00,76.50,EUR,10.900,MWh
Power,Intraday,Continuous,NL,ID3,QH,2021-06-30T05:00:00+02:00,2021-06-30T05:15:00+02:00,75.25,EUR,5.300,MWh
Power,Intraday,Continuous,NL,ID3,QH,2021-06-30T05:15:00+02:00,2021-06-30T05:30:00+02:00,82.25,EUR,4.580,MWh
Power,Intraday,Continuous,NL,ID3,QH,2021-06-30T05:30:00+02:00,2021-06-30T05:45:00+02:00,78.88,EUR,4.450,MWh
Power,Intraday,Continuous,NL,ID3,QH,2021-06-30T05:45:00+02:00,2021-06-30T06:00:00+02:00,87.09,EUR,8.880,MWh
Power,Intraday,Continuous,NL,ID3,QH,2021-06-30T06:00:00+02:00,2021-06-30T06:15:00+02:00,71.78,EUR,49.500,MWh
Power,Intraday,Continuous,NL,ID3,QH,2021-06-30T06:15:00+02:00,2021-06-30T06:30:00+02:00,83.45,EUR,15.400,MWh
Power,Intraday,Continuous,NL,ID3,QH,2021-06-30T06:30:00+02:00,2021-06-30T06:45:00+02:00,92.05,EUR,53.500,MWh
Power,Intraday,Continuous,NL,ID3,QH,2021-06-30T06:45:00+02:00,2021-06-30T07:00:00+02:00,117.58,EUR,41.700,MWh
Power,Intraday,Continuous,NL,ID3,QH,2021-06-30T07:00:00+02:00,2021-06-30T07:15:00+02:00,95.64,EUR,29.200,MWh
Power,Intraday,Continuous,NL,ID3,QH,2021-06-30T07:15:00+02:00,2021-06-30T07:30:00+02:00,112.23,EUR,27.580,MWh
Power,Intraday,Continuous,NL,ID3,QH,2021-06-30T07:30:00+02:00,2021-06-30T07:45:00+02:00,114.99,EUR,27.100,MWh
Power,Intraday,Continuous,NL,ID3,QH,2021-06-30T07:45:00+02:00,2021-06-30T08:00:00+02:00,122.62,EUR,15.900,MWh
Power,Intraday,Continuous,NL,ID3,QH,2021-06-30T08:00:00+02:00,2021-06-30T08:15:00+02:00,129.21,EUR,49.530,MWh
Power,Intraday,Continuous,NL,ID3,QH,2021-06-30T08:15:00+02:00,2021-06-30T08:30:00+02:00,120.37,EUR,7.480,MWh
Power,Intraday,Continuous,NL,ID3,QH,2021-06-30T08:30:00+02:00,2021-06-30T08:45:00+02:00,116.89,EUR,21.400,MWh
Power,Intraday,Continuous,NL,ID3,QH,2021-06-30T08:45:00+02:00,2021-06-30T09:00:00+02:00,130.92,EUR,49.250,MWh
Power,Intraday,Continuous,NL,ID3,QH,2021-06-30T09:00:00+02:00,2021-06-30T09:15:00+02:00,135.51,EUR,46.230,MWh
Power,Intraday,Continuous,NL,ID3,QH,2021-06-30T09:15:00+02:00,2021-06-30T09:30:00+02:00,125.48,EUR,21.050,MWh
Power,Intraday,Continuous,NL,ID3,QH,2021-06-30T09:30:00+02:00,2021-06-30T09:45:00+02:00,114.45,EUR,21.080,MWh
Power,Intraday,Continuous,NL,ID3,QH,2021-06-30T09:45:00+02:00,2021-06-30T10:00:00+02:00,100.53,EUR,67.530,MWh
Power,Intraday,Continuous,NL,ID3,QH,2021-06-30T10:00:00+02:00,2021-06-30T10:15:00+02:00,129.03,EUR,55.750,MWh
Power,Intraday,Continuous,NL,ID3,QH,2021-06-30T10:15:00+02:00,2021-06-30T10:30:00+02:00,119.27,EUR,44.830,MWh
Power,Intraday,Continuous,NL,ID3,QH,2021-06-30T10:30:00+02:00,2021-06-30T10:45:00+02:00,117.98,EUR,42.280,MWh
Power,Intraday,Continuous,NL,ID3,QH,2021-06-30T10:45:00+02:00,2021-06-30T11:00:00+02:00,105.40,EUR,48.000,MWh
Power,Intraday,Continuous,NL,ID3,QH,2021-06-30T11:00:00+02:00,2021-06-30T11:15:00+02:00,124.60,EUR,21.350,MWh
Power,Intraday,Continuous,NL,ID3,QH,2021-06-30T11:15:00+02:00,2021-06-30T11:30:00+02:00,119.81,EUR,15.950,MWh
Power,Intraday,Continuous,NL,ID3,QH,2021-06-30T11:30:00+02:00,2021-06-30T11:45:00+02:00,124.63,EUR,13.000,MWh
Power,Intraday,Continuous,NL,ID3,QH,2021-06-30T11:45:00+02:00,2021-06-30T12:00:00+02:00,117.50,EUR,21.680,MWh
Power,Intraday,Continuous,NL,ID3,QH,2021-06-30T12:00:00+02:00,2021-06-30T12:15:00+02:00,138.27,EUR,16.630,MWh
Power,Intraday,Continuous,NL,ID3,QH,2021-06-30T12:15:00+02:00,2021-06-30T12:30:00+02:00,123.76,EUR,21.400,MWh
Power,Intraday,Continuous,NL,ID3,QH,2021-06-30T12:30:00+02:00,2021-06-30T12:45:00+02:00,119.23,EUR,18.450,MWh
Power,Intraday,Continuous,NL,ID3,QH,2021-06-30T12:45:00+02:00,2021-06-30T13:00:00+02:00,99.05,EUR,19.600,MWh
Power,Intraday,Continuous,NL,ID3,QH,2021-06-30T13:00:00+02:00,2021-06-30T13:15:00+02:00,119.06,EUR,17.880,MWh
Power,Intraday,Continuous,NL,ID3,QH,2021-06-30T13:15:00+02:00,2021-06-30T13:30:00+02:00,117.74,EUR,26.950,MWh
Power,Intraday,Continuous,NL,ID3,QH,2021-06-30T13:30:00+02:00,2021-06-30T13:45:00+02:00,118.82,EUR,30.350,MWh
Power,Intraday,Continuous,NL,ID3,QH,2021-06-30T13:45:00+02:00,2021-06-30T14:00:00+02:00,112.08,EUR,34.680,MWh
Power,Intraday,Continuous,NL,ID3,QH,2021-06-30T14:00:00+02:00,2021-06-30T14:15:00+02:00,105.98,EUR,12.980,MWh
Power,Intraday,Continuous,NL,ID3,QH,2021-06-30T14:15:00+02:00,2021-06-30T14:30:00+02:00,106.06,EUR,8.250,MWh
Power,Intraday,Continuous,NL,ID3,QH,2021-06-30T14:30:00+02:00,2021-06-30T14:45:00+02:00,97.40,EUR,73.950,MWh
Power,Intraday,Continuous,NL,ID3,QH,2021-06-30T14:45:00+02:00,2021-06-30T15:00:00+02:00,95.72,EUR,89.870,MWh
Power,Intraday,Continuous,NL,ID3,QH,2021-06-30T15:00:00+02:00,2021-06-30T15:15:00+02:00,96.51,EUR,18.450,MWh
Power,Intraday,Continuous,NL,ID3,QH,2021-06-30T15:15:00+02:00,2021-06-30T15:30:00+02:00,93.34,EUR,18.300,MWh
Power,Intraday,Continuous,NL,ID3,QH,2021-06-30T15:30:00+02:00,2021-06-30T15:45:00+02:00,92.29,EUR,42.650,MWh
Power,Intraday,Continuous,NL,ID3,QH,2021-06-30T15:45:00+02:00,2021-06-30T16:00:00+02:00,94.19,EUR,67.880,MWh
Power,Intraday,Continuous,NL,ID3,QH,2021-06-30T16:00:00+02:00,2021-06-30T16:15:00+02:00,84.16,EUR,21.850,MWh
Power,Intraday,Continuous,NL,ID3,QH,2021-06-30T16:15:00+02:00,2021-06-30T16:30:00+02:00,87.22,EUR,26.530,MWh
Power,Intraday,Continuous,NL,ID3,QH,2021-06-30T16:30:00+02:00,2021-06-30T16:45:00+02:00,89.18,EUR,67.600,MWh
Power,Intraday,Continuous,NL,ID3,QH,2021-06-30T16:45:00+02:00,2021-06-30T17:00:00+02:00,99.66,EUR,130.300,MWh
Power,Intraday,Continuous,NL,ID3,QH,2021-06-30T17:00:00+02:00,2021-06-30T17:15:00+02:00,76.96,EUR,38.150,MWh
Power,Intraday,Continuous,NL,ID3,QH,2021-06-30T17:15:00+02:00,2021-06-30T17:30:00+02:00,88.10,EUR,53.550,MWh
Power,Intraday,Continuous,NL,ID3,QH,2021-06-30T17:30:00+02:00,2021-06-30T17:45:00+02:00,99.30,EUR,74.620,MWh
Power,Intraday,Continuous,NL,ID3,QH,2021-06-30T17:45:00+02:00,2021-06-30T18:00:00+02:00,122.57,EUR,64.980,MWh
Power,Intraday,Continuous,NL,ID3,QH,2021-06-30T18:00:00+02:00,2021-06-30T18:15:00+02:00,82.38,EUR,43.180,MWh
Power,Intraday,Continuous,NL,ID3,QH,2021-06-30T18:15:00+02:00,2021-06-30T18:30:00+02:00,90.11,EUR,20.680,MWh
Power,Intraday,Continuous,NL,ID3,QH,2021-06-30T18:30:00+02:00,2021-06-30T18:45:00+02:00,102.84,EUR,26.080,MWh
Power,Intraday,Continuous,NL,ID3,QH,2021-06-30T18:45:00+02:00,2021-06-30T19:00:00+02:00,116.42,EUR,41.300,MWh
Power,Intraday,Continuous,NL,ID3,QH,2021-06-30T19:00:00+02:00,2021-06-30T19:15:00+02:00,92.21,EUR,41.080,MWh
Power,Intraday,Continuous,NL,ID3,QH,2021-06-30T19:15:00+02:00,2021-06-30T19:30:00+02:00,97.94,EUR,30.780,MWh
Power,Intraday,Continuous,NL,ID3,QH,2021-06-30T19:30:00+02:00,2021-06-30T19:45:00+02:00,106.73,EUR,44.130,MWh
Power,Intraday,Continuous,NL,ID3,QH,2021-06-30T19:45:00+02:00,2021-06-30T20:00:00+02:00,109.31,EUR,48.630,MWh
Power,Intraday,Continuous,NL,ID3,QH,2021-06-30T20:00:00+02:00,2021-06-30T20:15:00+02:00,104.29,EUR,15.630,MWh
Power,Intraday,Continuous,NL,ID3,QH,2021-06-30T20:15:00+02:00,2021-06-30T20:30:00+02:00,106.23,EUR,54.100,MWh
Power,Intraday,Continuous,NL,ID3,QH,2021-06-30T20:30:00+02:00,2021-06-30T20:45:00+02:00,96.89,EUR,60.600,MWh
Power,Intraday,Continuous,NL,ID3,QH,2021-06-30T20:45:00+02:00,2021-06-30T21:00:00+02:00,89.03,EUR,73.230,MWh
Power,Intraday,Continuous,NL,ID3,QH,2021-06-30T21:00:00+02:00,2021-06-30T21:15:00+02:00,105.04,EUR,36.030,MWh
Power,Intraday,Continuous,NL,ID3,QH,2021-06-30T21:15:00+02:00,2021-06-30T21:30:00+02:00,87.65,EUR,16.600,MWh
Power,Intraday,Continuous,NL,ID3,QH,2021-06-30T21:30:00+02:00,2021-06-30T21:45:00+02:00,85.87,EUR,20.780,MWh
Power,Intraday,Continuous,NL,ID3,QH,2021-06-30T21:45:00+02:00,2021-06-30T22:00:00+02:00,87.77,EUR,21.250,MWh
Power,Intraday,Continuous,NL,ID3,QH,2021-06-30T22:00:00+02:00,2021-06-30T22:15:00+02:00,105.29,EUR,26.030,MWh
Power,Intraday,Continuous,NL,ID3,QH,2021-06-30T22:15:00+02:00,2021-06-30T22:30:00+02:00,94.10,EUR,16.400,MWh
Power,Intraday,Continuous,NL,ID3,QH,2021-06-30T22:30:00+02:00,2021-06-30T22:45:00+02:00,96.64,EUR,13.430,MWh
Power,Intraday,Continuous,NL,ID3,QH,2021-06-30T22:45:00+02:00,2021-06-30T23:00:00+02:00,93.42,EUR,23.050,MWh
Power,Intraday,Continuous,NL,ID3,QH,2021-06-30T23:00:00+02:00,2021-06-30T23:15:00+02:00,100.01,EUR,26.950,MWh
Power,Intraday,Continuous,NL,ID3,QH,2021-06-30T23:15:00+02:00,2021-06-30T23:30:00+02:00,93.37,EUR,7.580,MWh
Power,Intraday,Continuous,NL,ID3,QH,2021-06-30T23:30:00+02:00,2021-06-30T23:45:00+02:00,86.22,EUR,16.150,MWh
Power,Intraday,Continuous,NL,ID3,QH,2021-06-30T23:45:00+02:00,2021-07-01T00:00:00+02:00,83.33,EUR,9.850,MWh
Power,Intraday,Continuous,NL,IDFULL,BASE,2021-06-30T00:00:00+02:00,2021-07-01T00:00:00+02:00,99.73,EUR,57726.200,MWh
Power,Intraday,Continuous,NL,IDFULL,PEAK,2021-06-30T08:00:00+02:00,2021-06-30T20:00:00+02:00,110.10,EUR,33193.600,MWh
