Commodity,NominationModality,TradingModality,MarketArea,IndexName,TimeResolution,DeliveryStart,DeliveryEnd,IndexPrice,Currency,Volume,VolumeUnit
Power,Intraday,Continuous,NL,IDFULL,H,2021-08-24T00:00:00+02:00,2021-08-24T01:00:00+02:00,81.81,EUR,785.300,MWh
Power,Intraday,Continuous,NL,IDFULL,H,2021-08-24T01:00:00+02:00,2021-08-24T02:00:00+02:00,77.81,EUR,836.700,MWh
Power,Intraday,Continuous,NL,IDFULL,H,2021-08-24T02:00:00+02:00,2021-08-24T03:00:00+02:00,75.29,EUR,1218.300,MWh
Power,Intraday,Continuous,NL,IDFULL,H,2021-08-24T03:00:00+02:00,2021-08-24T04:00:00+02:00,75.81,EUR,1066.800,MWh
Power,Intraday,Continuous,NL,IDFULL,H,2021-08-24T04:00:00+02:00,2021-08-24T05:00:00+02:00,78.85,EUR,656.800,MWh
Power,Intraday,Continuous,NL,IDFULL,H,2021-08-24T05:00:00+02:00,2021-08-24T06:00:00+02:00,79.12,EUR,316.600,MWh
Power,Intraday,Continuous,NL,IDFULL,H,2021-08-24T06:00:00+02:00,2021-08-24T07:00:00+02:00,100.21,EUR,387.000,MWh
Power,Intraday,Continuous,NL,IDFULL,H,2021-08-24T07:00:00+02:00,2021-08-24T08:00:00+02:00,118.92,EUR,353.100,MWh
Power,Intraday,Continuous,NL,IDFULL,H,2021-08-24T08:00:00+02:00,2021-08-24T09:00:00+02:00,125.93,EUR,463.200,MWh
Power,Intraday,Continuous,NL,IDFULL,H,2021-08-24T09:00:00+02:00,2021-08-24T10:00:00+02:00,103.18,EUR,587.500,MWh
Power,Intraday,Continuous,NL,IDFULL,H,2021-08-24T10:00:00+02:00,2021-08-24T11:00:00+02:00,104.82,EUR,703.600,MWh
Power,Intraday,Continuous,NL,IDFULL,H,2021-08-24T11:00:00+02:00,2021-08-24T12:00:00+02:00,105.75,EUR,771.400,MWh
Power,Intraday,Continuous,NL,IDFULL,H,2021-08-24T12:00:00+02:00,2021-08-24T13:00:00+02:00,93.34,EUR,933.800,MWh
Power,Intraday,Continuous,NL,IDFULL,H,2021-08-24T13:00:00+02:00,2021-08-24T14:00:00+02:00,80.64,EUR,1282.800,MWh
Power,Intraday,Continuous,NL,IDFULL,H,2021-08-24T14:00:00+02:00,2021-08-24T15:00:00+02:00,76.78,EUR,1310.300,MWh
Power,Intraday,Continuous,NL,IDFULL,H,2021-08-24T15:00:00+02:00,2021-08-24T16:00:00+02:00,77.60,EUR,1114.700,MWh
Power,Intraday,Continuous,NL,IDFULL,H,2021-08-24T16:00:00+02:00,2021-08-24T17:00:00+02:00,78.34,EUR,946.800,MWh
Power,Intraday,Continuous,NL,IDFULL,H,2021-08-24T17:00:00+02:00,2021-08-24T18:00:00+02:00,85.60,EUR,836.200,MWh
Power,Intraday,Continuous,NL,IDFULL,H,2021-08-24T18:00:00+02:00,2021-08-24T19:00:00+02:00,110.02,EUR,620.900,MWh
Power,Intraday,Continuous,NL,IDFULL,H,2021-08-24T19:00:00+02:00,2021-08-24T20:00:00+02:00,120.38,EUR,633.000,MWh
Power,Intraday,Continuous,NL,IDFULL,H,2021-08-24T20:00:00+02:00,2021-08-24T21:00:00+02:00,136.11,EUR,344.300,MWh
Power,Intraday,Continuous,NL,IDFULL,H,2021-08-24T21:00:00+02:00,2021-08-24T22:00:00+02:00,114.96,EUR,380.000,MWh
Power,Intraday,Continuous,NL,IDFULL,H,2021-08-24T22:00:00+02:00,2021-08-24T23:00:00+02:00,97.82,EUR,681.200,MWh
Power,Intraday,Continuous,NL,IDFULL,H,2021-08-24T23:00:00+02:00,2021-08-25T00:00:00+02:00,84.33,EUR,694.500,MWh
Power,Intraday,Continuous,NL,ID1,H,2021-08-24T00:00:00+02:00,2021-08-24T01:00:00+02:00,81.99,EUR,,MWh
Power,Intraday,Continuous,NL,ID1,H,2021-08-24T01:00:00+02:00,2021-08-24T02:00:00+02:00,78.00,EUR,10.000,MWh
Power,Intraday,Continuous,NL,ID1,H,2021-08-24T02:00:00+02:00,2021-08-24T03:00:00+02:00,61.00,EUR,10.000,MWh
Power,Intraday,Continuous,NL,ID1,H,2021-08-24T03:00:00+02:00,2021-08-24T04:00:00+02:00,75.87,EUR,,MWh
Power,Intraday,Continuous,NL,ID1,H,2021-08-24T04:00:00+02:00,2021-08-24T05:00:00+02:00,78.00,EUR,25.000,MWh
Power,Intraday,Continuous,NL,ID1,H,2021-08-24T05:00:00+02:00,2021-08-24T06:00:00+02:00,64.21,EUR,50.000,MWh
Power,Intraday,Continuous,NL,ID1,H,2021-08-24T06:00:00+02:00,2021-08-24T07:00:00+02:00,100.96,EUR,,MWh
Power,Intraday,Continuous,NL,ID1,H,2021-08-24T07:00:00+02:00,2021-08-24T08:00:00+02:00,119.62,EUR,,MWh
Power,Intraday,Continuous,NL,ID1,H,2021-08-24T08:00:00+02:00,2021-08-24T09:00:00+02:00,106.02,EUR,55.000,MWh
Power,Intraday,Continuous,NL,ID1,H,2021-08-24T09:00:00+02:00,2021-08-24T10:00:00+02:00,78.36,EUR,121.000,MWh
Power,Intraday,Continuous,NL,ID1,H,2021-08-24T10:00:00+02:00,2021-08-24T11:00:00+02:00,109.19,EUR,13.600,MWh
Power,Intraday,Continuous,NL,ID1,H,2021-08-24T11:00:00+02:00,2021-08-24T12:00:00+02:00,143.05,EUR,98.300,MWh
Power,Intraday,Continuous,NL,ID1,H,2021-08-24T12:00:00+02:00,2021-08-24T13:00:00+02:00,87.70,EUR,125.300,MWh
Power,Intraday,Continuous,NL,ID1,H,2021-08-24T13:00:00+02:00,2021-08-24T14:00:00+02:00,76.59,EUR,190.000,MWh
Power,Intraday,Continuous,NL,ID1,H,2021-08-24T14:00:00+02:00,2021-08-24T15:00:00+02:00,75.26,EUR,106.600,MWh
Power,Intraday,Continuous,NL,ID1,H,2021-08-24T15:00:00+02:00,2021-08-24T16:00:00+02:00,74.63,EUR,27.000,MWh
Power,Intraday,Continuous,NL,ID1,H,2021-08-24T16:00:00+02:00,2021-08-24T17:00:00+02:00,71.81,EUR,25.300,MWh
Power,Intraday,Continuous,NL,ID1,H,2021-08-24T17:00:00+02:00,2021-08-24T18:00:00+02:00,74.39,EUR,127.000,MWh
Power,Intraday,Continuous,NL,ID1,H,2021-08-24T18:00:00+02:00,2021-08-24T19:00:00+02:00,99.52,EUR,26.100,MWh
Power,Intraday,Continuous,NL,ID1,H,2021-08-24T19:00:00+02:00,2021-08-24T20:00:00+02:00,119.22,EUR,,MWh
Power,Intraday,Continuous,NL,ID1,H,2021-08-24T20:00:00+02:00,2021-08-24T21:00:00+02:00,180.82,EUR,27.700,MWh
Power,Intraday,Continuous,NL,ID1,H,2021-08-24T21:00:00+02:00,2021-08-24T22:00:00+02:00,117.31,EUR,,MWh
Power,Intraday,Continuous,NL,ID1,H,2021-08-24T22:00:00+02:00,2021-08-24T23:00:00+02:00,67.92,EUR,15.000,MWh
Power,Intraday,Continuous,NL,ID1,H,2021-08-24T23:00:00+02:00,2021-08-25T00:00:00+02:00,63.48,EUR,30.000,MWh
Power,Intraday,Continuous,NL,ID3,H,2021-08-24T00:00:00+02:00,2021-08-24T01:00:00+02:00,81.99,EUR,612.800,MWh
Power,Intraday,Continuous,NL,ID3,H,2021-08-24T01:00:00+02:00,2021-08-24T02:00:00+02:00,75.52,EUR,430.400,MWh
Power,Intraday,Continuous,NL,ID3,H,2021-08-24T02:00:00+02:00,2021-08-24T03:00:00+02:00,75.91,EUR,968.600,MWh
Power,Intraday,Continuous,NL,ID3,H,2021-08-24T03:00:00+02:00,2021-08-24T04:00:00+02:00,75.87,EUR,855.100,MWh
Power,Intraday,Continuous,NL,ID3,H,2021-08-24T04:00:00+02:00,2021-08-24T05:00:00+02:00,78.41,EUR,408.600,MWh
Power,Intraday,Continuous,NL,ID3,H,2021-08-24T05:00:00+02:00,2021-08-24T06:00:00+02:00,78.16,EUR,246.500,MWh
Power,Intraday,Continuous,NL,ID3,H,2021-08-24T06:00:00+02:00,2021-08-24T07:00:00+02:00,100.96,EUR,290.200,MWh
Power,Intraday,Continuous,NL,ID3,H,2021-08-24T07:00:00+02:00,2021-08-24T08:00:00+02:00,119.62,EUR,293.000,MWh
Power,Intraday,Continuous,NL,ID3,H,2021-08-24T08:00:00+02:00,2021-08-24T09:00:00+02:00,125.20,EUR,378.200,MWh
Power,Intraday,Continuous,NL,ID3,H,2021-08-24T09:00:00+02:00,2021-08-24T10:00:00+02:00,101.29,EUR,440.600,MWh
Power,Intraday,Continuous,NL,ID3,H,2021-08-24T10:00:00+02:00,2021-08-24T11:00:00+02:00,106.28,EUR,527.100,MWh
Power,Intraday,Continuous,NL,ID3,H,2021-08-24T11:00:00+02:00,2021-08-24T12:00:00+02:00,109.49,EUR,546.800,MWh
Power,Intraday,Continuous,NL,ID3,H,2021-08-24T12:00:00+02:00,2021-08-24T13:00:00+02:00,94.12,EUR,757.100,MWh
Power,Intraday,Continuous,NL,ID3,H,2021-08-24T13:00:00+02:00,2021-08-24T14:00:00+02:00,80.43,EUR,1092.500,MWh
Power,Intraday,Continuous,NL,ID3,H,2021-08-24T14:00:00+02:00,2021-08-24T15:00:00+02:00,76.53,EUR,1152.300,MWh
Power,Intraday,Continuous,NL,ID3,H,2021-08-24T15:00:00+02:00,2021-08-24T16:00:00+02:00,77.59,EUR,862.300,MWh
Power,Intraday,Continuous,NL,ID3,H,2021-08-24T16:00:00+02:00,2021-08-24T17:00:00+02:00,77.79,EUR,564.900,MWh
Power,Intraday,Continuous,NL,ID3,H,2021-08-24T17:00:00+02:00,2021-08-24T18:00:00+02:00,79.78,EUR,568.100,MWh
Power,Intraday,Continuous,NL,ID3,H,2021-08-24T18:00:00+02:00,2021-08-24T19:00:00+02:00,109.56,EUR,472.200,MWh
Power,Intraday,Continuous,NL,ID3,H,2021-08-24T19:00:00+02:00,2021-08-24T20:00:00+02:00,119.22,EUR,541.200,MWh
Power,Intraday,Continuous,NL,ID3,H,2021-08-24T20:00:00+02:00,2021-08-24T21:00:00+02:00,136.69,EUR,324.800,MWh
Power,Intraday,Continuous,NL,ID3,H,2021-08-24T21:00:00+02:00,2021-08-24T22:00:00+02:00,117.31,EUR,272.000,MWh
Power,Intraday,Continuous,NL,ID3,H,2021-08-24T22:00:00+02:00,2021-08-24T23:00:00+02:00,97.38,EUR,411.500,MWh
Power,Intraday,Continuous,NL,ID3,H,2021-08-24T23:00:00+02:00,2021-08-25T00:00:00+02:00,80.25,EUR,404.700,MWh
Power,Intraday,Continuous,NL,IDFULL,HH,2021-08-24T00:00:00+02:00,2021-08-24T00:30:00+02:00,81.81,EUR,,MWh
Power,Intraday,Continuous,NL,IDFULL,HH,2021-08-24T00:30:00+02:00,2021-08-24T01:00:00+02:00,81.81,EUR,,MWh
Power,Intraday,Continuous,NL,IDFULL,HH,2021-08-24T01:00:00+02:00,2021-08-24T01:30:00+02:00,77.81,EUR,,MWh
Power,Intraday,Continuous,NL,IDFULL,HH,2021-08-24T01:30:00+02:00,2021-08-24T02:00:00+02:00,77.81,EUR,,MWh
Power,Intraday,Continuous,NL,IDFULL,HH,2021-08-24T02:00:00+02:00,2021-08-24T02:30:00+02:00,75.29,EUR,,MWh
Power,Intraday,Continuous,NL,IDFULL,HH,2021-08-24T02:30:00+02:00,2021-08-24T03:00:00+02:00,75.29,EUR,,MWh
Power,Intraday,Continuous,NL,IDFULL,HH,2021-08-24T03:00:00+02:00,2021-08-24T03:30:00+02:00,75.81,EUR,,MWh
Power,Intraday,Continuous,NL,IDFULL,HH,2021-08-24T03:30:00+02:00,2021-08-24T04:00:00+02:00,75.81,EUR,,MWh
Power,Intraday,Continuous,NL,IDFULL,HH,2021-08-24T04:00:00+02:00,2021-08-24T04:30:00+02:00,78.85,EUR,,MWh
Power,Intraday,Continuous,NL,IDFULL,HH,2021-08-24T04:30:00+02:00,2021-08-24T05:00:00+02:00,78.85,EUR,,MWh
Power,Intraday,Continuous,NL,IDFULL,HH,2021-08-24T05:00:00+02:00,2021-08-24T05:30:00+02:00,79.12,EUR,,MWh
Power,Intraday,Continuous,NL,IDFULL,HH,2021-08-24T05:30:00+02:00,2021-08-24T06:00:00+02:00,79.12,EUR,,MWh
Power,Intraday,Continuous,NL,IDFULL,HH,2021-08-24T06:00:00+02:00,2021-08-24T06:30:00+02:00,100.21,EUR,,MWh
Power,Intraday,Continuous,NL,IDFULL,HH,2021-08-24T06:30:00+02:00,2021-08-24T07:00:00+02:00,100.21,EUR,,MWh
Power,Intraday,Continuous,NL,IDFULL,HH,2021-08-24T07:00:00+02:00,2021-08-24T07:30:00+02:00,118.92,EUR,,MWh
Power,Intraday,Continuous,NL,IDFULL,HH,2021-08-24T07:30:00+02:00,2021-08-24T08:00:00+02:00,118.92,EUR,,MWh
Power,Intraday,Continuous,NL,IDFULL,HH,2021-08-24T08:00:00+02:00,2021-08-24T08:30:00+02:00,148.04,EUR,,MWh
Power,Intraday,Continuous,NL,IDFULL,HH,2021-08-24T08:30:00+02:00,2021-08-24T09:00:00+02:00,103.82,EUR,18.900,MWh
Power,Intraday,Continuous,NL,IDFULL,HH,2021-08-24T09:00:00+02:00,2021-08-24T09:30:00+02:00,103.18,EUR,,MWh
Power,Intraday,Continuous,NL,IDFULL,HH,2021-08-24T09:30:00+02:00,2021-08-24T10:00:00+02:00,103.18,EUR,,MWh
Power,Intraday,Continuous,NL,IDFULL,HH,2021-08-24T10:00:00+02:00,2021-08-24T10:30:00+02:00,104.82,EUR,,MWh
Power,Intraday,Continuous,NL,IDFULL,HH,2021-08-24T10:30:00+02:00,2021-08-24T11:00:00+02:00,104.82,EUR,,MWh
Power,Intraday,Continuous,NL,IDFULL,HH,2021-08-24T11:00:00+02:00,2021-08-24T11:30:00+02:00,105.75,EUR,,MWh
Power,Intraday,Continuous,NL,IDFULL,HH,2021-08-24T11:30:00+02:00,2021-08-24T12:00:00+02:00,105.75,EUR,,MWh
Power,Intraday,Continuous,NL,IDFULL,HH,2021-08-24T12:00:00+02:00,2021-08-24T12:30:00+02:00,93.34,EUR,,MWh
Power,Intraday,Continuous,NL,IDFULL,HH,2021-08-24T12:30:00+02:00,2021-08-24T13:00:00+02:00,93.34,EUR,,MWh
Power,Intraday,Continuous,NL,IDFULL,HH,2021-08-24T13:00:00+02:00,2021-08-24T13:30:00+02:00,80.64,EUR,,MWh
Power,Intraday,Continuous,NL,IDFULL,HH,2021-08-24T13:30:00+02:00,2021-08-24T14:00:00+02:00,80.64,EUR,,MWh
Power,Intraday,Continuous,NL,IDFULL,HH,2021-08-24T14:00:00+02:00,2021-08-24T14:30:00+02:00,76.78,EUR,,MWh
Power,Intraday,Continuous,NL,IDFULL,HH,2021-08-24T14:30:00+02:00,2021-08-24T15:00:00+02:00,76.78,EUR,,MWh
Power,Intraday,Continuous,NL,IDFULL,HH,2021-08-24T15:00:00+02:00,2021-08-24T15:30:00+02:00,77.60,EUR,,MWh
Power,Intraday,Continuous,NL,IDFULL,HH,2021-08-24T15:30:00+02:00,2021-08-24T16:00:00+02:00,77.60,EUR,,MWh
Power,Intraday,Continuous,NL,IDFULL,HH,2021-08-24T16:00:00+02:00,2021-08-24T16:30:00+02:00,78.34,EUR,,MWh
Power,Intraday,Continuous,NL,IDFULL,HH,2021-08-24T16:30:00+02:00,2021-08-24T17:00:00+02:00,78.34,EUR,,MWh
Power,Intraday,Continuous,NL,IDFULL,HH,2021-08-24T17:00:00+02:00,2021-08-24T17:30:00+02:00,38.55,EUR,10.800,MWh
Power,Intraday,Continuous,NL,IDFULL,HH,2021-08-24T17:30:00+02:00,2021-08-24T18:00:00+02:00,132.65,EUR,,MWh
Power,Intraday,Continuous,NL,IDFULL,HH,2021-08-24T18:00:00+02:00,2021-08-24T18:30:00+02:00,110.02,EUR,,MWh
Power,Intraday,Continuous,NL,IDFULL,HH,2021-08-24T18:30:00+02:00,2021-08-24T19:00:00+02:00,110.02,EUR,,MWh
Power,Intraday,Continuous,NL,IDFULL,HH,2021-08-24T19:00:00+02:00,2021-08-24T19:30:00+02:00,120.38,EUR,,MWh
Power,Intraday,Continuous,NL,IDFULL,HH,2021-08-24T19:30:00+02:00,2021-08-24T20:00:00+02:00,120.38,EUR,,MWh
Power,Intraday,Continuous,NL,IDFULL,HH,2021-08-24T20:00:00+02:00,2021-08-24T20:30:00+02:00,136.11,EUR,,MWh
Power,Intraday,Continuous,NL,IDFULL,HH,2021-08-24T20:30:00+02:00,2021-08-24T21:00:00+02:00,136.11,EUR,,MWh
Power,Intraday,Continuous,NL,IDFULL,HH,2021-08-24T21:00:00+02:00,2021-08-24T21:30:00+02:00,114.96,EUR,,MWh
Power,Intraday,Continuous,NL,IDFULL,HH,2021-08-24T21:30:00+02:00,2021-08-24T22:00:00+02:00,114.96,EUR,,MWh
Power,Intraday,Continuous,NL,IDFULL,HH,2021-08-24T22:00:00+02:00,2021-08-24T22:30:00+02:00,97.82,EUR,,MWh
Power,Intraday,Continuous,NL,IDFULL,HH,2021-08-24T22:30:00+02:00,2021-08-24T23:00:00+02:00,97.82,EUR,,MWh
Power,Intraday,Continuous,NL,IDFULL,HH,2021-08-24T23:00:00+02:00,2021-08-24T23:30:00+02:00,84.33,EUR,,MWh
Power,Intraday,Continuous,NL,IDFULL,HH,2021-08-24T23:30:00+02:00,2021-08-25T00:00:00+02:00,84.33,EUR,,MWh
Power,Intraday,Continuous,NL,ID1,HH,2021-08-24T00:00:00+02:00,2021-08-24T00:30:00+02:00,81.81,EUR,,MWh
Power,Intraday,Continuous,NL,ID1,HH,2021-08-24T00:30:00+02:00,2021-08-24T01:00:00+02:00,81.81,EUR,,MWh
Power,Intraday,Continuous,NL,ID1,HH,2021-08-24T01:00:00+02:00,2021-08-24T01:30:00+02:00,77.81,EUR,,MWh
Power,Intraday,Continuous,NL,ID1,HH,2021-08-24T01:30:00+02:00,2021-08-24T02:00:00+02:00,77.81,EUR,,MWh
Power,Intraday,Continuous,NL,ID1,HH,2021-08-24T02:00:00+02:00,2021-08-24T02:30:00+02:00,75.29,EUR,,MWh
Power,Intraday,Continuous,NL,ID1,HH,2021-08-24T02:30:00+02:00,2021-08-24T03:00:00+02:00,75.29,EUR,,MWh
Power,Intraday,Continuous,NL,ID1,HH,2021-08-24T03:00:00+02:00,2021-08-24T03:30:00+02:00,75.81,EUR,,MWh
Power,Intraday,Continuous,NL,ID1,HH,2021-08-24T03:30:00+02:00,2021-08-24T04:00:00+02:00,75.81,EUR,,MWh
Power,Intraday,Continuous,NL,ID1,HH,2021-08-24T04:00:00+02:00,2021-08-24T04:30:00+02:00,78.85,EUR,,MWh
Power,Intraday,Continuous,NL,ID1,HH,2021-08-24T04:30:00+02:00,2021-08-24T05:00:00+02:00,78.85,EUR,,MWh
Power,Intraday,Continuous,NL,ID1,HH,2021-08-24T05:00:00+02:00,2021-08-24T05:30:00+02:00,79.12,EUR,,MWh
Power,Intraday,Continuous,NL,ID1,HH,2021-08-24T05:30:00+02:00,2021-08-24T06:00:00+02:00,79.12,EUR,,MWh
Power,Intraday,Continuous,NL,ID1,HH,2021-08-24T06:00:00+02:00,2021-08-24T06:30:00+02:00,100.21,EUR,,MWh
Power,Intraday,Continuous,NL,ID1,HH,2021-08-24T06:30:00+02:00,2021-08-24T07:00:00+02:00,100.21,EUR,,MWh
Power,Intraday,Continuous,NL,ID1,HH,2021-08-24T07:00:00+02:00,2021-08-24T07:30:00+02:00,118.92,EUR,,MWh
Power,Intraday,Continuous,NL,ID1,HH,2021-08-24T07:30:00+02:00,2021-08-24T08:00:00+02:00,118.92,EUR,,MWh
Power,Intraday,Continuous,NL,ID1,HH,2021-08-24T08:00:00+02:00,2021-08-24T08:30:00+02:00,148.04,EUR,,MWh
Power,Intraday,Continuous,NL,ID1,HH,2021-08-24T08:30:00+02:00,2021-08-24T09:00:00+02:00,103.82,EUR,,MWh
Power,Intraday,Continuous,NL,ID1,HH,2021-08-24T09:00:00+02:00,2021-08-24T09:30:00+02:00,103.18,EUR,,MWh
Power,Intraday,Continuous,NL,ID1,HH,2021-08-24T09:30:00+02:00,2021-08-24T10:00:00+02:00,103.18,EUR,,MWh
Power,Intraday,Continuous,NL,ID1,HH,2021-08-24T10:00:00+02:00,2021-08-24T10:30:00+02:00,104.82,EUR,,MWh
Power,Intraday,Continuous,NL,ID1,HH,2021-08-24T10:30:00+02:00,2021-08-24T11:00:00+02:00,104.82,EUR,,MWh
Power,Intraday,Continuous,NL,ID1,HH,2021-08-24T11:00:00+02:00,2021-08-24T11:30:00+02:00,105.75,EUR,,MWh
Power,Intraday,Continuous,NL,ID1,HH,2021-08-24T11:30:00+02:00,2021-08-24T12:00:00+02:00,105.75,EUR,,MWh
Power,Intraday,Continuous,NL,ID1,HH,2021-08-24T12:00:00+02:00,2021-08-24T12:30:00+02:00,93.34,EUR,,MWh
Power,Intraday,Continuous,NL,ID1,HH,2021-08-24T12:30:00+02:00,2021-08-24T13:00:00+02:00,93.34,EUR,,MWh
Power,Intraday,Continuous,NL,ID1,HH,2021-08-24T13:00:00+02:00,2021-08-24T13:30:00+02:00,80.64,EUR,,MWh
Power,Intraday,Continuous,NL,ID1,HH,2021-08-24T13:30:00+02:00,2021-08-24T14:00:00+02:00,80.64,EUR,,MWh
Power,Intraday,Continuous,NL,ID1,HH,2021-08-24T14:00:00+02:00,2021-08-24T14:30:00+02:00,76.78,EUR,,MWh
Power,Intraday,Continuous,NL,ID1,HH,2021-08-24T14:30:00+02:00,2021-08-24T15:00:00+02:00,76.78,EUR,,MWh
Power,Intraday,Continuous,NL,ID1,HH,2021-08-24T15:00:00+02:00,2021-08-24T15:30:00+02:00,77.60,EUR,,MWh
Power,Intraday,Continuous,NL,ID1,HH,2021-08-24T15:30:00+02:00,2021-08-24T16:00:00+02:00,77.60,EUR,,MWh
Power,Intraday,Continuous,NL,ID1,HH,2021-08-24T16:00:00+02:00,2021-08-24T16:30:00+02:00,78.34,EUR,,MWh
Power,Intraday,Continuous,NL,ID1,HH,2021-08-24T16:30:00+02:00,2021-08-24T17:00:00+02:00,78.34,EUR,,MWh
Power,Intraday,Continuous,NL,ID1,HH,2021-08-24T17:00:00+02:00,2021-08-24T17:30:00+02:00,38.55,EUR,,MWh
Power,Intraday,Continuous,NL,ID1,HH,2021-08-24T17:30:00+02:00,2021-08-24T18:00:00+02:00,132.65,EUR,,MWh
Power,Intraday,Continuous,NL,ID1,HH,2021-08-24T18:00:00+02:00,2021-08-24T18:30:00+02:00,110.02,EUR,,MWh
Power,Intraday,Continuous,NL,ID1,HH,2021-08-24T18:30:00+02:00,2021-08-24T19:00:00+02:00,110.02,EUR,,MWh
Power,Intraday,Continuous,NL,ID1,HH,2021-08-24T19:00:00+02:00,2021-08-24T19:30:00+02:00,120.38,EUR,,MWh
Power,Intraday,Continuous,NL,ID1,HH,2021-08-24T19:30:00+02:00,2021-08-24T20:00:00+02:00,120.38,EUR,,MWh
Power,Intraday,Continuous,NL,ID1,HH,2021-08-24T20:00:00+02:00,2021-08-24T20:30:00+02:00,136.11,EUR,,MWh
Power,Intraday,Continuous,NL,ID1,HH,2021-08-24T20:30:00+02:00,2021-08-24T21:00:00+02:00,136.11,EUR,,MWh
Power,Intraday,Continuous,NL,ID1,HH,2021-08-24T21:00:00+02:00,2021-08-24T21:30:00+02:00,114.96,EUR,,MWh
Power,Intraday,Continuous,NL,ID1,HH,2021-08-24T21:30:00+02:00,2021-08-24T22:00:00+02:00,114.96,EUR,,MWh
Power,Intraday,Continuous,NL,ID1,HH,2021-08-24T22:00:00+02:00,2021-08-24T22:30:00+02:00,97.82,EUR,,MWh
Power,Intraday,Continuous,NL,ID1,HH,2021-08-24T22:30:00+02:00,2021-08-24T23:00:00+02:00,97.82,EUR,,MWh
Power,Intraday,Continuous,NL,ID1,HH,2021-08-24T23:00:00+02:00,2021-08-24T23:30:00+02:00,84.33,EUR,,MWh
Power,Intraday,Continuous,NL,ID1,HH,2021-08-24T23:30:00+02:00,2021-08-25T00:00:00+02:00,84.33,EUR,,MWh
Power,Intraday,Continuous,NL,ID3,HH,2021-08-24T00:00:00+02:00,2021-08-24T00:30:00+02:00,81.81,EUR,,MWh
Power,Intraday,Continuous,NL,ID3,HH,2021-08-24T00:30:00+02:00,2021-08-24T01:00:00+02:00,81.81,EUR,,MWh
Power,Intraday,Continuous,NL,ID3,HH,2021-08-24T01:00:00+02:00,2021-08-24T01:30:00+02:00,77.81,EUR,,MWh
Power,Intraday,Continuous,NL,ID3,HH,2021-08-24T01:30:00+02:00,2021-08-24T02:00:00+02:00,77.81,EUR,,MWh
Power,Intraday,Continuous,NL,ID3,HH,2021-08-24T02:00:00+02:00,2021-08-24T02:30:00+02:00,75.29,EUR,,MWh
Power,Intraday,Continuous,NL,ID3,HH,2021-08-24T02:30:00+02:00,2021-08-24T03:00:00+02:00,75.29,EUR,,MWh
Power,Intraday,Continuous,NL,ID3,HH,2021-08-24T03:00:00+02:00,2021-08-24T03:30:00+02:00,75.81,EUR,,MWh
Power,Intraday,Continuous,NL,ID3,HH,2021-08-24T03:30:00+02:00,2021-08-24T04:00:00+02:00,75.81,EUR,,MWh
Power,Intraday,Continuous,NL,ID3,HH,2021-08-24T04:00:00+02:00,2021-08-24T04:30:00+02:00,78.85,EUR,,MWh
Power,Intraday,Continuous,NL,ID3,HH,2021-08-24T04:30:00+02:00,2021-08-24T05:00:00+02:00,78.85,EUR,,MWh
Power,Intraday,Continuous,NL,ID3,HH,2021-08-24T05:00:00+02:00,2021-08-24T05:30:00+02:00,79.12,EUR,,MWh
Power,Intraday,Continuous,NL,ID3,HH,2021-08-24T05:30:00+02:00,2021-08-24T06:00:00+02:00,79.12,EUR,,MWh
Power,Intraday,Continuous,NL,ID3,HH,2021-08-24T06:00:00+02:00,2021-08-24T06:30:00+02:00,100.21,EUR,,MWh
Power,Intraday,Continuous,NL,ID3,HH,2021-08-24T06:30:00+02:00,2021-08-24T07:00:00+02:00,100.21,EUR,,MWh
Power,Intraday,Continuous,NL,ID3,HH,2021-08-24T07:00:00+02:00,2021-08-24T07:30:00+02:00,118.92,EUR,,MWh
Power,Intraday,Continuous,NL,ID3,HH,2021-08-24T07:30:00+02:00,2021-08-24T08:00:00+02:00,118.92,EUR,,MWh
Power,Intraday,Continuous,NL,ID3,HH,2021-08-24T08:00:00+02:00,2021-08-24T08:30:00+02:00,148.04,EUR,,MWh
Power,Intraday,Continuous,NL,ID3,HH,2021-08-24T08:30:00+02:00,2021-08-24T09:00:00+02:00,103.82,EUR,18.900,MWh
Power,Intraday,Continuous,NL,ID3,HH,2021-08-24T09:00:00+02:00,2021-08-24T09:30:00+02:00,103.18,EUR,,MWh
Power,Intraday,Continuous,NL,ID3,HH,2021-08-24T09:30:00+02:00,2021-08-24T10:00:00+02:00,103.18,EUR,,MWh
Power,Intraday,Continuous,NL,ID3,HH,2021-08-24T10:00:00+02:00,2021-08-24T10:30:00+02:00,104.82,EUR,,MWh
Power,Intraday,Continuous,NL,ID3,HH,2021-08-24T10:30:00+02:00,2021-08-24T11:00:00+02:00,104.82,EUR,,MWh
Power,Intraday,Continuous,NL,ID3,HH,2021-08-24T11:00:00+02:00,2021-08-24T11:30:00+02:00,105.75,EUR,,MWh
Power,Intraday,Continuous,NL,ID3,HH,2021-08-24T11:30:00+02:00,2021-08-24T12:00:00+02:00,105.75,EUR,,MWh
Power,Intraday,Continuous,NL,ID3,HH,2021-08-24T12:00:00+02:00,2021-08-24T12:30:00+02:00,93.34,EUR,,MWh
Power,Intraday,Continuous,NL,ID3,HH,2021-08-24T12:30:00+02:00,2021-08-24T13:00:00+02:00,93.34,EUR,,MWh
Power,Intraday,Continuous,NL,ID3,HH,2021-08-24T13:00:00+02:00,2021-08-24T13:30:00+02:00,80.64,EUR,,MWh
Power,Intraday,Continuous,NL,ID3,HH,2021-08-24T13:30:00+02:00,2021-08-24T14:00:00+02:00,80.64,EUR,,MWh
Power,Intraday,Continuous,NL,ID3,HH,2021-08-24T14:00:00+02:00,2021-08-24T14:30:00+02:00,76.78,EUR,,MWh
Power,Intraday,Continuous,NL,ID3,HH,2021-08-24T14:30:00+02:00,2021-08-24T15:00:00+02:00,76.78,EUR,,MWh
Power,Intraday,Continuous,NL,ID3,HH,2021-08-24T15:00:00+02:00,2021-08-24T15:30:00+02:00,77.60,EUR,,MWh
Power,Intraday,Continuous,NL,ID3,HH,2021-08-24T15:30:00+02:00,2021-08-24T16:00:00+02:00,77.60,EUR,,MWh
Power,Intraday,Continuous,NL,ID3,HH,2021-08-24T16:00:00+02:00,2021-08-24T16:30:00+02:00,78.34,EUR,,MWh
Power,Intraday,Continuous,NL,ID3,HH,2021-08-24T16:30:00+02:00,2021-08-24T17:00:00+02:00,78.34,EUR,,MWh
Power,Intraday,Continuous,NL,ID3,HH,2021-08-24T17:00:00+02:00,2021-08-24T17:30:00+02:00,38.55,EUR,10.800,MWh
Power,Intraday,Continuous,NL,ID3,HH,2021-08-24T17:30:00+02:00,2021-08-24T18:00:00+02:00,132.65,EUR,,MWh
Power,Intraday,Continuous,NL,ID3,HH,2021-08-24T18:00:00+02:00,2021-08-24T18:30:00+02:00,110.02,EUR,,MWh
Power,Intraday,Continuous,NL,ID3,HH,2021-08-24T18:30:00+02:00,2021-08-24T19:00:00+02:00,110.02,EUR,,MWh
Power,Intraday,Continuous,NL,ID3,HH,2021-08-24T19:00:00+02:00,2021-08-24T19:30:00+02:00,120.38,EUR,,MWh
Power,Intraday,Continuous,NL,ID3,HH,2021-08-24T19:30:00+02:00,2021-08-24T20:00:00+02:00,120.38,EUR,,MWh
Power,Intraday,Continuous,NL,ID3,HH,2021-08-24T20:00:00+02:00,2021-08-24T20:30:00+02:00,136.11,EUR,,MWh
Power,Intraday,Continuous,NL,ID3,HH,2021-08-24T20:30:00+02:00,2021-08-24T21:00:00+02:00,136.11,EUR,,MWh
Power,Intraday,Continuous,NL,ID3,HH,2021-08-24T21:00:00+02:00,2021-08-24T21:30:00+02:00,114.96,EUR,,MWh
Power,Intraday,Continuous,NL,ID3,HH,2021-08-24T21:30:00+02:00,2021-08-24T22:00:00+02:00,114.96,EUR,,MWh
Power,Intraday,Continuous,NL,ID3,HH,2021-08-24T22:00:00+02:00,2021-08-24T22:30:00+02:00,97.82,EUR,,MWh
Power,Intraday,Continuous,NL,ID3,HH,2021-08-24T22:30:00+02:00,2021-08-24T23:00:00+02:00,97.82,EUR,,MWh
Power,Intraday,Continuous,NL,ID3,HH,2021-08-24T23:00:00+02:00,2021-08-24T23:30:00+02:00,84.33,EUR,,MWh
Power,Intraday,Continuous,NL,ID3,HH,2021-08-24T23:30:00+02:00,2021-08-25T00:00:00+02:00,84.33,EUR,,MWh
Power,Intraday,Continuous,NL,IDFULL,QH,2021-08-24T00:00:00+02:00,2021-08-24T00:15:00+02:00,93.13,EUR,13.680,MWh
Power,Intraday,Continuous,NL,IDFULL,QH,2021-08-24T00:15:00+02:00,2021-08-24T00:30:00+02:00,88.01,EUR,15.030,MWh
Power,Intraday,Continuous,NL,IDFULL,QH,2021-08-24T00:30:00+02:00,2021-08-24T00:45:00+02:00,72.32,EUR,16.500,MWh
Power,Intraday,Continuous,NL,IDFULL,QH,2021-08-24T00:45:00+02:00,2021-08-24T01:00:00+02:00,72.68,EUR,24.700,MWh
Power,Intraday,Continuous,NL,IDFULL,QH,2021-08-24T01:00:00+02:00,2021-08-24T01:15:00+02:00,77.77,EUR,31.430,MWh
Power,Intraday,Continuous,NL,IDFULL,QH,2021-08-24T01:15:00+02:00,2021-08-24T01:30:00+02:00,78.21,EUR,13.700,MWh
Power,Intraday,Continuous,NL,IDFULL,QH,2021-08-24T01:30:00+02:00,2021-08-24T01:45:00+02:00,74.48,EUR,19.950,MWh
Power,Intraday,Continuous,NL,IDFULL,QH,2021-08-24T01:45:00+02:00,2021-08-24T02:00:00+02:00,73.91,EUR,17.430,MWh
Power,Intraday,Continuous,NL,IDFULL,QH,2021-08-24T02:00:00+02:00,2021-08-24T02:15:00+02:00,78.74,EUR,16.030,MWh
Power,Intraday,Continuous,NL,IDFULL,QH,2021-08-24T02:15:00+02:00,2021-08-24T02:30:00+02:00,73.73,EUR,10.130,MWh
Power,Intraday,Continuous,NL,IDFULL,QH,2021-08-24T02:30:00+02:00,2021-08-24T02:45:00+02:00,74.36,EUR,8.130,MWh
Power,Intraday,Continuous,NL,IDFULL,QH,2021-08-24T02:45:00+02:00,2021-08-24T03:00:00+02:00,72.77,EUR,17.350,MWh
Power,Intraday,Continuous,NL,IDFULL,QH,2021-08-24T03:00:00+02:00,2021-08-24T03:15:00+02:00,73.82,EUR,6.400,MWh
Power,Intraday,Continuous,NL,IDFULL,QH,2021-08-24T03:15:00+02:00,2021-08-24T03:30:00+02:00,75.13,EUR,7.280,MWh
Power,Intraday,Continuous,NL,IDFULL,QH,2021-08-24T03:30:00+02:00,2021-08-24T03:45:00+02:00,77.02,EUR,10.550,MWh
Power,Intraday,Continuous,NL,IDFULL,QH,2021-08-24T03:45:00+02:00,2021-08-24T04:00:00+02:00,76.70,EUR,10.550,MWh
Power,Intraday,Continuous,NL,IDFULL,QH,2021-08-24T04:00:00+02:00,2021-08-24T04:15:00+02:00,60.92,EUR,19.400,MWh
Power,Intraday,Continuous,NL,IDFULL,QH,2021-08-24T04:15:00+02:00,2021-08-24T04:30:00+02:00,70.54,EUR,16.780,MWh
Power,Intraday,Continuous,NL,IDFULL,QH,2021-08-24T04:30:00+02:00,2021-08-24T04:45:00+02:00,83.32,EUR,17.530,MWh
Power,Intraday,Continuous,NL,IDFULL,QH,2021-08-24T04:45:00+02:00,2021-08-24T05:00:00+02:00,96.85,EUR,20.930,MWh
Power,Intraday,Continuous,NL,IDFULL,QH,2021-08-24T05:00:00+02:00,2021-08-24T05:15:00+02:00,65.35,EUR,41.450,MWh
Power,Intraday,Continuous,NL,IDFULL,QH,2021-08-24T05:15:00+02:00,2021-08-24T05:30:00+02:00,72.27,EUR,20.650,MWh
Power,Intraday,Continuous,NL,IDFULL,QH,2021-08-24T05:30:00+02:00,2021-08-24T05:45:00+02:00,92.11,EUR,21.150,MWh
Power,Intraday,Continuous,NL,IDFULL,QH,2021-08-24T05:45:00+02:00,2021-08-24T06:00:00+02:00,103.29,EUR,46.450,MWh
Power,Intraday,Continuous,NL,IDFULL,QH,2021-08-24T06:00:00+02:00,2021-08-24T06:15:00+02:00,77.30,EUR,76.780,MWh
Power,Intraday,Continuous,NL,IDFULL,QH,2021-08-24T06:15:00+02:00,2021-08-24T06:30:00+02:00,96.10,EUR,32.300,MWh
Power,Intraday,Continuous,NL,IDFULL,QH,2021-08-24T06:30:00+02:00,2021-08-24T06:45:00+02:00,107.46,EUR,42.230,MWh
Power,Intraday,Continuous,NL,IDFULL,QH,2021-08-24T06:45:00+02:00,2021-08-24T07:00:00+02:00,111.30,EUR,72.930,MWh
Power,Intraday,Continuous,NL,IDFULL,QH,2021-08-24T07:00:00+02:00,2021-08-24T07:15:00+02:00,94.92,EUR,37.650,MWh
Power,Intraday,Continuous,NL,IDFULL,QH,2021-08-24T07:15:00+02:00,2021-08-24T07:30:00+02:00,103.83,EUR,20.700,MWh
Power,Intraday,Continuous,NL,IDFULL,QH,2021-08-24T07:30:00+02:00,2021-08-24T07:45:00+02:00,114.24,EUR,21.980,MWh
Power,Intraday,Continuous,NL,IDFULL,QH,2021-08-24T07:45:00+02:00,2021-08-24T08:00:00+02:00,148.59,EUR,9.930,MWh
Power,Intraday,Continuous,NL,IDFULL,QH,2021-08-24T08:00:00+02:00,2021-08-24T08:15:00+02:00,162.62,EUR,8.230,MWh
Power,Intraday,Continuous,NL,IDFULL,QH,2021-08-24T08:15:00+02:00,2021-08-24T08:30:00+02:00,139.98,EUR,,MWh
Power,Intraday,Continuous,NL,IDFULL,QH,2021-08-24T08:30:00+02:00,2021-08-24T08:45:00+02:00,104.83,EUR,29.130,MWh
Power,Intraday,Continuous,NL,IDFULL,QH,2021-08-24T08:45:00+02:00,2021-08-24T09:00:00+02:00,96.29,EUR,56.650,MWh
Power,Intraday,Continuous,NL,IDFULL,QH,2021-08-24T09:00:00+02:00,2021-08-24T09:15:00+02:00,132.46,EUR,44.100,MWh
Power,Intraday,Continuous,NL,IDFULL,QH,2021-08-24T09:15:00+02:00,2021-08-24T09:30:00+02:00,112.61,EUR,40.480,MWh
Power,Intraday,Continuous,NL,IDFULL,QH,2021-08-24T09:30:00+02:00,2021-08-24T09:45:00+02:00,103.96,EUR,98.450,MWh
Power,Intraday,Continuous,NL,IDFULL,QH,2021-08-24T09:45:00+02:00,2021-08-24T10:00:00+02:00,86.30,EUR,147.100,MWh
Power,Intraday,Continuous,NL,IDFULL,QH,2021-08-24T10:00:00+02:00,2021-08-24T10:15:00+02:00,122.33,EUR,104.780,MWh
Power,Intraday,Continuous,NL,IDFULL,QH,2021-08-24T10:15:00+02:00,2021-08-24T10:30:00+02:00,112.59,EUR,56.830,MWh
Power,Intraday,Continuous,NL,IDFULL,QH,2021-08-24T10:30:00+02:00,2021-08-24T10:45:00+02:00,95.18,EUR,74.780,MWh
Power,Intraday,Continuous,NL,IDFULL,QH,2021-08-24T10:45:00+02:00,2021-08-24T11:00:00+02:00,87.50,EUR,103.300,MWh
Power,Intraday,Continuous,NL,IDFULL,QH,2021-08-24T11:00:00+02:00,2021-08-24T11:15:00+02:00,113.08,EUR,81.300,MWh
Power,Intraday,Continuous,NL,IDFULL,QH,2021-08-24T11:15:00+02:00,2021-08-24T11:30:00+02:00,103.06,EUR,59.150,MWh
Power,Intraday,Continuous,NL,IDFULL,QH,2021-08-24T11:30:00+02:00,2021-08-24T11:45:00+02:00,97.76,EUR,105.480,MWh
Power,Intraday,Continuous,NL,IDFULL,QH,2021-08-24T11:45:00+02:00,2021-08-24T12:00:00+02:00,89.09,EUR,129.600,MWh
Power,Intraday,Continuous,NL,IDFULL,QH,2021-08-24T12:00:00+02:00,2021-08-24T12:15:00+02:00,109.49,EUR,43.080,MWh
Power,Intraday,Continuous,NL,IDFULL,QH,2021-08-24T12:15:00+02:00,2021-08-24T12:30:00+02:00,91.71,EUR,8.080,MWh
Power,Intraday,Continuous,NL,IDFULL,QH,2021-08-24T12:30:00+02:00,2021-08-24T12:45:00+02:00,87.92,EUR,50.580,MWh
Power,Intraday,Continuous,NL,IDFULL,QH,2021-08-24T12:45:00+02:00,2021-08-24T13:00:00+02:00,71.87,EUR,80.630,MWh
Power,Intraday,Continuous,NL,IDFULL,QH,2021-08-24T13:00:00+02:00,2021-08-24T13:15:00+02:00,92.07,EUR,7.580,MWh
Power,Intraday,Continuous,NL,IDFULL,QH,2021-08-24T13:15:00+02:00,2021-08-24T13:30:00+02:00,76.88,EUR,8.250,MWh
Power,Intraday,Continuous,NL,IDFULL,QH,2021-08-24T13:30:00+02:00,2021-08-24T13:45:00+02:00,72.06,EUR,37.030,MWh
Power,Intraday,Continuous,NL,IDFULL,QH,2021-08-24T13:45:00+02:00,2021-08-24T14:00:00+02:00,69.68,EUR,73.680,MWh
Power,Intraday,Continuous,NL,IDFULL,QH,2021-08-24T14:00:00+02:00,2021-08-24T14:15:00+02:00,75.76,EUR,57.430,MWh
Power,Intraday,Continuous,NL,IDFULL,QH,2021-08-24T14:15:00+02:00,2021-08-24T14:30:00+02:00,77.21,EUR,34.530,MWh
Power,Intraday,Continuous,NL,IDFULL,QH,2021-08-24T14:30:00+02:00,2021-08-24T14:45:00+02:00,80.72,EUR,13.480,MWh
Power,Intraday,Continuous,NL,IDFULL,QH,2021-08-24T14:45:00+02:00,2021-08-24T15:00:00+02:00,76.51,EUR,16.180,MWh
Power,Intraday,Continuous,NL,IDFULL,QH,2021-08-24T15:00:00+02:00,2021-08-24T15:15:00+02:00,67.36,EUR,74.130,MWh
Power,Intraday,Continuous,NL,IDFULL,QH,2021-08-24T15:15:00+02:00,2021-08-24T15:30:00+02:00,65.02,EUR,41.500,MWh
Power,Intraday,Continuous,NL,IDFULL,QH,2021-08-24T15:30:00+02:00,2021-08-24T15:45:00+02:00,74.70,EUR,49.450,MWh
Power,Intraday,Continuous,NL,IDFULL,QH,2021-08-24T15:45:00+02:00,2021-08-24T16:00:00+02:00,90.40,EUR,82.980,MWh
Power,Intraday,Continuous,NL,IDFULL,QH,2021-08-24T16:00:00+02:00,2021-08-24T16:15:00+02:00,51.31,EUR,70.850,MWh
Power,Intraday,Continuous,NL,IDFULL,QH,2021-08-24T16:15:00+02:00,2021-08-24T16:30:00+02:00,68.01,EUR,65.780,MWh
Power,Intraday,Continuous,NL,IDFULL,QH,2021-08-24T16:30:00+02:00,2021-08-24T16:45:00+02:00,90.12,EUR,53.930,MWh
Power,Intraday,Continuous,NL,IDFULL,QH,2021-08-24T16:45:00+02:00,2021-08-24T17:00:00+02:00,91.26,EUR,100.680,MWh
Power,Intraday,Continuous,NL,IDFULL,QH,2021-08-24T17:00:00+02:00,2021-08-24T17:15:00+02:00,55.63,EUR,84.580,MWh
Power,Intraday,Continuous,NL,IDFULL,QH,2021-08-24T17:15:00+02:00,2021-08-24T17:30:00+02:00,84.23,EUR,57.900,MWh
Power,Intraday,Continuous,NL,IDFULL,QH,2021-08-24T17:30:00+02:00,2021-08-24T17:45:00+02:00,104.24,EUR,77.000,MWh
Power,Intraday,Continuous,NL,IDFULL,QH,2021-08-24T17:45:00+02:00,2021-08-24T18:00:00+02:00,123.05,EUR,109.730,MWh
Power,Intraday,Continuous,NL,IDFULL,QH,2021-08-24T18:00:00+02:00,2021-08-24T18:15:00+02:00,83.46,EUR,88.300,MWh
Power,Intraday,Continuous,NL,IDFULL,QH,2021-08-24T18:15:00+02:00,2021-08-24T18:30:00+02:00,92.37,EUR,70.580,MWh
Power,Intraday,Continuous,NL,IDFULL,QH,2021-08-24T18:30:00+02:00,2021-08-24T18:45:00+02:00,110.96,EUR,73.620,MWh
Power,Intraday,Continuous,NL,IDFULL,QH,2021-08-24T18:45:00+02:00,2021-08-24T19:00:00+02:00,138.03,EUR,93.400,MWh
Power,Intraday,Continuous,NL,IDFULL,QH,2021-08-24T19:00:00+02:00,2021-08-24T19:15:00+02:00,91.46,EUR,85.030,MWh
Power,Intraday,Continuous,NL,IDFULL,QH,2021-08-24T19:15:00+02:00,2021-08-24T19:30:00+02:00,102.89,EUR,30.700,MWh
Power,Intraday,Continuous,NL,IDFULL,QH,2021-08-24T19:30:00+02:00,2021-08-24T19:45:00+02:00,116.70,EUR,9.730,MWh
Power,Intraday,Continuous,NL,IDFULL,QH,2021-08-24T19:45:00+02:00,2021-08-24T20:00:00+02:00,150.73,EUR,10.030,MWh
Power,Intraday,Continuous,NL,IDFULL,QH,2021-08-24T20:00:00+02:00,2021-08-24T20:15:00+02:00,138.19,EUR,54.680,MWh
Power,Intraday,Continuous,NL,IDFULL,QH,2021-08-24T20:15:00+02:00,2021-08-24T20:30:00+02:00,129.34,EUR,35.250,MWh
Power,Intraday,Continuous,NL,IDFULL,QH,2021-08-24T20:30:00+02:00,2021-08-24T20:45:00+02:00,138.46,EUR,,MWh
Power,Intraday,Continuous,NL,IDFULL,QH,2021-08-24T20:45:00+02:00,2021-08-24T21:00:00+02:00,138.46,EUR,,MWh
Power,Intraday,Continuous,NL,IDFULL,QH,2021-08-24T21:00:00+02:00,2021-08-24T21:15:00+02:00,144.92,EUR,5.680,MWh
Power,Intraday,Continuous,NL,IDFULL,QH,2021-08-24T21:15:00+02:00,2021-08-24T21:30:00+02:00,120.98,EUR,5.730,MWh
Power,Intraday,Continuous,NL,IDFULL,QH,2021-08-24T21:30:00+02:00,2021-08-24T21:45:00+02:00,103.19,EUR,28.650,MWh
Power,Intraday,Continuous,NL,IDFULL,QH,2021-08-24T21:45:00+02:00,2021-08-24T22:00:00+02:00,81.06,EUR,53.080,MWh
Power,Intraday,Continuous,NL,IDFULL,QH,2021-08-24T22:00:00+02:00,2021-08-24T22:15:00+02:00,109.33,EUR,71.250,MWh
Power,Intraday,Continuous,NL,IDFULL,QH,2021-08-24T22:15:00+02:00,2021-08-24T22:30:00+02:00,105.01,EUR,52.000,MWh
Power,Intraday,Continuous,NL,IDFULL,QH,2021-08-24T22:30:00+02:00,2021-08-24T22:45:00+02:00,99.60,EUR,64.750,MWh
Power,Intraday,Continuous,NL,IDFULL,QH,2021-08-24T22:45:00+02:00,2021-08-24T23:00:00+02:00,82.00,EUR,96.700,MWh
Power,Intraday,Continuous,NL,IDFULL,QH,2021-08-24T23:00:00+02:00,2021-08-24T23:15:00+02:00,100.94,EUR,71.250,MWh
Power,Intraday,Continuous,NL,IDFULL,QH,2021-08-24T23:15:00+02:00,2021-08-24T23:30:00+02:00,86.62,EUR,56.930,MWh
Power,Intraday,Continuous,NL,IDFULL,QH,2021-08-24T23:30:00+02:00,2021-08-24T23:45:00+02:00,83.64,EUR,52.480,MWh
Power,Intraday,Continuous,NL,IDFULL,QH,2021-08-24T23:45:00+02:00,2021-08-25T00:00:00+02:00,70.67,EUR,66.230,MWh
Power,Intraday,Continuous,NL,ID1,QH,2021-08-24T00:00:00+02:00,2021-08-24T00:15:00+02:00,92.78,EUR,,MWh
Power,Intraday,Continuous,NL,ID1,QH,2021-08-24T00:15:00+02:00,2021-08-24T00:30:00+02:00,90.79,EUR,,MWh
Power,Intraday,Continuous,NL,ID1,QH,2021-08-24T00:30:00+02:00,2021-08-24T00:45:00+02:00,70.21,EUR,,MWh
Power,Intraday,Continuous,NL,ID1,QH,2021-08-24T00:45:00+02:00,2021-08-24T01:00:00+02:00,70.89,EUR,,MWh
Power,Intraday,Continuous,NL,ID1,QH,2021-08-24T01:00:00+02:00,2021-08-24T01:15:00+02:00,77.98,EUR,,MWh
Power,Intraday,Continuous,NL,ID1,QH,2021-08-24T01:15:00+02:00,2021-08-24T01:30:00+02:00,75.84,EUR,,MWh
Power,Intraday,Continuous,NL,ID1,QH,2021-08-24T01:30:00+02:00,2021-08-24T01:45:00+02:00,73.91,EUR,,MWh
Power,Intraday,Continuous,NL,ID1,QH,2021-08-24T01:45:00+02:00,2021-08-24T02:00:00+02:00,71.20,EUR,,MWh
Power,Intraday,Continuous,NL,ID1,QH,2021-08-24T02:00:00+02:00,2021-08-24T02:15:00+02:00,78.74,EUR,,MWh
Power,Intraday,Continuous,NL,ID1,QH,2021-08-24T02:15:00+02:00,2021-08-24T02:30:00+02:00,73.73,EUR,,MWh
Power,Intraday,Continuous,NL,ID1,QH,2021-08-24T02:30:00+02:00,2021-08-24T02:45:00+02:00,74.50,EUR,,MWh
Power,Intraday,Continuous,NL,ID1,QH,2021-08-24T02:45:00+02:00,2021-08-24T03:00:00+02:00,73.66,EUR,,MWh
Power,Intraday,Continuous,NL,ID1,QH,2021-08-24T03:00:00+02:00,2021-08-24T03:15:00+02:00,74.19,EUR,,MWh
Power,Intraday,Continuous,NL,ID1,QH,2021-08-24T03:15:00+02:00,2021-08-24T03:30:00+02:00,75.18,EUR,,MWh
Power,Intraday,Continuous,NL,ID1,QH,2021-08-24T03:30:00+02:00,2021-08-24T03:45:00+02:00,77.43,EUR,,MWh
Power,Intraday,Continuous,NL,ID1,QH,2021-08-24T03:45:00+02:00,2021-08-24T04:00:00+02:00,77.12,EUR,,MWh
Power,Intraday,Continuous,NL,ID1,QH,2021-08-24T04:00:00+02:00,2021-08-24T04:15:00+02:00,60.95,EUR,,MWh
Power,Intraday,Continuous,NL,ID1,QH,2021-08-24T04:15:00+02:00,2021-08-24T04:30:00+02:00,69.67,EUR,,MWh
Power,Intraday,Continuous,NL,ID1,QH,2021-08-24T04:30:00+02:00,2021-08-24T04:45:00+02:00,83.94,EUR,,MWh
Power,Intraday,Continuous,NL,ID1,QH,2021-08-24T04:45:00+02:00,2021-08-24T05:00:00+02:00,95.17,EUR,,MWh
Power,Intraday,Continuous,NL,ID1,QH,2021-08-24T05:00:00+02:00,2021-08-24T05:15:00+02:00,70.19,EUR,,MWh
Power,Intraday,Continuous,NL,ID1,QH,2021-08-24T05:15:00+02:00,2021-08-24T05:30:00+02:00,72.15,EUR,,MWh
Power,Intraday,Continuous,NL,ID1,QH,2021-08-24T05:30:00+02:00,2021-08-24T05:45:00+02:00,90.92,EUR,,MWh
Power,Intraday,Continuous,NL,ID1,QH,2021-08-24T05:45:00+02:00,2021-08-24T06:00:00+02:00,99.24,EUR,,MWh
Power,Intraday,Continuous,NL,ID1,QH,2021-08-24T06:00:00+02:00,2021-08-24T06:15:00+02:00,79.91,EUR,,MWh
Power,Intraday,Continuous,NL,ID1,QH,2021-08-24T06:15:00+02:00,2021-08-24T06:30:00+02:00,98.46,EUR,,MWh
Power,Intraday,Continuous,NL,ID1,QH,2021-08-24T06:30:00+02:00,2021-08-24T06:45:00+02:00,108.69,EUR,,MWh
Power,Intraday,Continuous,NL,ID1,QH,2021-08-24T06:45:00+02:00,2021-08-24T07:00:00+02:00,105.58,EUR,,MWh
Power,Intraday,Continuous,NL,ID1,QH,2021-08-24T07:00:00+02:00,2021-08-24T07:15:00+02:00,94.92,EUR,,MWh
Power,Intraday,Continuous,NL,ID1,QH,2021-08-24T07:15:00+02:00,2021-08-24T07:30:00+02:00,104.14,EUR,,MWh
Power,Intraday,Continuous,NL,ID1,QH,2021-08-24T07:30:00+02:00,2021-08-24T07:45:00+02:00,113.20,EUR,,MWh
Power,Intraday,Continuous,NL,ID1,QH,2021-08-24T07:45:00+02:00,2021-08-24T08:00:00+02:00,148.59,EUR,,MWh
Power,Intraday,Continuous,NL,ID1,QH,2021-08-24T08:00:00+02:00,2021-08-24T08:15:00+02:00,162.62,EUR,,MWh
Power,Intraday,Continuous,NL,ID1,QH,2021-08-24T08:15:00+02:00,2021-08-24T08:30:00+02:00,139.98,EUR,,MWh
Power,Intraday,Continuous,NL,ID1,QH,2021-08-24T08:30:00+02:00,2021-08-24T08:45:00+02:00,104.24,EUR,,MWh
Power,Intraday,Continuous,NL,ID1,QH,2021-08-24T08:45:00+02:00,2021-08-24T09:00:00+02:00,96.05,EUR,,MWh
Power,Intraday,Continuous,NL,ID1,QH,2021-08-24T09:00:00+02:00,2021-08-24T09:15:00+02:00,136.34,EUR,,MWh
Power,Intraday,Continuous,NL,ID1,QH,2021-08-24T09:15:00+02:00,2021-08-24T09:30:00+02:00,112.45,EUR,,MWh
Power,Intraday,Continuous,NL,ID1,QH,2021-08-24T09:30:00+02:00,2021-08-24T09:45:00+02:00,104.80,EUR,,MWh
Power,Intraday,Continuous,NL,ID1,QH,2021-08-24T09:45:00+02:00,2021-08-24T10:00:00+02:00,64.26,EUR,6.000,MWh
Power,Intraday,Continuous,NL,ID1,QH,2021-08-24T10:00:00+02:00,2021-08-24T10:15:00+02:00,124.11,EUR,,MWh
Power,Intraday,Continuous,NL,ID1,QH,2021-08-24T10:15:00+02:00,2021-08-24T10:30:00+02:00,115.18,EUR,,MWh
Power,Intraday,Continuous,NL,ID1,QH,2021-08-24T10:30:00+02:00,2021-08-24T10:45:00+02:00,98.37,EUR,,MWh
Power,Intraday,Continuous,NL,ID1,QH,2021-08-24T10:45:00+02:00,2021-08-24T11:00:00+02:00,96.00,EUR,6.250,MWh
Power,Intraday,Continuous,NL,ID1,QH,2021-08-24T11:00:00+02:00,2021-08-24T11:15:00+02:00,117.82,EUR,,MWh
Power,Intraday,Continuous,NL,ID1,QH,2021-08-24T11:15:00+02:00,2021-08-24T11:30:00+02:00,86.67,EUR,3.750,MWh
Power,Intraday,Continuous,NL,ID1,QH,2021-08-24T11:30:00+02:00,2021-08-24T11:45:00+02:00,77.73,EUR,16.500,MWh
Power,Intraday,Continuous,NL,ID1,QH,2021-08-24T11:45:00+02:00,2021-08-24T12:00:00+02:00,74.84,EUR,17.950,MWh
Power,Intraday,Continuous,NL,ID1,QH,2021-08-24T12:00:00+02:00,2021-08-24T12:15:00+02:00,111.02,EUR,,MWh
Power,Intraday,Continuous,NL,ID1,QH,2021-08-24T12:15:00+02:00,2021-08-24T12:30:00+02:00,96.39,EUR,,MWh
Power,Intraday,Continuous,NL,ID1,QH,2021-08-24T12:30:00+02:00,2021-08-24T12:45:00+02:00,87.41,EUR,,MWh
Power,Intraday,Continuous,NL,ID1,QH,2021-08-24T12:45:00+02:00,2021-08-24T13:00:00+02:00,50.00,EUR,15.000,MWh
Power,Intraday,Continuous,NL,ID1,QH,2021-08-24T13:00:00+02:00,2021-08-24T13:15:00+02:00,90.95,EUR,,MWh
Power,Intraday,Continuous,NL,ID1,QH,2021-08-24T13:15:00+02:00,2021-08-24T13:30:00+02:00,76.11,EUR,,MWh
Power,Intraday,Continuous,NL,ID1,QH,2021-08-24T13:30:00+02:00,2021-08-24T13:45:00+02:00,60.00,EUR,7.000,MWh
Power,Intraday,Continuous,NL,ID1,QH,2021-08-24T13:45:00+02:00,2021-08-24T14:00:00+02:00,60.00,EUR,8.250,MWh
Power,Intraday,Continuous,NL,ID1,QH,2021-08-24T14:00:00+02:00,2021-08-24T14:15:00+02:00,78.36,EUR,,MWh
Power,Intraday,Continuous,NL,ID1,QH,2021-08-24T14:15:00+02:00,2021-08-24T14:30:00+02:00,77.17,EUR,,MWh
Power,Intraday,Continuous,NL,ID1,QH,2021-08-24T14:30:00+02:00,2021-08-24T14:45:00+02:00,80.71,EUR,,MWh
Power,Intraday,Continuous,NL,ID1,QH,2021-08-24T14:45:00+02:00,2021-08-24T15:00:00+02:00,76.23,EUR,,MWh
Power,Intraday,Continuous,NL,ID1,QH,2021-08-24T15:00:00+02:00,2021-08-24T15:15:00+02:00,67.01,EUR,,MWh
Power,Intraday,Continuous,NL,ID1,QH,2021-08-24T15:15:00+02:00,2021-08-24T15:30:00+02:00,56.67,EUR,11.250,MWh
Power,Intraday,Continuous,NL,ID1,QH,2021-08-24T15:30:00+02:00,2021-08-24T15:45:00+02:00,52.50,EUR,5.000,MWh
Power,Intraday,Continuous,NL,ID1,QH,2021-08-24T15:45:00+02:00,2021-08-24T16:00:00+02:00,85.69,EUR,,MWh
Power,Intraday,Continuous,NL,ID1,QH,2021-08-24T16:00:00+02:00,2021-08-24T16:15:00+02:00,53.27,EUR,,MWh
Power,Intraday,Continuous,NL,ID1,QH,2021-08-24T16:15:00+02:00,2021-08-24T16:30:00+02:00,68.08,EUR,,MWh
Power,Intraday,Continuous,NL,ID1,QH,2021-08-24T16:30:00+02:00,2021-08-24T16:45:00+02:00,85.26,EUR,,MWh
Power,Intraday,Continuous,NL,ID1,QH,2021-08-24T16:45:00+02:00,2021-08-24T17:00:00+02:00,66.63,EUR,22.500,MWh
Power,Intraday,Continuous,NL,ID1,QH,2021-08-24T17:00:00+02:00,2021-08-24T17:15:00+02:00,40.00,EUR,,MWh
Power,Intraday,Continuous,NL,ID1,QH,2021-08-24T17:15:00+02:00,2021-08-24T17:30:00+02:00,83.36,EUR,,MWh
Power,Intraday,Continuous,NL,ID1,QH,2021-08-24T17:30:00+02:00,2021-08-24T17:45:00+02:00,74.00,EUR,6.250,MWh
Power,Intraday,Continuous,NL,ID1,QH,2021-08-24T17:45:00+02:00,2021-08-24T18:00:00+02:00,121.67,EUR,,MWh
Power,Intraday,Continuous,NL,ID1,QH,2021-08-24T18:00:00+02:00,2021-08-24T18:15:00+02:00,80.92,EUR,,MWh
Power,Intraday,Continuous,NL,ID1,QH,2021-08-24T18:15:00+02:00,2021-08-24T18:30:00+02:00,90.86,EUR,,MWh
Power,Intraday,Continuous,NL,ID1,QH,2021-08-24T18:30:00+02:00,2021-08-24T18:45:00+02:00,104.48,EUR,,MWh
Power,Intraday,Continuous,NL,ID1,QH,2021-08-24T18:45:00+02:00,2021-08-24T19:00:00+02:00,136.78,EUR,,MWh
Power,Intraday,Continuous,NL,ID1,QH,2021-08-24T19:00:00+02:00,2021-08-24T19:15:00+02:00,89.68,EUR,,MWh
Power,Intraday,Continuous,NL,ID1,QH,2021-08-24T19:15:00+02:00,2021-08-24T19:30:00+02:00,102.89,EUR,,MWh
Power,Intraday,Continuous,NL,ID1,QH,2021-08-24T19:30:00+02:00,2021-08-24T19:45:00+02:00,116.70,EUR,,MWh
Power,Intraday,Continuous,NL,ID1,QH,2021-08-24T19:45:00+02:00,2021-08-24T20:00:00+02:00,150.73,EUR,,MWh
Power,Intraday,Continuous,NL,ID1,QH,2021-08-24T20:00:00+02:00,2021-08-24T20:15:00+02:00,138.19,EUR,,MWh
Power,Intraday,Continuous,NL,ID1,QH,2021-08-24T20:15:00+02:00,2021-08-24T20:30:00+02:00,129.34,EUR,,MWh
Power,Intraday,Continuous,NL,ID1,QH,2021-08-24T20:30:00+02:00,2021-08-24T20:45:00+02:00,138.46,EUR,,MWh
Power,Intraday,Continuous,NL,ID1,QH,2021-08-24T20:45:00+02:00,2021-08-24T21:00:00+02:00,138.46,EUR,,MWh
Power,Intraday,Continuous,NL,ID1,QH,2021-08-24T21:00:00+02:00,2021-08-24T21:15:00+02:00,146.19,EUR,,MWh
Power,Intraday,Continuous,NL,ID1,QH,2021-08-24T21:15:00+02:00,2021-08-24T21:30:00+02:00,121.27,EUR,,MWh
Power,Intraday,Continuous,NL,ID1,QH,2021-08-24T21:30:00+02:00,2021-08-24T21:45:00+02:00,103.44,EUR,,MWh
Power,Intraday,Continuous,NL,ID1,QH,2021-08-24T21:45:00+02:00,2021-08-24T22:00:00+02:00,50.00,EUR,7.500,MWh
Power,Intraday,Continuous,NL,ID1,QH,2021-08-24T22:00:00+02:00,2021-08-24T22:15:00+02:00,109.73,EUR,,MWh
Power,Intraday,Continuous,NL,ID1,QH,2021-08-24T22:15:00+02:00,2021-08-24T22:30:00+02:00,104.98,EUR,,MWh
Power,Intraday,Continuous,NL,ID1,QH,2021-08-24T22:30:00+02:00,2021-08-24T22:45:00+02:00,99.27,EUR,,MWh
Power,Intraday,Continuous,NL,ID1,QH,2021-08-24T22:45:00+02:00,2021-08-24T23:00:00+02:00,79.76,EUR,,MWh
Power,Intraday,Continuous,NL,ID1,QH,2021-08-24T23:00:00+02:00,2021-08-24T23:15:00+02:00,100.29,EUR,,MWh
Power,Intraday,Continuous,NL,ID1,QH,2021-08-24T23:15:00+02:00,2021-08-24T23:30:00+02:00,84.88,EUR,,MWh
Power,Intraday,Continuous,NL,ID1,QH,2021-08-24T23:30:00+02:00,2021-08-24T23:45:00+02:00,79.53,EUR,,MWh
Power,Intraday,Continuous,NL,ID1,QH,2021-08-24T23:45:00+02:00,2021-08-25T00:00:00+02:00,67.27,EUR,,MWh
Power,Intraday,Continuous,NL,ID3,QH,2021-08-24T00:00:00+02:00,2021-08-24T00:15:00+02:00,92.78,EUR,11.230,MWh
Power,Intraday,Continuous,NL,ID3,QH,2021-08-24T00:15:00+02:00,2021-08-24T00:30:00+02:00,90.79,EUR,8.900,MWh
Power,Intraday,Continuous,NL,ID3,QH,2021-08-24T00:30:00+02:00,2021-08-24T00:45:00+02:00,70.21,EUR,8.400,MWh
Power,Intraday,Continuous,NL,ID3,QH,2021-08-24T00:45:00+02:00,2021-08-24T01:00:00+02:00,70.89,EUR,15.580,MWh
Power,Intraday,Continuous,NL,ID3,QH,2021-08-24T01:00:00+02:00,2021-08-24T01:15:00+02:00,77.98,EUR,17.780,MWh
Power,Intraday,Continuous,NL,ID3,QH,2021-08-24T01:15:00+02:00,2021-08-24T01:30:00+02:00,75.84,EUR,9.530,MWh
Power,Intraday,Continuous,NL,ID3,QH,2021-08-24T01:30:00+02:00,2021-08-24T01:45:00+02:00,73.91,EUR,18.230,MWh
Power,Intraday,Continuous,NL,ID3,QH,2021-08-24T01:45:00+02:00,2021-08-24T02:00:00+02:00,71.20,EUR,8.350,MWh
Power,Intraday,Continuous,NL,ID3,QH,2021-08-24T02:00:00+02:00,2021-08-24T02:15:00+02:00,78.74,EUR,16.030,MWh
Power,Intraday,Continuous,NL,ID3,QH,2021-08-24T02:15:00+02:00,2021-08-24T02:30:00+02:00,73.73,EUR,10.130,MWh
Power,Intraday,Continuous,NL,ID3,QH,2021-08-24T02:30:00+02:00,2021-08-24T02:45:00+02:00,74.50,EUR,7.250,MWh
Power,Intraday,Continuous,NL,ID3,QH,2021-08-24T02:45:00+02:00,2021-08-24T03:00:00+02:00,73.66,EUR,8.380,MWh
Power,Intraday,Continuous,NL,ID3,QH,2021-08-24T03:00:00+02:00,2021-08-24T03:15:00+02:00,74.19,EUR,4.330,MWh
Power,Intraday,Continuous,NL,ID3,QH,2021-08-24T03:15:00+02:00,2021-08-24T03:30:00+02:00,75.18,EUR,6.900,MWh
Power,Intraday,Continuous,NL,ID3,QH,2021-08-24T03:30:00+02:00,2021-08-24T03:45:00+02:00,77.43,EUR,8.200,MWh
Power,Intraday,Continuous,NL,ID3,QH,2021-08-24T03:45:00+02:00,2021-08-24T04:00:00+02:00,77.12,EUR,7.200,MWh
Power,Intraday,Continuous,NL,ID3,QH,2021-08-24T04:00:00+02:00,2021-08-24T04:15:00+02:00,60.95,EUR,14.430,MWh
Power,Intraday,Continuous,NL,ID3,QH,2021-08-24T04:15:00+02:00,2021-08-24T04:30:00+02:00,69.67,EUR,11.830,MWh
Power,Intraday,Continuous,NL,ID3,QH,2021-08-24T04:30:00+02:00,2021-08-24T04:45:00+02:00,83.94,EUR,6.450,MWh
Power,Intraday,Continuous,NL,ID3,QH,2021-08-24T04:45:00+02:00,2021-08-24T05:00:00+02:00,95.17,EUR,9.430,MWh
Power,Intraday,Continuous,NL,ID3,QH,2021-08-24T05:00:00+02:00,2021-08-24T05:15:00+02:00,70.19,EUR,16.350,MWh
Power,Intraday,Continuous,NL,ID3,QH,2021-08-24T05:15:00+02:00,2021-08-24T05:30:00+02:00,72.15,EUR,12.600,MWh
Power,Intraday,Continuous,NL,ID3,QH,2021-08-24T05:30:00+02:00,2021-08-24T05:45:00+02:00,90.92,EUR,9.050,MWh
Power,Intraday,Continuous,NL,ID3,QH,2021-08-24T05:45:00+02:00,2021-08-24T06:00:00+02:00,99.24,EUR,11.050,MWh
Power,Intraday,Continuous,NL,ID3,QH,2021-08-24T06:00:00+02:00,2021-08-24T06:15:00+02:00,79.91,EUR,32.650,MWh
Power,Intraday,Continuous,NL,ID3,QH,2021-08-24T06:15:00+02:00,2021-08-24T06:30:00+02:00,98.46,EUR,18.530,MWh
Power,Intraday,Continuous,NL,ID3,QH,2021-08-24T06:30:00+02:00,2021-08-24T06:45:00+02:00,108.69,EUR,23.600,MWh
Power,Intraday,Continuous,NL,ID3,QH,2021-08-24T06:45:00+02:00,2021-08-24T07:00:00+02:00,105.58,EUR,23.250,MWh
Power,Intraday,Continuous,NL,ID3,QH,2021-08-24T07:00:00+02:00,2021-08-24T07:15:00+02:00,94.92,EUR,37.650,MWh
Power,Intraday,Continuous,NL,ID3,QH,2021-08-24T07:15:00+02:00,2021-08-24T07:30:00+02:00,104.14,EUR,11.830,MWh
Power,Intraday,Continuous,NL,ID3,QH,2021-08-24T07:30:00+02:00,2021-08-24T07:45:00+02:00,113.20,EUR,16.180,MWh
Power,Intraday,Continuous,NL,ID3,QH,2021-08-24T07:45:00+02:00,2021-08-24T08:00:00+02:00,148.59,EUR,,MWh
Power,Intraday,Continuous,NL,ID3,QH,2021-08-24T08:00:00+02:00,2021-08-24T08:15:00+02:00,162.62,EUR,8.230,MWh
Power,Intraday,Continuous,NL,ID3,QH,2021-08-24T08:15:00+02:00,2021-08-24T08:30:00+02:00,139.98,EUR,,MWh
Power,Intraday,Continuous,NL,ID3,QH,2021-08-24T08:30:00+02:00,2021-08-24T08:45:00+02:00,104.24,EUR,18.950,MWh
Power,Intraday,Continuous,NL,ID3,QH,2021-08-24T08:45:00+02:00,2021-08-24T09:00:00+02:00,96.05,EUR,46.080,MWh
Power,Intraday,Continuous,NL,ID3,QH,2021-08-24T09:00:00+02:00,2021-08-24T09:15:00+02:00,136.34,EUR,20.700,MWh
Power,Intraday,Continuous,NL,ID3,QH,2021-08-24T09:15:00+02:00,2021-08-24T09:30:00+02:00,112.45,EUR,26.830,MWh
Power,Intraday,Continuous,NL,ID3,QH,2021-08-24T09:30:00+02:00,2021-08-24T09:45:00+02:00,104.80,EUR,71.030,MWh
Power,Intraday,Continuous,NL,ID3,QH,2021-08-24T09:45:00+02:00,2021-08-24T10:00:00+02:00,88.15,EUR,95.730,MWh
Power,Intraday,Continuous,NL,ID3,QH,2021-08-24T10:00:00+02:00,2021-08-24T10:15:00+02:00,124.11,EUR,80.050,MWh
Power,Intraday,Continuous,NL,ID3,QH,2021-08-24T10:15:00+02:00,2021-08-24T10:30:00+02:00,115.18,EUR,44.280,MWh
Power,Intraday,Continuous,NL,ID3,QH,2021-08-24T10:30:00+02:00,2021-08-24T10:45:00+02:00,98.37,EUR,46.180,MWh
Power,Intraday,Continuous,NL,ID3,QH,2021-08-24T10:45:00+02:00,2021-08-24T11:00:00+02:00,89.05,EUR,52.900,MWh
Power,Intraday,Continuous,NL,ID3,QH,2021-08-24T11:00:00+02:00,2021-08-24T11:15:00+02:00,117.82,EUR,59.200,MWh
Power,Intraday,Continuous,NL,ID3,QH,2021-08-24T11:15:00+02:00,2021-08-24T11:30:00+02:00,104.20,EUR,44.450,MWh
Power,Intraday,Continuous,NL,ID3,QH,2021-08-24T11:30:00+02:00,2021-08-24T11:45:00+02:00,96.60,EUR,71.150,MWh
Power,Intraday,Continuous,NL,ID3,QH,2021-08-24T11:45:00+02:00,2021-08-24T12:00:00+02:00,88.93,EUR,83.500,MWh
Power,Intraday,Continuous,NL,ID3,QH,2021-08-24T12:00:00+02:00,2021-08-24T12:15:00+02:00,111.02,EUR,36.900,MWh
Power,Intraday,Continuous,NL,ID3,QH,2021-08-24T12:15:00+02:00,2021-08-24T12:30:00+02:00,96.39,EUR,3.900,MWh
Power,Intraday,Continuous,NL,ID3,QH,2021-08-24T12:30:00+02:00,2021-08-24T12:45:00+02:00,87.41,EUR,44.200,MWh
Power,Intraday,Continuous,NL,ID3,QH,2021-08-24T12:45:00+02:00,2021-08-24T13:00:00+02:00,71.25,EUR,73.480,MWh
Power,Intraday,Continuous,NL,ID3,QH,2021-08-24T13:00:00+02:00,2021-08-24T13:15:00+02:00,90.95,EUR,5.050,MWh
Power,Intraday,Continuous,NL,ID3,QH,2021-08-24T13:15:00+02:00,2021-08-24T13:30:00+02:00,76.11,EUR,7.380,MWh
Power,Intraday,Continuous,NL,ID3,QH,2021-08-24T13:30:00+02:00,2021-08-24T13:45:00+02:00,71.51,EUR,34.350,MWh
Power,Intraday,Continuous,NL,ID3,QH,2021-08-24T13:45:00+02:00,2021-08-24T14:00:00+02:00,68.97,EUR,58.630,MWh
Power,Intraday,Continuous,NL,ID3,QH,2021-08-24T14:00:00+02:00,2021-08-24T14:15:00+02:00,78.36,EUR,38.350,MWh
Power,Intraday,Continuous,NL,ID3,QH,2021-08-24T14:15:00+02:00,2021-08-24T14:30:00+02:00,77.17,EUR,34.130,MWh
Power,Intraday,Continuous,NL,ID3,QH,2021-08-24T14:30:00+02:00,2021-08-24T14:45:00+02:00,80.71,EUR,13.080,MWh
Power,Intraday,Continuous,NL,ID3,QH,2021-08-24T14:45:00+02:00,2021-08-24T15:00:00+02:00,76.23,EUR,15.330,MWh
Power,Intraday,Continuous,NL,ID3,QH,2021-08-24T15:00:00+02:00,2021-08-24T15:15:00+02:00,67.01,EUR,60.650,MWh
Power,Intraday,Continuous,NL,ID3,QH,2021-08-24T15:15:00+02:00,2021-08-24T15:30:00+02:00,67.77,EUR,32.980,MWh
Power,Intraday,Continuous,NL,ID3,QH,2021-08-24T15:30:00+02:00,2021-08-24T15:45:00+02:00,72.10,EUR,30.650,MWh
Power,Intraday,Continuous,NL,ID3,QH,2021-08-24T15:45:00+02:00,2021-08-24T16:00:00+02:00,85.69,EUR,48.750,MWh
Power,Intraday,Continuous,NL,ID3,QH,2021-08-24T16:00:00+02:00,2021-08-24T16:15:00+02:00,53.27,EUR,49.900,MWh
Power,Intraday,Continuous,NL,ID3,QH,2021-08-24T16:15:00+02:00,2021-08-24T16:30:00+02:00,68.08,EUR,47.680,MWh
Power,Intraday,Continuous,NL,ID3,QH,2021-08-24T16:30:00+02:00,2021-08-24T16:45:00+02:00,85.26,EUR,26.550,MWh
Power,Intraday,Continuous,NL,ID3,QH,2021-08-24T16:45:00+02:00,2021-08-24T17:00:00+02:00,83.39,EUR,57.730,MWh
Power,Intraday,Continuous,NL,ID3,QH,2021-08-24T17:00:00+02:00,2021-08-24T17:15:00+02:00,40.00,EUR,29.030,MWh
Power,Intraday,Continuous,NL,ID3,QH,2021-08-24T17:15:00+02:00,2021-08-24T17:30:00+02:00,83.36,EUR,34.200,MWh
Power,Intraday,Continuous,NL,ID3,QH,2021-08-24T17:30:00+02:00,2021-08-24T17:45:00+02:00,102.26,EUR,56.320,MWh
Power,Intraday,Continuous,NL,ID3,QH,2021-08-24T17:45:00+02:00,2021-08-24T18:00:00+02:00,121.67,EUR,73.530,MWh
Power,Intraday,Continuous,NL,ID3,QH,2021-08-24T18:00:00+02:00,2021-08-24T18:15:00+02:00,80.92,EUR,58.580,MWh
Power,Intraday,Continuous,NL,ID3,QH,2021-08-24T18:15:00+02:00,2021-08-24T18:30:00+02:00,90.86,EUR,54.380,MWh
Power,Intraday,Continuous,NL,ID3,QH,2021-08-24T18:30:00+02:00,2021-08-24T18:45:00+02:00,104.48,EUR,45.000,MWh
Power,Intraday,Continuous,NL,ID3,QH,2021-08-24T18:45:00+02:00,2021-08-24T19:00:00+02:00,136.78,EUR,55.250,MWh
Power,Intraday,Continuous,NL,ID3,QH,2021-08-24T19:00:00+02:00,2021-08-24T19:15:00+02:00,89.68,EUR,71.930,MWh
Power,Intraday,Continuous,NL,ID3,QH,2021-08-24T19:15:00+02:00,2021-08-24T19:30:00+02:00,102.89,EUR,30.700,MWh
Power,Intraday,Continuous,NL,ID3,QH,2021-08-24T19:30:00+02:00,2021-08-24T19:45:00+02:00,116.70,EUR,9.730,MWh
Power,Intraday,Continuous,NL,ID3,QH,2021-08-24T19:45:00+02:00,2021-08-24T20:00:00+02:00,150.73,EUR,10.030,MWh
Power,Intraday,Continuous,NL,ID3,QH,2021-08-24T20:00:00+02:00,2021-08-24T20:15:00+02:00,138.19,EUR,54.680,MWh
Power,Intraday,Continuous,NL,ID3,QH,2021-08-24T20:15:00+02:00,2021-08-24T20:30:00+02:00,129.34,EUR,35.250,MWh
Power,Intraday,Continuous,NL,ID3,QH,2021-08-24T20:30:00+02:00,2021-08-24T20:45:00+02:00,138.46,EUR,,MWh
Power,Intraday,Continuous,NL,ID3,QH,2021-08-24T20:45:00+02:00,2021-08-24T21:00:00+02:00,138.46,EUR,,MWh
Power,Intraday,Continuous,NL,ID3,QH,2021-08-24T21:00:00+02:00,2021-08-24T21:15:00+02:00,146.19,EUR,5.280,MWh
Power,Intraday,Continuous,NL,ID3,QH,2021-08-24T21:15:00+02:00,2021-08-24T21:30:00+02:00,121.27,EUR,5.330,MWh
Power,Intraday,Continuous,NL,ID3,QH,2021-08-24T21:30:00+02:00,2021-08-24T21:45:00+02:00,103.44,EUR,26.950,MWh
Power,Intraday,Continuous,NL,ID3,QH,2021-08-24T21:45:00+02:00,2021-08-24T22:00:00+02:00,80.76,EUR,51.380,MWh
Power,Intraday,Continuous,NL,ID3,QH,2021-08-24T22:00:00+02:00,2021-08-24T22:15:00+02:00,109.73,EUR,57.180,MWh
Power,Intraday,Continuous,NL,ID3,QH,2021-08-24T22:15:00+02:00,2021-08-24T22:30:00+02:00,104.98,EUR,36.180,MWh
Power,Intraday,Continuous,NL,ID3,QH,2021-08-24T22:30:00+02:00,2021-08-24T22:45:00+02:00,99.27,EUR,50.800,MWh
Power,Intraday,Continuous,NL,ID3,QH,2021-08-24T22:45:00+02:00,2021-08-24T23:00:00+02:00,79.76,EUR,70.030,MWh
Power,Intraday,Continuous,NL,ID3,QH,2021-08-24T23:00:00+02:00,2021-08-24T23:15:00+02:00,100.29,EUR,51.080,MWh
Power,Intraday,Continuous,NL,ID3,QH,2021-08-24T23:15:00+02:00,2021-08-24T23:30:00+02:00,84.88,EUR,40.180,MWh
Power,Intraday,Continuous,NL,ID3,QH,2021-08-24T23:30:00+02:00,2021-08-24T23:45:00+02:00,79.53,EUR,32.300,MWh
Power,Intraday,Continuous,NL,ID3,QH,2021-08-24T23:45:00+02:00,2021-08-25T00:00:00+02:00,67.27,EUR,34.830,MWh
Power,Intraday,Continuous,NL,IDFULL,BASE,2021-08-24T00:00:00+02:00,2021-08-25T00:00:00+02:00,95.14,EUR,17924.800,MWh
Power,Intraday,Continuous,NL,IDFULL,PEAK,2021-08-24T08:00:00+02:00,2021-08-24T20:00:00+02:00,96.87,EUR,10204.200,MWh
