Commodity,NominationModality,TradingModality,MarketArea,IndexName,TimeResolution,DeliveryStart,DeliveryEnd,IndexPrice,Currency,Volume,VolumeUnit
Power,Intraday,Continuous,NL,IDFULL,H,2021-05-03T00:00:00+02:00,2021-05-03T01:00:00+02:00,67.99,EUR,50.100,MWh
Power,Intraday,Continuous,NL,IDFULL,H,2021-05-03T01:00:00+02:00,2021-05-03T02:00:00+02:00,55.27,EUR,213.000,MWh
Power,Intraday,Continuous,NL,IDFULL,H,2021-05-03T02:00:00+02:00,2021-05-03T03:00:00+02:00,51.84,EUR,184.600,MWh
Power,Intraday,Continuous,NL,IDFULL,H,2021-05-03T03:00:00+02:00,2021-05-03T04:00:00+02:00,51.02,EUR,288.900,MWh
Power,Intraday,Continuous,NL,IDFULL,H,2021-05-03T04:00:00+02:00,2021-05-03T05:00:00+02:00,54.21,EUR,390.800,MWh
Power,Intraday,Continuous,NL,IDFULL,H,2021-05-03T05:00:00+02:00,2021-05-03T06:00:00+02:00,55.11,EUR,286.200,MWh
Power,Intraday,Continuous,NL,IDFULL,H,2021-05-03T06:00:00+02:00,2021-05-03T07:00:00+02:00,69.25,EUR,192.100,MWh
Power,Intraday,Continuous,NL,IDFULL,H,2021-05-03T07:00:00+02:00,2021-05-03T08:00:00+02:00,74.71,EUR,380.100,MWh
Power,Intraday,Continuous,NL,IDFULL,H,2021-05-03T08:00:00+02:00,2021-05-03T09:00:00+02:00,73.09,EUR,962.300,MWh
Power,Intraday,Continuous,NL,IDFULL,H,2021-05-03T09:00:00+02:00,2021-05-03T10:00:00+02:00,60.48,EUR,1046.600,MWh
Power,Intraday,Continuous,NL,IDFULL,H,2021-05-03T10:00:00+02:00,2021-05-03T11:00:00+02:00,55.45,EUR,1664.200,MWh
Power,Intraday,Continuous,NL,IDFULL,H,2021-05-03T11:00:00+02:00,2021-05-03T12:00:00+02:00,18.12,EUR,1074.100,MWh
Power,Intraday,Continuous,NL,IDFULL,H,2021-05-03T12:00:00+02:00,2021-05-03T13:00:00+02:00,44.40,EUR,2736.300,MWh
Power,Intraday,Continuous,NL,IDFULL,H,2021-05-03T13:00:00+02:00,2021-05-03T14:00:00+02:00,31.09,EUR,1576.200,MWh
Power,Intraday,Continuous,NL,IDFULL,H,2021-05-03T14:00:00+02:00,2021-05-03T15:00:00+02:00,39.58,EUR,1688.600,MWh
Power,Intraday,Continuous,NL,IDFULL,H,2021-05-03T15:00:00+02:00,2021-05-03T16:00:00+02:00,45.13,EUR,1723.100,MWh
Power,Intraday,Continuous,NL,IDFULL,H,2021-05-03T16:00:00+02:00,2021-05-03T17:00:00+02:00,42.43,EUR,1612.500,MWh
Power,Intraday,Continuous,NL,IDFULL,H,2021-05-03T17:00:00+02:00,2021-05-03T18:00:00+02:00,51.66,EUR,1954.000,MWh
Power,Intraday,Continuous,NL,IDFULL,H,2021-05-03T18:00:00+02:00,2021-05-03T19:00:00+02:00,58.25,EUR,1082.600,MWh
Power,Intraday,Continuous,NL,IDFULL,H,2021-05-03T19:00:00+02:00,2021-05-03T20:00:00+02:00,69.26,EUR,1098.400,MWh
Power,Intraday,Continuous,NL,IDFULL,H,2021-05-03T20:00:00+02:00,2021-05-03T21:00:00+02:00,77.28,EUR,1585.000,MWh
Power,Intraday,Continuous,NL,IDFULL,H,2021-05-03T21:00:00+02:00,2021-05-03T22:00:00+02:00,64.22,EUR,1519.000,MWh
Power,Intraday,Continuous,NL,IDFULL,H,2021-05-03T22:00:00+02:00,2021-05-03T23:00:00+02:00,55.98,EUR,2066.500,MWh
Power,Intraday,Continuous,NL,IDFULL,H,2021-05-03T23:00:00+02:00,2021-05-04T00:00:00+02:00,50.47,EUR,1626.900,MWh
Power,Intraday,Continuous,NL,ID1,H,2021-05-03T00:00:00+02:00,2021-05-03T01:00:00+02:00,67.29,EUR,,MWh
Power,Intraday,Continuous,NL,ID1,H,2021-05-03T01:00:00+02:00,2021-05-03T02:00:00+02:00,54.05,EUR,,MWh
Power,Intraday,Continuous,NL,ID1,H,2021-05-03T02:00:00+02:00,2021-05-03T03:00:00+02:00,63.25,EUR,13.300,MWh
Power,Intraday,Continuous,NL,ID1,H,2021-05-03T03:00:00+02:00,2021-05-03T04:00:00+02:00,50.51,EUR,,MWh
Power,Intraday,Continuous,NL,ID1,H,2021-05-03T04:00:00+02:00,2021-05-03T05:00:00+02:00,51.54,EUR,26.800,MWh
Power,Intraday,Continuous,NL,ID1,H,2021-05-03T05:00:00+02:00,2021-05-03T06:00:00+02:00,55.04,EUR,,MWh
Power,Intraday,Continuous,NL,ID1,H,2021-05-03T06:00:00+02:00,2021-05-03T07:00:00+02:00,70.03,EUR,55.000,MWh
Power,Intraday,Continuous,NL,ID1,H,2021-05-03T07:00:00+02:00,2021-05-03T08:00:00+02:00,77.89,EUR,111.000,MWh
Power,Intraday,Continuous,NL,ID1,H,2021-05-03T08:00:00+02:00,2021-05-03T09:00:00+02:00,68.62,EUR,310.400,MWh
Power,Intraday,Continuous,NL,ID1,H,2021-05-03T09:00:00+02:00,2021-05-03T10:00:00+02:00,48.41,EUR,241.400,MWh
Power,Intraday,Continuous,NL,ID1,H,2021-05-03T10:00:00+02:00,2021-05-03T11:00:00+02:00,47.30,EUR,379.500,MWh
Power,Intraday,Continuous,NL,ID1,H,2021-05-03T11:00:00+02:00,2021-05-03T12:00:00+02:00,-33.47,EUR,308.000,MWh
Power,Intraday,Continuous,NL,ID1,H,2021-05-03T12:00:00+02:00,2021-05-03T13:00:00+02:00,17.09,EUR,201.000,MWh
Power,Intraday,Continuous,NL,ID1,H,2021-05-03T13:00:00+02:00,2021-05-03T14:00:00+02:00,16.29,EUR,151.500,MWh
Power,Intraday,Continuous,NL,ID1,H,2021-05-03T14:00:00+02:00,2021-05-03T15:00:00+02:00,36.90,EUR,154.900,MWh
Power,Intraday,Continuous,NL,ID1,H,2021-05-03T15:00:00+02:00,2021-05-03T16:00:00+02:00,10.02,EUR,74.600,MWh
Power,Intraday,Continuous,NL,ID1,H,2021-05-03T16:00:00+02:00,2021-05-03T17:00:00+02:00,16.73,EUR,222.500,MWh
Power,Intraday,Continuous,NL,ID1,H,2021-05-03T17:00:00+02:00,2021-05-03T18:00:00+02:00,39.33,EUR,11.200,MWh
Power,Intraday,Continuous,NL,ID1,H,2021-05-03T18:00:00+02:00,2021-05-03T19:00:00+02:00,49.89,EUR,70.000,MWh
Power,Intraday,Continuous,NL,ID1,H,2021-05-03T19:00:00+02:00,2021-05-03T20:00:00+02:00,54.43,EUR,155.200,MWh
Power,Intraday,Continuous,NL,ID1,H,2021-05-03T20:00:00+02:00,2021-05-03T21:00:00+02:00,117.41,EUR,60.000,MWh
Power,Intraday,Continuous,NL,ID1,H,2021-05-03T21:00:00+02:00,2021-05-03T22:00:00+02:00,63.24,EUR,,MWh
Power,Intraday,Continuous,NL,ID1,H,2021-05-03T22:00:00+02:00,2021-05-03T23:00:00+02:00,48.67,EUR,180.000,MWh
Power,Intraday,Continuous,NL,ID1,H,2021-05-03T23:00:00+02:00,2021-05-04T00:00:00+02:00,50.66,EUR,,MWh
Power,Intraday,Continuous,NL,ID3,H,2021-05-03T00:00:00+02:00,2021-05-03T01:00:00+02:00,67.29,EUR,44.000,MWh
Power,Intraday,Continuous,NL,ID3,H,2021-05-03T01:00:00+02:00,2021-05-03T02:00:00+02:00,54.05,EUR,202.900,MWh
Power,Intraday,Continuous,NL,ID3,H,2021-05-03T02:00:00+02:00,2021-05-03T03:00:00+02:00,51.75,EUR,166.300,MWh
Power,Intraday,Continuous,NL,ID3,H,2021-05-03T03:00:00+02:00,2021-05-03T04:00:00+02:00,50.51,EUR,170.100,MWh
Power,Intraday,Continuous,NL,ID3,H,2021-05-03T04:00:00+02:00,2021-05-03T05:00:00+02:00,53.24,EUR,198.700,MWh
Power,Intraday,Continuous,NL,ID3,H,2021-05-03T05:00:00+02:00,2021-05-03T06:00:00+02:00,55.04,EUR,244.500,MWh
Power,Intraday,Continuous,NL,ID3,H,2021-05-03T06:00:00+02:00,2021-05-03T07:00:00+02:00,69.74,EUR,143.800,MWh
Power,Intraday,Continuous,NL,ID3,H,2021-05-03T07:00:00+02:00,2021-05-03T08:00:00+02:00,72.89,EUR,271.400,MWh
Power,Intraday,Continuous,NL,ID3,H,2021-05-03T08:00:00+02:00,2021-05-03T09:00:00+02:00,70.18,EUR,718.100,MWh
Power,Intraday,Continuous,NL,ID3,H,2021-05-03T09:00:00+02:00,2021-05-03T10:00:00+02:00,60.07,EUR,971.300,MWh
Power,Intraday,Continuous,NL,ID3,H,2021-05-03T10:00:00+02:00,2021-05-03T11:00:00+02:00,55.05,EUR,1569.000,MWh
Power,Intraday,Continuous,NL,ID3,H,2021-05-03T11:00:00+02:00,2021-05-03T12:00:00+02:00,9.64,EUR,878.600,MWh
Power,Intraday,Continuous,NL,ID3,H,2021-05-03T12:00:00+02:00,2021-05-03T13:00:00+02:00,39.53,EUR,1980.900,MWh
Power,Intraday,Continuous,NL,ID3,H,2021-05-03T13:00:00+02:00,2021-05-03T14:00:00+02:00,29.88,EUR,1369.200,MWh
Power,Intraday,Continuous,NL,ID3,H,2021-05-03T14:00:00+02:00,2021-05-03T15:00:00+02:00,38.32,EUR,1129.100,MWh
Power,Intraday,Continuous,NL,ID3,H,2021-05-03T15:00:00+02:00,2021-05-03T16:00:00+02:00,42.46,EUR,961.800,MWh
Power,Intraday,Continuous,NL,ID3,H,2021-05-03T16:00:00+02:00,2021-05-03T17:00:00+02:00,36.78,EUR,874.700,MWh
Power,Intraday,Continuous,NL,ID3,H,2021-05-03T17:00:00+02:00,2021-05-03T18:00:00+02:00,49.07,EUR,937.500,MWh
Power,Intraday,Continuous,NL,ID3,H,2021-05-03T18:00:00+02:00,2021-05-03T19:00:00+02:00,57.35,EUR,784.600,MWh
Power,Intraday,Continuous,NL,ID3,H,2021-05-03T19:00:00+02:00,2021-05-03T20:00:00+02:00,68.63,EUR,932.500,MWh
Power,Intraday,Continuous,NL,ID3,H,2021-05-03T20:00:00+02:00,2021-05-03T21:00:00+02:00,78.33,EUR,1073.500,MWh
Power,Intraday,Continuous,NL,ID3,H,2021-05-03T21:00:00+02:00,2021-05-03T22:00:00+02:00,63.24,EUR,773.800,MWh
Power,Intraday,Continuous,NL,ID3,H,2021-05-03T22:00:00+02:00,2021-05-03T23:00:00+02:00,59.31,EUR,957.900,MWh
Power,Intraday,Continuous,NL,ID3,H,2021-05-03T23:00:00+02:00,2021-05-04T00:00:00+02:00,50.66,EUR,534.100,MWh
Power,Intraday,Continuous,NL,IDFULL,HH,2021-05-03T00:00:00+02:00,2021-05-03T00:30:00+02:00,67.99,EUR,,MWh
Power,Intraday,Continuous,NL,IDFULL,HH,2021-05-03T00:30:00+02:00,2021-05-03T01:00:00+02:00,67.99,EUR,,MWh
Power,Intraday,Continuous,NL,IDFULL,HH,2021-05-03T01:00:00+02:00,2021-05-03T01:30:00+02:00,55.27,EUR,,MWh
Power,Intraday,Continuous,NL,IDFULL,HH,2021-05-03T01:30:00+02:00,2021-05-03T02:00:00+02:00,55.27,EUR,,MWh
Power,Intraday,Continuous,NL,IDFULL,HH,2021-05-03T02:00:00+02:00,2021-05-03T02:30:00+02:00,51.84,EUR,,MWh
Power,Intraday,Continuous,NL,IDFULL,HH,2021-05-03T02:30:00+02:00,2021-05-03T03:00:00+02:00,51.84,EUR,,MWh
Power,Intraday,Continuous,NL,IDFULL,HH,2021-05-03T03:00:00+02:00,2021-05-03T03:30:00+02:00,51.02,EUR,,MWh
Power,Intraday,Continuous,NL,IDFULL,HH,2021-05-03T03:30:00+02:00,2021-05-03T04:00:00+02:00,51.02,EUR,,MWh
Power,Intraday,Continuous,NL,IDFULL,HH,2021-05-03T04:00:00+02:00,2021-05-03T04:30:00+02:00,54.21,EUR,,MWh
Power,Intraday,Continuous,NL,IDFULL,HH,2021-05-03T04:30:00+02:00,2021-05-03T05:00:00+02:00,54.21,EUR,,MWh
Power,Intraday,Continuous,NL,IDFULL,HH,2021-05-03T05:00:00+02:00,2021-05-03T05:30:00+02:00,55.11,EUR,,MWh
Power,Intraday,Continuous,NL,IDFULL,HH,2021-05-03T05:30:00+02:00,2021-05-03T06:00:00+02:00,55.11,EUR,,MWh
Power,Intraday,Continuous,NL,IDFULL,HH,2021-05-03T06:00:00+02:00,2021-05-03T06:30:00+02:00,46.99,EUR,,MWh
Power,Intraday,Continuous,NL,IDFULL,HH,2021-05-03T06:30:00+02:00,2021-05-03T07:00:00+02:00,91.51,EUR,17.850,MWh
Power,Intraday,Continuous,NL,IDFULL,HH,2021-05-03T07:00:00+02:00,2021-05-03T07:30:00+02:00,74.71,EUR,,MWh
Power,Intraday,Continuous,NL,IDFULL,HH,2021-05-03T07:30:00+02:00,2021-05-03T08:00:00+02:00,74.71,EUR,,MWh
Power,Intraday,Continuous,NL,IDFULL,HH,2021-05-03T08:00:00+02:00,2021-05-03T08:30:00+02:00,73.09,EUR,,MWh
Power,Intraday,Continuous,NL,IDFULL,HH,2021-05-03T08:30:00+02:00,2021-05-03T09:00:00+02:00,73.09,EUR,,MWh
Power,Intraday,Continuous,NL,IDFULL,HH,2021-05-03T09:00:00+02:00,2021-05-03T09:30:00+02:00,60.48,EUR,,MWh
Power,Intraday,Continuous,NL,IDFULL,HH,2021-05-03T09:30:00+02:00,2021-05-03T10:00:00+02:00,60.48,EUR,,MWh
Power,Intraday,Continuous,NL,IDFULL,HH,2021-05-03T10:00:00+02:00,2021-05-03T10:30:00+02:00,55.45,EUR,,MWh
Power,Intraday,Continuous,NL,IDFULL,HH,2021-05-03T10:30:00+02:00,2021-05-03T11:00:00+02:00,55.45,EUR,,MWh
Power,Intraday,Continuous,NL,IDFULL,HH,2021-05-03T11:00:00+02:00,2021-05-03T11:30:00+02:00,18.12,EUR,,MWh
Power,Intraday,Continuous,NL,IDFULL,HH,2021-05-03T11:30:00+02:00,2021-05-03T12:00:00+02:00,18.12,EUR,,MWh
Power,Intraday,Continuous,NL,IDFULL,HH,2021-05-03T12:00:00+02:00,2021-05-03T12:30:00+02:00,44.40,EUR,,MWh
Power,Intraday,Continuous,NL,IDFULL,HH,2021-05-03T12:30:00+02:00,2021-05-03T13:00:00+02:00,44.40,EUR,,MWh
Power,Intraday,Continuous,NL,IDFULL,HH,2021-05-03T13:00:00+02:00,2021-05-03T13:30:00+02:00,31.09,EUR,,MWh
Power,Intraday,Continuous,NL,IDFULL,HH,2021-05-03T13:30:00+02:00,2021-05-03T14:00:00+02:00,31.09,EUR,,MWh
Power,Intraday,Continuous,NL,IDFULL,HH,2021-05-03T14:00:00+02:00,2021-05-03T14:30:00+02:00,39.58,EUR,,MWh
Power,Intraday,Continuous,NL,IDFULL,HH,2021-05-03T14:30:00+02:00,2021-05-03T15:00:00+02:00,39.58,EUR,,MWh
Power,Intraday,Continuous,NL,IDFULL,HH,2021-05-03T15:00:00+02:00,2021-05-03T15:30:00+02:00,45.13,EUR,,MWh
Power,Intraday,Continuous,NL,IDFULL,HH,2021-05-03T15:30:00+02:00,2021-05-03T16:00:00+02:00,45.13,EUR,,MWh
Power,Intraday,Continuous,NL,IDFULL,HH,2021-05-03T16:00:00+02:00,2021-05-03T16:30:00+02:00,42.43,EUR,,MWh
Power,Intraday,Continuous,NL,IDFULL,HH,2021-05-03T16:30:00+02:00,2021-05-03T17:00:00+02:00,42.43,EUR,,MWh
Power,Intraday,Continuous,NL,IDFULL,HH,2021-05-03T17:00:00+02:00,2021-05-03T17:30:00+02:00,51.66,EUR,,MWh
Power,Intraday,Continuous,NL,IDFULL,HH,2021-05-03T17:30:00+02:00,2021-05-03T18:00:00+02:00,51.66,EUR,,MWh
Power,Intraday,Continuous,NL,IDFULL,HH,2021-05-03T18:00:00+02:00,2021-05-03T18:30:00+02:00,58.25,EUR,,MWh
Power,Intraday,Continuous,NL,IDFULL,HH,2021-05-03T18:30:00+02:00,2021-05-03T19:00:00+02:00,58.25,EUR,,MWh
Power,Intraday,Continuous,NL,IDFULL,HH,2021-05-03T19:00:00+02:00,2021-05-03T19:30:00+02:00,52.12,EUR,,MWh
Power,Intraday,Continuous,NL,IDFULL,HH,2021-05-03T19:30:00+02:00,2021-05-03T20:00:00+02:00,86.40,EUR,8.900,MWh
Power,Intraday,Continuous,NL,IDFULL,HH,2021-05-03T20:00:00+02:00,2021-05-03T20:30:00+02:00,76.09,EUR,7.000,MWh
Power,Intraday,Continuous,NL,IDFULL,HH,2021-05-03T20:30:00+02:00,2021-05-03T21:00:00+02:00,78.47,EUR,,MWh
Power,Intraday,Continuous,NL,IDFULL,HH,2021-05-03T21:00:00+02:00,2021-05-03T21:30:00+02:00,64.22,EUR,,MWh
Power,Intraday,Continuous,NL,IDFULL,HH,2021-05-03T21:30:00+02:00,2021-05-03T22:00:00+02:00,64.22,EUR,,MWh
Power,Intraday,Continuous,NL,IDFULL,HH,2021-05-03T22:00:00+02:00,2021-05-03T22:30:00+02:00,55.98,EUR,,MWh
Power,Intraday,Continuous,NL,IDFULL,HH,2021-05-03T22:30:00+02:00,2021-05-03T23:00:00+02:00,55.98,EUR,,MWh
Power,Intraday,Continuous,NL,IDFULL,HH,2021-05-03T23:00:00+02:00,2021-05-03T23:30:00+02:00,50.47,EUR,,MWh
Power,Intraday,Continuous,NL,IDFULL,HH,2021-05-03T23:30:00+02:00,2021-05-04T00:00:00+02:00,50.47,EUR,,MWh
Power,Intraday,Continuous,NL,ID1,HH,2021-05-03T00:00:00+02:00,2021-05-03T00:30:00+02:00,67.99,EUR,,MWh
Power,Intraday,Continuous,NL,ID1,HH,2021-05-03T00:30:00+02:00,2021-05-03T01:00:00+02:00,67.99,EUR,,MWh
Power,Intraday,Continuous,NL,ID1,HH,2021-05-03T01:00:00+02:00,2021-05-03T01:30:00+02:00,55.27,EUR,,MWh
Power,Intraday,Continuous,NL,ID1,HH,2021-05-03T01:30:00+02:00,2021-05-03T02:00:00+02:00,55.27,EUR,,MWh
Power,Intraday,Continuous,NL,ID1,HH,2021-05-03T02:00:00+02:00,2021-05-03T02:30:00+02:00,51.84,EUR,,MWh
Power,Intraday,Continuous,NL,ID1,HH,2021-05-03T02:30:00+02:00,2021-05-03T03:00:00+02:00,51.84,EUR,,MWh
Power,Intraday,Continuous,NL,ID1,HH,2021-05-03T03:00:00+02:00,2021-05-03T03:30:00+02:00,51.02,EUR,,MWh
Power,Intraday,Continuous,NL,ID1,HH,2021-05-03T03:30:00+02:00,2021-05-03T04:00:00+02:00,51.02,EUR,,MWh
Power,Intraday,Continuous,NL,ID1,HH,2021-05-03T04:00:00+02:00,2021-05-03T04:30:00+02:00,54.21,EUR,,MWh
Power,Intraday,Continuous,NL,ID1,HH,2021-05-03T04:30:00+02:00,2021-05-03T05:00:00+02:00,54.21,EUR,,MWh
Power,Intraday,Continuous,NL,ID1,HH,2021-05-03T05:00:00+02:00,2021-05-03T05:30:00+02:00,55.11,EUR,,MWh
Power,Intraday,Continuous,NL,ID1,HH,2021-05-03T05:30:00+02:00,2021-05-03T06:00:00+02:00,55.11,EUR,,MWh
Power,Intraday,Continuous,NL,ID1,HH,2021-05-03T06:00:00+02:00,2021-05-03T06:30:00+02:00,46.99,EUR,,MWh
Power,Intraday,Continuous,NL,ID1,HH,2021-05-03T06:30:00+02:00,2021-05-03T07:00:00+02:00,91.51,EUR,,MWh
Power,Intraday,Continuous,NL,ID1,HH,2021-05-03T07:00:00+02:00,2021-05-03T07:30:00+02:00,74.71,EUR,,MWh
Power,Intraday,Continuous,NL,ID1,HH,2021-05-03T07:30:00+02:00,2021-05-03T08:00:00+02:00,74.71,EUR,,MWh
Power,Intraday,Continuous,NL,ID1,HH,2021-05-03T08:00:00+02:00,2021-05-03T08:30:00+02:00,73.09,EUR,,MWh
Power,Intraday,Continuous,NL,ID1,HH,2021-05-03T08:30:00+02:00,2021-05-03T09:00:00+02:00,73.09,EUR,,MWh
Power,Intraday,Continuous,NL,ID1,HH,2021-05-03T09:00:00+02:00,2021-05-03T09:30:00+02:00,60.48,EUR,,MWh
Power,Intraday,Continuous,NL,ID1,HH,2021-05-03T09:30:00+02:00,2021-05-03T10:00:00+02:00,60.48,EUR,,MWh
Power,Intraday,Continuous,NL,ID1,HH,2021-05-03T10:00:00+02:00,2021-05-03T10:30:00+02:00,55.45,EUR,,MWh
Power,Intraday,Continuous,NL,ID1,HH,2021-05-03T10:30:00+02:00,2021-05-03T11:00:00+02:00,55.45,EUR,,MWh
Power,Intraday,Continuous,NL,ID1,HH,2021-05-03T11:00:00+02:00,2021-05-03T11:30:00+02:00,18.12,EUR,,MWh
Power,Intraday,Continuous,NL,ID1,HH,2021-05-03T11:30:00+02:00,2021-05-03T12:00:00+02:00,18.12,EUR,,MWh
Power,Intraday,Continuous,NL,ID1,HH,2021-05-03T12:00:00+02:00,2021-05-03T12:30:00+02:00,44.40,EUR,,MWh
Power,Intraday,Continuous,NL,ID1,HH,2021-05-03T12:30:00+02:00,2021-05-03T13:00:00+02:00,44.40,EUR,,MWh
Power,Intraday,Continuous,NL,ID1,HH,2021-05-03T13:00:00+02:00,2021-05-03T13:30:00+02:00,31.09,EUR,,MWh
Power,Intraday,Continuous,NL,ID1,HH,2021-05-03T13:30:00+02:00,2021-05-03T14:00:00+02:00,31.09,EUR,,MWh
Power,Intraday,Continuous,NL,ID1,HH,2021-05-03T14:00:00+02:00,2021-05-03T14:30:00+02:00,39.58,EUR,,MWh
Power,Intraday,Continuous,NL,ID1,HH,2021-05-03T14:30:00+02:00,2021-05-03T15:00:00+02:00,39.58,EUR,,MWh
Power,Intraday,Continuous,NL,ID1,HH,2021-05-03T15:00:00+02:00,2021-05-03T15:30:00+02:00,45.13,EUR,,MWh
Power,Intraday,Continuous,NL,ID1,HH,2021-05-03T15:30:00+02:00,2021-05-03T16:00:00+02:00,45.13,EUR,,MWh
Power,Intraday,Continuous,NL,ID1,HH,2021-05-03T16:00:00+02:00,2021-05-03T16:30:00+02:00,42.43,EUR,,MWh
Power,Intraday,Continuous,NL,ID1,HH,2021-05-03T16:30:00+02:00,2021-05-03T17:00:00+02:00,42.43,EUR,,MWh
Power,Intraday,Continuous,NL,ID1,HH,2021-05-03T17:00:00+02:00,2021-05-03T17:30:00+02:00,51.66,EUR,,MWh
Power,Intraday,Continuous,NL,ID1,HH,2021-05-03T17:30:00+02:00,2021-05-03T18:00:00+02:00,51.66,EUR,,MWh
Power,Intraday,Continuous,NL,ID1,HH,2021-05-03T18:00:00+02:00,2021-05-03T18:30:00+02:00,58.25,EUR,,MWh
Power,Intraday,Continuous,NL,ID1,HH,2021-05-03T18:30:00+02:00,2021-05-03T19:00:00+02:00,58.25,EUR,,MWh
Power,Intraday,Continuous,NL,ID1,HH,2021-05-03T19:00:00+02:00,2021-05-03T19:30:00+02:00,52.12,EUR,,MWh
Power,Intraday,Continuous,NL,ID1,HH,2021-05-03T19:30:00+02:00,2021-05-03T20:00:00+02:00,86.40,EUR,,MWh
Power,Intraday,Continuous,NL,ID1,HH,2021-05-03T20:00:00+02:00,2021-05-03T20:30:00+02:00,76.09,EUR,,MWh
Power,Intraday,Continuous,NL,ID1,HH,2021-05-03T20:30:00+02:00,2021-05-03T21:00:00+02:00,78.47,EUR,,MWh
Power,Intraday,Continuous,NL,ID1,HH,2021-05-03T21:00:00+02:00,2021-05-03T21:30:00+02:00,64.22,EUR,,MWh
Power,Intraday,Continuous,NL,ID1,HH,2021-05-03T21:30:00+02:00,2021-05-03T22:00:00+02:00,64.22,EUR,,MWh
Power,Intraday,Continuous,NL,ID1,HH,2021-05-03T22:00:00+02:00,2021-05-03T22:30:00+02:00,55.98,EUR,,MWh
Power,Intraday,Continuous,NL,ID1,HH,2021-05-03T22:30:00+02:00,2021-05-03T23:00:00+02:00,55.98,EUR,,MWh
Power,Intraday,Continuous,NL,ID1,HH,2021-05-03T23:00:00+02:00,2021-05-03T23:30:00+02:00,50.47,EUR,,MWh
Power,Intraday,Continuous,NL,ID1,HH,2021-05-03T23:30:00+02:00,2021-05-04T00:00:00+02:00,50.47,EUR,,MWh
Power,Intraday,Continuous,NL,ID3,HH,2021-05-03T00:00:00+02:00,2021-05-03T00:30:00+02:00,67.99,EUR,,MWh
Power,Intraday,Continuous,NL,ID3,HH,2021-05-03T00:30:00+02:00,2021-05-03T01:00:00+02:00,67.99,EUR,,MWh
Power,Intraday,Continuous,NL,ID3,HH,2021-05-03T01:00:00+02:00,2021-05-03T01:30:00+02:00,55.27,EUR,,MWh
Power,Intraday,Continuous,NL,ID3,HH,2021-05-03T01:30:00+02:00,2021-05-03T02:00:00+02:00,55.27,EUR,,MWh
Power,Intraday,Continuous,NL,ID3,HH,2021-05-03T02:00:00+02:00,2021-05-03T02:30:00+02:00,51.84,EUR,,MWh
Power,Intraday,Continuous,NL,ID3,HH,2021-05-03T02:30:00+02:00,2021-05-03T03:00:00+02:00,51.84,EUR,,MWh
Power,Intraday,Continuous,NL,ID3,HH,2021-05-03T03:00:00+02:00,2021-05-03T03:30:00+02:00,51.02,EUR,,MWh
Power,Intraday,Continuous,NL,ID3,HH,2021-05-03T03:30:00+02:00,2021-05-03T04:00:00+02:00,51.02,EUR,,MWh
Power,Intraday,Continuous,NL,ID3,HH,2021-05-03T04:00:00+02:00,2021-05-03T04:30:00+02:00,54.21,EUR,,MWh
Power,Intraday,Continuous,NL,ID3,HH,2021-05-03T04:30:00+02:00,2021-05-03T05:00:00+02:00,54.21,EUR,,MWh
Power,Intraday,Continuous,NL,ID3,HH,2021-05-03T05:00:00+02:00,2021-05-03T05:30:00+02:00,55.11,EUR,,MWh
Power,Intraday,Continuous,NL,ID3,HH,2021-05-03T05:30:00+02:00,2021-05-03T06:00:00+02:00,55.11,EUR,,MWh
Power,Intraday,Continuous,NL,ID3,HH,2021-05-03T06:00:00+02:00,2021-05-03T06:30:00+02:00,46.99,EUR,,MWh
Power,Intraday,Continuous,NL,ID3,HH,2021-05-03T06:30:00+02:00,2021-05-03T07:00:00+02:00,91.51,EUR,,MWh
Power,Intraday,Continuous,NL,ID3,HH,2021-05-03T07:00:00+02:00,2021-05-03T07:30:00+02:00,74.71,EUR,,MWh
Power,Intraday,Continuous,NL,ID3,HH,2021-05-03T07:30:00+02:00,2021-05-03T08:00:00+02:00,74.71,EUR,,MWh
Power,Intraday,Continuous,NL,ID3,HH,2021-05-03T08:00:00+02:00,2021-05-03T08:30:00+02:00,73.09,EUR,,MWh
Power,Intraday,Continuous,NL,ID3,HH,2021-05-03T08:30:00+02:00,2021-05-03T09:00:00+02:00,73.09,EUR,,MWh
Power,Intraday,Continuous,NL,ID3,HH,2021-05-03T09:00:00+02:00,2021-05-03T09:30:00+02:00,60.48,EUR,,MWh
Power,Intraday,Continuous,NL,ID3,HH,2021-05-03T09:30:00+02:00,2021-05-03T10:00:00+02:00,60.48,EUR,,MWh
Power,Intraday,Continuous,NL,ID3,HH,2021-05-03T10:00:00+02:00,2021-05-03T10:30:00+02:00,55.45,EUR,,MWh
Power,Intraday,Continuous,NL,ID3,HH,2021-05-03T10:30:00+02:00,2021-05-03T11:00:00+02:00,55.45,EUR,,MWh
Power,Intraday,Continuous,NL,ID3,HH,2021-05-03T11:00:00+02:00,2021-05-03T11:30:00+02:00,18.12,EUR,,MWh
Power,Intraday,Continuous,NL,ID3,HH,2021-05-03T11:30:00+02:00,2021-05-03T12:00:00+02:00,18.12,EUR,,MWh
Power,Intraday,Continuous,NL,ID3,HH,2021-05-03T12:00:00+02:00,2021-05-03T12:30:00+02:00,44.40,EUR,,MWh
Power,Intraday,Continuous,NL,ID3,HH,2021-05-03T12:30:00+02:00,2021-05-03T13:00:00+02:00,44.40,EUR,,MWh
Power,Intraday,Continuous,NL,ID3,HH,2021-05-03T13:00:00+02:00,2021-05-03T13:30:00+02:00,31.09,EUR,,MWh
Power,Intraday,Continuous,NL,ID3,HH,2021-05-03T13:30:00+02:00,2021-05-03T14:00:00+02:00,31.09,EUR,,MWh
Power,Intraday,Continuous,NL,ID3,HH,2021-05-03T14:00:00+02:00,2021-05-03T14:30:00+02:00,39.58,EUR,,MWh
Power,Intraday,Continuous,NL,ID3,HH,2021-05-03T14:30:00+02:00,2021-05-03T15:00:00+02:00,39.58,EUR,,MWh
Power,Intraday,Continuous,NL,ID3,HH,2021-05-03T15:00:00+02:00,2021-05-03T15:30:00+02:00,45.13,EUR,,MWh
Power,Intraday,Continuous,NL,ID3,HH,2021-05-03T15:30:00+02:00,2021-05-03T16:00:00+02:00,45.13,EUR,,MWh
Power,Intraday,Continuous,NL,ID3,HH,2021-05-03T16:00:00+02:00,2021-05-03T16:30:00+02:00,42.43,EUR,,MWh
Power,Intraday,Continuous,NL,ID3,HH,2021-05-03T16:30:00+02:00,2021-05-03T17:00:00+02:00,42.43,EUR,,MWh
Power,Intraday,Continuous,NL,ID3,HH,2021-05-03T17:00:00+02:00,2021-05-03T17:30:00+02:00,51.66,EUR,,MWh
Power,Intraday,Continuous,NL,ID3,HH,2021-05-03T17:30:00+02:00,2021-05-03T18:00:00+02:00,51.66,EUR,,MWh
Power,Intraday,Continuous,NL,ID3,HH,2021-05-03T18:00:00+02:00,2021-05-03T18:30:00+02:00,58.25,EUR,,MWh
Power,Intraday,Continuous,NL,ID3,HH,2021-05-03T18:30:00+02:00,2021-05-03T19:00:00+02:00,58.25,EUR,,MWh
Power,Intraday,Continuous,NL,ID3,HH,2021-05-03T19:00:00+02:00,2021-05-03T19:30:00+02:00,52.12,EUR,,MWh
Power,Intraday,Continuous,NL,ID3,HH,2021-05-03T19:30:00+02:00,2021-05-03T20:00:00+02:00,86.40,EUR,,MWh
Power,Intraday,Continuous,NL,ID3,HH,2021-05-03T20:00:00+02:00,2021-05-03T20:30:00+02:00,76.09,EUR,,MWh
Power,Intraday,Continuous,NL,ID3,HH,2021-05-03T20:30:00+02:00,2021-05-03T21:00:00+02:00,78.47,EUR,,MWh
Power,Intraday,Continuous,NL,ID3,HH,2021-05-03T21:00:00+02:00,2021-05-03T21:30:00+02:00,64.22,EUR,,MWh
Power,Intraday,Continuous,NL,ID3,HH,2021-05-03T21:30:00+02:00,2021-05-03T22:00:00+02:00,64.22,EUR,,MWh
Power,Intraday,Continuous,NL,ID3,HH,2021-05-03T22:00:00+02:00,2021-05-03T22:30:00+02:00,55.98,EUR,,MWh
Power,Intraday,Continuous,NL,ID3,HH,2021-05-03T22:30:00+02:00,2021-05-03T23:00:00+02:00,55.98,EUR,,MWh
Power,Intraday,Continuous,NL,ID3,HH,2021-05-03T23:00:00+02:00,2021-05-03T23:30:00+02:00,50.47,EUR,,MWh
Power,Intraday,Continuous,NL,ID3,HH,2021-05-03T23:30:00+02:00,2021-05-04T00:00:00+02:00,50.47,EUR,,MWh
Power,Intraday,Continuous,NL,IDFULL,QH,2021-05-03T00:00:00+02:00,2021-05-03T00:15:00+02:00,67.29,EUR,,MWh
Power,Intraday,Continuous,NL,IDFULL,QH,2021-05-03T00:15:00+02:00,2021-05-03T00:30:00+02:00,70.10,EUR,2.500,MWh
Power,Intraday,Continuous,NL,IDFULL,QH,2021-05-03T00:30:00+02:00,2021-05-03T00:45:00+02:00,67.29,EUR,,MWh
Power,Intraday,Continuous,NL,IDFULL,QH,2021-05-03T00:45:00+02:00,2021-05-03T01:00:00+02:00,67.29,EUR,,MWh
Power,Intraday,Continuous,NL,IDFULL,QH,2021-05-03T01:00:00+02:00,2021-05-03T01:15:00+02:00,58.08,EUR,9.430,MWh
Power,Intraday,Continuous,NL,IDFULL,QH,2021-05-03T01:15:00+02:00,2021-05-03T01:30:00+02:00,49.43,EUR,3.750,MWh
Power,Intraday,Continuous,NL,IDFULL,QH,2021-05-03T01:30:00+02:00,2021-05-03T01:45:00+02:00,47.31,EUR,3.330,MWh
Power,Intraday,Continuous,NL,IDFULL,QH,2021-05-03T01:45:00+02:00,2021-05-03T02:00:00+02:00,53.31,EUR,6.330,MWh
Power,Intraday,Continuous,NL,IDFULL,QH,2021-05-03T02:00:00+02:00,2021-05-03T02:15:00+02:00,51.84,EUR,,MWh
Power,Intraday,Continuous,NL,IDFULL,QH,2021-05-03T02:15:00+02:00,2021-05-03T02:30:00+02:00,51.84,EUR,,MWh
Power,Intraday,Continuous,NL,IDFULL,QH,2021-05-03T02:30:00+02:00,2021-05-03T02:45:00+02:00,51.84,EUR,,MWh
Power,Intraday,Continuous,NL,IDFULL,QH,2021-05-03T02:45:00+02:00,2021-05-03T03:00:00+02:00,51.84,EUR,,MWh
Power,Intraday,Continuous,NL,IDFULL,QH,2021-05-03T03:00:00+02:00,2021-05-03T03:15:00+02:00,52.60,EUR,,MWh
Power,Intraday,Continuous,NL,IDFULL,QH,2021-05-03T03:15:00+02:00,2021-05-03T03:30:00+02:00,52.60,EUR,,MWh
Power,Intraday,Continuous,NL,IDFULL,QH,2021-05-03T03:30:00+02:00,2021-05-03T03:45:00+02:00,46.29,EUR,4.100,MWh
Power,Intraday,Continuous,NL,IDFULL,QH,2021-05-03T03:45:00+02:00,2021-05-03T04:00:00+02:00,52.60,EUR,,MWh
Power,Intraday,Continuous,NL,IDFULL,QH,2021-05-03T04:00:00+02:00,2021-05-03T04:15:00+02:00,45.10,EUR,4.000,MWh
Power,Intraday,Continuous,NL,IDFULL,QH,2021-05-03T04:15:00+02:00,2021-05-03T04:30:00+02:00,46.13,EUR,6.450,MWh
Power,Intraday,Continuous,NL,IDFULL,QH,2021-05-03T04:30:00+02:00,2021-05-03T04:45:00+02:00,52.60,EUR,5.530,MWh
Power,Intraday,Continuous,NL,IDFULL,QH,2021-05-03T04:45:00+02:00,2021-05-03T05:00:00+02:00,64.14,EUR,5.980,MWh
Power,Intraday,Continuous,NL,IDFULL,QH,2021-05-03T05:00:00+02:00,2021-05-03T05:15:00+02:00,44.23,EUR,12.350,MWh
Power,Intraday,Continuous,NL,IDFULL,QH,2021-05-03T05:15:00+02:00,2021-05-03T05:30:00+02:00,45.31,EUR,9.750,MWh
Power,Intraday,Continuous,NL,IDFULL,QH,2021-05-03T05:30:00+02:00,2021-05-03T05:45:00+02:00,55.48,EUR,12.200,MWh
Power,Intraday,Continuous,NL,IDFULL,QH,2021-05-03T05:45:00+02:00,2021-05-03T06:00:00+02:00,77.28,EUR,57.200,MWh
Power,Intraday,Continuous,NL,IDFULL,QH,2021-05-03T06:00:00+02:00,2021-05-03T06:15:00+02:00,48.72,EUR,15.850,MWh
Power,Intraday,Continuous,NL,IDFULL,QH,2021-05-03T06:15:00+02:00,2021-05-03T06:30:00+02:00,63.03,EUR,7.080,MWh
Power,Intraday,Continuous,NL,IDFULL,QH,2021-05-03T06:30:00+02:00,2021-05-03T06:45:00+02:00,78.45,EUR,20.750,MWh
Power,Intraday,Continuous,NL,IDFULL,QH,2021-05-03T06:45:00+02:00,2021-05-03T07:00:00+02:00,94.83,EUR,42.900,MWh
Power,Intraday,Continuous,NL,IDFULL,QH,2021-05-03T07:00:00+02:00,2021-05-03T07:15:00+02:00,49.81,EUR,20.430,MWh
Power,Intraday,Continuous,NL,IDFULL,QH,2021-05-03T07:15:00+02:00,2021-05-03T07:30:00+02:00,85.98,EUR,20.850,MWh
Power,Intraday,Continuous,NL,IDFULL,QH,2021-05-03T07:30:00+02:00,2021-05-03T07:45:00+02:00,94.39,EUR,46.650,MWh
Power,Intraday,Continuous,NL,IDFULL,QH,2021-05-03T07:45:00+02:00,2021-05-03T08:00:00+02:00,77.85,EUR,53.650,MWh
Power,Intraday,Continuous,NL,IDFULL,QH,2021-05-03T08:00:00+02:00,2021-05-03T08:15:00+02:00,112.99,EUR,25.300,MWh
Power,Intraday,Continuous,NL,IDFULL,QH,2021-05-03T08:15:00+02:00,2021-05-03T08:30:00+02:00,80.36,EUR,17.550,MWh
Power,Intraday,Continuous,NL,IDFULL,QH,2021-05-03T08:30:00+02:00,2021-05-03T08:45:00+02:00,61.64,EUR,12.980,MWh
Power,Intraday,Continuous,NL,IDFULL,QH,2021-05-03T08:45:00+02:00,2021-05-03T09:00:00+02:00,49.58,EUR,16.550,MWh
Power,Intraday,Continuous,NL,IDFULL,QH,2021-05-03T09:00:00+02:00,2021-05-03T09:15:00+02:00,90.37,EUR,,MWh
Power,Intraday,Continuous,NL,IDFULL,QH,2021-05-03T09:15:00+02:00,2021-05-03T09:30:00+02:00,90.37,EUR,,MWh
Power,Intraday,Continuous,NL,IDFULL,QH,2021-05-03T09:30:00+02:00,2021-05-03T09:45:00+02:00,31.15,EUR,10.000,MWh
Power,Intraday,Continuous,NL,IDFULL,QH,2021-05-03T09:45:00+02:00,2021-05-03T10:00:00+02:00,30.03,EUR,10.000,MWh
Power,Intraday,Continuous,NL,IDFULL,QH,2021-05-03T10:00:00+02:00,2021-05-03T10:15:00+02:00,61.09,EUR,13.750,MWh
Power,Intraday,Continuous,NL,IDFULL,QH,2021-05-03T10:15:00+02:00,2021-05-03T10:30:00+02:00,47.04,EUR,15.730,MWh
Power,Intraday,Continuous,NL,IDFULL,QH,2021-05-03T10:30:00+02:00,2021-05-03T10:45:00+02:00,-5.49,EUR,13.200,MWh
Power,Intraday,Continuous,NL,IDFULL,QH,2021-05-03T10:45:00+02:00,2021-05-03T11:00:00+02:00,-5.25,EUR,12.500,MWh
Power,Intraday,Continuous,NL,IDFULL,QH,2021-05-03T11:00:00+02:00,2021-05-03T11:15:00+02:00,18.12,EUR,,MWh
Power,Intraday,Continuous,NL,IDFULL,QH,2021-05-03T11:15:00+02:00,2021-05-03T11:30:00+02:00,18.12,EUR,,MWh
Power,Intraday,Continuous,NL,IDFULL,QH,2021-05-03T11:30:00+02:00,2021-05-03T11:45:00+02:00,18.12,EUR,,MWh
Power,Intraday,Continuous,NL,IDFULL,QH,2021-05-03T11:45:00+02:00,2021-05-03T12:00:00+02:00,18.12,EUR,,MWh
Power,Intraday,Continuous,NL,IDFULL,QH,2021-05-03T12:00:00+02:00,2021-05-03T12:15:00+02:00,45.94,EUR,8.430,MWh
Power,Intraday,Continuous,NL,IDFULL,QH,2021-05-03T12:15:00+02:00,2021-05-03T12:30:00+02:00,45.83,EUR,,MWh
Power,Intraday,Continuous,NL,IDFULL,QH,2021-05-03T12:30:00+02:00,2021-05-03T12:45:00+02:00,45.83,EUR,,MWh
Power,Intraday,Continuous,NL,IDFULL,QH,2021-05-03T12:45:00+02:00,2021-05-03T13:00:00+02:00,40.00,EUR,10.780,MWh
Power,Intraday,Continuous,NL,IDFULL,QH,2021-05-03T13:00:00+02:00,2021-05-03T13:15:00+02:00,31.09,EUR,,MWh
Power,Intraday,Continuous,NL,IDFULL,QH,2021-05-03T13:15:00+02:00,2021-05-03T13:30:00+02:00,31.09,EUR,,MWh
Power,Intraday,Continuous,NL,IDFULL,QH,2021-05-03T13:30:00+02:00,2021-05-03T13:45:00+02:00,31.09,EUR,,MWh
Power,Intraday,Continuous,NL,IDFULL,QH,2021-05-03T13:45:00+02:00,2021-05-03T14:00:00+02:00,31.09,EUR,,MWh
Power,Intraday,Continuous,NL,IDFULL,QH,2021-05-03T14:00:00+02:00,2021-05-03T14:15:00+02:00,44.55,EUR,6.250,MWh
Power,Intraday,Continuous,NL,IDFULL,QH,2021-05-03T14:15:00+02:00,2021-05-03T14:30:00+02:00,45.31,EUR,22.250,MWh
Power,Intraday,Continuous,NL,IDFULL,QH,2021-05-03T14:30:00+02:00,2021-05-03T14:45:00+02:00,40.42,EUR,27.750,MWh
Power,Intraday,Continuous,NL,IDFULL,QH,2021-05-03T14:45:00+02:00,2021-05-03T15:00:00+02:00,46.65,EUR,45.100,MWh
Power,Intraday,Continuous,NL,IDFULL,QH,2021-05-03T15:00:00+02:00,2021-05-03T15:15:00+02:00,35.48,EUR,64.730,MWh
Power,Intraday,Continuous,NL,IDFULL,QH,2021-05-03T15:15:00+02:00,2021-05-03T15:30:00+02:00,44.30,EUR,37.650,MWh
Power,Intraday,Continuous,NL,IDFULL,QH,2021-05-03T15:30:00+02:00,2021-05-03T15:45:00+02:00,48.41,EUR,29.180,MWh
Power,Intraday,Continuous,NL,IDFULL,QH,2021-05-03T15:45:00+02:00,2021-05-03T16:00:00+02:00,52.06,EUR,45.430,MWh
Power,Intraday,Continuous,NL,IDFULL,QH,2021-05-03T16:00:00+02:00,2021-05-03T16:15:00+02:00,30.74,EUR,72.100,MWh
Power,Intraday,Continuous,NL,IDFULL,QH,2021-05-03T16:15:00+02:00,2021-05-03T16:30:00+02:00,38.91,EUR,44.700,MWh
Power,Intraday,Continuous,NL,IDFULL,QH,2021-05-03T16:30:00+02:00,2021-05-03T16:45:00+02:00,32.21,EUR,55.930,MWh
Power,Intraday,Continuous,NL,IDFULL,QH,2021-05-03T16:45:00+02:00,2021-05-03T17:00:00+02:00,58.79,EUR,50.500,MWh
Power,Intraday,Continuous,NL,IDFULL,QH,2021-05-03T17:00:00+02:00,2021-05-03T17:15:00+02:00,36.02,EUR,57.050,MWh
Power,Intraday,Continuous,NL,IDFULL,QH,2021-05-03T17:15:00+02:00,2021-05-03T17:30:00+02:00,49.70,EUR,23.450,MWh
Power,Intraday,Continuous,NL,IDFULL,QH,2021-05-03T17:30:00+02:00,2021-05-03T17:45:00+02:00,48.81,EUR,26.180,MWh
Power,Intraday,Continuous,NL,IDFULL,QH,2021-05-03T17:45:00+02:00,2021-05-03T18:00:00+02:00,62.91,EUR,43.850,MWh
Power,Intraday,Continuous,NL,IDFULL,QH,2021-05-03T18:00:00+02:00,2021-05-03T18:15:00+02:00,38.25,EUR,89.100,MWh
Power,Intraday,Continuous,NL,IDFULL,QH,2021-05-03T18:15:00+02:00,2021-05-03T18:30:00+02:00,53.91,EUR,43.380,MWh
Power,Intraday,Continuous,NL,IDFULL,QH,2021-05-03T18:30:00+02:00,2021-05-03T18:45:00+02:00,58.88,EUR,45.380,MWh
Power,Intraday,Continuous,NL,IDFULL,QH,2021-05-03T18:45:00+02:00,2021-05-03T19:00:00+02:00,80.73,EUR,37.400,MWh
Power,Intraday,Continuous,NL,IDFULL,QH,2021-05-03T19:00:00+02:00,2021-05-03T19:15:00+02:00,57.47,EUR,75.350,MWh
Power,Intraday,Continuous,NL,IDFULL,QH,2021-05-03T19:15:00+02:00,2021-05-03T19:30:00+02:00,71.51,EUR,81.350,MWh
Power,Intraday,Continuous,NL,IDFULL,QH,2021-05-03T19:30:00+02:00,2021-05-03T19:45:00+02:00,71.13,EUR,48.080,MWh
Power,Intraday,Continuous,NL,IDFULL,QH,2021-05-03T19:45:00+02:00,2021-05-03T20:00:00+02:00,96.73,EUR,47.780,MWh
Power,Intraday,Continuous,NL,IDFULL,QH,2021-05-03T20:00:00+02:00,2021-05-03T20:15:00+02:00,77.96,EUR,19.980,MWh
Power,Intraday,Continuous,NL,IDFULL,QH,2021-05-03T20:15:00+02:00,2021-05-03T20:30:00+02:00,71.25,EUR,37.600,MWh
Power,Intraday,Continuous,NL,IDFULL,QH,2021-05-03T20:30:00+02:00,2021-05-03T20:45:00+02:00,85.91,EUR,40.200,MWh
Power,Intraday,Continuous,NL,IDFULL,QH,2021-05-03T20:45:00+02:00,2021-05-03T21:00:00+02:00,62.97,EUR,47.330,MWh
Power,Intraday,Continuous,NL,IDFULL,QH,2021-05-03T21:00:00+02:00,2021-05-03T21:15:00+02:00,86.90,EUR,34.730,MWh
Power,Intraday,Continuous,NL,IDFULL,QH,2021-05-03T21:15:00+02:00,2021-05-03T21:30:00+02:00,68.46,EUR,46.600,MWh
Power,Intraday,Continuous,NL,IDFULL,QH,2021-05-03T21:30:00+02:00,2021-05-03T21:45:00+02:00,54.30,EUR,81.500,MWh
Power,Intraday,Continuous,NL,IDFULL,QH,2021-05-03T21:45:00+02:00,2021-05-03T22:00:00+02:00,42.98,EUR,88.600,MWh
Power,Intraday,Continuous,NL,IDFULL,QH,2021-05-03T22:00:00+02:00,2021-05-03T22:15:00+02:00,87.26,EUR,45.800,MWh
Power,Intraday,Continuous,NL,IDFULL,QH,2021-05-03T22:15:00+02:00,2021-05-03T22:30:00+02:00,67.90,EUR,40.080,MWh
Power,Intraday,Continuous,NL,IDFULL,QH,2021-05-03T22:30:00+02:00,2021-05-03T22:45:00+02:00,54.93,EUR,68.000,MWh
Power,Intraday,Continuous,NL,IDFULL,QH,2021-05-03T22:45:00+02:00,2021-05-03T23:00:00+02:00,41.59,EUR,58.730,MWh
Power,Intraday,Continuous,NL,IDFULL,QH,2021-05-03T23:00:00+02:00,2021-05-03T23:15:00+02:00,70.59,EUR,136.550,MWh
Power,Intraday,Continuous,NL,IDFULL,QH,2021-05-03T23:15:00+02:00,2021-05-03T23:30:00+02:00,60.48,EUR,41.800,MWh
Power,Intraday,Continuous,NL,IDFULL,QH,2021-05-03T23:30:00+02:00,2021-05-03T23:45:00+02:00,52.05,EUR,38.530,MWh
Power,Intraday,Continuous,NL,IDFULL,QH,2021-05-03T23:45:00+02:00,2021-05-04T00:00:00+02:00,33.26,EUR,40.650,MWh
Power,Intraday,Continuous,NL,ID1,QH,2021-05-03T00:00:00+02:00,2021-05-03T00:15:00+02:00,67.29,EUR,,MWh
Power,Intraday,Continuous,NL,ID1,QH,2021-05-03T00:15:00+02:00,2021-05-03T00:30:00+02:00,70.10,EUR,2.500,MWh
Power,Intraday,Continuous,NL,ID1,QH,2021-05-03T00:30:00+02:00,2021-05-03T00:45:00+02:00,67.29,EUR,,MWh
Power,Intraday,Continuous,NL,ID1,QH,2021-05-03T00:45:00+02:00,2021-05-03T01:00:00+02:00,67.29,EUR,,MWh
Power,Intraday,Continuous,NL,ID1,QH,2021-05-03T01:00:00+02:00,2021-05-03T01:15:00+02:00,58.08,EUR,,MWh
Power,Intraday,Continuous,NL,ID1,QH,2021-05-03T01:15:00+02:00,2021-05-03T01:30:00+02:00,49.43,EUR,,MWh
Power,Intraday,Continuous,NL,ID1,QH,2021-05-03T01:30:00+02:00,2021-05-03T01:45:00+02:00,47.31,EUR,,MWh
Power,Intraday,Continuous,NL,ID1,QH,2021-05-03T01:45:00+02:00,2021-05-03T02:00:00+02:00,60.12,EUR,3.550,MWh
Power,Intraday,Continuous,NL,ID1,QH,2021-05-03T02:00:00+02:00,2021-05-03T02:15:00+02:00,51.84,EUR,,MWh
Power,Intraday,Continuous,NL,ID1,QH,2021-05-03T02:15:00+02:00,2021-05-03T02:30:00+02:00,51.84,EUR,,MWh
Power,Intraday,Continuous,NL,ID1,QH,2021-05-03T02:30:00+02:00,2021-05-03T02:45:00+02:00,51.84,EUR,,MWh
Power,Intraday,Continuous,NL,ID1,QH,2021-05-03T02:45:00+02:00,2021-05-03T03:00:00+02:00,51.84,EUR,,MWh
Power,Intraday,Continuous,NL,ID1,QH,2021-05-03T03:00:00+02:00,2021-05-03T03:15:00+02:00,52.60,EUR,,MWh
Power,Intraday,Continuous,NL,ID1,QH,2021-05-03T03:15:00+02:00,2021-05-03T03:30:00+02:00,52.60,EUR,,MWh
Power,Intraday,Continuous,NL,ID1,QH,2021-05-03T03:30:00+02:00,2021-05-03T03:45:00+02:00,44.15,EUR,,MWh
Power,Intraday,Continuous,NL,ID1,QH,2021-05-03T03:45:00+02:00,2021-05-03T04:00:00+02:00,52.60,EUR,,MWh
Power,Intraday,Continuous,NL,ID1,QH,2021-05-03T04:00:00+02:00,2021-05-03T04:15:00+02:00,45.10,EUR,,MWh
Power,Intraday,Continuous,NL,ID1,QH,2021-05-03T04:15:00+02:00,2021-05-03T04:30:00+02:00,46.13,EUR,,MWh
Power,Intraday,Continuous,NL,ID1,QH,2021-05-03T04:30:00+02:00,2021-05-03T04:45:00+02:00,52.60,EUR,,MWh
Power,Intraday,Continuous,NL,ID1,QH,2021-05-03T04:45:00+02:00,2021-05-03T05:00:00+02:00,64.14,EUR,,MWh
Power,Intraday,Continuous,NL,ID1,QH,2021-05-03T05:00:00+02:00,2021-05-03T05:15:00+02:00,44.58,EUR,,MWh
Power,Intraday,Continuous,NL,ID1,QH,2021-05-03T05:15:00+02:00,2021-05-03T05:30:00+02:00,45.31,EUR,,MWh
Power,Intraday,Continuous,NL,ID1,QH,2021-05-03T05:30:00+02:00,2021-05-03T05:45:00+02:00,55.48,EUR,,MWh
Power,Intraday,Continuous,NL,ID1,QH,2021-05-03T05:45:00+02:00,2021-05-03T06:00:00+02:00,83.33,EUR,,MWh
Power,Intraday,Continuous,NL,ID1,QH,2021-05-03T06:00:00+02:00,2021-05-03T06:15:00+02:00,50.67,EUR,,MWh
Power,Intraday,Continuous,NL,ID1,QH,2021-05-03T06:15:00+02:00,2021-05-03T06:30:00+02:00,64.21,EUR,,MWh
Power,Intraday,Continuous,NL,ID1,QH,2021-05-03T06:30:00+02:00,2021-05-03T06:45:00+02:00,73.52,EUR,,MWh
Power,Intraday,Continuous,NL,ID1,QH,2021-05-03T06:45:00+02:00,2021-05-03T07:00:00+02:00,68.40,EUR,4.300,MWh
Power,Intraday,Continuous,NL,ID1,QH,2021-05-03T07:00:00+02:00,2021-05-03T07:15:00+02:00,52.70,EUR,15.400,MWh
Power,Intraday,Continuous,NL,ID1,QH,2021-05-03T07:15:00+02:00,2021-05-03T07:30:00+02:00,82.05,EUR,,MWh
Power,Intraday,Continuous,NL,ID1,QH,2021-05-03T07:30:00+02:00,2021-05-03T07:45:00+02:00,135.35,EUR,7.280,MWh
Power,Intraday,Continuous,NL,ID1,QH,2021-05-03T07:45:00+02:00,2021-05-03T08:00:00+02:00,77.64,EUR,,MWh
Power,Intraday,Continuous,NL,ID1,QH,2021-05-03T08:00:00+02:00,2021-05-03T08:15:00+02:00,112.17,EUR,,MWh
Power,Intraday,Continuous,NL,ID1,QH,2021-05-03T08:15:00+02:00,2021-05-03T08:30:00+02:00,75.07,EUR,,MWh
Power,Intraday,Continuous,NL,ID1,QH,2021-05-03T08:30:00+02:00,2021-05-03T08:45:00+02:00,57.49,EUR,,MWh
Power,Intraday,Continuous,NL,ID1,QH,2021-05-03T08:45:00+02:00,2021-05-03T09:00:00+02:00,45.14,EUR,,MWh
Power,Intraday,Continuous,NL,ID1,QH,2021-05-03T09:00:00+02:00,2021-05-03T09:15:00+02:00,90.37,EUR,,MWh
Power,Intraday,Continuous,NL,ID1,QH,2021-05-03T09:15:00+02:00,2021-05-03T09:30:00+02:00,90.37,EUR,,MWh
Power,Intraday,Continuous,NL,ID1,QH,2021-05-03T09:30:00+02:00,2021-05-03T09:45:00+02:00,31.15,EUR,10.000,MWh
Power,Intraday,Continuous,NL,ID1,QH,2021-05-03T09:45:00+02:00,2021-05-03T10:00:00+02:00,30.00,EUR,6.250,MWh
Power,Intraday,Continuous,NL,ID1,QH,2021-05-03T10:00:00+02:00,2021-05-03T10:15:00+02:00,61.09,EUR,,MWh
Power,Intraday,Continuous,NL,ID1,QH,2021-05-03T10:15:00+02:00,2021-05-03T10:30:00+02:00,6.03,EUR,3.780,MWh
Power,Intraday,Continuous,NL,ID1,QH,2021-05-03T10:30:00+02:00,2021-05-03T10:45:00+02:00,-5.49,EUR,13.200,MWh
Power,Intraday,Continuous,NL,ID1,QH,2021-05-03T10:45:00+02:00,2021-05-03T11:00:00+02:00,-5.25,EUR,12.500,MWh
Power,Intraday,Continuous,NL,ID1,QH,2021-05-03T11:00:00+02:00,2021-05-03T11:15:00+02:00,18.12,EUR,,MWh
Power,Intraday,Continuous,NL,ID1,QH,2021-05-03T11:15:00+02:00,2021-05-03T11:30:00+02:00,18.12,EUR,,MWh
Power,Intraday,Continuous,NL,ID1,QH,2021-05-03T11:30:00+02:00,2021-05-03T11:45:00+02:00,18.12,EUR,,MWh
Power,Intraday,Continuous,NL,ID1,QH,2021-05-03T11:45:00+02:00,2021-05-03T12:00:00+02:00,18.12,EUR,,MWh
Power,Intraday,Continuous,NL,ID1,QH,2021-05-03T12:00:00+02:00,2021-05-03T12:15:00+02:00,45.94,EUR,8.430,MWh
Power,Intraday,Continuous,NL,ID1,QH,2021-05-03T12:15:00+02:00,2021-05-03T12:30:00+02:00,45.83,EUR,,MWh
Power,Intraday,Continuous,NL,ID1,QH,2021-05-03T12:30:00+02:00,2021-05-03T12:45:00+02:00,45.83,EUR,,MWh
Power,Intraday,Continuous,NL,ID1,QH,2021-05-03T12:45:00+02:00,2021-05-03T13:00:00+02:00,40.00,EUR,10.780,MWh
Power,Intraday,Continuous,NL,ID1,QH,2021-05-03T13:00:00+02:00,2021-05-03T13:15:00+02:00,31.09,EUR,,MWh
Power,Intraday,Continuous,NL,ID1,QH,2021-05-03T13:15:00+02:00,2021-05-03T13:30:00+02:00,31.09,EUR,,MWh
Power,Intraday,Continuous,NL,ID1,QH,2021-05-03T13:30:00+02:00,2021-05-03T13:45:00+02:00,31.09,EUR,,MWh
Power,Intraday,Continuous,NL,ID1,QH,2021-05-03T13:45:00+02:00,2021-05-03T14:00:00+02:00,31.09,EUR,,MWh
Power,Intraday,Continuous,NL,ID1,QH,2021-05-03T14:00:00+02:00,2021-05-03T14:15:00+02:00,44.55,EUR,,MWh
Power,Intraday,Continuous,NL,ID1,QH,2021-05-03T14:15:00+02:00,2021-05-03T14:30:00+02:00,43.86,EUR,,MWh
Power,Intraday,Continuous,NL,ID1,QH,2021-05-03T14:30:00+02:00,2021-05-03T14:45:00+02:00,37.44,EUR,,MWh
Power,Intraday,Continuous,NL,ID1,QH,2021-05-03T14:45:00+02:00,2021-05-03T15:00:00+02:00,51.00,EUR,5.280,MWh
Power,Intraday,Continuous,NL,ID1,QH,2021-05-03T15:00:00+02:00,2021-05-03T15:15:00+02:00,33.95,EUR,,MWh
Power,Intraday,Continuous,NL,ID1,QH,2021-05-03T15:15:00+02:00,2021-05-03T15:30:00+02:00,42.14,EUR,,MWh
Power,Intraday,Continuous,NL,ID1,QH,2021-05-03T15:30:00+02:00,2021-05-03T15:45:00+02:00,48.03,EUR,,MWh
Power,Intraday,Continuous,NL,ID1,QH,2021-05-03T15:45:00+02:00,2021-05-03T16:00:00+02:00,42.00,EUR,5.000,MWh
Power,Intraday,Continuous,NL,ID1,QH,2021-05-03T16:00:00+02:00,2021-05-03T16:15:00+02:00,-3.81,EUR,3.650,MWh
Power,Intraday,Continuous,NL,ID1,QH,2021-05-03T16:15:00+02:00,2021-05-03T16:30:00+02:00,-6.72,EUR,3.100,MWh
Power,Intraday,Continuous,NL,ID1,QH,2021-05-03T16:30:00+02:00,2021-05-03T16:45:00+02:00,4.02,EUR,16.750,MWh
Power,Intraday,Continuous,NL,ID1,QH,2021-05-03T16:45:00+02:00,2021-05-03T17:00:00+02:00,56.25,EUR,6.400,MWh
Power,Intraday,Continuous,NL,ID1,QH,2021-05-03T17:00:00+02:00,2021-05-03T17:15:00+02:00,-20.77,EUR,4.430,MWh
Power,Intraday,Continuous,NL,ID1,QH,2021-05-03T17:15:00+02:00,2021-05-03T17:30:00+02:00,46.96,EUR,,MWh
Power,Intraday,Continuous,NL,ID1,QH,2021-05-03T17:30:00+02:00,2021-05-03T17:45:00+02:00,26.19,EUR,3.000,MWh
Power,Intraday,Continuous,NL,ID1,QH,2021-05-03T17:45:00+02:00,2021-05-03T18:00:00+02:00,63.21,EUR,,MWh
Power,Intraday,Continuous,NL,ID1,QH,2021-05-03T18:00:00+02:00,2021-05-03T18:15:00+02:00,36.31,EUR,,MWh
Power,Intraday,Continuous,NL,ID1,QH,2021-05-03T18:15:00+02:00,2021-05-03T18:30:00+02:00,54.41,EUR,,MWh
Power,Intraday,Continuous,NL,ID1,QH,2021-05-03T18:30:00+02:00,2021-05-03T18:45:00+02:00,45.00,EUR,2.600,MWh
Power,Intraday,Continuous,NL,ID1,QH,2021-05-03T18:45:00+02:00,2021-05-03T19:00:00+02:00,78.33,EUR,,MWh
Power,Intraday,Continuous,NL,ID1,QH,2021-05-03T19:00:00+02:00,2021-05-03T19:15:00+02:00,57.29,EUR,,MWh
Power,Intraday,Continuous,NL,ID1,QH,2021-05-03T19:15:00+02:00,2021-05-03T19:30:00+02:00,73.73,EUR,,MWh
Power,Intraday,Continuous,NL,ID1,QH,2021-05-03T19:30:00+02:00,2021-05-03T19:45:00+02:00,55.00,EUR,2.500,MWh
Power,Intraday,Continuous,NL,ID1,QH,2021-05-03T19:45:00+02:00,2021-05-03T20:00:00+02:00,98.28,EUR,,MWh
Power,Intraday,Continuous,NL,ID1,QH,2021-05-03T20:00:00+02:00,2021-05-03T20:15:00+02:00,76.02,EUR,,MWh
Power,Intraday,Continuous,NL,ID1,QH,2021-05-03T20:15:00+02:00,2021-05-03T20:30:00+02:00,73.37,EUR,,MWh
Power,Intraday,Continuous,NL,ID1,QH,2021-05-03T20:30:00+02:00,2021-05-03T20:45:00+02:00,86.28,EUR,,MWh
Power,Intraday,Continuous,NL,ID1,QH,2021-05-03T20:45:00+02:00,2021-05-03T21:00:00+02:00,63.32,EUR,,MWh
Power,Intraday,Continuous,NL,ID1,QH,2021-05-03T21:00:00+02:00,2021-05-03T21:15:00+02:00,90.00,EUR,,MWh
Power,Intraday,Continuous,NL,ID1,QH,2021-05-03T21:15:00+02:00,2021-05-03T21:30:00+02:00,61.80,EUR,,MWh
Power,Intraday,Continuous,NL,ID1,QH,2021-05-03T21:30:00+02:00,2021-05-03T21:45:00+02:00,25.74,EUR,3.850,MWh
Power,Intraday,Continuous,NL,ID1,QH,2021-05-03T21:45:00+02:00,2021-05-03T22:00:00+02:00,25.00,EUR,3.750,MWh
Power,Intraday,Continuous,NL,ID1,QH,2021-05-03T22:00:00+02:00,2021-05-03T22:15:00+02:00,89.11,EUR,,MWh
Power,Intraday,Continuous,NL,ID1,QH,2021-05-03T22:15:00+02:00,2021-05-03T22:30:00+02:00,68.40,EUR,,MWh
Power,Intraday,Continuous,NL,ID1,QH,2021-05-03T22:30:00+02:00,2021-05-03T22:45:00+02:00,56.51,EUR,,MWh
Power,Intraday,Continuous,NL,ID1,QH,2021-05-03T22:45:00+02:00,2021-05-03T23:00:00+02:00,43.42,EUR,,MWh
Power,Intraday,Continuous,NL,ID1,QH,2021-05-03T23:00:00+02:00,2021-05-03T23:15:00+02:00,70.59,EUR,,MWh
Power,Intraday,Continuous,NL,ID1,QH,2021-05-03T23:15:00+02:00,2021-05-03T23:30:00+02:00,62.51,EUR,,MWh
Power,Intraday,Continuous,NL,ID1,QH,2021-05-03T23:30:00+02:00,2021-05-03T23:45:00+02:00,53.71,EUR,,MWh
Power,Intraday,Continuous,NL,ID1,QH,2021-05-03T23:45:00+02:00,2021-05-04T00:00:00+02:00,33.75,EUR,,MWh
Power,Intraday,Continuous,NL,ID3,QH,2021-05-03T00:00:00+02:00,2021-05-03T00:15:00+02:00,67.29,EUR,,MWh
Power,Intraday,Continuous,NL,ID3,QH,2021-05-03T00:15:00+02:00,2021-05-03T00:30:00+02:00,70.10,EUR,2.500,MWh
Power,Intraday,Continuous,NL,ID3,QH,2021-05-03T00:30:00+02:00,2021-05-03T00:45:00+02:00,67.29,EUR,,MWh
Power,Intraday,Continuous,NL,ID3,QH,2021-05-03T00:45:00+02:00,2021-05-03T01:00:00+02:00,67.29,EUR,,MWh
Power,Intraday,Continuous,NL,ID3,QH,2021-05-03T01:00:00+02:00,2021-05-03T01:15:00+02:00,58.08,EUR,9.430,MWh
Power,Intraday,Continuous,NL,ID3,QH,2021-05-03T01:15:00+02:00,2021-05-03T01:30:00+02:00,49.43,EUR,3.750,MWh
Power,Intraday,Continuous,NL,ID3,QH,2021-05-03T01:30:00+02:00,2021-05-03T01:45:00+02:00,47.31,EUR,3.330,MWh
Power,Intraday,Continuous,NL,ID3,QH,2021-05-03T01:45:00+02:00,2021-05-03T02:00:00+02:00,53.31,EUR,6.330,MWh
Power,Intraday,Continuous,NL,ID3,QH,2021-05-03T02:00:00+02:00,2021-05-03T02:15:00+02:00,51.84,EUR,,MWh
Power,Intraday,Continuous,NL,ID3,QH,2021-05-03T02:15:00+02:00,2021-05-03T02:30:00+02:00,51.84,EUR,,MWh
Power,Intraday,Continuous,NL,ID3,QH,2021-05-03T02:30:00+02:00,2021-05-03T02:45:00+02:00,51.84,EUR,,MWh
Power,Intraday,Continuous,NL,ID3,QH,2021-05-03T02:45:00+02:00,2021-05-03T03:00:00+02:00,51.84,EUR,,MWh
Power,Intraday,Continuous,NL,ID3,QH,2021-05-03T03:00:00+02:00,2021-05-03T03:15:00+02:00,52.60,EUR,,MWh
Power,Intraday,Continuous,NL,ID3,QH,2021-05-03T03:15:00+02:00,2021-05-03T03:30:00+02:00,52.60,EUR,,MWh
Power,Intraday,Continuous,NL,ID3,QH,2021-05-03T03:30:00+02:00,2021-05-03T03:45:00+02:00,44.15,EUR,2.500,MWh
Power,Intraday,Continuous,NL,ID3,QH,2021-05-03T03:45:00+02:00,2021-05-03T04:00:00+02:00,52.60,EUR,,MWh
Power,Intraday,Continuous,NL,ID3,QH,2021-05-03T04:00:00+02:00,2021-05-03T04:15:00+02:00,45.10,EUR,,MWh
Power,Intraday,Continuous,NL,ID3,QH,2021-05-03T04:15:00+02:00,2021-05-03T04:30:00+02:00,46.13,EUR,,MWh
Power,Intraday,Continuous,NL,ID3,QH,2021-05-03T04:30:00+02:00,2021-05-03T04:45:00+02:00,52.60,EUR,,MWh
Power,Intraday,Continuous,NL,ID3,QH,2021-05-03T04:45:00+02:00,2021-05-03T05:00:00+02:00,64.14,EUR,,MWh
Power,Intraday,Continuous,NL,ID3,QH,2021-05-03T05:00:00+02:00,2021-05-03T05:15:00+02:00,44.58,EUR,4.830,MWh
Power,Intraday,Continuous,NL,ID3,QH,2021-05-03T05:15:00+02:00,2021-05-03T05:30:00+02:00,45.31,EUR,,MWh
Power,Intraday,Continuous,NL,ID3,QH,2021-05-03T05:30:00+02:00,2021-05-03T05:45:00+02:00,55.48,EUR,,MWh
Power,Intraday,Continuous,NL,ID3,QH,2021-05-03T05:45:00+02:00,2021-05-03T06:00:00+02:00,83.33,EUR,16.550,MWh
Power,Intraday,Continuous,NL,ID3,QH,2021-05-03T06:00:00+02:00,2021-05-03T06:15:00+02:00,50.67,EUR,11.750,MWh
Power,Intraday,Continuous,NL,ID3,QH,2021-05-03T06:15:00+02:00,2021-05-03T06:30:00+02:00,64.21,EUR,3.400,MWh
Power,Intraday,Continuous,NL,ID3,QH,2021-05-03T06:30:00+02:00,2021-05-03T06:45:00+02:00,73.52,EUR,12.850,MWh
Power,Intraday,Continuous,NL,ID3,QH,2021-05-03T06:45:00+02:00,2021-05-03T07:00:00+02:00,95.34,EUR,33.180,MWh
Power,Intraday,Continuous,NL,ID3,QH,2021-05-03T07:00:00+02:00,2021-05-03T07:15:00+02:00,50.19,EUR,17.900,MWh
Power,Intraday,Continuous,NL,ID3,QH,2021-05-03T07:15:00+02:00,2021-05-03T07:30:00+02:00,82.05,EUR,8.250,MWh
Power,Intraday,Continuous,NL,ID3,QH,2021-05-03T07:30:00+02:00,2021-05-03T07:45:00+02:00,95.53,EUR,38.730,MWh
Power,Intraday,Continuous,NL,ID3,QH,2021-05-03T07:45:00+02:00,2021-05-03T08:00:00+02:00,77.64,EUR,45.850,MWh
Power,Intraday,Continuous,NL,ID3,QH,2021-05-03T08:00:00+02:00,2021-05-03T08:15:00+02:00,112.17,EUR,19.700,MWh
Power,Intraday,Continuous,NL,ID3,QH,2021-05-03T08:15:00+02:00,2021-05-03T08:30:00+02:00,75.07,EUR,13.280,MWh
Power,Intraday,Continuous,NL,ID3,QH,2021-05-03T08:30:00+02:00,2021-05-03T08:45:00+02:00,57.49,EUR,8.700,MWh
Power,Intraday,Continuous,NL,ID3,QH,2021-05-03T08:45:00+02:00,2021-05-03T09:00:00+02:00,45.14,EUR,6.350,MWh
Power,Intraday,Continuous,NL,ID3,QH,2021-05-03T09:00:00+02:00,2021-05-03T09:15:00+02:00,90.37,EUR,,MWh
Power,Intraday,Continuous,NL,ID3,QH,2021-05-03T09:15:00+02:00,2021-05-03T09:30:00+02:00,90.37,EUR,,MWh
Power,Intraday,Continuous,NL,ID3,QH,2021-05-03T09:30:00+02:00,2021-05-03T09:45:00+02:00,31.15,EUR,10.000,MWh
Power,Intraday,Continuous,NL,ID3,QH,2021-05-03T09:45:00+02:00,2021-05-03T10:00:00+02:00,30.03,EUR,10.000,MWh
Power,Intraday,Continuous,NL,ID3,QH,2021-05-03T10:00:00+02:00,2021-05-03T10:15:00+02:00,61.09,EUR,13.750,MWh
Power,Intraday,Continuous,NL,ID3,QH,2021-05-03T10:15:00+02:00,2021-05-03T10:30:00+02:00,44.45,EUR,13.100,MWh
Power,Intraday,Continuous,NL,ID3,QH,2021-05-03T10:30:00+02:00,2021-05-03T10:45:00+02:00,-5.49,EUR,13.200,MWh
Power,Intraday,Continuous,NL,ID3,QH,2021-05-03T10:45:00+02:00,2021-05-03T11:00:00+02:00,-5.25,EUR,12.500,MWh
Power,Intraday,Continuous,NL,ID3,QH,2021-05-03T11:00:00+02:00,2021-05-03T11:15:00+02:00,18.12,EUR,,MWh
Power,Intraday,Continuous,NL,ID3,QH,2021-05-03T11:15:00+02:00,2021-05-03T11:30:00+02:00,18.12,EUR,,MWh
Power,Intraday,Continuous,NL,ID3,QH,2021-05-03T11:30:00+02:00,2021-05-03T11:45:00+02:00,18.12,EUR,,MWh
Power,Intraday,Continuous,NL,ID3,QH,2021-05-03T11:45:00+02:00,2021-05-03T12:00:00+02:00,18.12,EUR,,MWh
Power,Intraday,Continuous,NL,ID3,QH,2021-05-03T12:00:00+02:00,2021-05-03T12:15:00+02:00,45.94,EUR,8.430,MWh
Power,Intraday,Continuous,NL,ID3,QH,2021-05-03T12:15:00+02:00,2021-05-03T12:30:00+02:00,45.83,EUR,,MWh
Power,Intraday,Continuous,NL,ID3,QH,2021-05-03T12:30:00+02:00,2021-05-03T12:45:00+02:00,45.83,EUR,,MWh
Power,Intraday,Continuous,NL,ID3,QH,2021-05-03T12:45:00+02:00,2021-05-03T13:00:00+02:00,40.00,EUR,10.780,MWh
Power,Intraday,Continuous,NL,ID3,QH,2021-05-03T13:00:00+02:00,2021-05-03T13:15:00+02:00,31.09,EUR,,MWh
Power,Intraday,Continuous,NL,ID3,QH,2021-05-03T13:15:00+02:00,2021-05-03T13:30:00+02:00,31.09,EUR,,MWh
Power,Intraday,Continuous,NL,ID3,QH,2021-05-03T13:30:00+02:00,2021-05-03T13:45:00+02:00,31.09,EUR,,MWh
Power,Intraday,Continuous,NL,ID3,QH,2021-05-03T13:45:00+02:00,2021-05-03T14:00:00+02:00,31.09,EUR,,MWh
Power,Intraday,Continuous,NL,ID3,QH,2021-05-03T14:00:00+02:00,2021-05-03T14:15:00+02:00,44.55,EUR,,MWh
Power,Intraday,Continuous,NL,ID3,QH,2021-05-03T14:15:00+02:00,2021-05-03T14:30:00+02:00,43.86,EUR,18.180,MWh
Power,Intraday,Continuous,NL,ID3,QH,2021-05-03T14:30:00+02:00,2021-05-03T14:45:00+02:00,37.44,EUR,23.080,MWh
Power,Intraday,Continuous,NL,ID3,QH,2021-05-03T14:45:00+02:00,2021-05-03T15:00:00+02:00,45.39,EUR,41.350,MWh
Power,Intraday,Continuous,NL,ID3,QH,2021-05-03T15:00:00+02:00,2021-05-03T15:15:00+02:00,33.95,EUR,50.650,MWh
Power,Intraday,Continuous,NL,ID3,QH,2021-05-03T15:15:00+02:00,2021-05-03T15:30:00+02:00,42.14,EUR,27.750,MWh
Power,Intraday,Continuous,NL,ID3,QH,2021-05-03T15:30:00+02:00,2021-05-03T15:45:00+02:00,48.03,EUR,23.950,MWh
Power,Intraday,Continuous,NL,ID3,QH,2021-05-03T15:45:00+02:00,2021-05-03T16:00:00+02:00,51.48,EUR,38.630,MWh
Power,Intraday,Continuous,NL,ID3,QH,2021-05-03T16:00:00+02:00,2021-05-03T16:15:00+02:00,29.10,EUR,63.350,MWh
Power,Intraday,Continuous,NL,ID3,QH,2021-05-03T16:15:00+02:00,2021-05-03T16:30:00+02:00,37.72,EUR,40.200,MWh
Power,Intraday,Continuous,NL,ID3,QH,2021-05-03T16:30:00+02:00,2021-05-03T16:45:00+02:00,30.70,EUR,51.000,MWh
Power,Intraday,Continuous,NL,ID3,QH,2021-05-03T16:45:00+02:00,2021-05-03T17:00:00+02:00,58.85,EUR,44.330,MWh
Power,Intraday,Continuous,NL,ID3,QH,2021-05-03T17:00:00+02:00,2021-05-03T17:15:00+02:00,29.89,EUR,28.900,MWh
Power,Intraday,Continuous,NL,ID3,QH,2021-05-03T17:15:00+02:00,2021-05-03T17:30:00+02:00,46.96,EUR,10.300,MWh
Power,Intraday,Continuous,NL,ID3,QH,2021-05-03T17:30:00+02:00,2021-05-03T17:45:00+02:00,47.39,EUR,22.100,MWh
Power,Intraday,Continuous,NL,ID3,QH,2021-05-03T17:45:00+02:00,2021-05-03T18:00:00+02:00,63.21,EUR,38.230,MWh
Power,Intraday,Continuous,NL,ID3,QH,2021-05-03T18:00:00+02:00,2021-05-03T18:15:00+02:00,36.31,EUR,65.280,MWh
Power,Intraday,Continuous,NL,ID3,QH,2021-05-03T18:15:00+02:00,2021-05-03T18:30:00+02:00,54.41,EUR,28.200,MWh
Power,Intraday,Continuous,NL,ID3,QH,2021-05-03T18:30:00+02:00,2021-05-03T18:45:00+02:00,57.41,EUR,27.680,MWh
Power,Intraday,Continuous,NL,ID3,QH,2021-05-03T18:45:00+02:00,2021-05-03T19:00:00+02:00,78.33,EUR,16.980,MWh
Power,Intraday,Continuous,NL,ID3,QH,2021-05-03T19:00:00+02:00,2021-05-03T19:15:00+02:00,57.29,EUR,63.500,MWh
Power,Intraday,Continuous,NL,ID3,QH,2021-05-03T19:15:00+02:00,2021-05-03T19:30:00+02:00,73.73,EUR,60.750,MWh
Power,Intraday,Continuous,NL,ID3,QH,2021-05-03T19:30:00+02:00,2021-05-03T19:45:00+02:00,66.81,EUR,31.730,MWh
Power,Intraday,Continuous,NL,ID3,QH,2021-05-03T19:45:00+02:00,2021-05-03T20:00:00+02:00,98.28,EUR,30.480,MWh
Power,Intraday,Continuous,NL,ID3,QH,2021-05-03T20:00:00+02:00,2021-05-03T20:15:00+02:00,76.02,EUR,16.700,MWh
Power,Intraday,Continuous,NL,ID3,QH,2021-05-03T20:15:00+02:00,2021-05-03T20:30:00+02:00,73.37,EUR,31.030,MWh
Power,Intraday,Continuous,NL,ID3,QH,2021-05-03T20:30:00+02:00,2021-05-03T20:45:00+02:00,86.28,EUR,33.980,MWh
Power,Intraday,Continuous,NL,ID3,QH,2021-05-03T20:45:00+02:00,2021-05-03T21:00:00+02:00,63.32,EUR,41.080,MWh
Power,Intraday,Continuous,NL,ID3,QH,2021-05-03T21:00:00+02:00,2021-05-03T21:15:00+02:00,90.00,EUR,16.000,MWh
Power,Intraday,Continuous,NL,ID3,QH,2021-05-03T21:15:00+02:00,2021-05-03T21:30:00+02:00,61.80,EUR,31.100,MWh
Power,Intraday,Continuous,NL,ID3,QH,2021-05-03T21:30:00+02:00,2021-05-03T21:45:00+02:00,53.24,EUR,65.780,MWh
Power,Intraday,Continuous,NL,ID3,QH,2021-05-03T21:45:00+02:00,2021-05-03T22:00:00+02:00,43.13,EUR,65.980,MWh
Power,Intraday,Continuous,NL,ID3,QH,2021-05-03T22:00:00+02:00,2021-05-03T22:15:00+02:00,89.11,EUR,37.380,MWh
Power,Intraday,Continuous,NL,ID3,QH,2021-05-03T22:15:00+02:00,2021-05-03T22:30:00+02:00,68.40,EUR,31.350,MWh
Power,Intraday,Continuous,NL,ID3,QH,2021-05-03T22:30:00+02:00,2021-05-03T22:45:00+02:00,56.51,EUR,53.830,MWh
Power,Intraday,Continuous,NL,ID3,QH,2021-05-03T22:45:00+02:00,2021-05-03T23:00:00+02:00,43.42,EUR,43.530,MWh
Power,Intraday,Continuous,NL,ID3,QH,2021-05-03T23:00:00+02:00,2021-05-03T23:15:00+02:00,70.59,EUR,96.950,MWh
Power,Intraday,Continuous,NL,ID3,QH,2021-05-03T23:15:00+02:00,2021-05-03T23:30:00+02:00,62.51,EUR,32.800,MWh
Power,Intraday,Continuous,NL,ID3,QH,2021-05-03T23:30:00+02:00,2021-05-03T23:45:00+02:00,53.71,EUR,23.430,MWh
Power,Intraday,Continuous,NL,ID3,QH,2021-05-03T23:45:00+02:00,2021-05-04T00:00:00+02:00,33.75,EUR,19.780,MWh
Power,Intraday,Continuous,NL,IDFULL,BASE,2021-05-03T00:00:00+02:00,2021-05-04T00:00:00+02:00,54.85,EUR,27002.100,MWh
Power,Intraday,Continuous,NL,IDFULL,PEAK,2021-05-03T08:00:00+02:00,2021-05-03T20:00:00+02:00,49.08,EUR,18218.900,MWh
