Commodity,NominationModality,TradingModality,MarketArea,IndexName,TimeResolution,DeliveryStart,DeliveryEnd,IndexPrice,Currency,Volume,VolumeUnit
Power,Intraday,Continuous,NL,IDFULL,H,2021-12-14T00:00:00+01:00,2021-12-14T01:00:00+01:00,234.97,EUR,361.000,MWh
Power,Intraday,Continuous,NL,IDFULL,H,2021-12-14T01:00:00+01:00,2021-12-14T02:00:00+01:00,199.94,EUR,443.800,MWh
Power,Intraday,Continuous,NL,IDFULL,H,2021-12-14T02:00:00+01:00,2021-12-14T03:00:00+01:00,234.47,EUR,702.200,MWh
Power,Intraday,Continuous,NL,IDFULL,H,2021-12-14T03:00:00+01:00,2021-12-14T04:00:00+01:00,210.51,EUR,709.000,MWh
Power,Intraday,Continuous,NL,IDFULL,H,2021-12-14T04:00:00+01:00,2021-12-14T05:00:00+01:00,200.70,EUR,837.600,MWh
Power,Intraday,Continuous,NL,IDFULL,H,2021-12-14T05:00:00+01:00,2021-12-14T06:00:00+01:00,228.18,EUR,920.300,MWh
Power,Intraday,Continuous,NL,IDFULL,H,2021-12-14T06:00:00+01:00,2021-12-14T07:00:00+01:00,242.78,EUR,737.800,MWh
Power,Intraday,Continuous,NL,IDFULL,H,2021-12-14T07:00:00+01:00,2021-12-14T08:00:00+01:00,354.67,EUR,1373.000,MWh
Power,Intraday,Continuous,NL,IDFULL,H,2021-12-14T08:00:00+01:00,2021-12-14T09:00:00+01:00,394.31,EUR,1395.500,MWh
Power,Intraday,Continuous,NL,IDFULL,H,2021-12-14T09:00:00+01:00,2021-12-14T10:00:00+01:00,394.55,EUR,1469.400,MWh
Power,Intraday,Continuous,NL,IDFULL,H,2021-12-14T10:00:00+01:00,2021-12-14T11:00:00+01:00,380.66,EUR,1377.100,MWh
Power,Intraday,Continuous,NL,IDFULL,H,2021-12-14T11:00:00+01:00,2021-12-14T12:00:00+01:00,348.72,EUR,1197.900,MWh
Power,Intraday,Continuous,NL,IDFULL,H,2021-12-14T12:00:00+01:00,2021-12-14T13:00:00+01:00,259.80,EUR,2002.000,MWh
Power,Intraday,Continuous,NL,IDFULL,H,2021-12-14T13:00:00+01:00,2021-12-14T14:00:00+01:00,256.20,EUR,1980.700,MWh
Power,Intraday,Continuous,NL,IDFULL,H,2021-12-14T14:00:00+01:00,2021-12-14T15:00:00+01:00,272.72,EUR,1832.900,MWh
Power,Intraday,Continuous,NL,IDFULL,H,2021-12-14T15:00:00+01:00,2021-12-14T16:00:00+01:00,356.10,EUR,1283.400,MWh
Power,Intraday,Continuous,NL,IDFULL,H,2021-12-14T16:00:00+01:00,2021-12-14T17:00:00+01:00,374.62,EUR,1487.600,MWh
Power,Intraday,Continuous,NL,IDFULL,H,2021-12-14T17:00:00+01:00,2021-12-14T18:00:00+01:00,343.55,EUR,1534.900,MWh
Power,Intraday,Continuous,NL,IDFULL,H,2021-12-14T18:00:00+01:00,2021-12-14T19:00:00+01:00,250.63,EUR,1184.900,MWh
Power,Intraday,Continuous,NL,IDFULL,H,2021-12-14T19:00:00+01:00,2021-12-14T20:00:00+01:00,247.59,EUR,897.300,MWh
Power,Intraday,Continuous,NL,IDFULL,H,2021-12-14T20:00:00+01:00,2021-12-14T21:00:00+01:00,239.17,EUR,664.200,MWh
Power,Intraday,Continuous,NL,IDFULL,H,2021-12-14T21:00:00+01:00,2021-12-14T22:00:00+01:00,233.48,EUR,845.300,MWh
Power,Intraday,Continuous,NL,IDFULL,H,2021-12-14T22:00:00+01:00,2021-12-14T23:00:00+01:00,187.73,EUR,445.300,MWh
Power,Intraday,Continuous,NL,IDFULL,H,2021-12-14T23:00:00+01:00,2021-12-15T00:00:00+01:00,154.52,EUR,411.900,MWh
Power,Intraday,Continuous,NL,ID1,H,2021-12-14T00:00:00+01:00,2021-12-14T01:00:00+01:00,220.60,EUR,20.100,MWh
Power,Intraday,Continuous,NL,ID1,H,2021-12-14T01:00:00+01:00,2021-12-14T02:00:00+01:00,200.00,EUR,41.700,MWh
Power,Intraday,Continuous,NL,ID1,H,2021-12-14T02:00:00+01:00,2021-12-14T03:00:00+01:00,268.37,EUR,,MWh
Power,Intraday,Continuous,NL,ID1,H,2021-12-14T03:00:00+01:00,2021-12-14T04:00:00+01:00,248.30,EUR,,MWh
Power,Intraday,Continuous,NL,ID1,H,2021-12-14T04:00:00+01:00,2021-12-14T05:00:00+01:00,209.53,EUR,,MWh
Power,Intraday,Continuous,NL,ID1,H,2021-12-14T05:00:00+01:00,2021-12-14T06:00:00+01:00,231.01,EUR,,MWh
Power,Intraday,Continuous,NL,ID1,H,2021-12-14T06:00:00+01:00,2021-12-14T07:00:00+01:00,251.65,EUR,70.300,MWh
Power,Intraday,Continuous,NL,ID1,H,2021-12-14T07:00:00+01:00,2021-12-14T08:00:00+01:00,250.77,EUR,26.000,MWh
Power,Intraday,Continuous,NL,ID1,H,2021-12-14T08:00:00+01:00,2021-12-14T09:00:00+01:00,317.32,EUR,33.800,MWh
Power,Intraday,Continuous,NL,ID1,H,2021-12-14T09:00:00+01:00,2021-12-14T10:00:00+01:00,386.93,EUR,28.300,MWh
Power,Intraday,Continuous,NL,ID1,H,2021-12-14T10:00:00+01:00,2021-12-14T11:00:00+01:00,329.23,EUR,70.400,MWh
Power,Intraday,Continuous,NL,ID1,H,2021-12-14T11:00:00+01:00,2021-12-14T12:00:00+01:00,292.61,EUR,46.000,MWh
Power,Intraday,Continuous,NL,ID1,H,2021-12-14T12:00:00+01:00,2021-12-14T13:00:00+01:00,243.70,EUR,236.700,MWh
Power,Intraday,Continuous,NL,ID1,H,2021-12-14T13:00:00+01:00,2021-12-14T14:00:00+01:00,262.00,EUR,35.500,MWh
Power,Intraday,Continuous,NL,ID1,H,2021-12-14T14:00:00+01:00,2021-12-14T15:00:00+01:00,310.35,EUR,143.900,MWh
Power,Intraday,Continuous,NL,ID1,H,2021-12-14T15:00:00+01:00,2021-12-14T16:00:00+01:00,397.46,EUR,103.400,MWh
Power,Intraday,Continuous,NL,ID1,H,2021-12-14T16:00:00+01:00,2021-12-14T17:00:00+01:00,370.14,EUR,56.400,MWh
Power,Intraday,Continuous,NL,ID1,H,2021-12-14T17:00:00+01:00,2021-12-14T18:00:00+01:00,300.71,EUR,100.100,MWh
Power,Intraday,Continuous,NL,ID1,H,2021-12-14T18:00:00+01:00,2021-12-14T19:00:00+01:00,233.88,EUR,297.000,MWh
Power,Intraday,Continuous,NL,ID1,H,2021-12-14T19:00:00+01:00,2021-12-14T20:00:00+01:00,259.88,EUR,107.100,MWh
Power,Intraday,Continuous,NL,ID1,H,2021-12-14T20:00:00+01:00,2021-12-14T21:00:00+01:00,279.88,EUR,46.300,MWh
Power,Intraday,Continuous,NL,ID1,H,2021-12-14T21:00:00+01:00,2021-12-14T22:00:00+01:00,255.17,EUR,,MWh
Power,Intraday,Continuous,NL,ID1,H,2021-12-14T22:00:00+01:00,2021-12-14T23:00:00+01:00,229.71,EUR,,MWh
Power,Intraday,Continuous,NL,ID1,H,2021-12-14T23:00:00+01:00,2021-12-15T00:00:00+01:00,111.51,EUR,111.600,MWh
Power,Intraday,Continuous,NL,ID3,H,2021-12-14T00:00:00+01:00,2021-12-14T01:00:00+01:00,235.11,EUR,359.000,MWh
Power,Intraday,Continuous,NL,ID3,H,2021-12-14T01:00:00+01:00,2021-12-14T02:00:00+01:00,200.54,EUR,428.700,MWh
Power,Intraday,Continuous,NL,ID3,H,2021-12-14T02:00:00+01:00,2021-12-14T03:00:00+01:00,268.37,EUR,452.300,MWh
Power,Intraday,Continuous,NL,ID3,H,2021-12-14T03:00:00+01:00,2021-12-14T04:00:00+01:00,248.30,EUR,375.400,MWh
Power,Intraday,Continuous,NL,ID3,H,2021-12-14T04:00:00+01:00,2021-12-14T05:00:00+01:00,209.53,EUR,494.800,MWh
Power,Intraday,Continuous,NL,ID3,H,2021-12-14T05:00:00+01:00,2021-12-14T06:00:00+01:00,231.01,EUR,586.100,MWh
Power,Intraday,Continuous,NL,ID3,H,2021-12-14T06:00:00+01:00,2021-12-14T07:00:00+01:00,248.06,EUR,435.700,MWh
Power,Intraday,Continuous,NL,ID3,H,2021-12-14T07:00:00+01:00,2021-12-14T08:00:00+01:00,349.86,EUR,421.700,MWh
Power,Intraday,Continuous,NL,ID3,H,2021-12-14T08:00:00+01:00,2021-12-14T09:00:00+01:00,390.60,EUR,556.600,MWh
Power,Intraday,Continuous,NL,ID3,H,2021-12-14T09:00:00+01:00,2021-12-14T10:00:00+01:00,385.09,EUR,709.300,MWh
Power,Intraday,Continuous,NL,ID3,H,2021-12-14T10:00:00+01:00,2021-12-14T11:00:00+01:00,387.12,EUR,1069.100,MWh
Power,Intraday,Continuous,NL,ID3,H,2021-12-14T11:00:00+01:00,2021-12-14T12:00:00+01:00,355.02,EUR,755.400,MWh
Power,Intraday,Continuous,NL,ID3,H,2021-12-14T12:00:00+01:00,2021-12-14T13:00:00+01:00,252.34,EUR,1210.700,MWh
Power,Intraday,Continuous,NL,ID3,H,2021-12-14T13:00:00+01:00,2021-12-14T14:00:00+01:00,244.60,EUR,997.800,MWh
Power,Intraday,Continuous,NL,ID3,H,2021-12-14T14:00:00+01:00,2021-12-14T15:00:00+01:00,286.24,EUR,699.700,MWh
Power,Intraday,Continuous,NL,ID3,H,2021-12-14T15:00:00+01:00,2021-12-14T16:00:00+01:00,416.99,EUR,613.100,MWh
Power,Intraday,Continuous,NL,ID3,H,2021-12-14T16:00:00+01:00,2021-12-14T17:00:00+01:00,384.96,EUR,517.100,MWh
Power,Intraday,Continuous,NL,ID3,H,2021-12-14T17:00:00+01:00,2021-12-14T18:00:00+01:00,315.29,EUR,741.100,MWh
Power,Intraday,Continuous,NL,ID3,H,2021-12-14T18:00:00+01:00,2021-12-14T19:00:00+01:00,237.09,EUR,829.200,MWh
Power,Intraday,Continuous,NL,ID3,H,2021-12-14T19:00:00+01:00,2021-12-14T20:00:00+01:00,242.34,EUR,678.200,MWh
Power,Intraday,Continuous,NL,ID3,H,2021-12-14T20:00:00+01:00,2021-12-14T21:00:00+01:00,238.26,EUR,475.900,MWh
Power,Intraday,Continuous,NL,ID3,H,2021-12-14T21:00:00+01:00,2021-12-14T22:00:00+01:00,255.17,EUR,318.400,MWh
Power,Intraday,Continuous,NL,ID3,H,2021-12-14T22:00:00+01:00,2021-12-14T23:00:00+01:00,229.71,EUR,88.300,MWh
Power,Intraday,Continuous,NL,ID3,H,2021-12-14T23:00:00+01:00,2021-12-15T00:00:00+01:00,111.51,EUR,111.600,MWh
Power,Intraday,Continuous,NL,IDFULL,HH,2021-12-14T00:00:00+01:00,2021-12-14T00:30:00+01:00,234.97,EUR,,MWh
Power,Intraday,Continuous,NL,IDFULL,HH,2021-12-14T00:30:00+01:00,2021-12-14T01:00:00+01:00,234.97,EUR,,MWh
Power,Intraday,Continuous,NL,IDFULL,HH,2021-12-14T01:00:00+01:00,2021-12-14T01:30:00+01:00,199.94,EUR,,MWh
Power,Intraday,Continuous,NL,IDFULL,HH,2021-12-14T01:30:00+01:00,2021-12-14T02:00:00+01:00,199.94,EUR,,MWh
Power,Intraday,Continuous,NL,IDFULL,HH,2021-12-14T02:00:00+01:00,2021-12-14T02:30:00+01:00,234.47,EUR,,MWh
Power,Intraday,Continuous,NL,IDFULL,HH,2021-12-14T02:30:00+01:00,2021-12-14T03:00:00+01:00,234.47,EUR,,MWh
Power,Intraday,Continuous,NL,IDFULL,HH,2021-12-14T03:00:00+01:00,2021-12-14T03:30:00+01:00,210.51,EUR,,MWh
Power,Intraday,Continuous,NL,IDFULL,HH,2021-12-14T03:30:00+01:00,2021-12-14T04:00:00+01:00,210.51,EUR,,MWh
Power,Intraday,Continuous,NL,IDFULL,HH,2021-12-14T04:00:00+01:00,2021-12-14T04:30:00+01:00,200.70,EUR,,MWh
Power,Intraday,Continuous,NL,IDFULL,HH,2021-12-14T04:30:00+01:00,2021-12-14T05:00:00+01:00,200.70,EUR,,MWh
Power,Intraday,Continuous,NL,IDFULL,HH,2021-12-14T05:00:00+01:00,2021-12-14T05:30:00+01:00,228.18,EUR,,MWh
Power,Intraday,Continuous,NL,IDFULL,HH,2021-12-14T05:30:00+01:00,2021-12-14T06:00:00+01:00,228.18,EUR,,MWh
Power,Intraday,Continuous,NL,IDFULL,HH,2021-12-14T06:00:00+01:00,2021-12-14T06:30:00+01:00,242.78,EUR,,MWh
Power,Intraday,Continuous,NL,IDFULL,HH,2021-12-14T06:30:00+01:00,2021-12-14T07:00:00+01:00,242.78,EUR,,MWh
Power,Intraday,Continuous,NL,IDFULL,HH,2021-12-14T07:00:00+01:00,2021-12-14T07:30:00+01:00,354.67,EUR,,MWh
Power,Intraday,Continuous,NL,IDFULL,HH,2021-12-14T07:30:00+01:00,2021-12-14T08:00:00+01:00,354.67,EUR,,MWh
Power,Intraday,Continuous,NL,IDFULL,HH,2021-12-14T08:00:00+01:00,2021-12-14T08:30:00+01:00,394.31,EUR,,MWh
Power,Intraday,Continuous,NL,IDFULL,HH,2021-12-14T08:30:00+01:00,2021-12-14T09:00:00+01:00,394.31,EUR,,MWh
Power,Intraday,Continuous,NL,IDFULL,HH,2021-12-14T09:00:00+01:00,2021-12-14T09:30:00+01:00,394.55,EUR,,MWh
Power,Intraday,Continuous,NL,IDFULL,HH,2021-12-14T09:30:00+01:00,2021-12-14T10:00:00+01:00,394.55,EUR,,MWh
Power,Intraday,Continuous,NL,IDFULL,HH,2021-12-14T10:00:00+01:00,2021-12-14T10:30:00+01:00,380.66,EUR,,MWh
Power,Intraday,Continuous,NL,IDFULL,HH,2021-12-14T10:30:00+01:00,2021-12-14T11:00:00+01:00,380.66,EUR,,MWh
Power,Intraday,Continuous,NL,IDFULL,HH,2021-12-14T11:00:00+01:00,2021-12-14T11:30:00+01:00,348.72,EUR,,MWh
Power,Intraday,Continuous,NL,IDFULL,HH,2021-12-14T11:30:00+01:00,2021-12-14T12:00:00+01:00,348.72,EUR,,MWh
Power,Intraday,Continuous,NL,IDFULL,HH,2021-12-14T12:00:00+01:00,2021-12-14T12:30:00+01:00,259.80,EUR,,MWh
Power,Intraday,Continuous,NL,IDFULL,HH,2021-12-14T12:30:00+01:00,2021-12-14T13:00:00+01:00,259.80,EUR,,MWh
Power,Intraday,Continuous,NL,IDFULL,HH,2021-12-14T13:00:00+01:00,2021-12-14T13:30:00+01:00,256.20,EUR,,MWh
Power,Intraday,Continuous,NL,IDFULL,HH,2021-12-14T13:30:00+01:00,2021-12-14T14:00:00+01:00,256.20,EUR,,MWh
Power,Intraday,Continuous,NL,IDFULL,HH,2021-12-14T14:00:00+01:00,2021-12-14T14:30:00+01:00,272.72,EUR,,MWh
Power,Intraday,Continuous,NL,IDFULL,HH,2021-12-14T14:30:00+01:00,2021-12-14T15:00:00+01:00,272.72,EUR,,MWh
Power,Intraday,Continuous,NL,IDFULL,HH,2021-12-14T15:00:00+01:00,2021-12-14T15:30:00+01:00,356.10,EUR,,MWh
Power,Intraday,Continuous,NL,IDFULL,HH,2021-12-14T15:30:00+01:00,2021-12-14T16:00:00+01:00,356.10,EUR,,MWh
Power,Intraday,Continuous,NL,IDFULL,HH,2021-12-14T16:00:00+01:00,2021-12-14T16:30:00+01:00,374.62,EUR,,MWh
Power,Intraday,Continuous,NL,IDFULL,HH,2021-12-14T16:30:00+01:00,2021-12-14T17:00:00+01:00,374.62,EUR,,MWh
Power,Intraday,Continuous,NL,IDFULL,HH,2021-12-14T17:00:00+01:00,2021-12-14T17:30:00+01:00,343.55,EUR,,MWh
Power,Intraday,Continuous,NL,IDFULL,HH,2021-12-14T17:30:00+01:00,2021-12-14T18:00:00+01:00,343.55,EUR,,MWh
Power,Intraday,Continuous,NL,IDFULL,HH,2021-12-14T18:00:00+01:00,2021-12-14T18:30:00+01:00,250.63,EUR,,MWh
Power,Intraday,Continuous,NL,IDFULL,HH,2021-12-14T18:30:00+01:00,2021-12-14T19:00:00+01:00,250.63,EUR,,MWh
Power,Intraday,Continuous,NL,IDFULL,HH,2021-12-14T19:00:00+01:00,2021-12-14T19:30:00+01:00,247.59,EUR,,MWh
Power,Intraday,Continuous,NL,IDFULL,HH,2021-12-14T19:30:00+01:00,2021-12-14T20:00:00+01:00,247.59,EUR,,MWh
Power,Intraday,Continuous,NL,IDFULL,HH,2021-12-14T20:00:00+01:00,2021-12-14T20:30:00+01:00,239.17,EUR,,MWh
Power,Intraday,Continuous,NL,IDFULL,HH,2021-12-14T20:30:00+01:00,2021-12-14T21:00:00+01:00,239.17,EUR,,MWh
Power,Intraday,Continuous,NL,IDFULL,HH,2021-12-14T21:00:00+01:00,2021-12-14T21:30:00+01:00,233.48,EUR,,MWh
Power,Intraday,Continuous,NL,IDFULL,HH,2021-12-14T21:30:00+01:00,2021-12-14T22:00:00+01:00,233.48,EUR,,MWh
Power,Intraday,Continuous,NL,IDFULL,HH,2021-12-14T22:00:00+01:00,2021-12-14T22:30:00+01:00,187.73,EUR,,MWh
Power,Intraday,Continuous,NL,IDFULL,HH,2021-12-14T22:30:00+01:00,2021-12-14T23:00:00+01:00,187.73,EUR,,MWh
Power,Intraday,Continuous,NL,IDFULL,HH,2021-12-14T23:00:00+01:00,2021-12-14T23:30:00+01:00,154.52,EUR,,MWh
Power,Intraday,Continuous,NL,IDFULL,HH,2021-12-14T23:30:00+01:00,2021-12-15T00:00:00+01:00,154.52,EUR,,MWh
Power,Intraday,Continuous,NL,ID1,HH,2021-12-14T00:00:00+01:00,2021-12-14T00:30:00+01:00,234.97,EUR,,MWh
Power,Intraday,Continuous,NL,ID1,HH,2021-12-14T00:30:00+01:00,2021-12-14T01:00:00+01:00,234.97,EUR,,MWh
Power,Intraday,Continuous,NL,ID1,HH,2021-12-14T01:00:00+01:00,2021-12-14T01:30:00+01:00,199.94,EUR,,MWh
Power,Intraday,Continuous,NL,ID1,HH,2021-12-14T01:30:00+01:00,2021-12-14T02:00:00+01:00,199.94,EUR,,MWh
Power,Intraday,Continuous,NL,ID1,HH,2021-12-14T02:00:00+01:00,2021-12-14T02:30:00+01:00,234.47,EUR,,MWh
Power,Intraday,Continuous,NL,ID1,HH,2021-12-14T02:30:00+01:00,2021-12-14T03:00:00+01:00,234.47,EUR,,MWh
Power,Intraday,Continuous,NL,ID1,HH,2021-12-14T03:00:00+01:00,2021-12-14T03:30:00+01:00,210.51,EUR,,MWh
Power,Intraday,Continuous,NL,ID1,HH,2021-12-14T03:30:00+01:00,2021-12-14T04:00:00+01:00,210.51,EUR,,MWh
Power,Intraday,Continuous,NL,ID1,HH,2021-12-14T04:00:00+01:00,2021-12-14T04:30:00+01:00,200.70,EUR,,MWh
Power,Intraday,Continuous,NL,ID1,HH,2021-12-14T04:30:00+01:00,2021-12-14T05:00:00+01:00,200.70,EUR,,MWh
Power,Intraday,Continuous,NL,ID1,HH,2021-12-14T05:00:00+01:00,2021-12-14T05:30:00+01:00,228.18,EUR,,MWh
Power,Intraday,Continuous,NL,ID1,HH,2021-12-14T05:30:00+01:00,2021-12-14T06:00:00+01:00,228.18,EUR,,MWh
Power,Intraday,Continuous,NL,ID1,HH,2021-12-14T06:00:00+01:00,2021-12-14T06:30:00+01:00,242.78,EUR,,MWh
Power,Intraday,Continuous,NL,ID1,HH,2021-12-14T06:30:00+01:00,2021-12-14T07:00:00+01:00,242.78,EUR,,MWh
Power,Intraday,Continuous,NL,ID1,HH,2021-12-14T07:00:00+01:00,2021-12-14T07:30:00+01:00,354.67,EUR,,MWh
Power,Intraday,Continuous,NL,ID1,HH,2021-12-14T07:30:00+01:00,2021-12-14T08:00:00+01:00,354.67,EUR,,MWh
Power,Intraday,Continuous,NL,ID1,HH,2021-12-14T08:00:00+01:00,2021-12-14T08:30:00+01:00,394.31,EUR,,MWh
Power,Intraday,Continuous,NL,ID1,HH,2021-12-14T08:30:00+01:00,2021-12-14T09:00:00+01:00,394.31,EUR,,MWh
Power,Intraday,Continuous,NL,ID1,HH,2021-12-14T09:00:00+01:00,2021-12-14T09:30:00+01:00,394.55,EUR,,MWh
Power,Intraday,Continuous,NL,ID1,HH,2021-12-14T09:30:00+01:00,2021-12-14T10:00:00+01:00,394.55,EUR,,MWh
Power,Intraday,Continuous,NL,ID1,HH,2021-12-14T10:00:00+01:00,2021-12-14T10:30:00+01:00,380.66,EUR,,MWh
Power,Intraday,Continuous,NL,ID1,HH,2021-12-14T10:30:00+01:00,2021-12-14T11:00:00+01:00,380.66,EUR,,MWh
Power,Intraday,Continuous,NL,ID1,HH,2021-12-14T11:00:00+01:00,2021-12-14T11:30:00+01:00,348.72,EUR,,MWh
Power,Intraday,Continuous,NL,ID1,HH,2021-12-14T11:30:00+01:00,2021-12-14T12:00:00+01:00,348.72,EUR,,MWh
Power,Intraday,Continuous,NL,ID1,HH,2021-12-14T12:00:00+01:00,2021-12-14T12:30:00+01:00,259.80,EUR,,MWh
Power,Intraday,Continuous,NL,ID1,HH,2021-12-14T12:30:00+01:00,2021-12-14T13:00:00+01:00,259.80,EUR,,MWh
Power,Intraday,Continuous,NL,ID1,HH,2021-12-14T13:00:00+01:00,2021-12-14T13:30:00+01:00,256.20,EUR,,MWh
Power,Intraday,Continuous,NL,ID1,HH,2021-12-14T13:30:00+01:00,2021-12-14T14:00:00+01:00,256.20,EUR,,MWh
Power,Intraday,Continuous,NL,ID1,HH,2021-12-14T14:00:00+01:00,2021-12-14T14:30:00+01:00,272.72,EUR,,MWh
Power,Intraday,Continuous,NL,ID1,HH,2021-12-14T14:30:00+01:00,2021-12-14T15:00:00+01:00,272.72,EUR,,MWh
Power,Intraday,Continuous,NL,ID1,HH,2021-12-14T15:00:00+01:00,2021-12-14T15:30:00+01:00,356.10,EUR,,MWh
Power,Intraday,Continuous,NL,ID1,HH,2021-12-14T15:30:00+01:00,2021-12-14T16:00:00+01:00,356.10,EUR,,MWh
Power,Intraday,Continuous,NL,ID1,HH,2021-12-14T16:00:00+01:00,2021-12-14T16:30:00+01:00,374.62,EUR,,MWh
Power,Intraday,Continuous,NL,ID1,HH,2021-12-14T16:30:00+01:00,2021-12-14T17:00:00+01:00,374.62,EUR,,MWh
Power,Intraday,Continuous,NL,ID1,HH,2021-12-14T17:00:00+01:00,2021-12-14T17:30:00+01:00,343.55,EUR,,MWh
Power,Intraday,Continuous,NL,ID1,HH,2021-12-14T17:30:00+01:00,2021-12-14T18:00:00+01:00,343.55,EUR,,MWh
Power,Intraday,Continuous,NL,ID1,HH,2021-12-14T18:00:00+01:00,2021-12-14T18:30:00+01:00,250.63,EUR,,MWh
Power,Intraday,Continuous,NL,ID1,HH,2021-12-14T18:30:00+01:00,2021-12-14T19:00:00+01:00,250.63,EUR,,MWh
Power,Intraday,Continuous,NL,ID1,HH,2021-12-14T19:00:00+01:00,2021-12-14T19:30:00+01:00,247.59,EUR,,MWh
Power,Intraday,Continuous,NL,ID1,HH,2021-12-14T19:30:00+01:00,2021-12-14T20:00:00+01:00,247.59,EUR,,MWh
Power,Intraday,Continuous,NL,ID1,HH,2021-12-14T20:00:00+01:00,2021-12-14T20:30:00+01:00,239.17,EUR,,MWh
Power,Intraday,Continuous,NL,ID1,HH,2021-12-14T20:30:00+01:00,2021-12-14T21:00:00+01:00,239.17,EUR,,MWh
Power,Intraday,Continuous,NL,ID1,HH,2021-12-14T21:00:00+01:00,2021-12-14T21:30:00+01:00,233.48,EUR,,MWh
Power,Intraday,Continuous,NL,ID1,HH,2021-12-14T21:30:00+01:00,2021-12-14T22:00:00+01:00,233.48,EUR,,MWh
Power,Intraday,Continuous,NL,ID1,HH,2021-12-14T22:00:00+01:00,2021-12-14T22:30:00+01:00,187.73,EUR,,MWh
Power,Intraday,Continuous,NL,ID1,HH,2021-12-14T22:30:00+01:00,2021-12-14T23:00:00+01:00,187.73,EUR,,MWh
Power,Intraday,Continuous,NL,ID1,HH,2021-12-14T23:00:00+01:00,2021-12-14T23:30:00+01:00,154.52,EUR,,MWh
Power,Intraday,Continuous,NL,ID1,HH,2021-12-14T23:30:00+01:00,2021-12-15T00:00:00+01:00,154.52,EUR,,MWh
Power,Intraday,Continuous,NL,ID3,HH,2021-12-14T00:00:00+01:00,2021-12-14T00:30:00+01:00,234.97,EUR,,MWh
Power,Intraday,Continuous,NL,ID3,HH,2021-12-14T00:30:00+01:00,2021-12-14T01:00:00+01:00,234.97,EUR,,MWh
Power,Intraday,Continuous,NL,ID3,HH,2021-12-14T01:00:00+01:00,2021-12-14T01:30:00+01:00,199.94,EUR,,MWh
Power,Intraday,Continuous,NL,ID3,HH,2021-12-14T01:30:00+01:00,2021-12-14T02:00:00+01:00,199.94,EUR,,MWh
Power,Intraday,Continuous,NL,ID3,HH,2021-12-14T02:00:00+01:00,2021-12-14T02:30:00+01:00,234.47,EUR,,MWh
Power,Intraday,Continuous,NL,ID3,HH,2021-12-14T02:30:00+01:00,2021-12-14T03:00:00+01:00,234.47,EUR,,MWh
Power,Intraday,Continuous,NL,ID3,HH,2021-12-14T03:00:00+01:00,2021-12-14T03:30:00+01:00,210.51,EUR,,MWh
Power,Intraday,Continuous,NL,ID3,HH,2021-12-14T03:30:00+01:00,2021-12-14T04:00:00+01:00,210.51,EUR,,MWh
Power,Intraday,Continuous,NL,ID3,HH,2021-12-14T04:00:00+01:00,2021-12-14T04:30:00+01:00,200.70,EUR,,MWh
Power,Intraday,Continuous,NL,ID3,HH,2021-12-14T04:30:00+01:00,2021-12-14T05:00:00+01:00,200.70,EUR,,MWh
Power,Intraday,Continuous,NL,ID3,HH,2021-12-14T05:00:00+01:00,2021-12-14T05:30:00+01:00,228.18,EUR,,MWh
Power,Intraday,Continuous,NL,ID3,HH,2021-12-14T05:30:00+01:00,2021-12-14T06:00:00+01:00,228.18,EUR,,MWh
Power,Intraday,Continuous,NL,ID3,HH,2021-12-14T06:00:00+01:00,2021-12-14T06:30:00+01:00,242.78,EUR,,MWh
Power,Intraday,Continuous,NL,ID3,HH,2021-12-14T06:30:00+01:00,2021-12-14T07:00:00+01:00,242.78,EUR,,MWh
Power,Intraday,Continuous,NL,ID3,HH,2021-12-14T07:00:00+01:00,2021-12-14T07:30:00+01:00,354.67,EUR,,MWh
Power,Intraday,Continuous,NL,ID3,HH,2021-12-14T07:30:00+01:00,2021-12-14T08:00:00+01:00,354.67,EUR,,MWh
Power,Intraday,Continuous,NL,ID3,HH,2021-12-14T08:00:00+01:00,2021-12-14T08:30:00+01:00,394.31,EUR,,MWh
Power,Intraday,Continuous,NL,ID3,HH,2021-12-14T08:30:00+01:00,2021-12-14T09:00:00+01:00,394.31,EUR,,MWh
Power,Intraday,Continuous,NL,ID3,HH,2021-12-14T09:00:00+01:00,2021-12-14T09:30:00+01:00,394.55,EUR,,MWh
Power,Intraday,Continuous,NL,ID3,HH,2021-12-14T09:30:00+01:00,2021-12-14T10:00:00+01:00,394.55,EUR,,MWh
Power,Intraday,Continuous,NL,ID3,HH,2021-12-14T10:00:00+01:00,2021-12-14T10:30:00+01:00,380.66,EUR,,MWh
Power,Intraday,Continuous,NL,ID3,HH,2021-12-14T10:30:00+01:00,2021-12-14T11:00:00+01:00,380.66,EUR,,MWh
Power,Intraday,Continuous,NL,ID3,HH,2021-12-14T11:00:00+01:00,2021-12-14T11:30:00+01:00,348.72,EUR,,MWh
Power,Intraday,Continuous,NL,ID3,HH,2021-12-14T11:30:00+01:00,2021-12-14T12:00:00+01:00,348.72,EUR,,MWh
Power,Intraday,Continuous,NL,ID3,HH,2021-12-14T12:00:00+01:00,2021-12-14T12:30:00+01:00,259.80,EUR,,MWh
Power,Intraday,Continuous,NL,ID3,HH,2021-12-14T12:30:00+01:00,2021-12-14T13:00:00+01:00,259.80,EUR,,MWh
Power,Intraday,Continuous,NL,ID3,HH,2021-12-14T13:00:00+01:00,2021-12-14T13:30:00+01:00,256.20,EUR,,MWh
Power,Intraday,Continuous,NL,ID3,HH,2021-12-14T13:30:00+01:00,2021-12-14T14:00:00+01:00,256.20,EUR,,MWh
Power,Intraday,Continuous,NL,ID3,HH,2021-12-14T14:00:00+01:00,2021-12-14T14:30:00+01:00,272.72,EUR,,MWh
Power,Intraday,Continuous,NL,ID3,HH,2021-12-14T14:30:00+01:00,2021-12-14T15:00:00+01:00,272.72,EUR,,MWh
Power,Intraday,Continuous,NL,ID3,HH,2021-12-14T15:00:00+01:00,2021-12-14T15:30:00+01:00,356.10,EUR,,MWh
Power,Intraday,Continuous,NL,ID3,HH,2021-12-14T15:30:00+01:00,2021-12-14T16:00:00+01:00,356.10,EUR,,MWh
Power,Intraday,Continuous,NL,ID3,HH,2021-12-14T16:00:00+01:00,2021-12-14T16:30:00+01:00,374.62,EUR,,MWh
Power,Intraday,Continuous,NL,ID3,HH,2021-12-14T16:30:00+01:00,2021-12-14T17:00:00+01:00,374.62,EUR,,MWh
Power,Intraday,Continuous,NL,ID3,HH,2021-12-14T17:00:00+01:00,2021-12-14T17:30:00+01:00,343.55,EUR,,MWh
Power,Intraday,Continuous,NL,ID3,HH,2021-12-14T17:30:00+01:00,2021-12-14T18:00:00+01:00,343.55,EUR,,MWh
Power,Intraday,Continuous,NL,ID3,HH,2021-12-14T18:00:00+01:00,2021-12-14T18:30:00+01:00,250.63,EUR,,MWh
Power,Intraday,Continuous,NL,ID3,HH,2021-12-14T18:30:00+01:00,2021-12-14T19:00:00+01:00,250.63,EUR,,MWh
Power,Intraday,Continuous,NL,ID3,HH,2021-12-14T19:00:00+01:00,2021-12-14T19:30:00+01:00,247.59,EUR,,MWh
Power,Intraday,Continuous,NL,ID3,HH,2021-12-14T19:30:00+01:00,2021-12-14T20:00:00+01:00,247.59,EUR,,MWh
Power,Intraday,Continuous,NL,ID3,HH,2021-12-14T20:00:00+01:00,2021-12-14T20:30:00+01:00,239.17,EUR,,MWh
Power,Intraday,Continuous,NL,ID3,HH,2021-12-14T20:30:00+01:00,2021-12-14T21:00:00+01:00,239.17,EUR,,MWh
Power,Intraday,Continuous,NL,ID3,HH,2021-12-14T21:00:00+01:00,2021-12-14T21:30:00+01:00,233.48,EUR,,MWh
Power,Intraday,Continuous,NL,ID3,HH,2021-12-14T21:30:00+01:00,2021-12-14T22:00:00+01:00,233.48,EUR,,MWh
Power,Intraday,Continuous,NL,ID3,HH,2021-12-14T22:00:00+01:00,2021-12-14T22:30:00+01:00,187.73,EUR,,MWh
Power,Intraday,Continuous,NL,ID3,HH,2021-12-14T22:30:00+01:00,2021-12-14T23:00:00+01:00,187.73,EUR,,MWh
Power,Intraday,Continuous,NL,ID3,HH,2021-12-14T23:00:00+01:00,2021-12-14T23:30:00+01:00,154.52,EUR,,MWh
Power,Intraday,Continuous,NL,ID3,HH,2021-12-14T23:30:00+01:00,2021-12-15T00:00:00+01:00,154.52,EUR,,MWh
Power,Intraday,Continuous,NL,IDFULL,QH,2021-12-14T00:00:00+01:00,2021-12-14T00:15:00+01:00,266.82,EUR,17.300,MWh
Power,Intraday,Continuous,NL,IDFULL,QH,2021-12-14T00:15:00+01:00,2021-12-14T00:30:00+01:00,258.08,EUR,15.930,MWh
Power,Intraday,Continuous,NL,IDFULL,QH,2021-12-14T00:30:00+01:00,2021-12-14T00:45:00+01:00,197.17,EUR,19.650,MWh
Power,Intraday,Continuous,NL,IDFULL,QH,2021-12-14T00:45:00+01:00,2021-12-14T01:00:00+01:00,160.08,EUR,25.050,MWh
Power,Intraday,Continuous,NL,IDFULL,QH,2021-12-14T01:00:00+01:00,2021-12-14T01:15:00+01:00,247.63,EUR,19.100,MWh
Power,Intraday,Continuous,NL,IDFULL,QH,2021-12-14T01:15:00+01:00,2021-12-14T01:30:00+01:00,228.98,EUR,14.450,MWh
Power,Intraday,Continuous,NL,IDFULL,QH,2021-12-14T01:30:00+01:00,2021-12-14T01:45:00+01:00,187.53,EUR,16.550,MWh
Power,Intraday,Continuous,NL,IDFULL,QH,2021-12-14T01:45:00+01:00,2021-12-14T02:00:00+01:00,123.77,EUR,21.130,MWh
Power,Intraday,Continuous,NL,IDFULL,QH,2021-12-14T02:00:00+01:00,2021-12-14T02:15:00+01:00,205.06,EUR,3.330,MWh
Power,Intraday,Continuous,NL,IDFULL,QH,2021-12-14T02:15:00+01:00,2021-12-14T02:30:00+01:00,401.24,EUR,,MWh
Power,Intraday,Continuous,NL,IDFULL,QH,2021-12-14T02:30:00+01:00,2021-12-14T02:45:00+01:00,169.63,EUR,5.530,MWh
Power,Intraday,Continuous,NL,IDFULL,QH,2021-12-14T02:45:00+01:00,2021-12-14T03:00:00+01:00,161.95,EUR,9.150,MWh
Power,Intraday,Continuous,NL,IDFULL,QH,2021-12-14T03:00:00+01:00,2021-12-14T03:15:00+01:00,210.51,EUR,,MWh
Power,Intraday,Continuous,NL,IDFULL,QH,2021-12-14T03:15:00+01:00,2021-12-14T03:30:00+01:00,210.51,EUR,,MWh
Power,Intraday,Continuous,NL,IDFULL,QH,2021-12-14T03:30:00+01:00,2021-12-14T03:45:00+01:00,210.51,EUR,,MWh
Power,Intraday,Continuous,NL,IDFULL,QH,2021-12-14T03:45:00+01:00,2021-12-14T04:00:00+01:00,210.51,EUR,,MWh
Power,Intraday,Continuous,NL,IDFULL,QH,2021-12-14T04:00:00+01:00,2021-12-14T04:15:00+01:00,147.48,EUR,41.600,MWh
Power,Intraday,Continuous,NL,IDFULL,QH,2021-12-14T04:15:00+01:00,2021-12-14T04:30:00+01:00,185.37,EUR,50.550,MWh
Power,Intraday,Continuous,NL,IDFULL,QH,2021-12-14T04:30:00+01:00,2021-12-14T04:45:00+01:00,233.27,EUR,59.130,MWh
Power,Intraday,Continuous,NL,IDFULL,QH,2021-12-14T04:45:00+01:00,2021-12-14T05:00:00+01:00,228.54,EUR,94.080,MWh
Power,Intraday,Continuous,NL,IDFULL,QH,2021-12-14T05:00:00+01:00,2021-12-14T05:15:00+01:00,162.45,EUR,32.550,MWh
Power,Intraday,Continuous,NL,IDFULL,QH,2021-12-14T05:15:00+01:00,2021-12-14T05:30:00+01:00,204.75,EUR,64.030,MWh
Power,Intraday,Continuous,NL,IDFULL,QH,2021-12-14T05:30:00+01:00,2021-12-14T05:45:00+01:00,260.92,EUR,82.100,MWh
Power,Intraday,Continuous,NL,IDFULL,QH,2021-12-14T05:45:00+01:00,2021-12-14T06:00:00+01:00,275.31,EUR,99.280,MWh
Power,Intraday,Continuous,NL,IDFULL,QH,2021-12-14T06:00:00+01:00,2021-12-14T06:15:00+01:00,199.83,EUR,40.450,MWh
Power,Intraday,Continuous,NL,IDFULL,QH,2021-12-14T06:15:00+01:00,2021-12-14T06:30:00+01:00,215.58,EUR,29.300,MWh
Power,Intraday,Continuous,NL,IDFULL,QH,2021-12-14T06:30:00+01:00,2021-12-14T06:45:00+01:00,283.41,EUR,40.230,MWh
Power,Intraday,Continuous,NL,IDFULL,QH,2021-12-14T06:45:00+01:00,2021-12-14T07:00:00+01:00,327.38,EUR,31.150,MWh
Power,Intraday,Continuous,NL,IDFULL,QH,2021-12-14T07:00:00+01:00,2021-12-14T07:15:00+01:00,280.70,EUR,239.330,MWh
Power,Intraday,Continuous,NL,IDFULL,QH,2021-12-14T07:15:00+01:00,2021-12-14T07:30:00+01:00,324.79,EUR,83.630,MWh
Power,Intraday,Continuous,NL,IDFULL,QH,2021-12-14T07:30:00+01:00,2021-12-14T07:45:00+01:00,387.13,EUR,92.150,MWh
Power,Intraday,Continuous,NL,IDFULL,QH,2021-12-14T07:45:00+01:00,2021-12-14T08:00:00+01:00,436.09,EUR,106.950,MWh
Power,Intraday,Continuous,NL,IDFULL,QH,2021-12-14T08:00:00+01:00,2021-12-14T08:15:00+01:00,324.57,EUR,48.580,MWh
Power,Intraday,Continuous,NL,IDFULL,QH,2021-12-14T08:15:00+01:00,2021-12-14T08:30:00+01:00,377.34,EUR,36.850,MWh
Power,Intraday,Continuous,NL,IDFULL,QH,2021-12-14T08:30:00+01:00,2021-12-14T08:45:00+01:00,395.96,EUR,50.850,MWh
Power,Intraday,Continuous,NL,IDFULL,QH,2021-12-14T08:45:00+01:00,2021-12-14T09:00:00+01:00,393.07,EUR,74.330,MWh
Power,Intraday,Continuous,NL,IDFULL,QH,2021-12-14T09:00:00+01:00,2021-12-14T09:15:00+01:00,389.78,EUR,39.580,MWh
Power,Intraday,Continuous,NL,IDFULL,QH,2021-12-14T09:15:00+01:00,2021-12-14T09:30:00+01:00,398.43,EUR,36.380,MWh
Power,Intraday,Continuous,NL,IDFULL,QH,2021-12-14T09:30:00+01:00,2021-12-14T09:45:00+01:00,391.30,EUR,37.330,MWh
Power,Intraday,Continuous,NL,IDFULL,QH,2021-12-14T09:45:00+01:00,2021-12-14T10:00:00+01:00,379.46,EUR,42.550,MWh
Power,Intraday,Continuous,NL,IDFULL,QH,2021-12-14T10:00:00+01:00,2021-12-14T10:15:00+01:00,400.60,EUR,37.180,MWh
Power,Intraday,Continuous,NL,IDFULL,QH,2021-12-14T10:15:00+01:00,2021-12-14T10:30:00+01:00,403.27,EUR,24.730,MWh
Power,Intraday,Continuous,NL,IDFULL,QH,2021-12-14T10:30:00+01:00,2021-12-14T10:45:00+01:00,396.58,EUR,24.730,MWh
Power,Intraday,Continuous,NL,IDFULL,QH,2021-12-14T10:45:00+01:00,2021-12-14T11:00:00+01:00,361.17,EUR,24.650,MWh
Power,Intraday,Continuous,NL,IDFULL,QH,2021-12-14T11:00:00+01:00,2021-12-14T11:15:00+01:00,420.24,EUR,9.130,MWh
Power,Intraday,Continuous,NL,IDFULL,QH,2021-12-14T11:15:00+01:00,2021-12-14T11:30:00+01:00,412.30,EUR,10.730,MWh
Power,Intraday,Continuous,NL,IDFULL,QH,2021-12-14T11:30:00+01:00,2021-12-14T11:45:00+01:00,318.86,EUR,10.500,MWh
Power,Intraday,Continuous,NL,IDFULL,QH,2021-12-14T11:45:00+01:00,2021-12-14T12:00:00+01:00,315.81,EUR,8.650,MWh
Power,Intraday,Continuous,NL,IDFULL,QH,2021-12-14T12:00:00+01:00,2021-12-14T12:15:00+01:00,207.98,EUR,3.130,MWh
Power,Intraday,Continuous,NL,IDFULL,QH,2021-12-14T12:15:00+01:00,2021-12-14T12:30:00+01:00,217.55,EUR,4.580,MWh
Power,Intraday,Continuous,NL,IDFULL,QH,2021-12-14T12:30:00+01:00,2021-12-14T12:45:00+01:00,207.44,EUR,3.580,MWh
Power,Intraday,Continuous,NL,IDFULL,QH,2021-12-14T12:45:00+01:00,2021-12-14T13:00:00+01:00,217.40,EUR,5.080,MWh
Power,Intraday,Continuous,NL,IDFULL,QH,2021-12-14T13:00:00+01:00,2021-12-14T13:15:00+01:00,256.20,EUR,,MWh
Power,Intraday,Continuous,NL,IDFULL,QH,2021-12-14T13:15:00+01:00,2021-12-14T13:30:00+01:00,256.20,EUR,,MWh
Power,Intraday,Continuous,NL,IDFULL,QH,2021-12-14T13:30:00+01:00,2021-12-14T13:45:00+01:00,256.20,EUR,,MWh
Power,Intraday,Continuous,NL,IDFULL,QH,2021-12-14T13:45:00+01:00,2021-12-14T14:00:00+01:00,256.20,EUR,,MWh
Power,Intraday,Continuous,NL,IDFULL,QH,2021-12-14T14:00:00+01:00,2021-12-14T14:15:00+01:00,272.80,EUR,3.080,MWh
Power,Intraday,Continuous,NL,IDFULL,QH,2021-12-14T14:15:00+01:00,2021-12-14T14:30:00+01:00,267.41,EUR,7.400,MWh
Power,Intraday,Continuous,NL,IDFULL,QH,2021-12-14T14:30:00+01:00,2021-12-14T14:45:00+01:00,276.15,EUR,5.300,MWh
Power,Intraday,Continuous,NL,IDFULL,QH,2021-12-14T14:45:00+01:00,2021-12-14T15:00:00+01:00,274.52,EUR,,MWh
Power,Intraday,Continuous,NL,IDFULL,QH,2021-12-14T15:00:00+01:00,2021-12-14T15:15:00+01:00,358.20,EUR,14.480,MWh
Power,Intraday,Continuous,NL,IDFULL,QH,2021-12-14T15:15:00+01:00,2021-12-14T15:30:00+01:00,382.02,EUR,8.650,MWh
Power,Intraday,Continuous,NL,IDFULL,QH,2021-12-14T15:30:00+01:00,2021-12-14T15:45:00+01:00,402.19,EUR,6.730,MWh
Power,Intraday,Continuous,NL,IDFULL,QH,2021-12-14T15:45:00+01:00,2021-12-14T16:00:00+01:00,417.57,EUR,7.080,MWh
Power,Intraday,Continuous,NL,IDFULL,QH,2021-12-14T16:00:00+01:00,2021-12-14T16:15:00+01:00,292.02,EUR,12.330,MWh
Power,Intraday,Continuous,NL,IDFULL,QH,2021-12-14T16:15:00+01:00,2021-12-14T16:30:00+01:00,299.39,EUR,9.100,MWh
Power,Intraday,Continuous,NL,IDFULL,QH,2021-12-14T16:30:00+01:00,2021-12-14T16:45:00+01:00,440.20,EUR,5.750,MWh
Power,Intraday,Continuous,NL,IDFULL,QH,2021-12-14T16:45:00+01:00,2021-12-14T17:00:00+01:00,486.82,EUR,8.980,MWh
Power,Intraday,Continuous,NL,IDFULL,QH,2021-12-14T17:00:00+01:00,2021-12-14T17:15:00+01:00,249.79,EUR,8.380,MWh
Power,Intraday,Continuous,NL,IDFULL,QH,2021-12-14T17:15:00+01:00,2021-12-14T17:30:00+01:00,395.62,EUR,2.750,MWh
Power,Intraday,Continuous,NL,IDFULL,QH,2021-12-14T17:30:00+01:00,2021-12-14T17:45:00+01:00,392.03,EUR,4.530,MWh
Power,Intraday,Continuous,NL,IDFULL,QH,2021-12-14T17:45:00+01:00,2021-12-14T18:00:00+01:00,363.13,EUR,6.580,MWh
Power,Intraday,Continuous,NL,IDFULL,QH,2021-12-14T18:00:00+01:00,2021-12-14T18:15:00+01:00,355.20,EUR,2.750,MWh
Power,Intraday,Continuous,NL,IDFULL,QH,2021-12-14T18:15:00+01:00,2021-12-14T18:30:00+01:00,107.46,EUR,,MWh
Power,Intraday,Continuous,NL,IDFULL,QH,2021-12-14T18:30:00+01:00,2021-12-14T18:45:00+01:00,272.79,EUR,3.050,MWh
Power,Intraday,Continuous,NL,IDFULL,QH,2021-12-14T18:45:00+01:00,2021-12-14T19:00:00+01:00,267.07,EUR,2.730,MWh
Power,Intraday,Continuous,NL,IDFULL,QH,2021-12-14T19:00:00+01:00,2021-12-14T19:15:00+01:00,260.00,EUR,2.500,MWh
Power,Intraday,Continuous,NL,IDFULL,QH,2021-12-14T19:15:00+01:00,2021-12-14T19:30:00+01:00,243.45,EUR,,MWh
Power,Intraday,Continuous,NL,IDFULL,QH,2021-12-14T19:30:00+01:00,2021-12-14T19:45:00+01:00,243.45,EUR,,MWh
Power,Intraday,Continuous,NL,IDFULL,QH,2021-12-14T19:45:00+01:00,2021-12-14T20:00:00+01:00,243.45,EUR,,MWh
Power,Intraday,Continuous,NL,IDFULL,QH,2021-12-14T20:00:00+01:00,2021-12-14T20:15:00+01:00,239.17,EUR,,MWh
Power,Intraday,Continuous,NL,IDFULL,QH,2021-12-14T20:15:00+01:00,2021-12-14T20:30:00+01:00,239.17,EUR,,MWh
Power,Intraday,Continuous,NL,IDFULL,QH,2021-12-14T20:30:00+01:00,2021-12-14T20:45:00+01:00,239.17,EUR,,MWh
Power,Intraday,Continuous,NL,IDFULL,QH,2021-12-14T20:45:00+01:00,2021-12-14T21:00:00+01:00,239.17,EUR,,MWh
Power,Intraday,Continuous,NL,IDFULL,QH,2021-12-14T21:00:00+01:00,2021-12-14T21:15:00+01:00,240.61,EUR,12.650,MWh
Power,Intraday,Continuous,NL,IDFULL,QH,2021-12-14T21:15:00+01:00,2021-12-14T21:30:00+01:00,231.10,EUR,,MWh
Power,Intraday,Continuous,NL,IDFULL,QH,2021-12-14T21:30:00+01:00,2021-12-14T21:45:00+01:00,231.10,EUR,,MWh
Power,Intraday,Continuous,NL,IDFULL,QH,2021-12-14T21:45:00+01:00,2021-12-14T22:00:00+01:00,231.10,EUR,,MWh
Power,Intraday,Continuous,NL,IDFULL,QH,2021-12-14T22:00:00+01:00,2021-12-14T22:15:00+01:00,174.86,EUR,12.650,MWh
Power,Intraday,Continuous,NL,IDFULL,QH,2021-12-14T22:15:00+01:00,2021-12-14T22:30:00+01:00,171.10,EUR,12.450,MWh
Power,Intraday,Continuous,NL,IDFULL,QH,2021-12-14T22:30:00+01:00,2021-12-14T22:45:00+01:00,162.32,EUR,12.530,MWh
Power,Intraday,Continuous,NL,IDFULL,QH,2021-12-14T22:45:00+01:00,2021-12-14T23:00:00+01:00,192.18,EUR,34.330,MWh
Power,Intraday,Continuous,NL,IDFULL,QH,2021-12-14T23:00:00+01:00,2021-12-14T23:15:00+01:00,180.14,EUR,10.380,MWh
Power,Intraday,Continuous,NL,IDFULL,QH,2021-12-14T23:15:00+01:00,2021-12-14T23:30:00+01:00,169.84,EUR,9.230,MWh
Power,Intraday,Continuous,NL,IDFULL,QH,2021-12-14T23:30:00+01:00,2021-12-14T23:45:00+01:00,119.71,EUR,11.030,MWh
Power,Intraday,Continuous,NL,IDFULL,QH,2021-12-14T23:45:00+01:00,2021-12-15T00:00:00+01:00,149.34,EUR,19.580,MWh
Power,Intraday,Continuous,NL,ID1,QH,2021-12-14T00:00:00+01:00,2021-12-14T00:15:00+01:00,266.82,EUR,,MWh
Power,Intraday,Continuous,NL,ID1,QH,2021-12-14T00:15:00+01:00,2021-12-14T00:30:00+01:00,258.08,EUR,,MWh
Power,Intraday,Continuous,NL,ID1,QH,2021-12-14T00:30:00+01:00,2021-12-14T00:45:00+01:00,197.17,EUR,,MWh
Power,Intraday,Continuous,NL,ID1,QH,2021-12-14T00:45:00+01:00,2021-12-14T01:00:00+01:00,160.08,EUR,,MWh
Power,Intraday,Continuous,NL,ID1,QH,2021-12-14T01:00:00+01:00,2021-12-14T01:15:00+01:00,248.92,EUR,,MWh
Power,Intraday,Continuous,NL,ID1,QH,2021-12-14T01:15:00+01:00,2021-12-14T01:30:00+01:00,231.55,EUR,,MWh
Power,Intraday,Continuous,NL,ID1,QH,2021-12-14T01:30:00+01:00,2021-12-14T01:45:00+01:00,188.85,EUR,,MWh
Power,Intraday,Continuous,NL,ID1,QH,2021-12-14T01:45:00+01:00,2021-12-14T02:00:00+01:00,124.88,EUR,,MWh
Power,Intraday,Continuous,NL,ID1,QH,2021-12-14T02:00:00+01:00,2021-12-14T02:15:00+01:00,205.06,EUR,,MWh
Power,Intraday,Continuous,NL,ID1,QH,2021-12-14T02:15:00+01:00,2021-12-14T02:30:00+01:00,401.24,EUR,,MWh
Power,Intraday,Continuous,NL,ID1,QH,2021-12-14T02:30:00+01:00,2021-12-14T02:45:00+01:00,169.63,EUR,,MWh
Power,Intraday,Continuous,NL,ID1,QH,2021-12-14T02:45:00+01:00,2021-12-14T03:00:00+01:00,150.00,EUR,2.500,MWh
Power,Intraday,Continuous,NL,ID1,QH,2021-12-14T03:00:00+01:00,2021-12-14T03:15:00+01:00,210.51,EUR,,MWh
Power,Intraday,Continuous,NL,ID1,QH,2021-12-14T03:15:00+01:00,2021-12-14T03:30:00+01:00,210.51,EUR,,MWh
Power,Intraday,Continuous,NL,ID1,QH,2021-12-14T03:30:00+01:00,2021-12-14T03:45:00+01:00,210.51,EUR,,MWh
Power,Intraday,Continuous,NL,ID1,QH,2021-12-14T03:45:00+01:00,2021-12-14T04:00:00+01:00,210.51,EUR,,MWh
Power,Intraday,Continuous,NL,ID1,QH,2021-12-14T04:00:00+01:00,2021-12-14T04:15:00+01:00,150.63,EUR,,MWh
Power,Intraday,Continuous,NL,ID1,QH,2021-12-14T04:15:00+01:00,2021-12-14T04:30:00+01:00,188.99,EUR,,MWh
Power,Intraday,Continuous,NL,ID1,QH,2021-12-14T04:30:00+01:00,2021-12-14T04:45:00+01:00,234.78,EUR,,MWh
Power,Intraday,Continuous,NL,ID1,QH,2021-12-14T04:45:00+01:00,2021-12-14T05:00:00+01:00,227.76,EUR,,MWh
Power,Intraday,Continuous,NL,ID1,QH,2021-12-14T05:00:00+01:00,2021-12-14T05:15:00+01:00,171.99,EUR,,MWh
Power,Intraday,Continuous,NL,ID1,QH,2021-12-14T05:15:00+01:00,2021-12-14T05:30:00+01:00,244.89,EUR,11.000,MWh
Power,Intraday,Continuous,NL,ID1,QH,2021-12-14T05:30:00+01:00,2021-12-14T05:45:00+01:00,260.69,EUR,,MWh
Power,Intraday,Continuous,NL,ID1,QH,2021-12-14T05:45:00+01:00,2021-12-14T06:00:00+01:00,271.82,EUR,,MWh
Power,Intraday,Continuous,NL,ID1,QH,2021-12-14T06:00:00+01:00,2021-12-14T06:15:00+01:00,347.21,EUR,3.980,MWh
Power,Intraday,Continuous,NL,ID1,QH,2021-12-14T06:15:00+01:00,2021-12-14T06:30:00+01:00,230.23,EUR,,MWh
Power,Intraday,Continuous,NL,ID1,QH,2021-12-14T06:30:00+01:00,2021-12-14T06:45:00+01:00,290.48,EUR,,MWh
Power,Intraday,Continuous,NL,ID1,QH,2021-12-14T06:45:00+01:00,2021-12-14T07:00:00+01:00,311.75,EUR,,MWh
Power,Intraday,Continuous,NL,ID1,QH,2021-12-14T07:00:00+01:00,2021-12-14T07:15:00+01:00,307.09,EUR,,MWh
Power,Intraday,Continuous,NL,ID1,QH,2021-12-14T07:15:00+01:00,2021-12-14T07:30:00+01:00,259.74,EUR,,MWh
Power,Intraday,Continuous,NL,ID1,QH,2021-12-14T07:30:00+01:00,2021-12-14T07:45:00+01:00,408.11,EUR,,MWh
Power,Intraday,Continuous,NL,ID1,QH,2021-12-14T07:45:00+01:00,2021-12-14T08:00:00+01:00,442.79,EUR,,MWh
Power,Intraday,Continuous,NL,ID1,QH,2021-12-14T08:00:00+01:00,2021-12-14T08:15:00+01:00,362.27,EUR,,MWh
Power,Intraday,Continuous,NL,ID1,QH,2021-12-14T08:15:00+01:00,2021-12-14T08:30:00+01:00,377.49,EUR,,MWh
Power,Intraday,Continuous,NL,ID1,QH,2021-12-14T08:30:00+01:00,2021-12-14T08:45:00+01:00,387.71,EUR,,MWh
Power,Intraday,Continuous,NL,ID1,QH,2021-12-14T08:45:00+01:00,2021-12-14T09:00:00+01:00,387.12,EUR,,MWh
Power,Intraday,Continuous,NL,ID1,QH,2021-12-14T09:00:00+01:00,2021-12-14T09:15:00+01:00,415.72,EUR,3.980,MWh
Power,Intraday,Continuous,NL,ID1,QH,2021-12-14T09:15:00+01:00,2021-12-14T09:30:00+01:00,389.31,EUR,,MWh
Power,Intraday,Continuous,NL,ID1,QH,2021-12-14T09:30:00+01:00,2021-12-14T09:45:00+01:00,390.96,EUR,,MWh
Power,Intraday,Continuous,NL,ID1,QH,2021-12-14T09:45:00+01:00,2021-12-14T10:00:00+01:00,380.64,EUR,,MWh
Power,Intraday,Continuous,NL,ID1,QH,2021-12-14T10:00:00+01:00,2021-12-14T10:15:00+01:00,405.26,EUR,,MWh
Power,Intraday,Continuous,NL,ID1,QH,2021-12-14T10:15:00+01:00,2021-12-14T10:30:00+01:00,408.53,EUR,,MWh
Power,Intraday,Continuous,NL,ID1,QH,2021-12-14T10:30:00+01:00,2021-12-14T10:45:00+01:00,403.26,EUR,,MWh
Power,Intraday,Continuous,NL,ID1,QH,2021-12-14T10:45:00+01:00,2021-12-14T11:00:00+01:00,388.47,EUR,,MWh
Power,Intraday,Continuous,NL,ID1,QH,2021-12-14T11:00:00+01:00,2021-12-14T11:15:00+01:00,420.24,EUR,,MWh
Power,Intraday,Continuous,NL,ID1,QH,2021-12-14T11:15:00+01:00,2021-12-14T11:30:00+01:00,412.30,EUR,,MWh
Power,Intraday,Continuous,NL,ID1,QH,2021-12-14T11:30:00+01:00,2021-12-14T11:45:00+01:00,204.59,EUR,4.250,MWh
Power,Intraday,Continuous,NL,ID1,QH,2021-12-14T11:45:00+01:00,2021-12-14T12:00:00+01:00,185.05,EUR,2.500,MWh
Power,Intraday,Continuous,NL,ID1,QH,2021-12-14T12:00:00+01:00,2021-12-14T12:15:00+01:00,207.50,EUR,,MWh
Power,Intraday,Continuous,NL,ID1,QH,2021-12-14T12:15:00+01:00,2021-12-14T12:30:00+01:00,217.70,EUR,,MWh
Power,Intraday,Continuous,NL,ID1,QH,2021-12-14T12:30:00+01:00,2021-12-14T12:45:00+01:00,207.07,EUR,,MWh
Power,Intraday,Continuous,NL,ID1,QH,2021-12-14T12:45:00+01:00,2021-12-14T13:00:00+01:00,201.23,EUR,2.750,MWh
Power,Intraday,Continuous,NL,ID1,QH,2021-12-14T13:00:00+01:00,2021-12-14T13:15:00+01:00,256.20,EUR,,MWh
Power,Intraday,Continuous,NL,ID1,QH,2021-12-14T13:15:00+01:00,2021-12-14T13:30:00+01:00,256.20,EUR,,MWh
Power,Intraday,Continuous,NL,ID1,QH,2021-12-14T13:30:00+01:00,2021-12-14T13:45:00+01:00,256.20,EUR,,MWh
Power,Intraday,Continuous,NL,ID1,QH,2021-12-14T13:45:00+01:00,2021-12-14T14:00:00+01:00,256.20,EUR,,MWh
Power,Intraday,Continuous,NL,ID1,QH,2021-12-14T14:00:00+01:00,2021-12-14T14:15:00+01:00,272.80,EUR,,MWh
Power,Intraday,Continuous,NL,ID1,QH,2021-12-14T14:15:00+01:00,2021-12-14T14:30:00+01:00,260.73,EUR,4.250,MWh
Power,Intraday,Continuous,NL,ID1,QH,2021-12-14T14:30:00+01:00,2021-12-14T14:45:00+01:00,276.15,EUR,,MWh
Power,Intraday,Continuous,NL,ID1,QH,2021-12-14T14:45:00+01:00,2021-12-14T15:00:00+01:00,274.52,EUR,,MWh
Power,Intraday,Continuous,NL,ID1,QH,2021-12-14T15:00:00+01:00,2021-12-14T15:15:00+01:00,363.48,EUR,,MWh
Power,Intraday,Continuous,NL,ID1,QH,2021-12-14T15:15:00+01:00,2021-12-14T15:30:00+01:00,388.10,EUR,,MWh
Power,Intraday,Continuous,NL,ID1,QH,2021-12-14T15:30:00+01:00,2021-12-14T15:45:00+01:00,411.42,EUR,,MWh
Power,Intraday,Continuous,NL,ID1,QH,2021-12-14T15:45:00+01:00,2021-12-14T16:00:00+01:00,427.24,EUR,,MWh
Power,Intraday,Continuous,NL,ID1,QH,2021-12-14T16:00:00+01:00,2021-12-14T16:15:00+01:00,292.17,EUR,,MWh
Power,Intraday,Continuous,NL,ID1,QH,2021-12-14T16:15:00+01:00,2021-12-14T16:30:00+01:00,299.39,EUR,,MWh
Power,Intraday,Continuous,NL,ID1,QH,2021-12-14T16:30:00+01:00,2021-12-14T16:45:00+01:00,440.20,EUR,,MWh
Power,Intraday,Continuous,NL,ID1,QH,2021-12-14T16:45:00+01:00,2021-12-14T17:00:00+01:00,454.80,EUR,2.500,MWh
Power,Intraday,Continuous,NL,ID1,QH,2021-12-14T17:00:00+01:00,2021-12-14T17:15:00+01:00,237.61,EUR,,MWh
Power,Intraday,Continuous,NL,ID1,QH,2021-12-14T17:15:00+01:00,2021-12-14T17:30:00+01:00,395.62,EUR,,MWh
Power,Intraday,Continuous,NL,ID1,QH,2021-12-14T17:30:00+01:00,2021-12-14T17:45:00+01:00,396.20,EUR,,MWh
Power,Intraday,Continuous,NL,ID1,QH,2021-12-14T17:45:00+01:00,2021-12-14T18:00:00+01:00,360.41,EUR,,MWh
Power,Intraday,Continuous,NL,ID1,QH,2021-12-14T18:00:00+01:00,2021-12-14T18:15:00+01:00,355.20,EUR,,MWh
Power,Intraday,Continuous,NL,ID1,QH,2021-12-14T18:15:00+01:00,2021-12-14T18:30:00+01:00,107.46,EUR,,MWh
Power,Intraday,Continuous,NL,ID1,QH,2021-12-14T18:30:00+01:00,2021-12-14T18:45:00+01:00,272.79,EUR,,MWh
Power,Intraday,Continuous,NL,ID1,QH,2021-12-14T18:45:00+01:00,2021-12-14T19:00:00+01:00,267.07,EUR,,MWh
Power,Intraday,Continuous,NL,ID1,QH,2021-12-14T19:00:00+01:00,2021-12-14T19:15:00+01:00,260.00,EUR,2.500,MWh
Power,Intraday,Continuous,NL,ID1,QH,2021-12-14T19:15:00+01:00,2021-12-14T19:30:00+01:00,243.45,EUR,,MWh
Power,Intraday,Continuous,NL,ID1,QH,2021-12-14T19:30:00+01:00,2021-12-14T19:45:00+01:00,243.45,EUR,,MWh
Power,Intraday,Continuous,NL,ID1,QH,2021-12-14T19:45:00+01:00,2021-12-14T20:00:00+01:00,243.45,EUR,,MWh
Power,Intraday,Continuous,NL,ID1,QH,2021-12-14T20:00:00+01:00,2021-12-14T20:15:00+01:00,239.17,EUR,,MWh
Power,Intraday,Continuous,NL,ID1,QH,2021-12-14T20:15:00+01:00,2021-12-14T20:30:00+01:00,239.17,EUR,,MWh
Power,Intraday,Continuous,NL,ID1,QH,2021-12-14T20:30:00+01:00,2021-12-14T20:45:00+01:00,239.17,EUR,,MWh
Power,Intraday,Continuous,NL,ID1,QH,2021-12-14T20:45:00+01:00,2021-12-14T21:00:00+01:00,239.17,EUR,,MWh
Power,Intraday,Continuous,NL,ID1,QH,2021-12-14T21:00:00+01:00,2021-12-14T21:15:00+01:00,240.61,EUR,,MWh
Power,Intraday,Continuous,NL,ID1,QH,2021-12-14T21:15:00+01:00,2021-12-14T21:30:00+01:00,231.10,EUR,,MWh
Power,Intraday,Continuous,NL,ID1,QH,2021-12-14T21:30:00+01:00,2021-12-14T21:45:00+01:00,231.10,EUR,,MWh
Power,Intraday,Continuous,NL,ID1,QH,2021-12-14T21:45:00+01:00,2021-12-14T22:00:00+01:00,231.10,EUR,,MWh
Power,Intraday,Continuous,NL,ID1,QH,2021-12-14T22:00:00+01:00,2021-12-14T22:15:00+01:00,174.86,EUR,,MWh
Power,Intraday,Continuous,NL,ID1,QH,2021-12-14T22:15:00+01:00,2021-12-14T22:30:00+01:00,171.10,EUR,,MWh
Power,Intraday,Continuous,NL,ID1,QH,2021-12-14T22:30:00+01:00,2021-12-14T22:45:00+01:00,162.32,EUR,,MWh
Power,Intraday,Continuous,NL,ID1,QH,2021-12-14T22:45:00+01:00,2021-12-14T23:00:00+01:00,192.18,EUR,,MWh
Power,Intraday,Continuous,NL,ID1,QH,2021-12-14T23:00:00+01:00,2021-12-14T23:15:00+01:00,158.43,EUR,6.280,MWh
Power,Intraday,Continuous,NL,ID1,QH,2021-12-14T23:15:00+01:00,2021-12-14T23:30:00+01:00,158.38,EUR,6.280,MWh
Power,Intraday,Continuous,NL,ID1,QH,2021-12-14T23:30:00+01:00,2021-12-14T23:45:00+01:00,89.29,EUR,3.780,MWh
Power,Intraday,Continuous,NL,ID1,QH,2021-12-14T23:45:00+01:00,2021-12-15T00:00:00+01:00,114.55,EUR,3.100,MWh
Power,Intraday,Continuous,NL,ID3,QH,2021-12-14T00:00:00+01:00,2021-12-14T00:15:00+01:00,266.82,EUR,17.300,MWh
Power,Intraday,Continuous,NL,ID3,QH,2021-12-14T00:15:00+01:00,2021-12-14T00:30:00+01:00,258.08,EUR,15.930,MWh
Power,Intraday,Continuous,NL,ID3,QH,2021-12-14T00:30:00+01:00,2021-12-14T00:45:00+01:00,197.17,EUR,19.650,MWh
Power,Intraday,Continuous,NL,ID3,QH,2021-12-14T00:45:00+01:00,2021-12-14T01:00:00+01:00,160.08,EUR,25.050,MWh
Power,Intraday,Continuous,NL,ID3,QH,2021-12-14T01:00:00+01:00,2021-12-14T01:15:00+01:00,248.92,EUR,17.850,MWh
Power,Intraday,Continuous,NL,ID3,QH,2021-12-14T01:15:00+01:00,2021-12-14T01:30:00+01:00,231.55,EUR,13.200,MWh
Power,Intraday,Continuous,NL,ID3,QH,2021-12-14T01:30:00+01:00,2021-12-14T01:45:00+01:00,188.85,EUR,15.300,MWh
Power,Intraday,Continuous,NL,ID3,QH,2021-12-14T01:45:00+01:00,2021-12-14T02:00:00+01:00,124.88,EUR,15.030,MWh
Power,Intraday,Continuous,NL,ID3,QH,2021-12-14T02:00:00+01:00,2021-12-14T02:15:00+01:00,205.06,EUR,,MWh
Power,Intraday,Continuous,NL,ID3,QH,2021-12-14T02:15:00+01:00,2021-12-14T02:30:00+01:00,401.24,EUR,,MWh
Power,Intraday,Continuous,NL,ID3,QH,2021-12-14T02:30:00+01:00,2021-12-14T02:45:00+01:00,169.63,EUR,,MWh
Power,Intraday,Continuous,NL,ID3,QH,2021-12-14T02:45:00+01:00,2021-12-14T03:00:00+01:00,159.35,EUR,3.380,MWh
Power,Intraday,Continuous,NL,ID3,QH,2021-12-14T03:00:00+01:00,2021-12-14T03:15:00+01:00,210.51,EUR,,MWh
Power,Intraday,Continuous,NL,ID3,QH,2021-12-14T03:15:00+01:00,2021-12-14T03:30:00+01:00,210.51,EUR,,MWh
Power,Intraday,Continuous,NL,ID3,QH,2021-12-14T03:30:00+01:00,2021-12-14T03:45:00+01:00,210.51,EUR,,MWh
Power,Intraday,Continuous,NL,ID3,QH,2021-12-14T03:45:00+01:00,2021-12-14T04:00:00+01:00,210.51,EUR,,MWh
Power,Intraday,Continuous,NL,ID3,QH,2021-12-14T04:00:00+01:00,2021-12-14T04:15:00+01:00,150.63,EUR,35.650,MWh
Power,Intraday,Continuous,NL,ID3,QH,2021-12-14T04:15:00+01:00,2021-12-14T04:30:00+01:00,188.99,EUR,42.450,MWh
Power,Intraday,Continuous,NL,ID3,QH,2021-12-14T04:30:00+01:00,2021-12-14T04:45:00+01:00,234.78,EUR,41.450,MWh
Power,Intraday,Continuous,NL,ID3,QH,2021-12-14T04:45:00+01:00,2021-12-14T05:00:00+01:00,227.76,EUR,75.670,MWh
Power,Intraday,Continuous,NL,ID3,QH,2021-12-14T05:00:00+01:00,2021-12-14T05:15:00+01:00,171.99,EUR,15.250,MWh
Power,Intraday,Continuous,NL,ID3,QH,2021-12-14T05:15:00+01:00,2021-12-14T05:30:00+01:00,209.41,EUR,50.100,MWh
Power,Intraday,Continuous,NL,ID3,QH,2021-12-14T05:30:00+01:00,2021-12-14T05:45:00+01:00,260.69,EUR,61.080,MWh
Power,Intraday,Continuous,NL,ID3,QH,2021-12-14T05:45:00+01:00,2021-12-14T06:00:00+01:00,271.82,EUR,62.080,MWh
Power,Intraday,Continuous,NL,ID3,QH,2021-12-14T06:00:00+01:00,2021-12-14T06:15:00+01:00,227.02,EUR,29.580,MWh
Power,Intraday,Continuous,NL,ID3,QH,2021-12-14T06:15:00+01:00,2021-12-14T06:30:00+01:00,230.23,EUR,18.230,MWh
Power,Intraday,Continuous,NL,ID3,QH,2021-12-14T06:30:00+01:00,2021-12-14T06:45:00+01:00,290.48,EUR,13.850,MWh
Power,Intraday,Continuous,NL,ID3,QH,2021-12-14T06:45:00+01:00,2021-12-14T07:00:00+01:00,311.75,EUR,11.450,MWh
Power,Intraday,Continuous,NL,ID3,QH,2021-12-14T07:00:00+01:00,2021-12-14T07:15:00+01:00,307.09,EUR,64.530,MWh
Power,Intraday,Continuous,NL,ID3,QH,2021-12-14T07:15:00+01:00,2021-12-14T07:30:00+01:00,259.74,EUR,13.030,MWh
Power,Intraday,Continuous,NL,ID3,QH,2021-12-14T07:30:00+01:00,2021-12-14T07:45:00+01:00,408.11,EUR,18.350,MWh
Power,Intraday,Continuous,NL,ID3,QH,2021-12-14T07:45:00+01:00,2021-12-14T08:00:00+01:00,442.79,EUR,50.000,MWh
Power,Intraday,Continuous,NL,ID3,QH,2021-12-14T08:00:00+01:00,2021-12-14T08:15:00+01:00,362.27,EUR,12.900,MWh
Power,Intraday,Continuous,NL,ID3,QH,2021-12-14T08:15:00+01:00,2021-12-14T08:30:00+01:00,377.49,EUR,16.850,MWh
Power,Intraday,Continuous,NL,ID3,QH,2021-12-14T08:30:00+01:00,2021-12-14T08:45:00+01:00,387.71,EUR,41.580,MWh
Power,Intraday,Continuous,NL,ID3,QH,2021-12-14T08:45:00+01:00,2021-12-14T09:00:00+01:00,387.12,EUR,57.000,MWh
Power,Intraday,Continuous,NL,ID3,QH,2021-12-14T09:00:00+01:00,2021-12-14T09:15:00+01:00,386.02,EUR,30.180,MWh
Power,Intraday,Continuous,NL,ID3,QH,2021-12-14T09:15:00+01:00,2021-12-14T09:30:00+01:00,389.31,EUR,25.430,MWh
Power,Intraday,Continuous,NL,ID3,QH,2021-12-14T09:30:00+01:00,2021-12-14T09:45:00+01:00,390.96,EUR,28.530,MWh
Power,Intraday,Continuous,NL,ID3,QH,2021-12-14T09:45:00+01:00,2021-12-14T10:00:00+01:00,380.64,EUR,32.250,MWh
Power,Intraday,Continuous,NL,ID3,QH,2021-12-14T10:00:00+01:00,2021-12-14T10:15:00+01:00,405.26,EUR,30.380,MWh
Power,Intraday,Continuous,NL,ID3,QH,2021-12-14T10:15:00+01:00,2021-12-14T10:30:00+01:00,408.53,EUR,19.480,MWh
Power,Intraday,Continuous,NL,ID3,QH,2021-12-14T10:30:00+01:00,2021-12-14T10:45:00+01:00,403.26,EUR,18.230,MWh
Power,Intraday,Continuous,NL,ID3,QH,2021-12-14T10:45:00+01:00,2021-12-14T11:00:00+01:00,388.47,EUR,18.030,MWh
Power,Intraday,Continuous,NL,ID3,QH,2021-12-14T11:00:00+01:00,2021-12-14T11:15:00+01:00,420.24,EUR,9.130,MWh
Power,Intraday,Continuous,NL,ID3,QH,2021-12-14T11:15:00+01:00,2021-12-14T11:30:00+01:00,412.30,EUR,10.730,MWh
Power,Intraday,Continuous,NL,ID3,QH,2021-12-14T11:30:00+01:00,2021-12-14T11:45:00+01:00,318.86,EUR,10.500,MWh
Power,Intraday,Continuous,NL,ID3,QH,2021-12-14T11:45:00+01:00,2021-12-14T12:00:00+01:00,315.81,EUR,8.650,MWh
Power,Intraday,Continuous,NL,ID3,QH,2021-12-14T12:00:00+01:00,2021-12-14T12:15:00+01:00,207.50,EUR,2.830,MWh
Power,Intraday,Continuous,NL,ID3,QH,2021-12-14T12:15:00+01:00,2021-12-14T12:30:00+01:00,217.70,EUR,4.380,MWh
Power,Intraday,Continuous,NL,ID3,QH,2021-12-14T12:30:00+01:00,2021-12-14T12:45:00+01:00,207.07,EUR,3.380,MWh
Power,Intraday,Continuous,NL,ID3,QH,2021-12-14T12:45:00+01:00,2021-12-14T13:00:00+01:00,211.08,EUR,4.680,MWh
Power,Intraday,Continuous,NL,ID3,QH,2021-12-14T13:00:00+01:00,2021-12-14T13:15:00+01:00,256.20,EUR,,MWh
Power,Intraday,Continuous,NL,ID3,QH,2021-12-14T13:15:00+01:00,2021-12-14T13:30:00+01:00,256.20,EUR,,MWh
Power,Intraday,Continuous,NL,ID3,QH,2021-12-14T13:30:00+01:00,2021-12-14T13:45:00+01:00,256.20,EUR,,MWh
Power,Intraday,Continuous,NL,ID3,QH,2021-12-14T13:45:00+01:00,2021-12-14T14:00:00+01:00,256.20,EUR,,MWh
Power,Intraday,Continuous,NL,ID3,QH,2021-12-14T14:00:00+01:00,2021-12-14T14:15:00+01:00,272.80,EUR,3.080,MWh
Power,Intraday,Continuous,NL,ID3,QH,2021-12-14T14:15:00+01:00,2021-12-14T14:30:00+01:00,267.41,EUR,7.400,MWh
Power,Intraday,Continuous,NL,ID3,QH,2021-12-14T14:30:00+01:00,2021-12-14T14:45:00+01:00,276.15,EUR,5.300,MWh
Power,Intraday,Continuous,NL,ID3,QH,2021-12-14T14:45:00+01:00,2021-12-14T15:00:00+01:00,274.52,EUR,,MWh
Power,Intraday,Continuous,NL,ID3,QH,2021-12-14T15:00:00+01:00,2021-12-14T15:15:00+01:00,363.48,EUR,13.880,MWh
Power,Intraday,Continuous,NL,ID3,QH,2021-12-14T15:15:00+01:00,2021-12-14T15:30:00+01:00,388.10,EUR,8.250,MWh
Power,Intraday,Continuous,NL,ID3,QH,2021-12-14T15:30:00+01:00,2021-12-14T15:45:00+01:00,411.42,EUR,6.330,MWh
Power,Intraday,Continuous,NL,ID3,QH,2021-12-14T15:45:00+01:00,2021-12-14T16:00:00+01:00,427.24,EUR,6.680,MWh
Power,Intraday,Continuous,NL,ID3,QH,2021-12-14T16:00:00+01:00,2021-12-14T16:15:00+01:00,292.17,EUR,12.130,MWh
Power,Intraday,Continuous,NL,ID3,QH,2021-12-14T16:15:00+01:00,2021-12-14T16:30:00+01:00,299.39,EUR,9.100,MWh
Power,Intraday,Continuous,NL,ID3,QH,2021-12-14T16:30:00+01:00,2021-12-14T16:45:00+01:00,440.20,EUR,5.750,MWh
Power,Intraday,Continuous,NL,ID3,QH,2021-12-14T16:45:00+01:00,2021-12-14T17:00:00+01:00,486.82,EUR,8.980,MWh
Power,Intraday,Continuous,NL,ID3,QH,2021-12-14T17:00:00+01:00,2021-12-14T17:15:00+01:00,237.61,EUR,7.480,MWh
Power,Intraday,Continuous,NL,ID3,QH,2021-12-14T17:15:00+01:00,2021-12-14T17:30:00+01:00,395.62,EUR,,MWh
Power,Intraday,Continuous,NL,ID3,QH,2021-12-14T17:30:00+01:00,2021-12-14T17:45:00+01:00,396.20,EUR,3.500,MWh
Power,Intraday,Continuous,NL,ID3,QH,2021-12-14T17:45:00+01:00,2021-12-14T18:00:00+01:00,360.41,EUR,5.430,MWh
Power,Intraday,Continuous,NL,ID3,QH,2021-12-14T18:00:00+01:00,2021-12-14T18:15:00+01:00,355.20,EUR,,MWh
Power,Intraday,Continuous,NL,ID3,QH,2021-12-14T18:15:00+01:00,2021-12-14T18:30:00+01:00,107.46,EUR,,MWh
Power,Intraday,Continuous,NL,ID3,QH,2021-12-14T18:30:00+01:00,2021-12-14T18:45:00+01:00,272.79,EUR,,MWh
Power,Intraday,Continuous,NL,ID3,QH,2021-12-14T18:45:00+01:00,2021-12-14T19:00:00+01:00,267.07,EUR,,MWh
Power,Intraday,Continuous,NL,ID3,QH,2021-12-14T19:00:00+01:00,2021-12-14T19:15:00+01:00,260.00,EUR,2.500,MWh
Power,Intraday,Continuous,NL,ID3,QH,2021-12-14T19:15:00+01:00,2021-12-14T19:30:00+01:00,243.45,EUR,,MWh
Power,Intraday,Continuous,NL,ID3,QH,2021-12-14T19:30:00+01:00,2021-12-14T19:45:00+01:00,243.45,EUR,,MWh
Power,Intraday,Continuous,NL,ID3,QH,2021-12-14T19:45:00+01:00,2021-12-14T20:00:00+01:00,243.45,EUR,,MWh
Power,Intraday,Continuous,NL,ID3,QH,2021-12-14T20:00:00+01:00,2021-12-14T20:15:00+01:00,239.17,EUR,,MWh
Power,Intraday,Continuous,NL,ID3,QH,2021-12-14T20:15:00+01:00,2021-12-14T20:30:00+01:00,239.17,EUR,,MWh
Power,Intraday,Continuous,NL,ID3,QH,2021-12-14T20:30:00+01:00,2021-12-14T20:45:00+01:00,239.17,EUR,,MWh
Power,Intraday,Continuous,NL,ID3,QH,2021-12-14T20:45:00+01:00,2021-12-14T21:00:00+01:00,239.17,EUR,,MWh
Power,Intraday,Continuous,NL,ID3,QH,2021-12-14T21:00:00+01:00,2021-12-14T21:15:00+01:00,240.61,EUR,12.650,MWh
Power,Intraday,Continuous,NL,ID3,QH,2021-12-14T21:15:00+01:00,2021-12-14T21:30:00+01:00,231.10,EUR,,MWh
Power,Intraday,Continuous,NL,ID3,QH,2021-12-14T21:30:00+01:00,2021-12-14T21:45:00+01:00,231.10,EUR,,MWh
Power,Intraday,Continuous,NL,ID3,QH,2021-12-14T21:45:00+01:00,2021-12-14T22:00:00+01:00,231.10,EUR,,MWh
Power,Intraday,Continuous,NL,ID3,QH,2021-12-14T22:00:00+01:00,2021-12-14T22:15:00+01:00,174.86,EUR,,MWh
Power,Intraday,Continuous,NL,ID3,QH,2021-12-14T22:15:00+01:00,2021-12-14T22:30:00+01:00,171.10,EUR,,MWh
Power,Intraday,Continuous,NL,ID3,QH,2021-12-14T22:30:00+01:00,2021-12-14T22:45:00+01:00,162.32,EUR,,MWh
Power,Intraday,Continuous,NL,ID3,QH,2021-12-14T22:45:00+01:00,2021-12-14T23:00:00+01:00,192.18,EUR,,MWh
Power,Intraday,Continuous,NL,ID3,QH,2021-12-14T23:00:00+01:00,2021-12-14T23:15:00+01:00,158.43,EUR,6.280,MWh
Power,Intraday,Continuous,NL,ID3,QH,2021-12-14T23:15:00+01:00,2021-12-14T23:30:00+01:00,158.38,EUR,6.280,MWh
Power,Intraday,Continuous,NL,ID3,QH,2021-12-14T23:30:00+01:00,2021-12-14T23:45:00+01:00,89.69,EUR,7.530,MWh
Power,Intraday,Continuous,NL,ID3,QH,2021-12-14T23:45:00+01:00,2021-12-15T00:00:00+01:00,142.80,EUR,10.880,MWh
Power,Intraday,Continuous,NL,IDFULL,BASE,2021-12-14T00:00:00+01:00,2021-12-15T00:00:00+01:00,275.02,EUR,26095.000,MWh
Power,Intraday,Continuous,NL,IDFULL,PEAK,2021-12-14T08:00:00+01:00,2021-12-14T20:00:00+01:00,323.29,EUR,17643.600,MWh
