Commodity,NominationModality,TradingModality,MarketArea,IndexName,TimeResolution,DeliveryStart,DeliveryEnd,IndexPrice,Currency,Volume,VolumeUnit
Power,Intraday,Continuous,NL,IDFULL,H,2021-11-11T00:00:00+01:00,2021-11-11T01:00:00+01:00,174.15,EUR,693.400,MWh
Power,Intraday,Continuous,NL,IDFULL,H,2021-11-11T01:00:00+01:00,2021-11-11T02:00:00+01:00,171.12,EUR,758.300,MWh
Power,Intraday,Continuous,NL,IDFULL,H,2021-11-11T02:00:00+01:00,2021-11-11T03:00:00+01:00,165.82,EUR,351.600,MWh
Power,Intraday,Continuous,NL,IDFULL,H,2021-11-11T03:00:00+01:00,2021-11-11T04:00:00+01:00,160.08,EUR,484.900,MWh
Power,Intraday,Continuous,NL,IDFULL,H,2021-11-11T04:00:00+01:00,2021-11-11T05:00:00+01:00,159.96,EUR,636.300,MWh
Power,Intraday,Continuous,NL,IDFULL,H,2021-11-11T05:00:00+01:00,2021-11-11T06:00:00+01:00,166.41,EUR,740.300,MWh
Power,Intraday,Continuous,NL,IDFULL,H,2021-11-11T06:00:00+01:00,2021-11-11T07:00:00+01:00,172.05,EUR,654.100,MWh
Power,Intraday,Continuous,NL,IDFULL,H,2021-11-11T07:00:00+01:00,2021-11-11T08:00:00+01:00,183.05,EUR,676.200,MWh
Power,Intraday,Continuous,NL,IDFULL,H,2021-11-11T08:00:00+01:00,2021-11-11T09:00:00+01:00,206.27,EUR,859.400,MWh
Power,Intraday,Continuous,NL,IDFULL,H,2021-11-11T09:00:00+01:00,2021-11-11T10:00:00+01:00,219.60,EUR,1635.700,MWh
Power,Intraday,Continuous,NL,IDFULL,H,2021-11-11T10:00:00+01:00,2021-11-11T11:00:00+01:00,210.52,EUR,1390.200,MWh
Power,Intraday,Continuous,NL,IDFULL,H,2021-11-11T11:00:00+01:00,2021-11-11T12:00:00+01:00,189.36,EUR,1215.900,MWh
Power,Intraday,Continuous,NL,IDFULL,H,2021-11-11T12:00:00+01:00,2021-11-11T13:00:00+01:00,186.97,EUR,1376.400,MWh
Power,Intraday,Continuous,NL,IDFULL,H,2021-11-11T13:00:00+01:00,2021-11-11T14:00:00+01:00,196.68,EUR,1510.700,MWh
Power,Intraday,Continuous,NL,IDFULL,H,2021-11-11T14:00:00+01:00,2021-11-11T15:00:00+01:00,189.46,EUR,1538.800,MWh
Power,Intraday,Continuous,NL,IDFULL,H,2021-11-11T15:00:00+01:00,2021-11-11T16:00:00+01:00,187.69,EUR,1267.400,MWh
Power,Intraday,Continuous,NL,IDFULL,H,2021-11-11T16:00:00+01:00,2021-11-11T17:00:00+01:00,227.06,EUR,993.500,MWh
Power,Intraday,Continuous,NL,IDFULL,H,2021-11-11T17:00:00+01:00,2021-11-11T18:00:00+01:00,225.32,EUR,2038.500,MWh
Power,Intraday,Continuous,NL,IDFULL,H,2021-11-11T18:00:00+01:00,2021-11-11T19:00:00+01:00,227.36,EUR,1577.300,MWh
Power,Intraday,Continuous,NL,IDFULL,H,2021-11-11T19:00:00+01:00,2021-11-11T20:00:00+01:00,200.18,EUR,1585.700,MWh
Power,Intraday,Continuous,NL,IDFULL,H,2021-11-11T20:00:00+01:00,2021-11-11T21:00:00+01:00,183.83,EUR,1316.400,MWh
Power,Intraday,Continuous,NL,IDFULL,H,2021-11-11T21:00:00+01:00,2021-11-11T22:00:00+01:00,169.36,EUR,1219.500,MWh
Power,Intraday,Continuous,NL,IDFULL,H,2021-11-11T22:00:00+01:00,2021-11-11T23:00:00+01:00,147.04,EUR,1311.900,MWh
Power,Intraday,Continuous,NL,IDFULL,H,2021-11-11T23:00:00+01:00,2021-11-12T00:00:00+01:00,126.68,EUR,1344.900,MWh
Power,Intraday,Continuous,NL,ID1,H,2021-11-11T00:00:00+01:00,2021-11-11T01:00:00+01:00,181.05,EUR,33.600,MWh
Power,Intraday,Continuous,NL,ID1,H,2021-11-11T01:00:00+01:00,2021-11-11T02:00:00+01:00,171.15,EUR,,MWh
Power,Intraday,Continuous,NL,ID1,H,2021-11-11T02:00:00+01:00,2021-11-11T03:00:00+01:00,164.92,EUR,,MWh
Power,Intraday,Continuous,NL,ID1,H,2021-11-11T03:00:00+01:00,2021-11-11T04:00:00+01:00,160.16,EUR,31.200,MWh
Power,Intraday,Continuous,NL,ID1,H,2021-11-11T04:00:00+01:00,2021-11-11T05:00:00+01:00,159.90,EUR,,MWh
Power,Intraday,Continuous,NL,ID1,H,2021-11-11T05:00:00+01:00,2021-11-11T06:00:00+01:00,166.69,EUR,,MWh
Power,Intraday,Continuous,NL,ID1,H,2021-11-11T06:00:00+01:00,2021-11-11T07:00:00+01:00,178.07,EUR,52.400,MWh
Power,Intraday,Continuous,NL,ID1,H,2021-11-11T07:00:00+01:00,2021-11-11T08:00:00+01:00,187.15,EUR,,MWh
Power,Intraday,Continuous,NL,ID1,H,2021-11-11T08:00:00+01:00,2021-11-11T09:00:00+01:00,202.30,EUR,63.000,MWh
Power,Intraday,Continuous,NL,ID1,H,2021-11-11T09:00:00+01:00,2021-11-11T10:00:00+01:00,168.20,EUR,49.900,MWh
Power,Intraday,Continuous,NL,ID1,H,2021-11-11T10:00:00+01:00,2021-11-11T11:00:00+01:00,230.64,EUR,308.800,MWh
Power,Intraday,Continuous,NL,ID1,H,2021-11-11T11:00:00+01:00,2021-11-11T12:00:00+01:00,201.45,EUR,204.200,MWh
Power,Intraday,Continuous,NL,ID1,H,2021-11-11T12:00:00+01:00,2021-11-11T13:00:00+01:00,217.61,EUR,149.100,MWh
Power,Intraday,Continuous,NL,ID1,H,2021-11-11T13:00:00+01:00,2021-11-11T14:00:00+01:00,244.86,EUR,184.100,MWh
Power,Intraday,Continuous,NL,ID1,H,2021-11-11T14:00:00+01:00,2021-11-11T15:00:00+01:00,226.98,EUR,16.900,MWh
Power,Intraday,Continuous,NL,ID1,H,2021-11-11T15:00:00+01:00,2021-11-11T16:00:00+01:00,191.39,EUR,47.200,MWh
Power,Intraday,Continuous,NL,ID1,H,2021-11-11T16:00:00+01:00,2021-11-11T17:00:00+01:00,300.55,EUR,37.700,MWh
Power,Intraday,Continuous,NL,ID1,H,2021-11-11T17:00:00+01:00,2021-11-11T18:00:00+01:00,200.83,EUR,189.200,MWh
Power,Intraday,Continuous,NL,ID1,H,2021-11-11T18:00:00+01:00,2021-11-11T19:00:00+01:00,213.99,EUR,11.500,MWh
Power,Intraday,Continuous,NL,ID1,H,2021-11-11T19:00:00+01:00,2021-11-11T20:00:00+01:00,207.55,EUR,71.000,MWh
Power,Intraday,Continuous,NL,ID1,H,2021-11-11T20:00:00+01:00,2021-11-11T21:00:00+01:00,198.84,EUR,,MWh
Power,Intraday,Continuous,NL,ID1,H,2021-11-11T21:00:00+01:00,2021-11-11T22:00:00+01:00,180.00,EUR,37.000,MWh
Power,Intraday,Continuous,NL,ID1,H,2021-11-11T22:00:00+01:00,2021-11-11T23:00:00+01:00,195.90,EUR,31.500,MWh
Power,Intraday,Continuous,NL,ID1,H,2021-11-11T23:00:00+01:00,2021-11-12T00:00:00+01:00,167.60,EUR,10.100,MWh
Power,Intraday,Continuous,NL,ID3,H,2021-11-11T00:00:00+01:00,2021-11-11T01:00:00+01:00,174.60,EUR,488.100,MWh
Power,Intraday,Continuous,NL,ID3,H,2021-11-11T01:00:00+01:00,2021-11-11T02:00:00+01:00,171.15,EUR,574.400,MWh
Power,Intraday,Continuous,NL,ID3,H,2021-11-11T02:00:00+01:00,2021-11-11T03:00:00+01:00,164.92,EUR,261.200,MWh
Power,Intraday,Continuous,NL,ID3,H,2021-11-11T03:00:00+01:00,2021-11-11T04:00:00+01:00,159.65,EUR,312.800,MWh
Power,Intraday,Continuous,NL,ID3,H,2021-11-11T04:00:00+01:00,2021-11-11T05:00:00+01:00,159.90,EUR,436.900,MWh
Power,Intraday,Continuous,NL,ID3,H,2021-11-11T05:00:00+01:00,2021-11-11T06:00:00+01:00,166.69,EUR,534.300,MWh
Power,Intraday,Continuous,NL,ID3,H,2021-11-11T06:00:00+01:00,2021-11-11T07:00:00+01:00,174.62,EUR,493.800,MWh
Power,Intraday,Continuous,NL,ID3,H,2021-11-11T07:00:00+01:00,2021-11-11T08:00:00+01:00,187.15,EUR,538.200,MWh
Power,Intraday,Continuous,NL,ID3,H,2021-11-11T08:00:00+01:00,2021-11-11T09:00:00+01:00,203.29,EUR,595.200,MWh
Power,Intraday,Continuous,NL,ID3,H,2021-11-11T09:00:00+01:00,2021-11-11T10:00:00+01:00,219.69,EUR,1377.300,MWh
Power,Intraday,Continuous,NL,ID3,H,2021-11-11T10:00:00+01:00,2021-11-11T11:00:00+01:00,211.91,EUR,1302.600,MWh
Power,Intraday,Continuous,NL,ID3,H,2021-11-11T11:00:00+01:00,2021-11-11T12:00:00+01:00,191.61,EUR,1033.300,MWh
Power,Intraday,Continuous,NL,ID3,H,2021-11-11T12:00:00+01:00,2021-11-11T13:00:00+01:00,195.29,EUR,1047.900,MWh
Power,Intraday,Continuous,NL,ID3,H,2021-11-11T13:00:00+01:00,2021-11-11T14:00:00+01:00,207.89,EUR,1072.500,MWh
Power,Intraday,Continuous,NL,ID3,H,2021-11-11T14:00:00+01:00,2021-11-11T15:00:00+01:00,195.61,EUR,1140.700,MWh
Power,Intraday,Continuous,NL,ID3,H,2021-11-11T15:00:00+01:00,2021-11-11T16:00:00+01:00,196.53,EUR,858.300,MWh
Power,Intraday,Continuous,NL,ID3,H,2021-11-11T16:00:00+01:00,2021-11-11T17:00:00+01:00,236.55,EUR,633.500,MWh
Power,Intraday,Continuous,NL,ID3,H,2021-11-11T17:00:00+01:00,2021-11-11T18:00:00+01:00,209.44,EUR,1229.900,MWh
Power,Intraday,Continuous,NL,ID3,H,2021-11-11T18:00:00+01:00,2021-11-11T19:00:00+01:00,201.45,EUR,918.900,MWh
Power,Intraday,Continuous,NL,ID3,H,2021-11-11T19:00:00+01:00,2021-11-11T20:00:00+01:00,205.60,EUR,559.100,MWh
Power,Intraday,Continuous,NL,ID3,H,2021-11-11T20:00:00+01:00,2021-11-11T21:00:00+01:00,198.84,EUR,353.200,MWh
Power,Intraday,Continuous,NL,ID3,H,2021-11-11T21:00:00+01:00,2021-11-11T22:00:00+01:00,175.17,EUR,167.000,MWh
Power,Intraday,Continuous,NL,ID3,H,2021-11-11T22:00:00+01:00,2021-11-11T23:00:00+01:00,168.60,EUR,368.300,MWh
Power,Intraday,Continuous,NL,ID3,H,2021-11-11T23:00:00+01:00,2021-11-12T00:00:00+01:00,137.17,EUR,589.300,MWh
Power,Intraday,Continuous,NL,IDFULL,HH,2021-11-11T00:00:00+01:00,2021-11-11T00:30:00+01:00,174.15,EUR,,MWh
Power,Intraday,Continuous,NL,IDFULL,HH,2021-11-11T00:30:00+01:00,2021-11-11T01:00:00+01:00,174.15,EUR,,MWh
Power,Intraday,Continuous,NL,IDFULL,HH,2021-11-11T01:00:00+01:00,2021-11-11T01:30:00+01:00,171.12,EUR,,MWh
Power,Intraday,Continuous,NL,IDFULL,HH,2021-11-11T01:30:00+01:00,2021-11-11T02:00:00+01:00,171.12,EUR,,MWh
Power,Intraday,Continuous,NL,IDFULL,HH,2021-11-11T02:00:00+01:00,2021-11-11T02:30:00+01:00,165.82,EUR,,MWh
Power,Intraday,Continuous,NL,IDFULL,HH,2021-11-11T02:30:00+01:00,2021-11-11T03:00:00+01:00,165.82,EUR,,MWh
Power,Intraday,Continuous,NL,IDFULL,HH,2021-11-11T03:00:00+01:00,2021-11-11T03:30:00+01:00,160.08,EUR,,MWh
Power,Intraday,Continuous,NL,IDFULL,HH,2021-11-11T03:30:00+01:00,2021-11-11T04:00:00+01:00,160.08,EUR,,MWh
Power,Intraday,Continuous,NL,IDFULL,HH,2021-11-11T04:00:00+01:00,2021-11-11T04:30:00+01:00,159.96,EUR,,MWh
Power,Intraday,Continuous,NL,IDFULL,HH,2021-11-11T04:30:00+01:00,2021-11-11T05:00:00+01:00,159.96,EUR,,MWh
Power,Intraday,Continuous,NL,IDFULL,HH,2021-11-11T05:00:00+01:00,2021-11-11T05:30:00+01:00,166.41,EUR,,MWh
Power,Intraday,Continuous,NL,IDFULL,HH,2021-11-11T05:30:00+01:00,2021-11-11T06:00:00+01:00,166.41,EUR,,MWh
Power,Intraday,Continuous,NL,IDFULL,HH,2021-11-11T06:00:00+01:00,2021-11-11T06:30:00+01:00,172.05,EUR,,MWh
Power,Intraday,Continuous,NL,IDFULL,HH,2021-11-11T06:30:00+01:00,2021-11-11T07:00:00+01:00,172.05,EUR,,MWh
Power,Intraday,Continuous,NL,IDFULL,HH,2021-11-11T07:00:00+01:00,2021-11-11T07:30:00+01:00,183.05,EUR,,MWh
Power,Intraday,Continuous,NL,IDFULL,HH,2021-11-11T07:30:00+01:00,2021-11-11T08:00:00+01:00,183.05,EUR,,MWh
Power,Intraday,Continuous,NL,IDFULL,HH,2021-11-11T08:00:00+01:00,2021-11-11T08:30:00+01:00,206.27,EUR,,MWh
Power,Intraday,Continuous,NL,IDFULL,HH,2021-11-11T08:30:00+01:00,2021-11-11T09:00:00+01:00,206.27,EUR,,MWh
Power,Intraday,Continuous,NL,IDFULL,HH,2021-11-11T09:00:00+01:00,2021-11-11T09:30:00+01:00,219.60,EUR,,MWh
Power,Intraday,Continuous,NL,IDFULL,HH,2021-11-11T09:30:00+01:00,2021-11-11T10:00:00+01:00,219.60,EUR,,MWh
Power,Intraday,Continuous,NL,IDFULL,HH,2021-11-11T10:00:00+01:00,2021-11-11T10:30:00+01:00,210.52,EUR,,MWh
Power,Intraday,Continuous,NL,IDFULL,HH,2021-11-11T10:30:00+01:00,2021-11-11T11:00:00+01:00,210.52,EUR,,MWh
Power,Intraday,Continuous,NL,IDFULL,HH,2021-11-11T11:00:00+01:00,2021-11-11T11:30:00+01:00,189.36,EUR,,MWh
Power,Intraday,Continuous,NL,IDFULL,HH,2021-11-11T11:30:00+01:00,2021-11-11T12:00:00+01:00,189.36,EUR,,MWh
Power,Intraday,Continuous,NL,IDFULL,HH,2021-11-11T12:00:00+01:00,2021-11-11T12:30:00+01:00,186.97,EUR,,MWh
Power,Intraday,Continuous,NL,IDFULL,HH,2021-11-11T12:30:00+01:00,2021-11-11T13:00:00+01:00,186.97,EUR,,MWh
Power,Intraday,Continuous,NL,IDFULL,HH,2021-11-11T13:00:00+01:00,2021-11-11T13:30:00+01:00,196.68,EUR,,MWh
Power,Intraday,Continuous,NL,IDFULL,HH,2021-11-11T13:30:00+01:00,2021-11-11T14:00:00+01:00,196.68,EUR,,MWh
Power,Intraday,Continuous,NL,IDFULL,HH,2021-11-11T14:00:00+01:00,2021-11-11T14:30:00+01:00,189.46,EUR,,MWh
Power,Intraday,Continuous,NL,IDFULL,HH,2021-11-11T14:30:00+01:00,2021-11-11T15:00:00+01:00,189.46,EUR,,MWh
Power,Intraday,Continuous,NL,IDFULL,HH,2021-11-11T15:00:00+01:00,2021-11-11T15:30:00+01:00,187.69,EUR,,MWh
Power,Intraday,Continuous,NL,IDFULL,HH,2021-11-11T15:30:00+01:00,2021-11-11T16:00:00+01:00,187.69,EUR,,MWh
Power,Intraday,Continuous,NL,IDFULL,HH,2021-11-11T16:00:00+01:00,2021-11-11T16:30:00+01:00,227.06,EUR,,MWh
Power,Intraday,Continuous,NL,IDFULL,HH,2021-11-11T16:30:00+01:00,2021-11-11T17:00:00+01:00,227.06,EUR,,MWh
Power,Intraday,Continuous,NL,IDFULL,HH,2021-11-11T17:00:00+01:00,2021-11-11T17:30:00+01:00,225.32,EUR,,MWh
Power,Intraday,Continuous,NL,IDFULL,HH,2021-11-11T17:30:00+01:00,2021-11-11T18:00:00+01:00,225.32,EUR,,MWh
Power,Intraday,Continuous,NL,IDFULL,HH,2021-11-11T18:00:00+01:00,2021-11-11T18:30:00+01:00,227.36,EUR,,MWh
Power,Intraday,Continuous,NL,IDFULL,HH,2021-11-11T18:30:00+01:00,2021-11-11T19:00:00+01:00,227.36,EUR,,MWh
Power,Intraday,Continuous,NL,IDFULL,HH,2021-11-11T19:00:00+01:00,2021-11-11T19:30:00+01:00,200.18,EUR,,MWh
Power,Intraday,Continuous,NL,IDFULL,HH,2021-11-11T19:30:00+01:00,2021-11-11T20:00:00+01:00,200.18,EUR,,MWh
Power,Intraday,Continuous,NL,IDFULL,HH,2021-11-11T20:00:00+01:00,2021-11-11T20:30:00+01:00,183.83,EUR,,MWh
Power,Intraday,Continuous,NL,IDFULL,HH,2021-11-11T20:30:00+01:00,2021-11-11T21:00:00+01:00,183.83,EUR,,MWh
Power,Intraday,Continuous,NL,IDFULL,HH,2021-11-11T21:00:00+01:00,2021-11-11T21:30:00+01:00,169.36,EUR,,MWh
Power,Intraday,Continuous,NL,IDFULL,HH,2021-11-11T21:30:00+01:00,2021-11-11T22:00:00+01:00,169.36,EUR,,MWh
Power,Intraday,Continuous,NL,IDFULL,HH,2021-11-11T22:00:00+01:00,2021-11-11T22:30:00+01:00,147.04,EUR,,MWh
Power,Intraday,Continuous,NL,IDFULL,HH,2021-11-11T22:30:00+01:00,2021-11-11T23:00:00+01:00,147.04,EUR,,MWh
Power,Intraday,Continuous,NL,IDFULL,HH,2021-11-11T23:00:00+01:00,2021-11-11T23:30:00+01:00,126.68,EUR,,MWh
Power,Intraday,Continuous,NL,IDFULL,HH,2021-11-11T23:30:00+01:00,2021-11-12T00:00:00+01:00,126.68,EUR,,MWh
Power,Intraday,Continuous,NL,ID1,HH,2021-11-11T00:00:00+01:00,2021-11-11T00:30:00+01:00,174.15,EUR,,MWh
Power,Intraday,Continuous,NL,ID1,HH,2021-11-11T00:30:00+01:00,2021-11-11T01:00:00+01:00,174.15,EUR,,MWh
Power,Intraday,Continuous,NL,ID1,HH,2021-11-11T01:00:00+01:00,2021-11-11T01:30:00+01:00,171.12,EUR,,MWh
Power,Intraday,Continuous,NL,ID1,HH,2021-11-11T01:30:00+01:00,2021-11-11T02:00:00+01:00,171.12,EUR,,MWh
Power,Intraday,Continuous,NL,ID1,HH,2021-11-11T02:00:00+01:00,2021-11-11T02:30:00+01:00,165.82,EUR,,MWh
Power,Intraday,Continuous,NL,ID1,HH,2021-11-11T02:30:00+01:00,2021-11-11T03:00:00+01:00,165.82,EUR,,MWh
Power,Intraday,Continuous,NL,ID1,HH,2021-11-11T03:00:00+01:00,2021-11-11T03:30:00+01:00,160.08,EUR,,MWh
Power,Intraday,Continuous,NL,ID1,HH,2021-11-11T03:30:00+01:00,2021-11-11T04:00:00+01:00,160.08,EUR,,MWh
Power,Intraday,Continuous,NL,ID1,HH,2021-11-11T04:00:00+01:00,2021-11-11T04:30:00+01:00,159.96,EUR,,MWh
Power,Intraday,Continuous,NL,ID1,HH,2021-11-11T04:30:00+01:00,2021-11-11T05:00:00+01:00,159.96,EUR,,MWh
Power,Intraday,Continuous,NL,ID1,HH,2021-11-11T05:00:00+01:00,2021-11-11T05:30:00+01:00,166.41,EUR,,MWh
Power,Intraday,Continuous,NL,ID1,HH,2021-11-11T05:30:00+01:00,2021-11-11T06:00:00+01:00,166.41,EUR,,MWh
Power,Intraday,Continuous,NL,ID1,HH,2021-11-11T06:00:00+01:00,2021-11-11T06:30:00+01:00,172.05,EUR,,MWh
Power,Intraday,Continuous,NL,ID1,HH,2021-11-11T06:30:00+01:00,2021-11-11T07:00:00+01:00,172.05,EUR,,MWh
Power,Intraday,Continuous,NL,ID1,HH,2021-11-11T07:00:00+01:00,2021-11-11T07:30:00+01:00,183.05,EUR,,MWh
Power,Intraday,Continuous,NL,ID1,HH,2021-11-11T07:30:00+01:00,2021-11-11T08:00:00+01:00,183.05,EUR,,MWh
Power,Intraday,Continuous,NL,ID1,HH,2021-11-11T08:00:00+01:00,2021-11-11T08:30:00+01:00,206.27,EUR,,MWh
Power,Intraday,Continuous,NL,ID1,HH,2021-11-11T08:30:00+01:00,2021-11-11T09:00:00+01:00,206.27,EUR,,MWh
Power,Intraday,Continuous,NL,ID1,HH,2021-11-11T09:00:00+01:00,2021-11-11T09:30:00+01:00,219.60,EUR,,MWh
Power,Intraday,Continuous,NL,ID1,HH,2021-11-11T09:30:00+01:00,2021-11-11T10:00:00+01:00,219.60,EUR,,MWh
Power,Intraday,Continuous,NL,ID1,HH,2021-11-11T10:00:00+01:00,2021-11-11T10:30:00+01:00,210.52,EUR,,MWh
Power,Intraday,Continuous,NL,ID1,HH,2021-11-11T10:30:00+01:00,2021-11-11T11:00:00+01:00,210.52,EUR,,MWh
Power,Intraday,Continuous,NL,ID1,HH,2021-11-11T11:00:00+01:00,2021-11-11T11:30:00+01:00,189.36,EUR,,MWh
Power,Intraday,Continuous,NL,ID1,HH,2021-11-11T11:30:00+01:00,2021-11-11T12:00:00+01:00,189.36,EUR,,MWh
Power,Intraday,Continuous,NL,ID1,HH,2021-11-11T12:00:00+01:00,2021-11-11T12:30:00+01:00,186.97,EUR,,MWh
Power,Intraday,Continuous,NL,ID1,HH,2021-11-11T12:30:00+01:00,2021-11-11T13:00:00+01:00,186.97,EUR,,MWh
Power,Intraday,Continuous,NL,ID1,HH,2021-11-11T13:00:00+01:00,2021-11-11T13:30:00+01:00,196.68,EUR,,MWh
Power,Intraday,Continuous,NL,ID1,HH,2021-11-11T13:30:00+01:00,2021-11-11T14:00:00+01:00,196.68,EUR,,MWh
Power,Intraday,Continuous,NL,ID1,HH,2021-11-11T14:00:00+01:00,2021-11-11T14:30:00+01:00,189.46,EUR,,MWh
Power,Intraday,Continuous,NL,ID1,HH,2021-11-11T14:30:00+01:00,2021-11-11T15:00:00+01:00,189.46,EUR,,MWh
Power,Intraday,Continuous,NL,ID1,HH,2021-11-11T15:00:00+01:00,2021-11-11T15:30:00+01:00,187.69,EUR,,MWh
Power,Intraday,Continuous,NL,ID1,HH,2021-11-11T15:30:00+01:00,2021-11-11T16:00:00+01:00,187.69,EUR,,MWh
Power,Intraday,Continuous,NL,ID1,HH,2021-11-11T16:00:00+01:00,2021-11-11T16:30:00+01:00,227.06,EUR,,MWh
Power,Intraday,Continuous,NL,ID1,HH,2021-11-11T16:30:00+01:00,2021-11-11T17:00:00+01:00,227.06,EUR,,MWh
Power,Intraday,Continuous,NL,ID1,HH,2021-11-11T17:00:00+01:00,2021-11-11T17:30:00+01:00,225.32,EUR,,MWh
Power,Intraday,Continuous,NL,ID1,HH,2021-11-11T17:30:00+01:00,2021-11-11T18:00:00+01:00,225.32,EUR,,MWh
Power,Intraday,Continuous,NL,ID1,HH,2021-11-11T18:00:00+01:00,2021-11-11T18:30:00+01:00,227.36,EUR,,MWh
Power,Intraday,Continuous,NL,ID1,HH,2021-11-11T18:30:00+01:00,2021-11-11T19:00:00+01:00,227.36,EUR,,MWh
Power,Intraday,Continuous,NL,ID1,HH,2021-11-11T19:00:00+01:00,2021-11-11T19:30:00+01:00,200.18,EUR,,MWh
Power,Intraday,Continuous,NL,ID1,HH,2021-11-11T19:30:00+01:00,2021-11-11T20:00:00+01:00,200.18,EUR,,MWh
Power,Intraday,Continuous,NL,ID1,HH,2021-11-11T20:00:00+01:00,2021-11-11T20:30:00+01:00,183.83,EUR,,MWh
Power,Intraday,Continuous,NL,ID1,HH,2021-11-11T20:30:00+01:00,2021-11-11T21:00:00+01:00,183.83,EUR,,MWh
Power,Intraday,Continuous,NL,ID1,HH,2021-11-11T21:00:00+01:00,2021-11-11T21:30:00+01:00,169.36,EUR,,MWh
Power,Intraday,Continuous,NL,ID1,HH,2021-11-11T21:30:00+01:00,2021-11-11T22:00:00+01:00,169.36,EUR,,MWh
Power,Intraday,Continuous,NL,ID1,HH,2021-11-11T22:00:00+01:00,2021-11-11T22:30:00+01:00,147.04,EUR,,MWh
Power,Intraday,Continuous,NL,ID1,HH,2021-11-11T22:30:00+01:00,2021-11-11T23:00:00+01:00,147.04,EUR,,MWh
Power,Intraday,Continuous,NL,ID1,HH,2021-11-11T23:00:00+01:00,2021-11-11T23:30:00+01:00,126.68,EUR,,MWh
Power,Intraday,Continuous,NL,ID1,HH,2021-11-11T23:30:00+01:00,2021-11-12T00:00:00+01:00,126.68,EUR,,MWh
Power,Intraday,Continuous,NL,ID3,HH,2021-11-11T00:00:00+01:00,2021-11-11T00:30:00+01:00,174.15,EUR,,MWh
Power,Intraday,Continuous,NL,ID3,HH,2021-11-11T00:30:00+01:00,2021-11-11T01:00:00+01:00,174.15,EUR,,MWh
Power,Intraday,Continuous,NL,ID3,HH,2021-11-11T01:00:00+01:00,2021-11-11T01:30:00+01:00,171.12,EUR,,MWh
Power,Intraday,Continuous,NL,ID3,HH,2021-11-11T01:30:00+01:00,2021-11-11T02:00:00+01:00,171.12,EUR,,MWh
Power,Intraday,Continuous,NL,ID3,HH,2021-11-11T02:00:00+01:00,2021-11-11T02:30:00+01:00,165.82,EUR,,MWh
Power,Intraday,Continuous,NL,ID3,HH,2021-11-11T02:30:00+01:00,2021-11-11T03:00:00+01:00,165.82,EUR,,MWh
Power,Intraday,Continuous,NL,ID3,HH,2021-11-11T03:00:00+01:00,2021-11-11T03:30:00+01:00,160.08,EUR,,MWh
Power,Intraday,Continuous,NL,ID3,HH,2021-11-11T03:30:00+01:00,2021-11-11T04:00:00+01:00,160.08,EUR,,MWh
Power,Intraday,Continuous,NL,ID3,HH,2021-11-11T04:00:00+01:00,2021-11-11T04:30:00+01:00,159.96,EUR,,MWh
Power,Intraday,Continuous,NL,ID3,HH,2021-11-11T04:30:00+01:00,2021-11-11T05:00:00+01:00,159.96,EUR,,MWh
Power,Intraday,Continuous,NL,ID3,HH,2021-11-11T05:00:00+01:00,2021-11-11T05:30:00+01:00,166.41,EUR,,MWh
Power,Intraday,Continuous,NL,ID3,HH,2021-11-11T05:30:00+01:00,2021-11-11T06:00:00+01:00,166.41,EUR,,MWh
Power,Intraday,Continuous,NL,ID3,HH,2021-11-11T06:00:00+01:00,2021-11-11T06:30:00+01:00,172.05,EUR,,MWh
Power,Intraday,Continuous,NL,ID3,HH,2021-11-11T06:30:00+01:00,2021-11-11T07:00:00+01:00,172.05,EUR,,MWh
Power,Intraday,Continuous,NL,ID3,HH,2021-11-11T07:00:00+01:00,2021-11-11T07:30:00+01:00,183.05,EUR,,MWh
Power,Intraday,Continuous,NL,ID3,HH,2021-11-11T07:30:00+01:00,2021-11-11T08:00:00+01:00,183.05,EUR,,MWh
Power,Intraday,Continuous,NL,ID3,HH,2021-11-11T08:00:00+01:00,2021-11-11T08:30:00+01:00,206.27,EUR,,MWh
Power,Intraday,Continuous,NL,ID3,HH,2021-11-11T08:30:00+01:00,2021-11-11T09:00:00+01:00,206.27,EUR,,MWh
Power,Intraday,Continuous,NL,ID3,HH,2021-11-11T09:00:00+01:00,2021-11-11T09:30:00+01:00,219.60,EUR,,MWh
Power,Intraday,Continuous,NL,ID3,HH,2021-11-11T09:30:00+01:00,2021-11-11T10:00:00+01:00,219.60,EUR,,MWh
Power,Intraday,Continuous,NL,ID3,HH,2021-11-11T10:00:00+01:00,2021-11-11T10:30:00+01:00,210.52,EUR,,MWh
Power,Intraday,Continuous,NL,ID3,HH,2021-11-11T10:30:00+01:00,2021-11-11T11:00:00+01:00,210.52,EUR,,MWh
Power,Intraday,Continuous,NL,ID3,HH,2021-11-11T11:00:00+01:00,2021-11-11T11:30:00+01:00,189.36,EUR,,MWh
Power,Intraday,Continuous,NL,ID3,HH,2021-11-11T11:30:00+01:00,2021-11-11T12:00:00+01:00,189.36,EUR,,MWh
Power,Intraday,Continuous,NL,ID3,HH,2021-11-11T12:00:00+01:00,2021-11-11T12:30:00+01:00,186.97,EUR,,MWh
Power,Intraday,Continuous,NL,ID3,HH,2021-11-11T12:30:00+01:00,2021-11-11T13:00:00+01:00,186.97,EUR,,MWh
Power,Intraday,Continuous,NL,ID3,HH,2021-11-11T13:00:00+01:00,2021-11-11T13:30:00+01:00,196.68,EUR,,MWh
Power,Intraday,Continuous,NL,ID3,HH,2021-11-11T13:30:00+01:00,2021-11-11T14:00:00+01:00,196.68,EUR,,MWh
Power,Intraday,Continuous,NL,ID3,HH,2021-11-11T14:00:00+01:00,2021-11-11T14:30:00+01:00,189.46,EUR,,MWh
Power,Intraday,Continuous,NL,ID3,HH,2021-11-11T14:30:00+01:00,2021-11-11T15:00:00+01:00,189.46,EUR,,MWh
Power,Intraday,Continuous,NL,ID3,HH,2021-11-11T15:00:00+01:00,2021-11-11T15:30:00+01:00,187.69,EUR,,MWh
Power,Intraday,Continuous,NL,ID3,HH,2021-11-11T15:30:00+01:00,2021-11-11T16:00:00+01:00,187.69,EUR,,MWh
Power,Intraday,Continuous,NL,ID3,HH,2021-11-11T16:00:00+01:00,2021-11-11T16:30:00+01:00,227.06,EUR,,MWh
Power,Intraday,Continuous,NL,ID3,HH,2021-11-11T16:30:00+01:00,2021-11-11T17:00:00+01:00,227.06,EUR,,MWh
Power,Intraday,Continuous,NL,ID3,HH,2021-11-11T17:00:00+01:00,2021-11-11T17:30:00+01:00,225.32,EUR,,MWh
Power,Intraday,Continuous,NL,ID3,HH,2021-11-11T17:30:00+01:00,2021-11-11T18:00:00+01:00,225.32,EUR,,MWh
Power,Intraday,Continuous,NL,ID3,HH,2021-11-11T18:00:00+01:00,2021-11-11T18:30:00+01:00,227.36,EUR,,MWh
Power,Intraday,Continuous,NL,ID3,HH,2021-11-11T18:30:00+01:00,2021-11-11T19:00:00+01:00,227.36,EUR,,MWh
Power,Intraday,Continuous,NL,ID3,HH,2021-11-11T19:00:00+01:00,2021-11-11T19:30:00+01:00,200.18,EUR,,MWh
Power,Intraday,Continuous,NL,ID3,HH,2021-11-11T19:30:00+01:00,2021-11-11T20:00:00+01:00,200.18,EUR,,MWh
Power,Intraday,Continuous,NL,ID3,HH,2021-11-11T20:00:00+01:00,2021-11-11T20:30:00+01:00,183.83,EUR,,MWh
Power,Intraday,Continuous,NL,ID3,HH,2021-11-11T20:30:00+01:00,2021-11-11T21:00:00+01:00,183.83,EUR,,MWh
Power,Intraday,Continuous,NL,ID3,HH,2021-11-11T21:00:00+01:00,2021-11-11T21:30:00+01:00,169.36,EUR,,MWh
Power,Intraday,Continuous,NL,ID3,HH,2021-11-11T21:30:00+01:00,2021-11-11T22:00:00+01:00,169.36,EUR,,MWh
Power,Intraday,Continuous,NL,ID3,HH,2021-11-11T22:00:00+01:00,2021-11-11T22:30:00+01:00,147.04,EUR,,MWh
Power,Intraday,Continuous,NL,ID3,HH,2021-11-11T22:30:00+01:00,2021-11-11T23:00:00+01:00,147.04,EUR,,MWh
Power,Intraday,Continuous,NL,ID3,HH,2021-11-11T23:00:00+01:00,2021-11-11T23:30:00+01:00,126.68,EUR,,MWh
Power,Intraday,Continuous,NL,ID3,HH,2021-11-11T23:30:00+01:00,2021-11-12T00:00:00+01:00,126.68,EUR,,MWh
Power,Intraday,Continuous,NL,IDFULL,QH,2021-11-11T00:00:00+01:00,2021-11-11T00:15:00+01:00,192.60,EUR,38.450,MWh
Power,Intraday,Continuous,NL,IDFULL,QH,2021-11-11T00:15:00+01:00,2021-11-11T00:30:00+01:00,180.94,EUR,16.600,MWh
Power,Intraday,Continuous,NL,IDFULL,QH,2021-11-11T00:30:00+01:00,2021-11-11T00:45:00+01:00,162.73,EUR,15.480,MWh
Power,Intraday,Continuous,NL,IDFULL,QH,2021-11-11T00:45:00+01:00,2021-11-11T01:00:00+01:00,164.54,EUR,22.100,MWh
Power,Intraday,Continuous,NL,IDFULL,QH,2021-11-11T01:00:00+01:00,2021-11-11T01:15:00+01:00,201.86,EUR,17.550,MWh
Power,Intraday,Continuous,NL,IDFULL,QH,2021-11-11T01:15:00+01:00,2021-11-11T01:30:00+01:00,166.26,EUR,18.500,MWh
Power,Intraday,Continuous,NL,IDFULL,QH,2021-11-11T01:30:00+01:00,2021-11-11T01:45:00+01:00,162.12,EUR,13.050,MWh
Power,Intraday,Continuous,NL,IDFULL,QH,2021-11-11T01:45:00+01:00,2021-11-11T02:00:00+01:00,144.31,EUR,24.830,MWh
Power,Intraday,Continuous,NL,IDFULL,QH,2021-11-11T02:00:00+01:00,2021-11-11T02:15:00+01:00,185.30,EUR,27.700,MWh
Power,Intraday,Continuous,NL,IDFULL,QH,2021-11-11T02:15:00+01:00,2021-11-11T02:30:00+01:00,166.65,EUR,14.050,MWh
Power,Intraday,Continuous,NL,IDFULL,QH,2021-11-11T02:30:00+01:00,2021-11-11T02:45:00+01:00,162.27,EUR,13.580,MWh
Power,Intraday,Continuous,NL,IDFULL,QH,2021-11-11T02:45:00+01:00,2021-11-11T03:00:00+01:00,155.38,EUR,28.480,MWh
Power,Intraday,Continuous,NL,IDFULL,QH,2021-11-11T03:00:00+01:00,2021-11-11T03:15:00+01:00,158.43,EUR,5.980,MWh
Power,Intraday,Continuous,NL,IDFULL,QH,2021-11-11T03:15:00+01:00,2021-11-11T03:30:00+01:00,156.73,EUR,4.150,MWh
Power,Intraday,Continuous,NL,IDFULL,QH,2021-11-11T03:30:00+01:00,2021-11-11T03:45:00+01:00,161.40,EUR,4.600,MWh
Power,Intraday,Continuous,NL,IDFULL,QH,2021-11-11T03:45:00+01:00,2021-11-11T04:00:00+01:00,160.72,EUR,3.550,MWh
Power,Intraday,Continuous,NL,IDFULL,QH,2021-11-11T04:00:00+01:00,2021-11-11T04:15:00+01:00,139.58,EUR,20.750,MWh
Power,Intraday,Continuous,NL,IDFULL,QH,2021-11-11T04:15:00+01:00,2021-11-11T04:30:00+01:00,155.34,EUR,9.480,MWh
Power,Intraday,Continuous,NL,IDFULL,QH,2021-11-11T04:30:00+01:00,2021-11-11T04:45:00+01:00,161.50,EUR,7.580,MWh
Power,Intraday,Continuous,NL,IDFULL,QH,2021-11-11T04:45:00+01:00,2021-11-11T05:00:00+01:00,182.44,EUR,11.250,MWh
Power,Intraday,Continuous,NL,IDFULL,QH,2021-11-11T05:00:00+01:00,2021-11-11T05:15:00+01:00,135.83,EUR,37.600,MWh
Power,Intraday,Continuous,NL,IDFULL,QH,2021-11-11T05:15:00+01:00,2021-11-11T05:30:00+01:00,144.98,EUR,36.280,MWh
Power,Intraday,Continuous,NL,IDFULL,QH,2021-11-11T05:30:00+01:00,2021-11-11T05:45:00+01:00,171.23,EUR,14.850,MWh
Power,Intraday,Continuous,NL,IDFULL,QH,2021-11-11T05:45:00+01:00,2021-11-11T06:00:00+01:00,202.51,EUR,32.500,MWh
Power,Intraday,Continuous,NL,IDFULL,QH,2021-11-11T06:00:00+01:00,2021-11-11T06:15:00+01:00,106.42,EUR,28.150,MWh
Power,Intraday,Continuous,NL,IDFULL,QH,2021-11-11T06:15:00+01:00,2021-11-11T06:30:00+01:00,172.29,EUR,10.580,MWh
Power,Intraday,Continuous,NL,IDFULL,QH,2021-11-11T06:30:00+01:00,2021-11-11T06:45:00+01:00,106.14,EUR,11.000,MWh
Power,Intraday,Continuous,NL,IDFULL,QH,2021-11-11T06:45:00+01:00,2021-11-11T07:00:00+01:00,303.35,EUR,,MWh
Power,Intraday,Continuous,NL,IDFULL,QH,2021-11-11T07:00:00+01:00,2021-11-11T07:15:00+01:00,107.30,EUR,6.680,MWh
Power,Intraday,Continuous,NL,IDFULL,QH,2021-11-11T07:15:00+01:00,2021-11-11T07:30:00+01:00,85.03,EUR,8.150,MWh
Power,Intraday,Continuous,NL,IDFULL,QH,2021-11-11T07:30:00+01:00,2021-11-11T07:45:00+01:00,269.94,EUR,,MWh
Power,Intraday,Continuous,NL,IDFULL,QH,2021-11-11T07:45:00+01:00,2021-11-11T08:00:00+01:00,269.94,EUR,,MWh
Power,Intraday,Continuous,NL,IDFULL,QH,2021-11-11T08:00:00+01:00,2021-11-11T08:15:00+01:00,200.57,EUR,8.250,MWh
Power,Intraday,Continuous,NL,IDFULL,QH,2021-11-11T08:15:00+01:00,2021-11-11T08:30:00+01:00,230.57,EUR,17.000,MWh
Power,Intraday,Continuous,NL,IDFULL,QH,2021-11-11T08:30:00+01:00,2021-11-11T08:45:00+01:00,211.76,EUR,25.900,MWh
Power,Intraday,Continuous,NL,IDFULL,QH,2021-11-11T08:45:00+01:00,2021-11-11T09:00:00+01:00,194.89,EUR,48.250,MWh
Power,Intraday,Continuous,NL,IDFULL,QH,2021-11-11T09:00:00+01:00,2021-11-11T09:15:00+01:00,239.91,EUR,93.280,MWh
Power,Intraday,Continuous,NL,IDFULL,QH,2021-11-11T09:15:00+01:00,2021-11-11T09:30:00+01:00,225.18,EUR,54.330,MWh
Power,Intraday,Continuous,NL,IDFULL,QH,2021-11-11T09:30:00+01:00,2021-11-11T09:45:00+01:00,219.81,EUR,72.170,MWh
Power,Intraday,Continuous,NL,IDFULL,QH,2021-11-11T09:45:00+01:00,2021-11-11T10:00:00+01:00,197.76,EUR,77.900,MWh
Power,Intraday,Continuous,NL,IDFULL,QH,2021-11-11T10:00:00+01:00,2021-11-11T10:15:00+01:00,239.90,EUR,61.930,MWh
Power,Intraday,Continuous,NL,IDFULL,QH,2021-11-11T10:15:00+01:00,2021-11-11T10:30:00+01:00,222.11,EUR,39.200,MWh
Power,Intraday,Continuous,NL,IDFULL,QH,2021-11-11T10:30:00+01:00,2021-11-11T10:45:00+01:00,206.83,EUR,43.950,MWh
Power,Intraday,Continuous,NL,IDFULL,QH,2021-11-11T10:45:00+01:00,2021-11-11T11:00:00+01:00,188.35,EUR,46.700,MWh
Power,Intraday,Continuous,NL,IDFULL,QH,2021-11-11T11:00:00+01:00,2021-11-11T11:15:00+01:00,220.35,EUR,44.550,MWh
Power,Intraday,Continuous,NL,IDFULL,QH,2021-11-11T11:15:00+01:00,2021-11-11T11:30:00+01:00,211.59,EUR,12.180,MWh
Power,Intraday,Continuous,NL,IDFULL,QH,2021-11-11T11:30:00+01:00,2021-11-11T11:45:00+01:00,201.44,EUR,22.300,MWh
Power,Intraday,Continuous,NL,IDFULL,QH,2021-11-11T11:45:00+01:00,2021-11-11T12:00:00+01:00,171.04,EUR,17.950,MWh
Power,Intraday,Continuous,NL,IDFULL,QH,2021-11-11T12:00:00+01:00,2021-11-11T12:15:00+01:00,181.75,EUR,22.550,MWh
Power,Intraday,Continuous,NL,IDFULL,QH,2021-11-11T12:15:00+01:00,2021-11-11T12:30:00+01:00,174.56,EUR,22.500,MWh
Power,Intraday,Continuous,NL,IDFULL,QH,2021-11-11T12:30:00+01:00,2021-11-11T12:45:00+01:00,185.28,EUR,21.280,MWh
Power,Intraday,Continuous,NL,IDFULL,QH,2021-11-11T12:45:00+01:00,2021-11-11T13:00:00+01:00,195.32,EUR,26.700,MWh
Power,Intraday,Continuous,NL,IDFULL,QH,2021-11-11T13:00:00+01:00,2021-11-11T13:15:00+01:00,188.94,EUR,30.630,MWh
Power,Intraday,Continuous,NL,IDFULL,QH,2021-11-11T13:15:00+01:00,2021-11-11T13:30:00+01:00,200.35,EUR,30.530,MWh
Power,Intraday,Continuous,NL,IDFULL,QH,2021-11-11T13:30:00+01:00,2021-11-11T13:45:00+01:00,211.39,EUR,41.150,MWh
Power,Intraday,Continuous,NL,IDFULL,QH,2021-11-11T13:45:00+01:00,2021-11-11T14:00:00+01:00,206.72,EUR,49.580,MWh
Power,Intraday,Continuous,NL,IDFULL,QH,2021-11-11T14:00:00+01:00,2021-11-11T14:15:00+01:00,155.41,EUR,7.350,MWh
Power,Intraday,Continuous,NL,IDFULL,QH,2021-11-11T14:15:00+01:00,2021-11-11T14:30:00+01:00,213.21,EUR,12.730,MWh
Power,Intraday,Continuous,NL,IDFULL,QH,2021-11-11T14:30:00+01:00,2021-11-11T14:45:00+01:00,221.71,EUR,40.950,MWh
Power,Intraday,Continuous,NL,IDFULL,QH,2021-11-11T14:45:00+01:00,2021-11-11T15:00:00+01:00,236.68,EUR,37.100,MWh
Power,Intraday,Continuous,NL,IDFULL,QH,2021-11-11T15:00:00+01:00,2021-11-11T15:15:00+01:00,131.24,EUR,,MWh
Power,Intraday,Continuous,NL,IDFULL,QH,2021-11-11T15:15:00+01:00,2021-11-11T15:30:00+01:00,131.24,EUR,,MWh
Power,Intraday,Continuous,NL,IDFULL,QH,2021-11-11T15:30:00+01:00,2021-11-11T15:45:00+01:00,237.26,EUR,7.850,MWh
Power,Intraday,Continuous,NL,IDFULL,QH,2021-11-11T15:45:00+01:00,2021-11-11T16:00:00+01:00,251.02,EUR,26.280,MWh
Power,Intraday,Continuous,NL,IDFULL,QH,2021-11-11T16:00:00+01:00,2021-11-11T16:15:00+01:00,195.96,EUR,22.400,MWh
Power,Intraday,Continuous,NL,IDFULL,QH,2021-11-11T16:15:00+01:00,2021-11-11T16:30:00+01:00,211.45,EUR,33.500,MWh
Power,Intraday,Continuous,NL,IDFULL,QH,2021-11-11T16:30:00+01:00,2021-11-11T16:45:00+01:00,233.40,EUR,23.680,MWh
Power,Intraday,Continuous,NL,IDFULL,QH,2021-11-11T16:45:00+01:00,2021-11-11T17:00:00+01:00,281.33,EUR,25.680,MWh
Power,Intraday,Continuous,NL,IDFULL,QH,2021-11-11T17:00:00+01:00,2021-11-11T17:15:00+01:00,164.14,EUR,52.150,MWh
Power,Intraday,Continuous,NL,IDFULL,QH,2021-11-11T17:15:00+01:00,2021-11-11T17:30:00+01:00,228.59,EUR,40.780,MWh
Power,Intraday,Continuous,NL,IDFULL,QH,2021-11-11T17:30:00+01:00,2021-11-11T17:45:00+01:00,243.62,EUR,46.080,MWh
Power,Intraday,Continuous,NL,IDFULL,QH,2021-11-11T17:45:00+01:00,2021-11-11T18:00:00+01:00,302.12,EUR,43.950,MWh
Power,Intraday,Continuous,NL,IDFULL,QH,2021-11-11T18:00:00+01:00,2021-11-11T18:15:00+01:00,279.15,EUR,78.900,MWh
Power,Intraday,Continuous,NL,IDFULL,QH,2021-11-11T18:15:00+01:00,2021-11-11T18:30:00+01:00,246.84,EUR,50.280,MWh
Power,Intraday,Continuous,NL,IDFULL,QH,2021-11-11T18:30:00+01:00,2021-11-11T18:45:00+01:00,245.40,EUR,49.050,MWh
Power,Intraday,Continuous,NL,IDFULL,QH,2021-11-11T18:45:00+01:00,2021-11-11T19:00:00+01:00,194.15,EUR,52.100,MWh
Power,Intraday,Continuous,NL,IDFULL,QH,2021-11-11T19:00:00+01:00,2021-11-11T19:15:00+01:00,284.95,EUR,71.770,MWh
Power,Intraday,Continuous,NL,IDFULL,QH,2021-11-11T19:15:00+01:00,2021-11-11T19:30:00+01:00,238.26,EUR,42.480,MWh
Power,Intraday,Continuous,NL,IDFULL,QH,2021-11-11T19:30:00+01:00,2021-11-11T19:45:00+01:00,181.20,EUR,38.200,MWh
Power,Intraday,Continuous,NL,IDFULL,QH,2021-11-11T19:45:00+01:00,2021-11-11T20:00:00+01:00,161.80,EUR,42.930,MWh
Power,Intraday,Continuous,NL,IDFULL,QH,2021-11-11T20:00:00+01:00,2021-11-11T20:15:00+01:00,256.89,EUR,104.930,MWh
Power,Intraday,Continuous,NL,IDFULL,QH,2021-11-11T20:15:00+01:00,2021-11-11T20:30:00+01:00,218.95,EUR,77.020,MWh
Power,Intraday,Continuous,NL,IDFULL,QH,2021-11-11T20:30:00+01:00,2021-11-11T20:45:00+01:00,139.10,EUR,28.700,MWh
Power,Intraday,Continuous,NL,IDFULL,QH,2021-11-11T20:45:00+01:00,2021-11-11T21:00:00+01:00,124.03,EUR,21.050,MWh
Power,Intraday,Continuous,NL,IDFULL,QH,2021-11-11T21:00:00+01:00,2021-11-11T21:15:00+01:00,230.57,EUR,143.850,MWh
Power,Intraday,Continuous,NL,IDFULL,QH,2021-11-11T21:15:00+01:00,2021-11-11T21:30:00+01:00,218.50,EUR,64.130,MWh
Power,Intraday,Continuous,NL,IDFULL,QH,2021-11-11T21:30:00+01:00,2021-11-11T21:45:00+01:00,188.42,EUR,26.480,MWh
Power,Intraday,Continuous,NL,IDFULL,QH,2021-11-11T21:45:00+01:00,2021-11-11T22:00:00+01:00,90.89,EUR,16.480,MWh
Power,Intraday,Continuous,NL,IDFULL,QH,2021-11-11T22:00:00+01:00,2021-11-11T22:15:00+01:00,221.16,EUR,66.980,MWh
Power,Intraday,Continuous,NL,IDFULL,QH,2021-11-11T22:15:00+01:00,2021-11-11T22:30:00+01:00,207.21,EUR,27.350,MWh
Power,Intraday,Continuous,NL,IDFULL,QH,2021-11-11T22:30:00+01:00,2021-11-11T22:45:00+01:00,172.58,EUR,12.000,MWh
Power,Intraday,Continuous,NL,IDFULL,QH,2021-11-11T22:45:00+01:00,2021-11-11T23:00:00+01:00,142.54,EUR,4.580,MWh
Power,Intraday,Continuous,NL,IDFULL,QH,2021-11-11T23:00:00+01:00,2021-11-11T23:15:00+01:00,205.43,EUR,88.000,MWh
Power,Intraday,Continuous,NL,IDFULL,QH,2021-11-11T23:15:00+01:00,2021-11-11T23:30:00+01:00,154.67,EUR,27.030,MWh
Power,Intraday,Continuous,NL,IDFULL,QH,2021-11-11T23:30:00+01:00,2021-11-11T23:45:00+01:00,128.93,EUR,13.280,MWh
Power,Intraday,Continuous,NL,IDFULL,QH,2021-11-11T23:45:00+01:00,2021-11-12T00:00:00+01:00,101.50,EUR,17.230,MWh
Power,Intraday,Continuous,NL,ID1,QH,2021-11-11T00:00:00+01:00,2021-11-11T00:15:00+01:00,193.07,EUR,,MWh
Power,Intraday,Continuous,NL,ID1,QH,2021-11-11T00:15:00+01:00,2021-11-11T00:30:00+01:00,181.28,EUR,,MWh
Power,Intraday,Continuous,NL,ID1,QH,2021-11-11T00:30:00+01:00,2021-11-11T00:45:00+01:00,162.18,EUR,,MWh
Power,Intraday,Continuous,NL,ID1,QH,2021-11-11T00:45:00+01:00,2021-11-11T01:00:00+01:00,163.84,EUR,,MWh
Power,Intraday,Continuous,NL,ID1,QH,2021-11-11T01:00:00+01:00,2021-11-11T01:15:00+01:00,203.71,EUR,,MWh
Power,Intraday,Continuous,NL,ID1,QH,2021-11-11T01:15:00+01:00,2021-11-11T01:30:00+01:00,166.17,EUR,,MWh
Power,Intraday,Continuous,NL,ID1,QH,2021-11-11T01:30:00+01:00,2021-11-11T01:45:00+01:00,162.67,EUR,,MWh
Power,Intraday,Continuous,NL,ID1,QH,2021-11-11T01:45:00+01:00,2021-11-11T02:00:00+01:00,140.53,EUR,,MWh
Power,Intraday,Continuous,NL,ID1,QH,2021-11-11T02:00:00+01:00,2021-11-11T02:15:00+01:00,190.02,EUR,,MWh
Power,Intraday,Continuous,NL,ID1,QH,2021-11-11T02:15:00+01:00,2021-11-11T02:30:00+01:00,166.67,EUR,,MWh
Power,Intraday,Continuous,NL,ID1,QH,2021-11-11T02:30:00+01:00,2021-11-11T02:45:00+01:00,161.85,EUR,,MWh
Power,Intraday,Continuous,NL,ID1,QH,2021-11-11T02:45:00+01:00,2021-11-11T03:00:00+01:00,151.70,EUR,,MWh
Power,Intraday,Continuous,NL,ID1,QH,2021-11-11T03:00:00+01:00,2021-11-11T03:15:00+01:00,158.43,EUR,,MWh
Power,Intraday,Continuous,NL,ID1,QH,2021-11-11T03:15:00+01:00,2021-11-11T03:30:00+01:00,155.72,EUR,,MWh
Power,Intraday,Continuous,NL,ID1,QH,2021-11-11T03:30:00+01:00,2021-11-11T03:45:00+01:00,161.40,EUR,,MWh
Power,Intraday,Continuous,NL,ID1,QH,2021-11-11T03:45:00+01:00,2021-11-11T04:00:00+01:00,160.72,EUR,,MWh
Power,Intraday,Continuous,NL,ID1,QH,2021-11-11T04:00:00+01:00,2021-11-11T04:15:00+01:00,139.40,EUR,,MWh
Power,Intraday,Continuous,NL,ID1,QH,2021-11-11T04:15:00+01:00,2021-11-11T04:30:00+01:00,156.04,EUR,,MWh
Power,Intraday,Continuous,NL,ID1,QH,2021-11-11T04:30:00+01:00,2021-11-11T04:45:00+01:00,161.39,EUR,,MWh
Power,Intraday,Continuous,NL,ID1,QH,2021-11-11T04:45:00+01:00,2021-11-11T05:00:00+01:00,184.90,EUR,,MWh
Power,Intraday,Continuous,NL,ID1,QH,2021-11-11T05:00:00+01:00,2021-11-11T05:15:00+01:00,134.60,EUR,,MWh
Power,Intraday,Continuous,NL,ID1,QH,2021-11-11T05:15:00+01:00,2021-11-11T05:30:00+01:00,144.13,EUR,,MWh
Power,Intraday,Continuous,NL,ID1,QH,2021-11-11T05:30:00+01:00,2021-11-11T05:45:00+01:00,172.41,EUR,,MWh
Power,Intraday,Continuous,NL,ID1,QH,2021-11-11T05:45:00+01:00,2021-11-11T06:00:00+01:00,210.87,EUR,,MWh
Power,Intraday,Continuous,NL,ID1,QH,2021-11-11T06:00:00+01:00,2021-11-11T06:15:00+01:00,109.31,EUR,,MWh
Power,Intraday,Continuous,NL,ID1,QH,2021-11-11T06:15:00+01:00,2021-11-11T06:30:00+01:00,175.77,EUR,,MWh
Power,Intraday,Continuous,NL,ID1,QH,2021-11-11T06:30:00+01:00,2021-11-11T06:45:00+01:00,106.14,EUR,,MWh
Power,Intraday,Continuous,NL,ID1,QH,2021-11-11T06:45:00+01:00,2021-11-11T07:00:00+01:00,303.35,EUR,,MWh
Power,Intraday,Continuous,NL,ID1,QH,2021-11-11T07:00:00+01:00,2021-11-11T07:15:00+01:00,100.79,EUR,6.250,MWh
Power,Intraday,Continuous,NL,ID1,QH,2021-11-11T07:15:00+01:00,2021-11-11T07:30:00+01:00,85.03,EUR,,MWh
Power,Intraday,Continuous,NL,ID1,QH,2021-11-11T07:30:00+01:00,2021-11-11T07:45:00+01:00,269.94,EUR,,MWh
Power,Intraday,Continuous,NL,ID1,QH,2021-11-11T07:45:00+01:00,2021-11-11T08:00:00+01:00,269.94,EUR,,MWh
Power,Intraday,Continuous,NL,ID1,QH,2021-11-11T08:00:00+01:00,2021-11-11T08:15:00+01:00,210.36,EUR,,MWh
Power,Intraday,Continuous,NL,ID1,QH,2021-11-11T08:15:00+01:00,2021-11-11T08:30:00+01:00,231.68,EUR,,MWh
Power,Intraday,Continuous,NL,ID1,QH,2021-11-11T08:30:00+01:00,2021-11-11T08:45:00+01:00,212.39,EUR,,MWh
Power,Intraday,Continuous,NL,ID1,QH,2021-11-11T08:45:00+01:00,2021-11-11T09:00:00+01:00,194.74,EUR,,MWh
Power,Intraday,Continuous,NL,ID1,QH,2021-11-11T09:00:00+01:00,2021-11-11T09:15:00+01:00,240.32,EUR,,MWh
Power,Intraday,Continuous,NL,ID1,QH,2021-11-11T09:15:00+01:00,2021-11-11T09:30:00+01:00,225.27,EUR,,MWh
Power,Intraday,Continuous,NL,ID1,QH,2021-11-11T09:30:00+01:00,2021-11-11T09:45:00+01:00,225.00,EUR,2.500,MWh
Power,Intraday,Continuous,NL,ID1,QH,2021-11-11T09:45:00+01:00,2021-11-11T10:00:00+01:00,205.00,EUR,2.500,MWh
Power,Intraday,Continuous,NL,ID1,QH,2021-11-11T10:00:00+01:00,2021-11-11T10:15:00+01:00,240.58,EUR,,MWh
Power,Intraday,Continuous,NL,ID1,QH,2021-11-11T10:15:00+01:00,2021-11-11T10:30:00+01:00,223.39,EUR,,MWh
Power,Intraday,Continuous,NL,ID1,QH,2021-11-11T10:30:00+01:00,2021-11-11T10:45:00+01:00,207.76,EUR,,MWh
Power,Intraday,Continuous,NL,ID1,QH,2021-11-11T10:45:00+01:00,2021-11-11T11:00:00+01:00,192.60,EUR,,MWh
Power,Intraday,Continuous,NL,ID1,QH,2021-11-11T11:00:00+01:00,2021-11-11T11:15:00+01:00,220.35,EUR,,MWh
Power,Intraday,Continuous,NL,ID1,QH,2021-11-11T11:15:00+01:00,2021-11-11T11:30:00+01:00,211.67,EUR,,MWh
Power,Intraday,Continuous,NL,ID1,QH,2021-11-11T11:30:00+01:00,2021-11-11T11:45:00+01:00,203.72,EUR,,MWh
Power,Intraday,Continuous,NL,ID1,QH,2021-11-11T11:45:00+01:00,2021-11-11T12:00:00+01:00,171.51,EUR,,MWh
Power,Intraday,Continuous,NL,ID1,QH,2021-11-11T12:00:00+01:00,2021-11-11T12:15:00+01:00,182.11,EUR,,MWh
Power,Intraday,Continuous,NL,ID1,QH,2021-11-11T12:15:00+01:00,2021-11-11T12:30:00+01:00,176.05,EUR,,MWh
Power,Intraday,Continuous,NL,ID1,QH,2021-11-11T12:30:00+01:00,2021-11-11T12:45:00+01:00,189.56,EUR,,MWh
Power,Intraday,Continuous,NL,ID1,QH,2021-11-11T12:45:00+01:00,2021-11-11T13:00:00+01:00,211.00,EUR,5.680,MWh
Power,Intraday,Continuous,NL,ID1,QH,2021-11-11T13:00:00+01:00,2021-11-11T13:15:00+01:00,196.73,EUR,,MWh
Power,Intraday,Continuous,NL,ID1,QH,2021-11-11T13:15:00+01:00,2021-11-11T13:30:00+01:00,203.88,EUR,,MWh
Power,Intraday,Continuous,NL,ID1,QH,2021-11-11T13:30:00+01:00,2021-11-11T13:45:00+01:00,213.99,EUR,,MWh
Power,Intraday,Continuous,NL,ID1,QH,2021-11-11T13:45:00+01:00,2021-11-11T14:00:00+01:00,211.77,EUR,,MWh
Power,Intraday,Continuous,NL,ID1,QH,2021-11-11T14:00:00+01:00,2021-11-11T14:15:00+01:00,150.00,EUR,2.500,MWh
Power,Intraday,Continuous,NL,ID1,QH,2021-11-11T14:15:00+01:00,2021-11-11T14:30:00+01:00,213.21,EUR,,MWh
Power,Intraday,Continuous,NL,ID1,QH,2021-11-11T14:30:00+01:00,2021-11-11T14:45:00+01:00,221.71,EUR,,MWh
Power,Intraday,Continuous,NL,ID1,QH,2021-11-11T14:45:00+01:00,2021-11-11T15:00:00+01:00,236.68,EUR,,MWh
Power,Intraday,Continuous,NL,ID1,QH,2021-11-11T15:00:00+01:00,2021-11-11T15:15:00+01:00,131.24,EUR,,MWh
Power,Intraday,Continuous,NL,ID1,QH,2021-11-11T15:15:00+01:00,2021-11-11T15:30:00+01:00,131.24,EUR,,MWh
Power,Intraday,Continuous,NL,ID1,QH,2021-11-11T15:30:00+01:00,2021-11-11T15:45:00+01:00,236.83,EUR,,MWh
Power,Intraday,Continuous,NL,ID1,QH,2021-11-11T15:45:00+01:00,2021-11-11T16:00:00+01:00,251.19,EUR,,MWh
Power,Intraday,Continuous,NL,ID1,QH,2021-11-11T16:00:00+01:00,2021-11-11T16:15:00+01:00,195.96,EUR,,MWh
Power,Intraday,Continuous,NL,ID1,QH,2021-11-11T16:15:00+01:00,2021-11-11T16:30:00+01:00,211.45,EUR,,MWh
Power,Intraday,Continuous,NL,ID1,QH,2021-11-11T16:30:00+01:00,2021-11-11T16:45:00+01:00,233.40,EUR,,MWh
Power,Intraday,Continuous,NL,ID1,QH,2021-11-11T16:45:00+01:00,2021-11-11T17:00:00+01:00,281.84,EUR,,MWh
Power,Intraday,Continuous,NL,ID1,QH,2021-11-11T17:00:00+01:00,2021-11-11T17:15:00+01:00,25.00,EUR,5.680,MWh
Power,Intraday,Continuous,NL,ID1,QH,2021-11-11T17:15:00+01:00,2021-11-11T17:30:00+01:00,229.60,EUR,,MWh
Power,Intraday,Continuous,NL,ID1,QH,2021-11-11T17:30:00+01:00,2021-11-11T17:45:00+01:00,237.98,EUR,,MWh
Power,Intraday,Continuous,NL,ID1,QH,2021-11-11T17:45:00+01:00,2021-11-11T18:00:00+01:00,259.00,EUR,6.750,MWh
Power,Intraday,Continuous,NL,ID1,QH,2021-11-11T18:00:00+01:00,2021-11-11T18:15:00+01:00,285.40,EUR,,MWh
Power,Intraday,Continuous,NL,ID1,QH,2021-11-11T18:15:00+01:00,2021-11-11T18:30:00+01:00,237.45,EUR,,MWh
Power,Intraday,Continuous,NL,ID1,QH,2021-11-11T18:30:00+01:00,2021-11-11T18:45:00+01:00,224.55,EUR,,MWh
Power,Intraday,Continuous,NL,ID1,QH,2021-11-11T18:45:00+01:00,2021-11-11T19:00:00+01:00,128.26,EUR,,MWh
Power,Intraday,Continuous,NL,ID1,QH,2021-11-11T19:00:00+01:00,2021-11-11T19:15:00+01:00,290.36,EUR,,MWh
Power,Intraday,Continuous,NL,ID1,QH,2021-11-11T19:15:00+01:00,2021-11-11T19:30:00+01:00,231.84,EUR,,MWh
Power,Intraday,Continuous,NL,ID1,QH,2021-11-11T19:30:00+01:00,2021-11-11T19:45:00+01:00,181.20,EUR,,MWh
Power,Intraday,Continuous,NL,ID1,QH,2021-11-11T19:45:00+01:00,2021-11-11T20:00:00+01:00,161.80,EUR,,MWh
Power,Intraday,Continuous,NL,ID1,QH,2021-11-11T20:00:00+01:00,2021-11-11T20:15:00+01:00,245.25,EUR,,MWh
Power,Intraday,Continuous,NL,ID1,QH,2021-11-11T20:15:00+01:00,2021-11-11T20:30:00+01:00,218.65,EUR,,MWh
Power,Intraday,Continuous,NL,ID1,QH,2021-11-11T20:30:00+01:00,2021-11-11T20:45:00+01:00,211.01,EUR,,MWh
Power,Intraday,Continuous,NL,ID1,QH,2021-11-11T20:45:00+01:00,2021-11-11T21:00:00+01:00,124.03,EUR,,MWh
Power,Intraday,Continuous,NL,ID1,QH,2021-11-11T21:00:00+01:00,2021-11-11T21:15:00+01:00,227.34,EUR,,MWh
Power,Intraday,Continuous,NL,ID1,QH,2021-11-11T21:15:00+01:00,2021-11-11T21:30:00+01:00,215.66,EUR,,MWh
Power,Intraday,Continuous,NL,ID1,QH,2021-11-11T21:30:00+01:00,2021-11-11T21:45:00+01:00,188.42,EUR,,MWh
Power,Intraday,Continuous,NL,ID1,QH,2021-11-11T21:45:00+01:00,2021-11-11T22:00:00+01:00,90.89,EUR,,MWh
Power,Intraday,Continuous,NL,ID1,QH,2021-11-11T22:00:00+01:00,2021-11-11T22:15:00+01:00,220.66,EUR,,MWh
Power,Intraday,Continuous,NL,ID1,QH,2021-11-11T22:15:00+01:00,2021-11-11T22:30:00+01:00,207.26,EUR,,MWh
Power,Intraday,Continuous,NL,ID1,QH,2021-11-11T22:30:00+01:00,2021-11-11T22:45:00+01:00,170.47,EUR,,MWh
Power,Intraday,Continuous,NL,ID1,QH,2021-11-11T22:45:00+01:00,2021-11-11T23:00:00+01:00,142.54,EUR,,MWh
Power,Intraday,Continuous,NL,ID1,QH,2021-11-11T23:00:00+01:00,2021-11-11T23:15:00+01:00,204.89,EUR,,MWh
Power,Intraday,Continuous,NL,ID1,QH,2021-11-11T23:15:00+01:00,2021-11-11T23:30:00+01:00,153.80,EUR,,MWh
Power,Intraday,Continuous,NL,ID1,QH,2021-11-11T23:30:00+01:00,2021-11-11T23:45:00+01:00,112.18,EUR,,MWh
Power,Intraday,Continuous,NL,ID1,QH,2021-11-11T23:45:00+01:00,2021-11-12T00:00:00+01:00,101.18,EUR,,MWh
Power,Intraday,Continuous,NL,ID3,QH,2021-11-11T00:00:00+01:00,2021-11-11T00:15:00+01:00,193.07,EUR,28.400,MWh
Power,Intraday,Continuous,NL,ID3,QH,2021-11-11T00:15:00+01:00,2021-11-11T00:30:00+01:00,181.28,EUR,15.850,MWh
Power,Intraday,Continuous,NL,ID3,QH,2021-11-11T00:30:00+01:00,2021-11-11T00:45:00+01:00,162.18,EUR,13.530,MWh
Power,Intraday,Continuous,NL,ID3,QH,2021-11-11T00:45:00+01:00,2021-11-11T01:00:00+01:00,163.84,EUR,19.580,MWh
Power,Intraday,Continuous,NL,ID3,QH,2021-11-11T01:00:00+01:00,2021-11-11T01:15:00+01:00,203.71,EUR,14.580,MWh
Power,Intraday,Continuous,NL,ID3,QH,2021-11-11T01:15:00+01:00,2021-11-11T01:30:00+01:00,166.17,EUR,14.350,MWh
Power,Intraday,Continuous,NL,ID3,QH,2021-11-11T01:30:00+01:00,2021-11-11T01:45:00+01:00,162.67,EUR,5.530,MWh
Power,Intraday,Continuous,NL,ID3,QH,2021-11-11T01:45:00+01:00,2021-11-11T02:00:00+01:00,140.53,EUR,19.300,MWh
Power,Intraday,Continuous,NL,ID3,QH,2021-11-11T02:00:00+01:00,2021-11-11T02:15:00+01:00,190.02,EUR,15.930,MWh
Power,Intraday,Continuous,NL,ID3,QH,2021-11-11T02:15:00+01:00,2021-11-11T02:30:00+01:00,166.67,EUR,9.830,MWh
Power,Intraday,Continuous,NL,ID3,QH,2021-11-11T02:30:00+01:00,2021-11-11T02:45:00+01:00,161.85,EUR,4.000,MWh
Power,Intraday,Continuous,NL,ID3,QH,2021-11-11T02:45:00+01:00,2021-11-11T03:00:00+01:00,151.70,EUR,17.150,MWh
Power,Intraday,Continuous,NL,ID3,QH,2021-11-11T03:00:00+01:00,2021-11-11T03:15:00+01:00,158.43,EUR,,MWh
Power,Intraday,Continuous,NL,ID3,QH,2021-11-11T03:15:00+01:00,2021-11-11T03:30:00+01:00,155.72,EUR,2.850,MWh
Power,Intraday,Continuous,NL,ID3,QH,2021-11-11T03:30:00+01:00,2021-11-11T03:45:00+01:00,161.40,EUR,,MWh
Power,Intraday,Continuous,NL,ID3,QH,2021-11-11T03:45:00+01:00,2021-11-11T04:00:00+01:00,160.72,EUR,,MWh
Power,Intraday,Continuous,NL,ID3,QH,2021-11-11T04:00:00+01:00,2021-11-11T04:15:00+01:00,139.40,EUR,15.800,MWh
Power,Intraday,Continuous,NL,ID3,QH,2021-11-11T04:15:00+01:00,2021-11-11T04:30:00+01:00,156.04,EUR,7.300,MWh
Power,Intraday,Continuous,NL,ID3,QH,2021-11-11T04:30:00+01:00,2021-11-11T04:45:00+01:00,161.39,EUR,5.380,MWh
Power,Intraday,Continuous,NL,ID3,QH,2021-11-11T04:45:00+01:00,2021-11-11T05:00:00+01:00,184.90,EUR,6.230,MWh
Power,Intraday,Continuous,NL,ID3,QH,2021-11-11T05:00:00+01:00,2021-11-11T05:15:00+01:00,134.60,EUR,7.500,MWh
Power,Intraday,Continuous,NL,ID3,QH,2021-11-11T05:15:00+01:00,2021-11-11T05:30:00+01:00,144.13,EUR,7.730,MWh
Power,Intraday,Continuous,NL,ID3,QH,2021-11-11T05:30:00+01:00,2021-11-11T05:45:00+01:00,172.41,EUR,3.230,MWh
Power,Intraday,Continuous,NL,ID3,QH,2021-11-11T05:45:00+01:00,2021-11-11T06:00:00+01:00,210.87,EUR,7.800,MWh
Power,Intraday,Continuous,NL,ID3,QH,2021-11-11T06:00:00+01:00,2021-11-11T06:15:00+01:00,109.31,EUR,22.530,MWh
Power,Intraday,Continuous,NL,ID3,QH,2021-11-11T06:15:00+01:00,2021-11-11T06:30:00+01:00,175.77,EUR,3.150,MWh
Power,Intraday,Continuous,NL,ID3,QH,2021-11-11T06:30:00+01:00,2021-11-11T06:45:00+01:00,106.14,EUR,,MWh
Power,Intraday,Continuous,NL,ID3,QH,2021-11-11T06:45:00+01:00,2021-11-11T07:00:00+01:00,303.35,EUR,,MWh
Power,Intraday,Continuous,NL,ID3,QH,2021-11-11T07:00:00+01:00,2021-11-11T07:15:00+01:00,107.30,EUR,6.680,MWh
Power,Intraday,Continuous,NL,ID3,QH,2021-11-11T07:15:00+01:00,2021-11-11T07:30:00+01:00,85.03,EUR,,MWh
Power,Intraday,Continuous,NL,ID3,QH,2021-11-11T07:30:00+01:00,2021-11-11T07:45:00+01:00,269.94,EUR,,MWh
Power,Intraday,Continuous,NL,ID3,QH,2021-11-11T07:45:00+01:00,2021-11-11T08:00:00+01:00,269.94,EUR,,MWh
Power,Intraday,Continuous,NL,ID3,QH,2021-11-11T08:00:00+01:00,2021-11-11T08:15:00+01:00,210.36,EUR,5.650,MWh
Power,Intraday,Continuous,NL,ID3,QH,2021-11-11T08:15:00+01:00,2021-11-11T08:30:00+01:00,231.68,EUR,14.530,MWh
Power,Intraday,Continuous,NL,ID3,QH,2021-11-11T08:30:00+01:00,2021-11-11T08:45:00+01:00,212.39,EUR,24.380,MWh
Power,Intraday,Continuous,NL,ID3,QH,2021-11-11T08:45:00+01:00,2021-11-11T09:00:00+01:00,194.74,EUR,45.780,MWh
Power,Intraday,Continuous,NL,ID3,QH,2021-11-11T09:00:00+01:00,2021-11-11T09:15:00+01:00,240.32,EUR,86.450,MWh
Power,Intraday,Continuous,NL,ID3,QH,2021-11-11T09:15:00+01:00,2021-11-11T09:30:00+01:00,225.27,EUR,45.000,MWh
Power,Intraday,Continuous,NL,ID3,QH,2021-11-11T09:30:00+01:00,2021-11-11T09:45:00+01:00,224.23,EUR,46.680,MWh
Power,Intraday,Continuous,NL,ID3,QH,2021-11-11T09:45:00+01:00,2021-11-11T10:00:00+01:00,200.21,EUR,50.730,MWh
Power,Intraday,Continuous,NL,ID3,QH,2021-11-11T10:00:00+01:00,2021-11-11T10:15:00+01:00,240.58,EUR,58.250,MWh
Power,Intraday,Continuous,NL,ID3,QH,2021-11-11T10:15:00+01:00,2021-11-11T10:30:00+01:00,223.39,EUR,35.100,MWh
Power,Intraday,Continuous,NL,ID3,QH,2021-11-11T10:30:00+01:00,2021-11-11T10:45:00+01:00,207.76,EUR,37.350,MWh
Power,Intraday,Continuous,NL,ID3,QH,2021-11-11T10:45:00+01:00,2021-11-11T11:00:00+01:00,192.60,EUR,35.830,MWh
Power,Intraday,Continuous,NL,ID3,QH,2021-11-11T11:00:00+01:00,2021-11-11T11:15:00+01:00,220.35,EUR,44.550,MWh
Power,Intraday,Continuous,NL,ID3,QH,2021-11-11T11:15:00+01:00,2021-11-11T11:30:00+01:00,211.67,EUR,12.130,MWh
Power,Intraday,Continuous,NL,ID3,QH,2021-11-11T11:30:00+01:00,2021-11-11T11:45:00+01:00,203.72,EUR,20.030,MWh
Power,Intraday,Continuous,NL,ID3,QH,2021-11-11T11:45:00+01:00,2021-11-11T12:00:00+01:00,171.51,EUR,16.300,MWh
Power,Intraday,Continuous,NL,ID3,QH,2021-11-11T12:00:00+01:00,2021-11-11T12:15:00+01:00,182.11,EUR,22.050,MWh
Power,Intraday,Continuous,NL,ID3,QH,2021-11-11T12:15:00+01:00,2021-11-11T12:30:00+01:00,176.05,EUR,19.650,MWh
Power,Intraday,Continuous,NL,ID3,QH,2021-11-11T12:30:00+01:00,2021-11-11T12:45:00+01:00,189.56,EUR,16.730,MWh
Power,Intraday,Continuous,NL,ID3,QH,2021-11-11T12:45:00+01:00,2021-11-11T13:00:00+01:00,202.59,EUR,18.450,MWh
Power,Intraday,Continuous,NL,ID3,QH,2021-11-11T13:00:00+01:00,2021-11-11T13:15:00+01:00,196.73,EUR,21.730,MWh
Power,Intraday,Continuous,NL,ID3,QH,2021-11-11T13:15:00+01:00,2021-11-11T13:30:00+01:00,203.88,EUR,27.030,MWh
Power,Intraday,Continuous,NL,ID3,QH,2021-11-11T13:30:00+01:00,2021-11-11T13:45:00+01:00,213.99,EUR,36.250,MWh
Power,Intraday,Continuous,NL,ID3,QH,2021-11-11T13:45:00+01:00,2021-11-11T14:00:00+01:00,211.77,EUR,40.200,MWh
Power,Intraday,Continuous,NL,ID3,QH,2021-11-11T14:00:00+01:00,2021-11-11T14:15:00+01:00,155.41,EUR,7.350,MWh
Power,Intraday,Continuous,NL,ID3,QH,2021-11-11T14:15:00+01:00,2021-11-11T14:30:00+01:00,213.21,EUR,12.730,MWh
Power,Intraday,Continuous,NL,ID3,QH,2021-11-11T14:30:00+01:00,2021-11-11T14:45:00+01:00,221.71,EUR,40.950,MWh
Power,Intraday,Continuous,NL,ID3,QH,2021-11-11T14:45:00+01:00,2021-11-11T15:00:00+01:00,236.68,EUR,37.100,MWh
Power,Intraday,Continuous,NL,ID3,QH,2021-11-11T15:00:00+01:00,2021-11-11T15:15:00+01:00,131.24,EUR,,MWh
Power,Intraday,Continuous,NL,ID3,QH,2021-11-11T15:15:00+01:00,2021-11-11T15:30:00+01:00,131.24,EUR,,MWh
Power,Intraday,Continuous,NL,ID3,QH,2021-11-11T15:30:00+01:00,2021-11-11T15:45:00+01:00,236.83,EUR,7.180,MWh
Power,Intraday,Continuous,NL,ID3,QH,2021-11-11T15:45:00+01:00,2021-11-11T16:00:00+01:00,251.19,EUR,25.680,MWh
Power,Intraday,Continuous,NL,ID3,QH,2021-11-11T16:00:00+01:00,2021-11-11T16:15:00+01:00,195.96,EUR,22.400,MWh
Power,Intraday,Continuous,NL,ID3,QH,2021-11-11T16:15:00+01:00,2021-11-11T16:30:00+01:00,211.45,EUR,33.500,MWh
Power,Intraday,Continuous,NL,ID3,QH,2021-11-11T16:30:00+01:00,2021-11-11T16:45:00+01:00,233.40,EUR,23.680,MWh
Power,Intraday,Continuous,NL,ID3,QH,2021-11-11T16:45:00+01:00,2021-11-11T17:00:00+01:00,281.84,EUR,9.250,MWh
Power,Intraday,Continuous,NL,ID3,QH,2021-11-11T17:00:00+01:00,2021-11-11T17:15:00+01:00,151.88,EUR,33.380,MWh
Power,Intraday,Continuous,NL,ID3,QH,2021-11-11T17:15:00+01:00,2021-11-11T17:30:00+01:00,229.60,EUR,24.450,MWh
Power,Intraday,Continuous,NL,ID3,QH,2021-11-11T17:30:00+01:00,2021-11-11T17:45:00+01:00,237.98,EUR,31.550,MWh
Power,Intraday,Continuous,NL,ID3,QH,2021-11-11T17:45:00+01:00,2021-11-11T18:00:00+01:00,286.55,EUR,27.750,MWh
Power,Intraday,Continuous,NL,ID3,QH,2021-11-11T18:00:00+01:00,2021-11-11T18:15:00+01:00,285.40,EUR,49.950,MWh
Power,Intraday,Continuous,NL,ID3,QH,2021-11-11T18:15:00+01:00,2021-11-11T18:30:00+01:00,237.45,EUR,29.030,MWh
Power,Intraday,Continuous,NL,ID3,QH,2021-11-11T18:30:00+01:00,2021-11-11T18:45:00+01:00,224.55,EUR,25.300,MWh
Power,Intraday,Continuous,NL,ID3,QH,2021-11-11T18:45:00+01:00,2021-11-11T19:00:00+01:00,128.26,EUR,22.000,MWh
Power,Intraday,Continuous,NL,ID3,QH,2021-11-11T19:00:00+01:00,2021-11-11T19:15:00+01:00,290.36,EUR,31.580,MWh
Power,Intraday,Continuous,NL,ID3,QH,2021-11-11T19:15:00+01:00,2021-11-11T19:30:00+01:00,231.84,EUR,6.980,MWh
Power,Intraday,Continuous,NL,ID3,QH,2021-11-11T19:30:00+01:00,2021-11-11T19:45:00+01:00,181.20,EUR,,MWh
Power,Intraday,Continuous,NL,ID3,QH,2021-11-11T19:45:00+01:00,2021-11-11T20:00:00+01:00,161.80,EUR,,MWh
Power,Intraday,Continuous,NL,ID3,QH,2021-11-11T20:00:00+01:00,2021-11-11T20:15:00+01:00,245.25,EUR,60.730,MWh
Power,Intraday,Continuous,NL,ID3,QH,2021-11-11T20:15:00+01:00,2021-11-11T20:30:00+01:00,218.65,EUR,23.630,MWh
Power,Intraday,Continuous,NL,ID3,QH,2021-11-11T20:30:00+01:00,2021-11-11T20:45:00+01:00,211.01,EUR,5.530,MWh
Power,Intraday,Continuous,NL,ID3,QH,2021-11-11T20:45:00+01:00,2021-11-11T21:00:00+01:00,124.03,EUR,,MWh
Power,Intraday,Continuous,NL,ID3,QH,2021-11-11T21:00:00+01:00,2021-11-11T21:15:00+01:00,227.34,EUR,116.250,MWh
Power,Intraday,Continuous,NL,ID3,QH,2021-11-11T21:15:00+01:00,2021-11-11T21:30:00+01:00,215.66,EUR,47.480,MWh
Power,Intraday,Continuous,NL,ID3,QH,2021-11-11T21:30:00+01:00,2021-11-11T21:45:00+01:00,188.42,EUR,,MWh
Power,Intraday,Continuous,NL,ID3,QH,2021-11-11T21:45:00+01:00,2021-11-11T22:00:00+01:00,90.89,EUR,,MWh
Power,Intraday,Continuous,NL,ID3,QH,2021-11-11T22:00:00+01:00,2021-11-11T22:15:00+01:00,220.66,EUR,57.980,MWh
Power,Intraday,Continuous,NL,ID3,QH,2021-11-11T22:15:00+01:00,2021-11-11T22:30:00+01:00,207.26,EUR,27.330,MWh
Power,Intraday,Continuous,NL,ID3,QH,2021-11-11T22:30:00+01:00,2021-11-11T22:45:00+01:00,170.47,EUR,8.400,MWh
Power,Intraday,Continuous,NL,ID3,QH,2021-11-11T22:45:00+01:00,2021-11-11T23:00:00+01:00,142.54,EUR,,MWh
Power,Intraday,Continuous,NL,ID3,QH,2021-11-11T23:00:00+01:00,2021-11-11T23:15:00+01:00,204.89,EUR,72.550,MWh
Power,Intraday,Continuous,NL,ID3,QH,2021-11-11T23:15:00+01:00,2021-11-11T23:30:00+01:00,153.80,EUR,24.480,MWh
Power,Intraday,Continuous,NL,ID3,QH,2021-11-11T23:30:00+01:00,2021-11-11T23:45:00+01:00,112.18,EUR,7.980,MWh
Power,Intraday,Continuous,NL,ID3,QH,2021-11-11T23:45:00+01:00,2021-11-12T00:00:00+01:00,101.18,EUR,14.980,MWh
Power,Intraday,Continuous,NL,IDFULL,BASE,2021-11-11T00:00:00+01:00,2021-11-12T00:00:00+01:00,185.25,EUR,27177.300,MWh
Power,Intraday,Continuous,NL,IDFULL,PEAK,2021-11-11T08:00:00+01:00,2021-11-11T20:00:00+01:00,205.54,EUR,16989.500,MWh
