Commodity,NominationModality,TradingModality,MarketArea,IndexName,TimeResolution,DeliveryStart,DeliveryEnd,IndexPrice,Currency,Volume,VolumeUnit
Power,Intraday,Continuous,NL,IDFULL,H,2021-04-21T00:00:00+02:00,2021-04-21T01:00:00+02:00,60.76,EUR,97.400,MWh
Power,Intraday,Continuous,NL,IDFULL,H,2021-04-21T01:00:00+02:00,2021-04-21T02:00:00+02:00,54.59,EUR,251.000,MWh
Power,Intraday,Continuous,NL,IDFULL,H,2021-04-21T02:00:00+02:00,2021-04-21T03:00:00+02:00,50.22,EUR,284.200,MWh
Power,Intraday,Continuous,NL,IDFULL,H,2021-04-21T03:00:00+02:00,2021-04-21T04:00:00+02:00,51.03,EUR,346.700,MWh
Power,Intraday,Continuous,NL,IDFULL,H,2021-04-21T04:00:00+02:00,2021-04-21T05:00:00+02:00,48.62,EUR,234.000,MWh
Power,Intraday,Continuous,NL,IDFULL,H,2021-04-21T05:00:00+02:00,2021-04-21T06:00:00+02:00,54.97,EUR,124.700,MWh
Power,Intraday,Continuous,NL,IDFULL,H,2021-04-21T06:00:00+02:00,2021-04-21T07:00:00+02:00,72.13,EUR,149.100,MWh
Power,Intraday,Continuous,NL,IDFULL,H,2021-04-21T07:00:00+02:00,2021-04-21T08:00:00+02:00,87.37,EUR,296.500,MWh
Power,Intraday,Continuous,NL,IDFULL,H,2021-04-21T08:00:00+02:00,2021-04-21T09:00:00+02:00,42.35,EUR,502.600,MWh
Power,Intraday,Continuous,NL,IDFULL,H,2021-04-21T09:00:00+02:00,2021-04-21T10:00:00+02:00,38.71,EUR,453.700,MWh
Power,Intraday,Continuous,NL,IDFULL,H,2021-04-21T10:00:00+02:00,2021-04-21T11:00:00+02:00,35.87,EUR,814.400,MWh
Power,Intraday,Continuous,NL,IDFULL,H,2021-04-21T11:00:00+02:00,2021-04-21T12:00:00+02:00,33.61,EUR,835.600,MWh
Power,Intraday,Continuous,NL,IDFULL,H,2021-04-21T12:00:00+02:00,2021-04-21T13:00:00+02:00,27.85,EUR,631.900,MWh
Power,Intraday,Continuous,NL,IDFULL,H,2021-04-21T13:00:00+02:00,2021-04-21T14:00:00+02:00,24.07,EUR,933.200,MWh
Power,Intraday,Continuous,NL,IDFULL,H,2021-04-21T14:00:00+02:00,2021-04-21T15:00:00+02:00,26.06,EUR,1071.300,MWh
Power,Intraday,Continuous,NL,IDFULL,H,2021-04-21T15:00:00+02:00,2021-04-21T16:00:00+02:00,23.36,EUR,863.200,MWh
Power,Intraday,Continuous,NL,IDFULL,H,2021-04-21T16:00:00+02:00,2021-04-21T17:00:00+02:00,35.49,EUR,1110.400,MWh
Power,Intraday,Continuous,NL,IDFULL,H,2021-04-21T17:00:00+02:00,2021-04-21T18:00:00+02:00,46.19,EUR,1371.400,MWh
Power,Intraday,Continuous,NL,IDFULL,H,2021-04-21T18:00:00+02:00,2021-04-21T19:00:00+02:00,35.93,EUR,142.600,MWh
Power,Intraday,Continuous,NL,IDFULL,H,2021-04-21T19:00:00+02:00,2021-04-21T20:00:00+02:00,63.60,EUR,178.800,MWh
Power,Intraday,Continuous,NL,IDFULL,H,2021-04-21T20:00:00+02:00,2021-04-21T21:00:00+02:00,82.66,EUR,476.100,MWh
Power,Intraday,Continuous,NL,IDFULL,H,2021-04-21T21:00:00+02:00,2021-04-21T22:00:00+02:00,75.39,EUR,928.200,MWh
Power,Intraday,Continuous,NL,IDFULL,H,2021-04-21T22:00:00+02:00,2021-04-21T23:00:00+02:00,64.86,EUR,552.100,MWh
Power,Intraday,Continuous,NL,IDFULL,H,2021-04-21T23:00:00+02:00,2021-04-22T00:00:00+02:00,53.98,EUR,512.800,MWh
Power,Intraday,Continuous,NL,ID1,H,2021-04-21T00:00:00+02:00,2021-04-21T01:00:00+02:00,60.78,EUR,,MWh
Power,Intraday,Continuous,NL,ID1,H,2021-04-21T01:00:00+02:00,2021-04-21T02:00:00+02:00,54.18,EUR,,MWh
Power,Intraday,Continuous,NL,ID1,H,2021-04-21T02:00:00+02:00,2021-04-21T03:00:00+02:00,49.96,EUR,,MWh
Power,Intraday,Continuous,NL,ID1,H,2021-04-21T03:00:00+02:00,2021-04-21T04:00:00+02:00,50.96,EUR,18.200,MWh
Power,Intraday,Continuous,NL,ID1,H,2021-04-21T04:00:00+02:00,2021-04-21T05:00:00+02:00,47.96,EUR,,MWh
Power,Intraday,Continuous,NL,ID1,H,2021-04-21T05:00:00+02:00,2021-04-21T06:00:00+02:00,58.00,EUR,26.500,MWh
Power,Intraday,Continuous,NL,ID1,H,2021-04-21T06:00:00+02:00,2021-04-21T07:00:00+02:00,75.94,EUR,,MWh
Power,Intraday,Continuous,NL,ID1,H,2021-04-21T07:00:00+02:00,2021-04-21T08:00:00+02:00,88.53,EUR,,MWh
Power,Intraday,Continuous,NL,ID1,H,2021-04-21T08:00:00+02:00,2021-04-21T09:00:00+02:00,43.85,EUR,76.900,MWh
Power,Intraday,Continuous,NL,ID1,H,2021-04-21T09:00:00+02:00,2021-04-21T10:00:00+02:00,30.33,EUR,228.800,MWh
Power,Intraday,Continuous,NL,ID1,H,2021-04-21T10:00:00+02:00,2021-04-21T11:00:00+02:00,42.31,EUR,145.800,MWh
Power,Intraday,Continuous,NL,ID1,H,2021-04-21T11:00:00+02:00,2021-04-21T12:00:00+02:00,33.28,EUR,,MWh
Power,Intraday,Continuous,NL,ID1,H,2021-04-21T12:00:00+02:00,2021-04-21T13:00:00+02:00,24.61,EUR,49.000,MWh
Power,Intraday,Continuous,NL,ID1,H,2021-04-21T13:00:00+02:00,2021-04-21T14:00:00+02:00,47.66,EUR,78.000,MWh
Power,Intraday,Continuous,NL,ID1,H,2021-04-21T14:00:00+02:00,2021-04-21T15:00:00+02:00,20.44,EUR,14.100,MWh
Power,Intraday,Continuous,NL,ID1,H,2021-04-21T15:00:00+02:00,2021-04-21T16:00:00+02:00,11.47,EUR,85.000,MWh
Power,Intraday,Continuous,NL,ID1,H,2021-04-21T16:00:00+02:00,2021-04-21T17:00:00+02:00,33.71,EUR,109.300,MWh
Power,Intraday,Continuous,NL,ID1,H,2021-04-21T17:00:00+02:00,2021-04-21T18:00:00+02:00,51.40,EUR,60.200,MWh
Power,Intraday,Continuous,NL,ID1,H,2021-04-21T18:00:00+02:00,2021-04-21T19:00:00+02:00,40.60,EUR,10.800,MWh
Power,Intraday,Continuous,NL,ID1,H,2021-04-21T19:00:00+02:00,2021-04-21T20:00:00+02:00,60.94,EUR,,MWh
Power,Intraday,Continuous,NL,ID1,H,2021-04-21T20:00:00+02:00,2021-04-21T21:00:00+02:00,82.90,EUR,,MWh
Power,Intraday,Continuous,NL,ID1,H,2021-04-21T21:00:00+02:00,2021-04-21T22:00:00+02:00,66.25,EUR,21.000,MWh
Power,Intraday,Continuous,NL,ID1,H,2021-04-21T22:00:00+02:00,2021-04-21T23:00:00+02:00,54.79,EUR,33.300,MWh
Power,Intraday,Continuous,NL,ID1,H,2021-04-21T23:00:00+02:00,2021-04-22T00:00:00+02:00,52.96,EUR,,MWh
Power,Intraday,Continuous,NL,ID3,H,2021-04-21T00:00:00+02:00,2021-04-21T01:00:00+02:00,60.78,EUR,97.300,MWh
Power,Intraday,Continuous,NL,ID3,H,2021-04-21T01:00:00+02:00,2021-04-21T02:00:00+02:00,54.18,EUR,225.600,MWh
Power,Intraday,Continuous,NL,ID3,H,2021-04-21T02:00:00+02:00,2021-04-21T03:00:00+02:00,49.96,EUR,185.300,MWh
Power,Intraday,Continuous,NL,ID3,H,2021-04-21T03:00:00+02:00,2021-04-21T04:00:00+02:00,50.85,EUR,335.200,MWh
Power,Intraday,Continuous,NL,ID3,H,2021-04-21T04:00:00+02:00,2021-04-21T05:00:00+02:00,47.96,EUR,218.800,MWh
Power,Intraday,Continuous,NL,ID3,H,2021-04-21T05:00:00+02:00,2021-04-21T06:00:00+02:00,55.57,EUR,101.000,MWh
Power,Intraday,Continuous,NL,ID3,H,2021-04-21T06:00:00+02:00,2021-04-21T07:00:00+02:00,75.94,EUR,58.700,MWh
Power,Intraday,Continuous,NL,ID3,H,2021-04-21T07:00:00+02:00,2021-04-21T08:00:00+02:00,88.53,EUR,182.600,MWh
Power,Intraday,Continuous,NL,ID3,H,2021-04-21T08:00:00+02:00,2021-04-21T09:00:00+02:00,41.55,EUR,482.500,MWh
Power,Intraday,Continuous,NL,ID3,H,2021-04-21T09:00:00+02:00,2021-04-21T10:00:00+02:00,38.43,EUR,441.800,MWh
Power,Intraday,Continuous,NL,ID3,H,2021-04-21T10:00:00+02:00,2021-04-21T11:00:00+02:00,34.67,EUR,751.300,MWh
Power,Intraday,Continuous,NL,ID3,H,2021-04-21T11:00:00+02:00,2021-04-21T12:00:00+02:00,33.28,EUR,645.200,MWh
Power,Intraday,Continuous,NL,ID3,H,2021-04-21T12:00:00+02:00,2021-04-21T13:00:00+02:00,25.76,EUR,419.200,MWh
Power,Intraday,Continuous,NL,ID3,H,2021-04-21T13:00:00+02:00,2021-04-21T14:00:00+02:00,23.40,EUR,537.100,MWh
Power,Intraday,Continuous,NL,ID3,H,2021-04-21T14:00:00+02:00,2021-04-21T15:00:00+02:00,24.01,EUR,531.100,MWh
Power,Intraday,Continuous,NL,ID3,H,2021-04-21T15:00:00+02:00,2021-04-21T16:00:00+02:00,19.31,EUR,432.800,MWh
Power,Intraday,Continuous,NL,ID3,H,2021-04-21T16:00:00+02:00,2021-04-21T17:00:00+02:00,37.65,EUR,941.000,MWh
Power,Intraday,Continuous,NL,ID3,H,2021-04-21T17:00:00+02:00,2021-04-21T18:00:00+02:00,53.56,EUR,765.600,MWh
Power,Intraday,Continuous,NL,ID3,H,2021-04-21T18:00:00+02:00,2021-04-21T19:00:00+02:00,35.67,EUR,133.900,MWh
Power,Intraday,Continuous,NL,ID3,H,2021-04-21T19:00:00+02:00,2021-04-21T20:00:00+02:00,60.94,EUR,136.200,MWh
Power,Intraday,Continuous,NL,ID3,H,2021-04-21T20:00:00+02:00,2021-04-21T21:00:00+02:00,82.90,EUR,341.300,MWh
Power,Intraday,Continuous,NL,ID3,H,2021-04-21T21:00:00+02:00,2021-04-21T22:00:00+02:00,74.39,EUR,694.800,MWh
Power,Intraday,Continuous,NL,ID3,H,2021-04-21T22:00:00+02:00,2021-04-21T23:00:00+02:00,64.31,EUR,414.500,MWh
Power,Intraday,Continuous,NL,ID3,H,2021-04-21T23:00:00+02:00,2021-04-22T00:00:00+02:00,52.96,EUR,329.700,MWh
Power,Intraday,Continuous,NL,IDFULL,HH,2021-04-21T00:00:00+02:00,2021-04-21T00:30:00+02:00,60.76,EUR,,MWh
Power,Intraday,Continuous,NL,IDFULL,HH,2021-04-21T00:30:00+02:00,2021-04-21T01:00:00+02:00,60.76,EUR,,MWh
Power,Intraday,Continuous,NL,IDFULL,HH,2021-04-21T01:00:00+02:00,2021-04-21T01:30:00+02:00,54.59,EUR,,MWh
Power,Intraday,Continuous,NL,IDFULL,HH,2021-04-21T01:30:00+02:00,2021-04-21T02:00:00+02:00,54.59,EUR,,MWh
Power,Intraday,Continuous,NL,IDFULL,HH,2021-04-21T02:00:00+02:00,2021-04-21T02:30:00+02:00,50.22,EUR,,MWh
Power,Intraday,Continuous,NL,IDFULL,HH,2021-04-21T02:30:00+02:00,2021-04-21T03:00:00+02:00,50.22,EUR,,MWh
Power,Intraday,Continuous,NL,IDFULL,HH,2021-04-21T03:00:00+02:00,2021-04-21T03:30:00+02:00,51.03,EUR,,MWh
Power,Intraday,Continuous,NL,IDFULL,HH,2021-04-21T03:30:00+02:00,2021-04-21T04:00:00+02:00,51.03,EUR,,MWh
Power,Intraday,Continuous,NL,IDFULL,HH,2021-04-21T04:00:00+02:00,2021-04-21T04:30:00+02:00,48.62,EUR,,MWh
Power,Intraday,Continuous,NL,IDFULL,HH,2021-04-21T04:30:00+02:00,2021-04-21T05:00:00+02:00,48.62,EUR,,MWh
Power,Intraday,Continuous,NL,IDFULL,HH,2021-04-21T05:00:00+02:00,2021-04-21T05:30:00+02:00,54.97,EUR,,MWh
Power,Intraday,Continuous,NL,IDFULL,HH,2021-04-21T05:30:00+02:00,2021-04-21T06:00:00+02:00,54.97,EUR,,MWh
Power,Intraday,Continuous,NL,IDFULL,HH,2021-04-21T06:00:00+02:00,2021-04-21T06:30:00+02:00,72.13,EUR,,MWh
Power,Intraday,Continuous,NL,IDFULL,HH,2021-04-21T06:30:00+02:00,2021-04-21T07:00:00+02:00,72.13,EUR,,MWh
Power,Intraday,Continuous,NL,IDFULL,HH,2021-04-21T07:00:00+02:00,2021-04-21T07:30:00+02:00,87.37,EUR,,MWh
Power,Intraday,Continuous,NL,IDFULL,HH,2021-04-21T07:30:00+02:00,2021-04-21T08:00:00+02:00,87.37,EUR,,MWh
Power,Intraday,Continuous,NL,IDFULL,HH,2021-04-21T08:00:00+02:00,2021-04-21T08:30:00+02:00,42.35,EUR,,MWh
Power,Intraday,Continuous,NL,IDFULL,HH,2021-04-21T08:30:00+02:00,2021-04-21T09:00:00+02:00,42.35,EUR,,MWh
Power,Intraday,Continuous,NL,IDFULL,HH,2021-04-21T09:00:00+02:00,2021-04-21T09:30:00+02:00,38.71,EUR,,MWh
Power,Intraday,Continuous,NL,IDFULL,HH,2021-04-21T09:30:00+02:00,2021-04-21T10:00:00+02:00,38.71,EUR,,MWh
Power,Intraday,Continuous,NL,IDFULL,HH,2021-04-21T10:00:00+02:00,2021-04-21T10:30:00+02:00,35.87,EUR,,MWh
Power,Intraday,Continuous,NL,IDFULL,HH,2021-04-21T10:30:00+02:00,2021-04-21T11:00:00+02:00,35.87,EUR,,MWh
Power,Intraday,Continuous,NL,IDFULL,HH,2021-04-21T11:00:00+02:00,2021-04-21T11:30:00+02:00,33.61,EUR,,MWh
Power,Intraday,Continuous,NL,IDFULL,HH,2021-04-21T11:30:00+02:00,2021-04-21T12:00:00+02:00,33.61,EUR,,MWh
Power,Intraday,Continuous,NL,IDFULL,HH,2021-04-21T12:00:00+02:00,2021-04-21T12:30:00+02:00,27.85,EUR,,MWh
Power,Intraday,Continuous,NL,IDFULL,HH,2021-04-21T12:30:00+02:00,2021-04-21T13:00:00+02:00,27.85,EUR,,MWh
Power,Intraday,Continuous,NL,IDFULL,HH,2021-04-21T13:00:00+02:00,2021-04-21T13:30:00+02:00,24.07,EUR,,MWh
Power,Intraday,Continuous,NL,IDFULL,HH,2021-04-21T13:30:00+02:00,2021-04-21T14:00:00+02:00,24.07,EUR,,MWh
Power,Intraday,Continuous,NL,IDFULL,HH,2021-04-21T14:00:00+02:00,2021-04-21T14:30:00+02:00,26.06,EUR,,MWh
Power,Intraday,Continuous,NL,IDFULL,HH,2021-04-21T14:30:00+02:00,2021-04-21T15:00:00+02:00,26.06,EUR,,MWh
Power,Intraday,Continuous,NL,IDFULL,HH,2021-04-21T15:00:00+02:00,2021-04-21T15:30:00+02:00,23.36,EUR,,MWh
Power,Intraday,Continuous,NL,IDFULL,HH,2021-04-21T15:30:00+02:00,2021-04-21T16:00:00+02:00,23.36,EUR,,MWh
Power,Intraday,Continuous,NL,IDFULL,HH,2021-04-21T16:00:00+02:00,2021-04-21T16:30:00+02:00,35.49,EUR,,MWh
Power,Intraday,Continuous,NL,IDFULL,HH,2021-04-21T16:30:00+02:00,2021-04-21T17:00:00+02:00,35.49,EUR,,MWh
Power,Intraday,Continuous,NL,IDFULL,HH,2021-04-21T17:00:00+02:00,2021-04-21T17:30:00+02:00,46.19,EUR,,MWh
Power,Intraday,Continuous,NL,IDFULL,HH,2021-04-21T17:30:00+02:00,2021-04-21T18:00:00+02:00,46.19,EUR,,MWh
Power,Intraday,Continuous,NL,IDFULL,HH,2021-04-21T18:00:00+02:00,2021-04-21T18:30:00+02:00,35.93,EUR,,MWh
Power,Intraday,Continuous,NL,IDFULL,HH,2021-04-21T18:30:00+02:00,2021-04-21T19:00:00+02:00,35.93,EUR,,MWh
Power,Intraday,Continuous,NL,IDFULL,HH,2021-04-21T19:00:00+02:00,2021-04-21T19:30:00+02:00,63.60,EUR,,MWh
Power,Intraday,Continuous,NL,IDFULL,HH,2021-04-21T19:30:00+02:00,2021-04-21T20:00:00+02:00,63.60,EUR,,MWh
Power,Intraday,Continuous,NL,IDFULL,HH,2021-04-21T20:00:00+02:00,2021-04-21T20:30:00+02:00,82.66,EUR,,MWh
Power,Intraday,Continuous,NL,IDFULL,HH,2021-04-21T20:30:00+02:00,2021-04-21T21:00:00+02:00,82.66,EUR,,MWh
Power,Intraday,Continuous,NL,IDFULL,HH,2021-04-21T21:00:00+02:00,2021-04-21T21:30:00+02:00,75.39,EUR,,MWh
Power,Intraday,Continuous,NL,IDFULL,HH,2021-04-21T21:30:00+02:00,2021-04-21T22:00:00+02:00,75.39,EUR,,MWh
Power,Intraday,Continuous,NL,IDFULL,HH,2021-04-21T22:00:00+02:00,2021-04-21T22:30:00+02:00,64.86,EUR,,MWh
Power,Intraday,Continuous,NL,IDFULL,HH,2021-04-21T22:30:00+02:00,2021-04-21T23:00:00+02:00,64.86,EUR,,MWh
Power,Intraday,Continuous,NL,IDFULL,HH,2021-04-21T23:00:00+02:00,2021-04-21T23:30:00+02:00,53.98,EUR,,MWh
Power,Intraday,Continuous,NL,IDFULL,HH,2021-04-21T23:30:00+02:00,2021-04-22T00:00:00+02:00,53.98,EUR,,MWh
Power,Intraday,Continuous,NL,ID1,HH,2021-04-21T00:00:00+02:00,2021-04-21T00:30:00+02:00,60.76,EUR,,MWh
Power,Intraday,Continuous,NL,ID1,HH,2021-04-21T00:30:00+02:00,2021-04-21T01:00:00+02:00,60.76,EUR,,MWh
Power,Intraday,Continuous,NL,ID1,HH,2021-04-21T01:00:00+02:00,2021-04-21T01:30:00+02:00,54.59,EUR,,MWh
Power,Intraday,Continuous,NL,ID1,HH,2021-04-21T01:30:00+02:00,2021-04-21T02:00:00+02:00,54.59,EUR,,MWh
Power,Intraday,Continuous,NL,ID1,HH,2021-04-21T02:00:00+02:00,2021-04-21T02:30:00+02:00,50.22,EUR,,MWh
Power,Intraday,Continuous,NL,ID1,HH,2021-04-21T02:30:00+02:00,2021-04-21T03:00:00+02:00,50.22,EUR,,MWh
Power,Intraday,Continuous,NL,ID1,HH,2021-04-21T03:00:00+02:00,2021-04-21T03:30:00+02:00,51.03,EUR,,MWh
Power,Intraday,Continuous,NL,ID1,HH,2021-04-21T03:30:00+02:00,2021-04-21T04:00:00+02:00,51.03,EUR,,MWh
Power,Intraday,Continuous,NL,ID1,HH,2021-04-21T04:00:00+02:00,2021-04-21T04:30:00+02:00,48.62,EUR,,MWh
Power,Intraday,Continuous,NL,ID1,HH,2021-04-21T04:30:00+02:00,2021-04-21T05:00:00+02:00,48.62,EUR,,MWh
Power,Intraday,Continuous,NL,ID1,HH,2021-04-21T05:00:00+02:00,2021-04-21T05:30:00+02:00,54.97,EUR,,MWh
Power,Intraday,Continuous,NL,ID1,HH,2021-04-21T05:30:00+02:00,2021-04-21T06:00:00+02:00,54.97,EUR,,MWh
Power,Intraday,Continuous,NL,ID1,HH,2021-04-21T06:00:00+02:00,2021-04-21T06:30:00+02:00,72.13,EUR,,MWh
Power,Intraday,Continuous,NL,ID1,HH,2021-04-21T06:30:00+02:00,2021-04-21T07:00:00+02:00,72.13,EUR,,MWh
Power,Intraday,Continuous,NL,ID1,HH,2021-04-21T07:00:00+02:00,2021-04-21T07:30:00+02:00,87.37,EUR,,MWh
Power,Intraday,Continuous,NL,ID1,HH,2021-04-21T07:30:00+02:00,2021-04-21T08:00:00+02:00,87.37,EUR,,MWh
Power,Intraday,Continuous,NL,ID1,HH,2021-04-21T08:00:00+02:00,2021-04-21T08:30:00+02:00,42.35,EUR,,MWh
Power,Intraday,Continuous,NL,ID1,HH,2021-04-21T08:30:00+02:00,2021-04-21T09:00:00+02:00,42.35,EUR,,MWh
Power,Intraday,Continuous,NL,ID1,HH,2021-04-21T09:00:00+02:00,2021-04-21T09:30:00+02:00,38.71,EUR,,MWh
Power,Intraday,Continuous,NL,ID1,HH,2021-04-21T09:30:00+02:00,2021-04-21T10:00:00+02:00,38.71,EUR,,MWh
Power,Intraday,Continuous,NL,ID1,HH,2021-04-21T10:00:00+02:00,2021-04-21T10:30:00+02:00,35.87,EUR,,MWh
Power,Intraday,Continuous,NL,ID1,HH,2021-04-21T10:30:00+02:00,2021-04-21T11:00:00+02:00,35.87,EUR,,MWh
Power,Intraday,Continuous,NL,ID1,HH,2021-04-21T11:00:00+02:00,2021-04-21T11:30:00+02:00,33.61,EUR,,MWh
Power,Intraday,Continuous,NL,ID1,HH,2021-04-21T11:30:00+02:00,2021-04-21T12:00:00+02:00,33.61,EUR,,MWh
Power,Intraday,Continuous,NL,ID1,HH,2021-04-21T12:00:00+02:00,2021-04-21T12:30:00+02:00,27.85,EUR,,MWh
Power,Intraday,Continuous,NL,ID1,HH,2021-04-21T12:30:00+02:00,2021-04-21T13:00:00+02:00,27.85,EUR,,MWh
Power,Intraday,Continuous,NL,ID1,HH,2021-04-21T13:00:00+02:00,2021-04-21T13:30:00+02:00,24.07,EUR,,MWh
Power,Intraday,Continuous,NL,ID1,HH,2021-04-21T13:30:00+02:00,2021-04-21T14:00:00+02:00,24.07,EUR,,MWh
Power,Intraday,Continuous,NL,ID1,HH,2021-04-21T14:00:00+02:00,2021-04-21T14:30:00+02:00,26.06,EUR,,MWh
Power,Intraday,Continuous,NL,ID1,HH,2021-04-21T14:30:00+02:00,2021-04-21T15:00:00+02:00,26.06,EUR,,MWh
Power,Intraday,Continuous,NL,ID1,HH,2021-04-21T15:00:00+02:00,2021-04-21T15:30:00+02:00,23.36,EUR,,MWh
Power,Intraday,Continuous,NL,ID1,HH,2021-04-21T15:30:00+02:00,2021-04-21T16:00:00+02:00,23.36,EUR,,MWh
Power,Intraday,Continuous,NL,ID1,HH,2021-04-21T16:00:00+02:00,2021-04-21T16:30:00+02:00,35.49,EUR,,MWh
Power,Intraday,Continuous,NL,ID1,HH,2021-04-21T16:30:00+02:00,2021-04-21T17:00:00+02:00,35.49,EUR,,MWh
Power,Intraday,Continuous,NL,ID1,HH,2021-04-21T17:00:00+02:00,2021-04-21T17:30:00+02:00,46.19,EUR,,MWh
Power,Intraday,Continuous,NL,ID1,HH,2021-04-21T17:30:00+02:00,2021-04-21T18:00:00+02:00,46.19,EUR,,MWh
Power,Intraday,Continuous,NL,ID1,HH,2021-04-21T18:00:00+02:00,2021-04-21T18:30:00+02:00,35.93,EUR,,MWh
Power,Intraday,Continuous,NL,ID1,HH,2021-04-21T18:30:00+02:00,2021-04-21T19:00:00+02:00,35.93,EUR,,MWh
Power,Intraday,Continuous,NL,ID1,HH,2021-04-21T19:00:00+02:00,2021-04-21T19:30:00+02:00,63.60,EUR,,MWh
Power,Intraday,Continuous,NL,ID1,HH,2021-04-21T19:30:00+02:00,2021-04-21T20:00:00+02:00,63.60,EUR,,MWh
Power,Intraday,Continuous,NL,ID1,HH,2021-04-21T20:00:00+02:00,2021-04-21T20:30:00+02:00,82.66,EUR,,MWh
Power,Intraday,Continuous,NL,ID1,HH,2021-04-21T20:30:00+02:00,2021-04-21T21:00:00+02:00,82.66,EUR,,MWh
Power,Intraday,Continuous,NL,ID1,HH,2021-04-21T21:00:00+02:00,2021-04-21T21:30:00+02:00,75.39,EUR,,MWh
Power,Intraday,Continuous,NL,ID1,HH,2021-04-21T21:30:00+02:00,2021-04-21T22:00:00+02:00,75.39,EUR,,MWh
Power,Intraday,Continuous,NL,ID1,HH,2021-04-21T22:00:00+02:00,2021-04-21T22:30:00+02:00,64.86,EUR,,MWh
Power,Intraday,Continuous,NL,ID1,HH,2021-04-21T22:30:00+02:00,2021-04-21T23:00:00+02:00,64.86,EUR,,MWh
Power,Intraday,Continuous,NL,ID1,HH,2021-04-21T23:00:00+02:00,2021-04-21T23:30:00+02:00,53.98,EUR,,MWh
Power,Intraday,Continuous,NL,ID1,HH,2021-04-21T23:30:00+02:00,2021-04-22T00:00:00+02:00,53.98,EUR,,MWh
Power,Intraday,Continuous,NL,ID3,HH,2021-04-21T00:00:00+02:00,2021-04-21T00:30:00+02:00,60.76,EUR,,MWh
Power,Intraday,Continuous,NL,ID3,HH,2021-04-21T00:30:00+02:00,2021-04-21T01:00:00+02:00,60.76,EUR,,MWh
Power,Intraday,Continuous,NL,ID3,HH,2021-04-21T01:00:00+02:00,2021-04-21T01:30:00+02:00,54.59,EUR,,MWh
Power,Intraday,Continuous,NL,ID3,HH,2021-04-21T01:30:00+02:00,2021-04-21T02:00:00+02:00,54.59,EUR,,MWh
Power,Intraday,Continuous,NL,ID3,HH,2021-04-21T02:00:00+02:00,2021-04-21T02:30:00+02:00,50.22,EUR,,MWh
Power,Intraday,Continuous,NL,ID3,HH,2021-04-21T02:30:00+02:00,2021-04-21T03:00:00+02:00,50.22,EUR,,MWh
Power,Intraday,Continuous,NL,ID3,HH,2021-04-21T03:00:00+02:00,2021-04-21T03:30:00+02:00,51.03,EUR,,MWh
Power,Intraday,Continuous,NL,ID3,HH,2021-04-21T03:30:00+02:00,2021-04-21T04:00:00+02:00,51.03,EUR,,MWh
Power,Intraday,Continuous,NL,ID3,HH,2021-04-21T04:00:00+02:00,2021-04-21T04:30:00+02:00,48.62,EUR,,MWh
Power,Intraday,Continuous,NL,ID3,HH,2021-04-21T04:30:00+02:00,2021-04-21T05:00:00+02:00,48.62,EUR,,MWh
Power,Intraday,Continuous,NL,ID3,HH,2021-04-21T05:00:00+02:00,2021-04-21T05:30:00+02:00,54.97,EUR,,MWh
Power,Intraday,Continuous,NL,ID3,HH,2021-04-21T05:30:00+02:00,2021-04-21T06:00:00+02:00,54.97,EUR,,MWh
Power,Intraday,Continuous,NL,ID3,HH,2021-04-21T06:00:00+02:00,2021-04-21T06:30:00+02:00,72.13,EUR,,MWh
Power,Intraday,Continuous,NL,ID3,HH,2021-04-21T06:30:00+02:00,2021-04-21T07:00:00+02:00,72.13,EUR,,MWh
Power,Intraday,Continuous,NL,ID3,HH,2021-04-21T07:00:00+02:00,2021-04-21T07:30:00+02:00,87.37,EUR,,MWh
Power,Intraday,Continuous,NL,ID3,HH,2021-04-21T07:30:00+02:00,2021-04-21T08:00:00+02:00,87.37,EUR,,MWh
Power,Intraday,Continuous,NL,ID3,HH,2021-04-21T08:00:00+02:00,2021-04-21T08:30:00+02:00,42.35,EUR,,MWh
Power,Intraday,Continuous,NL,ID3,HH,2021-04-21T08:30:00+02:00,2021-04-21T09:00:00+02:00,42.35,EUR,,MWh
Power,Intraday,Continuous,NL,ID3,HH,2021-04-21T09:00:00+02:00,2021-04-21T09:30:00+02:00,38.71,EUR,,MWh
Power,Intraday,Continuous,NL,ID3,HH,2021-04-21T09:30:00+02:00,2021-04-21T10:00:00+02:00,38.71,EUR,,MWh
Power,Intraday,Continuous,NL,ID3,HH,2021-04-21T10:00:00+02:00,2021-04-21T10:30:00+02:00,35.87,EUR,,MWh
Power,Intraday,Continuous,NL,ID3,HH,2021-04-21T10:30:00+02:00,2021-04-21T11:00:00+02:00,35.87,EUR,,MWh
Power,Intraday,Continuous,NL,ID3,HH,2021-04-21T11:00:00+02:00,2021-04-21T11:30:00+02:00,33.61,EUR,,MWh
Power,Intraday,Continuous,NL,ID3,HH,2021-04-21T11:30:00+02:00,2021-04-21T12:00:00+02:00,33.61,EUR,,MWh
Power,Intraday,Continuous,NL,ID3,HH,2021-04-21T12:00:00+02:00,2021-04-21T12:30:00+02:00,27.85,EUR,,MWh
Power,Intraday,Continuous,NL,ID3,HH,2021-04-21T12:30:00+02:00,2021-04-21T13:00:00+02:00,27.85,EUR,,MWh
Power,Intraday,Continuous,NL,ID3,HH,2021-04-21T13:00:00+02:00,2021-04-21T13:30:00+02:00,24.07,EUR,,MWh
Power,Intraday,Continuous,NL,ID3,HH,2021-04-21T13:30:00+02:00,2021-04-21T14:00:00+02:00,24.07,EUR,,MWh
Power,Intraday,Continuous,NL,ID3,HH,2021-04-21T14:00:00+02:00,2021-04-21T14:30:00+02:00,26.06,EUR,,MWh
Power,Intraday,Continuous,NL,ID3,HH,2021-04-21T14:30:00+02:00,2021-04-21T15:00:00+02:00,26.06,EUR,,MWh
Power,Intraday,Continuous,NL,ID3,HH,2021-04-21T15:00:00+02:00,2021-04-21T15:30:00+02:00,23.36,EUR,,MWh
Power,Intraday,Continuous,NL,ID3,HH,2021-04-21T15:30:00+02:00,2021-04-21T16:00:00+02:00,23.36,EUR,,MWh
Power,Intraday,Continuous,NL,ID3,HH,2021-04-21T16:00:00+02:00,2021-04-21T16:30:00+02:00,35.49,EUR,,MWh
Power,Intraday,Continuous,NL,ID3,HH,2021-04-21T16:30:00+02:00,2021-04-21T17:00:00+02:00,35.49,EUR,,MWh
Power,Intraday,Continuous,NL,ID3,HH,2021-04-21T17:00:00+02:00,2021-04-21T17:30:00+02:00,46.19,EUR,,MWh
Power,Intraday,Continuous,NL,ID3,HH,2021-04-21T17:30:00+02:00,2021-04-21T18:00:00+02:00,46.19,EUR,,MWh
Power,Intraday,Continuous,NL,ID3,HH,2021-04-21T18:00:00+02:00,2021-04-21T18:30:00+02:00,35.93,EUR,,MWh
Power,Intraday,Continuous,NL,ID3,HH,2021-04-21T18:30:00+02:00,2021-04-21T19:00:00+02:00,35.93,EUR,,MWh
Power,Intraday,Continuous,NL,ID3,HH,2021-04-21T19:00:00+02:00,2021-04-21T19:30:00+02:00,63.60,EUR,,MWh
Power,Intraday,Continuous,NL,ID3,HH,2021-04-21T19:30:00+02:00,2021-04-21T20:00:00+02:00,63.60,EUR,,MWh
Power,Intraday,Continuous,NL,ID3,HH,2021-04-21T20:00:00+02:00,2021-04-21T20:30:00+02:00,82.66,EUR,,MWh
Power,Intraday,Continuous,NL,ID3,HH,2021-04-21T20:30:00+02:00,2021-04-21T21:00:00+02:00,82.66,EUR,,MWh
Power,Intraday,Continuous,NL,ID3,HH,2021-04-21T21:00:00+02:00,2021-04-21T21:30:00+02:00,75.39,EUR,,MWh
Power,Intraday,Continuous,NL,ID3,HH,2021-04-21T21:30:00+02:00,2021-04-21T22:00:00+02:00,75.39,EUR,,MWh
Power,Intraday,Continuous,NL,ID3,HH,2021-04-21T22:00:00+02:00,2021-04-21T22:30:00+02:00,64.86,EUR,,MWh
Power,Intraday,Continuous,NL,ID3,HH,2021-04-21T22:30:00+02:00,2021-04-21T23:00:00+02:00,64.86,EUR,,MWh
Power,Intraday,Continuous,NL,ID3,HH,2021-04-21T23:00:00+02:00,2021-04-21T23:30:00+02:00,53.98,EUR,,MWh
Power,Intraday,Continuous,NL,ID3,HH,2021-04-21T23:30:00+02:00,2021-04-22T00:00:00+02:00,53.98,EUR,,MWh
Power,Intraday,Continuous,NL,IDFULL,QH,2021-04-21T00:00:00+02:00,2021-04-21T00:15:00+02:00,70.26,EUR,16.900,MWh
Power,Intraday,Continuous,NL,IDFULL,QH,2021-04-21T00:15:00+02:00,2021-04-21T00:30:00+02:00,68.91,EUR,10.350,MWh
Power,Intraday,Continuous,NL,IDFULL,QH,2021-04-21T00:30:00+02:00,2021-04-21T00:45:00+02:00,57.40,EUR,10.630,MWh
Power,Intraday,Continuous,NL,IDFULL,QH,2021-04-21T00:45:00+02:00,2021-04-21T01:00:00+02:00,47.24,EUR,11.450,MWh
Power,Intraday,Continuous,NL,IDFULL,QH,2021-04-21T01:00:00+02:00,2021-04-21T01:15:00+02:00,66.49,EUR,7.450,MWh
Power,Intraday,Continuous,NL,IDFULL,QH,2021-04-21T01:15:00+02:00,2021-04-21T01:30:00+02:00,58.47,EUR,7.800,MWh
Power,Intraday,Continuous,NL,IDFULL,QH,2021-04-21T01:30:00+02:00,2021-04-21T01:45:00+02:00,53.82,EUR,2.630,MWh
Power,Intraday,Continuous,NL,IDFULL,QH,2021-04-21T01:45:00+02:00,2021-04-21T02:00:00+02:00,52.75,EUR,3.030,MWh
Power,Intraday,Continuous,NL,IDFULL,QH,2021-04-21T02:00:00+02:00,2021-04-21T02:15:00+02:00,59.57,EUR,6.900,MWh
Power,Intraday,Continuous,NL,IDFULL,QH,2021-04-21T02:15:00+02:00,2021-04-21T02:30:00+02:00,47.10,EUR,,MWh
Power,Intraday,Continuous,NL,IDFULL,QH,2021-04-21T02:30:00+02:00,2021-04-21T02:45:00+02:00,47.10,EUR,,MWh
Power,Intraday,Continuous,NL,IDFULL,QH,2021-04-21T02:45:00+02:00,2021-04-21T03:00:00+02:00,47.10,EUR,,MWh
Power,Intraday,Continuous,NL,IDFULL,QH,2021-04-21T03:00:00+02:00,2021-04-21T03:15:00+02:00,53.15,EUR,6.550,MWh
Power,Intraday,Continuous,NL,IDFULL,QH,2021-04-21T03:15:00+02:00,2021-04-21T03:30:00+02:00,50.32,EUR,,MWh
Power,Intraday,Continuous,NL,IDFULL,QH,2021-04-21T03:30:00+02:00,2021-04-21T03:45:00+02:00,50.32,EUR,,MWh
Power,Intraday,Continuous,NL,IDFULL,QH,2021-04-21T03:45:00+02:00,2021-04-21T04:00:00+02:00,50.32,EUR,,MWh
Power,Intraday,Continuous,NL,IDFULL,QH,2021-04-21T04:00:00+02:00,2021-04-21T04:15:00+02:00,49.73,EUR,3.530,MWh
Power,Intraday,Continuous,NL,IDFULL,QH,2021-04-21T04:15:00+02:00,2021-04-21T04:30:00+02:00,48.25,EUR,,MWh
Power,Intraday,Continuous,NL,IDFULL,QH,2021-04-21T04:30:00+02:00,2021-04-21T04:45:00+02:00,48.25,EUR,,MWh
Power,Intraday,Continuous,NL,IDFULL,QH,2021-04-21T04:45:00+02:00,2021-04-21T05:00:00+02:00,48.25,EUR,,MWh
Power,Intraday,Continuous,NL,IDFULL,QH,2021-04-21T05:00:00+02:00,2021-04-21T05:15:00+02:00,54.97,EUR,,MWh
Power,Intraday,Continuous,NL,IDFULL,QH,2021-04-21T05:15:00+02:00,2021-04-21T05:30:00+02:00,54.97,EUR,,MWh
Power,Intraday,Continuous,NL,IDFULL,QH,2021-04-21T05:30:00+02:00,2021-04-21T05:45:00+02:00,54.97,EUR,,MWh
Power,Intraday,Continuous,NL,IDFULL,QH,2021-04-21T05:45:00+02:00,2021-04-21T06:00:00+02:00,54.97,EUR,,MWh
Power,Intraday,Continuous,NL,IDFULL,QH,2021-04-21T06:00:00+02:00,2021-04-21T06:15:00+02:00,56.31,EUR,8.030,MWh
Power,Intraday,Continuous,NL,IDFULL,QH,2021-04-21T06:15:00+02:00,2021-04-21T06:30:00+02:00,78.90,EUR,3.480,MWh
Power,Intraday,Continuous,NL,IDFULL,QH,2021-04-21T06:30:00+02:00,2021-04-21T06:45:00+02:00,76.66,EUR,,MWh
Power,Intraday,Continuous,NL,IDFULL,QH,2021-04-21T06:45:00+02:00,2021-04-21T07:00:00+02:00,76.66,EUR,,MWh
Power,Intraday,Continuous,NL,IDFULL,QH,2021-04-21T07:00:00+02:00,2021-04-21T07:15:00+02:00,81.36,EUR,68.730,MWh
Power,Intraday,Continuous,NL,IDFULL,QH,2021-04-21T07:15:00+02:00,2021-04-21T07:30:00+02:00,91.13,EUR,36.350,MWh
Power,Intraday,Continuous,NL,IDFULL,QH,2021-04-21T07:30:00+02:00,2021-04-21T07:45:00+02:00,87.44,EUR,37.750,MWh
Power,Intraday,Continuous,NL,IDFULL,QH,2021-04-21T07:45:00+02:00,2021-04-21T08:00:00+02:00,78.09,EUR,91.670,MWh
Power,Intraday,Continuous,NL,IDFULL,QH,2021-04-21T08:00:00+02:00,2021-04-21T08:15:00+02:00,83.61,EUR,4.250,MWh
Power,Intraday,Continuous,NL,IDFULL,QH,2021-04-21T08:15:00+02:00,2021-04-21T08:30:00+02:00,73.47,EUR,9.100,MWh
Power,Intraday,Continuous,NL,IDFULL,QH,2021-04-21T08:30:00+02:00,2021-04-21T08:45:00+02:00,32.11,EUR,3.750,MWh
Power,Intraday,Continuous,NL,IDFULL,QH,2021-04-21T08:45:00+02:00,2021-04-21T09:00:00+02:00,23.65,EUR,3.750,MWh
Power,Intraday,Continuous,NL,IDFULL,QH,2021-04-21T09:00:00+02:00,2021-04-21T09:15:00+02:00,78.83,EUR,61.280,MWh
Power,Intraday,Continuous,NL,IDFULL,QH,2021-04-21T09:15:00+02:00,2021-04-21T09:30:00+02:00,40.80,EUR,4.600,MWh
Power,Intraday,Continuous,NL,IDFULL,QH,2021-04-21T09:30:00+02:00,2021-04-21T09:45:00+02:00,38.48,EUR,9.530,MWh
Power,Intraday,Continuous,NL,IDFULL,QH,2021-04-21T09:45:00+02:00,2021-04-21T10:00:00+02:00,0.00,EUR,7.500,MWh
Power,Intraday,Continuous,NL,IDFULL,QH,2021-04-21T10:00:00+02:00,2021-04-21T10:15:00+02:00,65.00,EUR,72.830,MWh
Power,Intraday,Continuous,NL,IDFULL,QH,2021-04-21T10:15:00+02:00,2021-04-21T10:30:00+02:00,47.33,EUR,43.230,MWh
Power,Intraday,Continuous,NL,IDFULL,QH,2021-04-21T10:30:00+02:00,2021-04-21T10:45:00+02:00,39.66,EUR,16.200,MWh
Power,Intraday,Continuous,NL,IDFULL,QH,2021-04-21T10:45:00+02:00,2021-04-21T11:00:00+02:00,39.89,EUR,10.030,MWh
Power,Intraday,Continuous,NL,IDFULL,QH,2021-04-21T11:00:00+02:00,2021-04-21T11:15:00+02:00,53.27,EUR,54.980,MWh
Power,Intraday,Continuous,NL,IDFULL,QH,2021-04-21T11:15:00+02:00,2021-04-21T11:30:00+02:00,53.79,EUR,34.500,MWh
Power,Intraday,Continuous,NL,IDFULL,QH,2021-04-21T11:30:00+02:00,2021-04-21T11:45:00+02:00,13.69,EUR,,MWh
Power,Intraday,Continuous,NL,IDFULL,QH,2021-04-21T11:45:00+02:00,2021-04-21T12:00:00+02:00,13.69,EUR,,MWh
Power,Intraday,Continuous,NL,IDFULL,QH,2021-04-21T12:00:00+02:00,2021-04-21T12:15:00+02:00,48.82,EUR,35.480,MWh
Power,Intraday,Continuous,NL,IDFULL,QH,2021-04-21T12:15:00+02:00,2021-04-21T12:30:00+02:00,37.66,EUR,11.800,MWh
Power,Intraday,Continuous,NL,IDFULL,QH,2021-04-21T12:30:00+02:00,2021-04-21T12:45:00+02:00,32.63,EUR,4.250,MWh
Power,Intraday,Continuous,NL,IDFULL,QH,2021-04-21T12:45:00+02:00,2021-04-21T13:00:00+02:00,10.50,EUR,3.080,MWh
Power,Intraday,Continuous,NL,IDFULL,QH,2021-04-21T13:00:00+02:00,2021-04-21T13:15:00+02:00,13.16,EUR,,MWh
Power,Intraday,Continuous,NL,IDFULL,QH,2021-04-21T13:15:00+02:00,2021-04-21T13:30:00+02:00,13.16,EUR,,MWh
Power,Intraday,Continuous,NL,IDFULL,QH,2021-04-21T13:30:00+02:00,2021-04-21T13:45:00+02:00,44.19,EUR,5.400,MWh
Power,Intraday,Continuous,NL,IDFULL,QH,2021-04-21T13:45:00+02:00,2021-04-21T14:00:00+02:00,25.77,EUR,4.400,MWh
Power,Intraday,Continuous,NL,IDFULL,QH,2021-04-21T14:00:00+02:00,2021-04-21T14:15:00+02:00,25.91,EUR,10.150,MWh
Power,Intraday,Continuous,NL,IDFULL,QH,2021-04-21T14:15:00+02:00,2021-04-21T14:30:00+02:00,22.33,EUR,,MWh
Power,Intraday,Continuous,NL,IDFULL,QH,2021-04-21T14:30:00+02:00,2021-04-21T14:45:00+02:00,22.33,EUR,,MWh
Power,Intraday,Continuous,NL,IDFULL,QH,2021-04-21T14:45:00+02:00,2021-04-21T15:00:00+02:00,33.67,EUR,4.700,MWh
Power,Intraday,Continuous,NL,IDFULL,QH,2021-04-21T15:00:00+02:00,2021-04-21T15:15:00+02:00,20.26,EUR,9.000,MWh
Power,Intraday,Continuous,NL,IDFULL,QH,2021-04-21T15:15:00+02:00,2021-04-21T15:30:00+02:00,25.08,EUR,9.000,MWh
Power,Intraday,Continuous,NL,IDFULL,QH,2021-04-21T15:30:00+02:00,2021-04-21T15:45:00+02:00,44.22,EUR,21.650,MWh
Power,Intraday,Continuous,NL,IDFULL,QH,2021-04-21T15:45:00+02:00,2021-04-21T16:00:00+02:00,42.32,EUR,19.000,MWh
Power,Intraday,Continuous,NL,IDFULL,QH,2021-04-21T16:00:00+02:00,2021-04-21T16:15:00+02:00,31.33,EUR,22.180,MWh
Power,Intraday,Continuous,NL,IDFULL,QH,2021-04-21T16:15:00+02:00,2021-04-21T16:30:00+02:00,44.49,EUR,23.880,MWh
Power,Intraday,Continuous,NL,IDFULL,QH,2021-04-21T16:30:00+02:00,2021-04-21T16:45:00+02:00,55.38,EUR,54.480,MWh
Power,Intraday,Continuous,NL,IDFULL,QH,2021-04-21T16:45:00+02:00,2021-04-21T17:00:00+02:00,60.10,EUR,94.130,MWh
Power,Intraday,Continuous,NL,IDFULL,QH,2021-04-21T17:00:00+02:00,2021-04-21T17:15:00+02:00,24.13,EUR,113.500,MWh
Power,Intraday,Continuous,NL,IDFULL,QH,2021-04-21T17:15:00+02:00,2021-04-21T17:30:00+02:00,49.98,EUR,60.550,MWh
Power,Intraday,Continuous,NL,IDFULL,QH,2021-04-21T17:30:00+02:00,2021-04-21T17:45:00+02:00,66.78,EUR,80.130,MWh
Power,Intraday,Continuous,NL,IDFULL,QH,2021-04-21T17:45:00+02:00,2021-04-21T18:00:00+02:00,73.61,EUR,113.550,MWh
Power,Intraday,Continuous,NL,IDFULL,QH,2021-04-21T18:00:00+02:00,2021-04-21T18:15:00+02:00,22.90,EUR,11.080,MWh
Power,Intraday,Continuous,NL,IDFULL,QH,2021-04-21T18:15:00+02:00,2021-04-21T18:30:00+02:00,40.27,EUR,,MWh
Power,Intraday,Continuous,NL,IDFULL,QH,2021-04-21T18:30:00+02:00,2021-04-21T18:45:00+02:00,40.27,EUR,,MWh
Power,Intraday,Continuous,NL,IDFULL,QH,2021-04-21T18:45:00+02:00,2021-04-21T19:00:00+02:00,40.27,EUR,,MWh
Power,Intraday,Continuous,NL,IDFULL,QH,2021-04-21T19:00:00+02:00,2021-04-21T19:15:00+02:00,55.28,EUR,20.180,MWh
Power,Intraday,Continuous,NL,IDFULL,QH,2021-04-21T19:15:00+02:00,2021-04-21T19:30:00+02:00,77.24,EUR,20.130,MWh
Power,Intraday,Continuous,NL,IDFULL,QH,2021-04-21T19:30:00+02:00,2021-04-21T19:45:00+02:00,83.32,EUR,24.350,MWh
Power,Intraday,Continuous,NL,IDFULL,QH,2021-04-21T19:45:00+02:00,2021-04-21T20:00:00+02:00,87.39,EUR,58.450,MWh
Power,Intraday,Continuous,NL,IDFULL,QH,2021-04-21T20:00:00+02:00,2021-04-21T20:15:00+02:00,92.12,EUR,75.780,MWh
Power,Intraday,Continuous,NL,IDFULL,QH,2021-04-21T20:15:00+02:00,2021-04-21T20:30:00+02:00,85.92,EUR,50.330,MWh
Power,Intraday,Continuous,NL,IDFULL,QH,2021-04-21T20:30:00+02:00,2021-04-21T20:45:00+02:00,76.95,EUR,50.150,MWh
Power,Intraday,Continuous,NL,IDFULL,QH,2021-04-21T20:45:00+02:00,2021-04-21T21:00:00+02:00,70.62,EUR,55.630,MWh
Power,Intraday,Continuous,NL,IDFULL,QH,2021-04-21T21:00:00+02:00,2021-04-21T21:15:00+02:00,89.46,EUR,43.930,MWh
Power,Intraday,Continuous,NL,IDFULL,QH,2021-04-21T21:15:00+02:00,2021-04-21T21:30:00+02:00,81.79,EUR,35.330,MWh
Power,Intraday,Continuous,NL,IDFULL,QH,2021-04-21T21:30:00+02:00,2021-04-21T21:45:00+02:00,69.06,EUR,38.980,MWh
Power,Intraday,Continuous,NL,IDFULL,QH,2021-04-21T21:45:00+02:00,2021-04-21T22:00:00+02:00,53.57,EUR,62.480,MWh
Power,Intraday,Continuous,NL,IDFULL,QH,2021-04-21T22:00:00+02:00,2021-04-21T22:15:00+02:00,81.96,EUR,62.750,MWh
Power,Intraday,Continuous,NL,IDFULL,QH,2021-04-21T22:15:00+02:00,2021-04-21T22:30:00+02:00,71.55,EUR,34.150,MWh
Power,Intraday,Continuous,NL,IDFULL,QH,2021-04-21T22:30:00+02:00,2021-04-21T22:45:00+02:00,56.14,EUR,40.580,MWh
Power,Intraday,Continuous,NL,IDFULL,QH,2021-04-21T22:45:00+02:00,2021-04-21T23:00:00+02:00,50.65,EUR,73.880,MWh
Power,Intraday,Continuous,NL,IDFULL,QH,2021-04-21T23:00:00+02:00,2021-04-21T23:15:00+02:00,68.83,EUR,128.900,MWh
Power,Intraday,Continuous,NL,IDFULL,QH,2021-04-21T23:15:00+02:00,2021-04-21T23:30:00+02:00,61.95,EUR,60.150,MWh
Power,Intraday,Continuous,NL,IDFULL,QH,2021-04-21T23:30:00+02:00,2021-04-21T23:45:00+02:00,51.16,EUR,50.550,MWh
Power,Intraday,Continuous,NL,IDFULL,QH,2021-04-21T23:45:00+02:00,2021-04-22T00:00:00+02:00,38.81,EUR,52.650,MWh
Power,Intraday,Continuous,NL,ID1,QH,2021-04-21T00:00:00+02:00,2021-04-21T00:15:00+02:00,70.26,EUR,,MWh
Power,Intraday,Continuous,NL,ID1,QH,2021-04-21T00:15:00+02:00,2021-04-21T00:30:00+02:00,68.91,EUR,,MWh
Power,Intraday,Continuous,NL,ID1,QH,2021-04-21T00:30:00+02:00,2021-04-21T00:45:00+02:00,57.40,EUR,,MWh
Power,Intraday,Continuous,NL,ID1,QH,2021-04-21T00:45:00+02:00,2021-04-21T01:00:00+02:00,47.24,EUR,,MWh
Power,Intraday,Continuous,NL,ID1,QH,2021-04-21T01:00:00+02:00,2021-04-21T01:15:00+02:00,66.41,EUR,,MWh
Power,Intraday,Continuous,NL,ID1,QH,2021-04-21T01:15:00+02:00,2021-04-21T01:30:00+02:00,57.33,EUR,4.500,MWh
Power,Intraday,Continuous,NL,ID1,QH,2021-04-21T01:30:00+02:00,2021-04-21T01:45:00+02:00,53.82,EUR,,MWh
Power,Intraday,Continuous,NL,ID1,QH,2021-04-21T01:45:00+02:00,2021-04-21T02:00:00+02:00,52.75,EUR,,MWh
Power,Intraday,Continuous,NL,ID1,QH,2021-04-21T02:00:00+02:00,2021-04-21T02:15:00+02:00,59.57,EUR,,MWh
Power,Intraday,Continuous,NL,ID1,QH,2021-04-21T02:15:00+02:00,2021-04-21T02:30:00+02:00,47.10,EUR,,MWh
Power,Intraday,Continuous,NL,ID1,QH,2021-04-21T02:30:00+02:00,2021-04-21T02:45:00+02:00,47.10,EUR,,MWh
Power,Intraday,Continuous,NL,ID1,QH,2021-04-21T02:45:00+02:00,2021-04-21T03:00:00+02:00,47.10,EUR,,MWh
Power,Intraday,Continuous,NL,ID1,QH,2021-04-21T03:00:00+02:00,2021-04-21T03:15:00+02:00,53.21,EUR,,MWh
Power,Intraday,Continuous,NL,ID1,QH,2021-04-21T03:15:00+02:00,2021-04-21T03:30:00+02:00,50.32,EUR,,MWh
Power,Intraday,Continuous,NL,ID1,QH,2021-04-21T03:30:00+02:00,2021-04-21T03:45:00+02:00,50.32,EUR,,MWh
Power,Intraday,Continuous,NL,ID1,QH,2021-04-21T03:45:00+02:00,2021-04-21T04:00:00+02:00,50.32,EUR,,MWh
Power,Intraday,Continuous,NL,ID1,QH,2021-04-21T04:00:00+02:00,2021-04-21T04:15:00+02:00,49.73,EUR,,MWh
Power,Intraday,Continuous,NL,ID1,QH,2021-04-21T04:15:00+02:00,2021-04-21T04:30:00+02:00,48.25,EUR,,MWh
Power,Intraday,Continuous,NL,ID1,QH,2021-04-21T04:30:00+02:00,2021-04-21T04:45:00+02:00,48.25,EUR,,MWh
Power,Intraday,Continuous,NL,ID1,QH,2021-04-21T04:45:00+02:00,2021-04-21T05:00:00+02:00,48.25,EUR,,MWh
Power,Intraday,Continuous,NL,ID1,QH,2021-04-21T05:00:00+02:00,2021-04-21T05:15:00+02:00,54.97,EUR,,MWh
Power,Intraday,Continuous,NL,ID1,QH,2021-04-21T05:15:00+02:00,2021-04-21T05:30:00+02:00,54.97,EUR,,MWh
Power,Intraday,Continuous,NL,ID1,QH,2021-04-21T05:30:00+02:00,2021-04-21T05:45:00+02:00,54.97,EUR,,MWh
Power,Intraday,Continuous,NL,ID1,QH,2021-04-21T05:45:00+02:00,2021-04-21T06:00:00+02:00,54.97,EUR,,MWh
Power,Intraday,Continuous,NL,ID1,QH,2021-04-21T06:00:00+02:00,2021-04-21T06:15:00+02:00,56.95,EUR,2.530,MWh
Power,Intraday,Continuous,NL,ID1,QH,2021-04-21T06:15:00+02:00,2021-04-21T06:30:00+02:00,78.90,EUR,,MWh
Power,Intraday,Continuous,NL,ID1,QH,2021-04-21T06:30:00+02:00,2021-04-21T06:45:00+02:00,76.66,EUR,,MWh
Power,Intraday,Continuous,NL,ID1,QH,2021-04-21T06:45:00+02:00,2021-04-21T07:00:00+02:00,76.66,EUR,,MWh
Power,Intraday,Continuous,NL,ID1,QH,2021-04-21T07:00:00+02:00,2021-04-21T07:15:00+02:00,89.71,EUR,,MWh
Power,Intraday,Continuous,NL,ID1,QH,2021-04-21T07:15:00+02:00,2021-04-21T07:30:00+02:00,93.52,EUR,,MWh
Power,Intraday,Continuous,NL,ID1,QH,2021-04-21T07:30:00+02:00,2021-04-21T07:45:00+02:00,87.54,EUR,,MWh
Power,Intraday,Continuous,NL,ID1,QH,2021-04-21T07:45:00+02:00,2021-04-21T08:00:00+02:00,71.48,EUR,,MWh
Power,Intraday,Continuous,NL,ID1,QH,2021-04-21T08:00:00+02:00,2021-04-21T08:15:00+02:00,83.03,EUR,,MWh
Power,Intraday,Continuous,NL,ID1,QH,2021-04-21T08:15:00+02:00,2021-04-21T08:30:00+02:00,72.52,EUR,,MWh
Power,Intraday,Continuous,NL,ID1,QH,2021-04-21T08:30:00+02:00,2021-04-21T08:45:00+02:00,23.77,EUR,,MWh
Power,Intraday,Continuous,NL,ID1,QH,2021-04-21T08:45:00+02:00,2021-04-21T09:00:00+02:00,22.38,EUR,,MWh
Power,Intraday,Continuous,NL,ID1,QH,2021-04-21T09:00:00+02:00,2021-04-21T09:15:00+02:00,86.30,EUR,,MWh
Power,Intraday,Continuous,NL,ID1,QH,2021-04-21T09:15:00+02:00,2021-04-21T09:30:00+02:00,40.80,EUR,,MWh
Power,Intraday,Continuous,NL,ID1,QH,2021-04-21T09:30:00+02:00,2021-04-21T09:45:00+02:00,38.48,EUR,9.530,MWh
Power,Intraday,Continuous,NL,ID1,QH,2021-04-21T09:45:00+02:00,2021-04-21T10:00:00+02:00,0.00,EUR,,MWh
Power,Intraday,Continuous,NL,ID1,QH,2021-04-21T10:00:00+02:00,2021-04-21T10:15:00+02:00,74.23,EUR,3.650,MWh
Power,Intraday,Continuous,NL,ID1,QH,2021-04-21T10:15:00+02:00,2021-04-21T10:30:00+02:00,44.59,EUR,,MWh
Power,Intraday,Continuous,NL,ID1,QH,2021-04-21T10:30:00+02:00,2021-04-21T10:45:00+02:00,38.79,EUR,,MWh
Power,Intraday,Continuous,NL,ID1,QH,2021-04-21T10:45:00+02:00,2021-04-21T11:00:00+02:00,39.89,EUR,,MWh
Power,Intraday,Continuous,NL,ID1,QH,2021-04-21T11:00:00+02:00,2021-04-21T11:15:00+02:00,53.27,EUR,,MWh
Power,Intraday,Continuous,NL,ID1,QH,2021-04-21T11:15:00+02:00,2021-04-21T11:30:00+02:00,53.79,EUR,,MWh
Power,Intraday,Continuous,NL,ID1,QH,2021-04-21T11:30:00+02:00,2021-04-21T11:45:00+02:00,13.69,EUR,,MWh
Power,Intraday,Continuous,NL,ID1,QH,2021-04-21T11:45:00+02:00,2021-04-21T12:00:00+02:00,13.69,EUR,,MWh
Power,Intraday,Continuous,NL,ID1,QH,2021-04-21T12:00:00+02:00,2021-04-21T12:15:00+02:00,48.82,EUR,,MWh
Power,Intraday,Continuous,NL,ID1,QH,2021-04-21T12:15:00+02:00,2021-04-21T12:30:00+02:00,37.66,EUR,,MWh
Power,Intraday,Continuous,NL,ID1,QH,2021-04-21T12:30:00+02:00,2021-04-21T12:45:00+02:00,32.63,EUR,,MWh
Power,Intraday,Continuous,NL,ID1,QH,2021-04-21T12:45:00+02:00,2021-04-21T13:00:00+02:00,10.28,EUR,,MWh
Power,Intraday,Continuous,NL,ID1,QH,2021-04-21T13:00:00+02:00,2021-04-21T13:15:00+02:00,13.16,EUR,,MWh
Power,Intraday,Continuous,NL,ID1,QH,2021-04-21T13:15:00+02:00,2021-04-21T13:30:00+02:00,13.16,EUR,,MWh
Power,Intraday,Continuous,NL,ID1,QH,2021-04-21T13:30:00+02:00,2021-04-21T13:45:00+02:00,44.19,EUR,,MWh
Power,Intraday,Continuous,NL,ID1,QH,2021-04-21T13:45:00+02:00,2021-04-21T14:00:00+02:00,25.77,EUR,,MWh
Power,Intraday,Continuous,NL,ID1,QH,2021-04-21T14:00:00+02:00,2021-04-21T14:15:00+02:00,28.46,EUR,,MWh
Power,Intraday,Continuous,NL,ID1,QH,2021-04-21T14:15:00+02:00,2021-04-21T14:30:00+02:00,22.33,EUR,,MWh
Power,Intraday,Continuous,NL,ID1,QH,2021-04-21T14:30:00+02:00,2021-04-21T14:45:00+02:00,22.33,EUR,,MWh
Power,Intraday,Continuous,NL,ID1,QH,2021-04-21T14:45:00+02:00,2021-04-21T15:00:00+02:00,31.05,EUR,,MWh
Power,Intraday,Continuous,NL,ID1,QH,2021-04-21T15:00:00+02:00,2021-04-21T15:15:00+02:00,20.26,EUR,,MWh
Power,Intraday,Continuous,NL,ID1,QH,2021-04-21T15:15:00+02:00,2021-04-21T15:30:00+02:00,25.08,EUR,,MWh
Power,Intraday,Continuous,NL,ID1,QH,2021-04-21T15:30:00+02:00,2021-04-21T15:45:00+02:00,47.02,EUR,,MWh
Power,Intraday,Continuous,NL,ID1,QH,2021-04-21T15:45:00+02:00,2021-04-21T16:00:00+02:00,42.43,EUR,3.450,MWh
Power,Intraday,Continuous,NL,ID1,QH,2021-04-21T16:00:00+02:00,2021-04-21T16:15:00+02:00,31.51,EUR,,MWh
Power,Intraday,Continuous,NL,ID1,QH,2021-04-21T16:15:00+02:00,2021-04-21T16:30:00+02:00,48.15,EUR,6.250,MWh
Power,Intraday,Continuous,NL,ID1,QH,2021-04-21T16:30:00+02:00,2021-04-21T16:45:00+02:00,55.52,EUR,,MWh
Power,Intraday,Continuous,NL,ID1,QH,2021-04-21T16:45:00+02:00,2021-04-21T17:00:00+02:00,60.10,EUR,2.500,MWh
Power,Intraday,Continuous,NL,ID1,QH,2021-04-21T17:00:00+02:00,2021-04-21T17:15:00+02:00,30.90,EUR,14.550,MWh
Power,Intraday,Continuous,NL,ID1,QH,2021-04-21T17:15:00+02:00,2021-04-21T17:30:00+02:00,56.93,EUR,,MWh
Power,Intraday,Continuous,NL,ID1,QH,2021-04-21T17:30:00+02:00,2021-04-21T17:45:00+02:00,68.84,EUR,,MWh
Power,Intraday,Continuous,NL,ID1,QH,2021-04-21T17:45:00+02:00,2021-04-21T18:00:00+02:00,70.00,EUR,14.700,MWh
Power,Intraday,Continuous,NL,ID1,QH,2021-04-21T18:00:00+02:00,2021-04-21T18:15:00+02:00,22.75,EUR,10.000,MWh
Power,Intraday,Continuous,NL,ID1,QH,2021-04-21T18:15:00+02:00,2021-04-21T18:30:00+02:00,40.27,EUR,,MWh
Power,Intraday,Continuous,NL,ID1,QH,2021-04-21T18:30:00+02:00,2021-04-21T18:45:00+02:00,40.27,EUR,,MWh
Power,Intraday,Continuous,NL,ID1,QH,2021-04-21T18:45:00+02:00,2021-04-21T19:00:00+02:00,40.27,EUR,,MWh
Power,Intraday,Continuous,NL,ID1,QH,2021-04-21T19:00:00+02:00,2021-04-21T19:15:00+02:00,55.28,EUR,,MWh
Power,Intraday,Continuous,NL,ID1,QH,2021-04-21T19:15:00+02:00,2021-04-21T19:30:00+02:00,81.26,EUR,,MWh
Power,Intraday,Continuous,NL,ID1,QH,2021-04-21T19:30:00+02:00,2021-04-21T19:45:00+02:00,86.18,EUR,,MWh
Power,Intraday,Continuous,NL,ID1,QH,2021-04-21T19:45:00+02:00,2021-04-21T20:00:00+02:00,85.44,EUR,,MWh
Power,Intraday,Continuous,NL,ID1,QH,2021-04-21T20:00:00+02:00,2021-04-21T20:15:00+02:00,93.56,EUR,,MWh
Power,Intraday,Continuous,NL,ID1,QH,2021-04-21T20:15:00+02:00,2021-04-21T20:30:00+02:00,87.30,EUR,,MWh
Power,Intraday,Continuous,NL,ID1,QH,2021-04-21T20:30:00+02:00,2021-04-21T20:45:00+02:00,76.37,EUR,,MWh
Power,Intraday,Continuous,NL,ID1,QH,2021-04-21T20:45:00+02:00,2021-04-21T21:00:00+02:00,70.07,EUR,,MWh
Power,Intraday,Continuous,NL,ID1,QH,2021-04-21T21:00:00+02:00,2021-04-21T21:15:00+02:00,87.40,EUR,,MWh
Power,Intraday,Continuous,NL,ID1,QH,2021-04-21T21:15:00+02:00,2021-04-21T21:30:00+02:00,76.77,EUR,,MWh
Power,Intraday,Continuous,NL,ID1,QH,2021-04-21T21:30:00+02:00,2021-04-21T21:45:00+02:00,67.47,EUR,,MWh
Power,Intraday,Continuous,NL,ID1,QH,2021-04-21T21:45:00+02:00,2021-04-21T22:00:00+02:00,50.93,EUR,,MWh
Power,Intraday,Continuous,NL,ID1,QH,2021-04-21T22:00:00+02:00,2021-04-21T22:15:00+02:00,75.13,EUR,3.230,MWh
Power,Intraday,Continuous,NL,ID1,QH,2021-04-21T22:15:00+02:00,2021-04-21T22:30:00+02:00,70.88,EUR,,MWh
Power,Intraday,Continuous,NL,ID1,QH,2021-04-21T22:30:00+02:00,2021-04-21T22:45:00+02:00,24.41,EUR,3.750,MWh
Power,Intraday,Continuous,NL,ID1,QH,2021-04-21T22:45:00+02:00,2021-04-21T23:00:00+02:00,24.41,EUR,3.750,MWh
Power,Intraday,Continuous,NL,ID1,QH,2021-04-21T23:00:00+02:00,2021-04-21T23:15:00+02:00,50.49,EUR,3.380,MWh
Power,Intraday,Continuous,NL,ID1,QH,2021-04-21T23:15:00+02:00,2021-04-21T23:30:00+02:00,62.09,EUR,,MWh
Power,Intraday,Continuous,NL,ID1,QH,2021-04-21T23:30:00+02:00,2021-04-21T23:45:00+02:00,49.97,EUR,,MWh
Power,Intraday,Continuous,NL,ID1,QH,2021-04-21T23:45:00+02:00,2021-04-22T00:00:00+02:00,41.83,EUR,,MWh
Power,Intraday,Continuous,NL,ID3,QH,2021-04-21T00:00:00+02:00,2021-04-21T00:15:00+02:00,70.26,EUR,16.900,MWh
Power,Intraday,Continuous,NL,ID3,QH,2021-04-21T00:15:00+02:00,2021-04-21T00:30:00+02:00,68.91,EUR,10.350,MWh
Power,Intraday,Continuous,NL,ID3,QH,2021-04-21T00:30:00+02:00,2021-04-21T00:45:00+02:00,57.40,EUR,10.630,MWh
Power,Intraday,Continuous,NL,ID3,QH,2021-04-21T00:45:00+02:00,2021-04-21T01:00:00+02:00,47.24,EUR,11.450,MWh
Power,Intraday,Continuous,NL,ID3,QH,2021-04-21T01:00:00+02:00,2021-04-21T01:15:00+02:00,66.41,EUR,6.180,MWh
Power,Intraday,Continuous,NL,ID3,QH,2021-04-21T01:15:00+02:00,2021-04-21T01:30:00+02:00,57.75,EUR,6.300,MWh
Power,Intraday,Continuous,NL,ID3,QH,2021-04-21T01:30:00+02:00,2021-04-21T01:45:00+02:00,53.82,EUR,,MWh
Power,Intraday,Continuous,NL,ID3,QH,2021-04-21T01:45:00+02:00,2021-04-21T02:00:00+02:00,52.75,EUR,,MWh
Power,Intraday,Continuous,NL,ID3,QH,2021-04-21T02:00:00+02:00,2021-04-21T02:15:00+02:00,59.57,EUR,6.900,MWh
Power,Intraday,Continuous,NL,ID3,QH,2021-04-21T02:15:00+02:00,2021-04-21T02:30:00+02:00,47.10,EUR,,MWh
Power,Intraday,Continuous,NL,ID3,QH,2021-04-21T02:30:00+02:00,2021-04-21T02:45:00+02:00,47.10,EUR,,MWh
Power,Intraday,Continuous,NL,ID3,QH,2021-04-21T02:45:00+02:00,2021-04-21T03:00:00+02:00,47.10,EUR,,MWh
Power,Intraday,Continuous,NL,ID3,QH,2021-04-21T03:00:00+02:00,2021-04-21T03:15:00+02:00,53.21,EUR,5.800,MWh
Power,Intraday,Continuous,NL,ID3,QH,2021-04-21T03:15:00+02:00,2021-04-21T03:30:00+02:00,50.32,EUR,,MWh
Power,Intraday,Continuous,NL,ID3,QH,2021-04-21T03:30:00+02:00,2021-04-21T03:45:00+02:00,50.32,EUR,,MWh
Power,Intraday,Continuous,NL,ID3,QH,2021-04-21T03:45:00+02:00,2021-04-21T04:00:00+02:00,50.32,EUR,,MWh
Power,Intraday,Continuous,NL,ID3,QH,2021-04-21T04:00:00+02:00,2021-04-21T04:15:00+02:00,49.73,EUR,,MWh
Power,Intraday,Continuous,NL,ID3,QH,2021-04-21T04:15:00+02:00,2021-04-21T04:30:00+02:00,48.25,EUR,,MWh
Power,Intraday,Continuous,NL,ID3,QH,2021-04-21T04:30:00+02:00,2021-04-21T04:45:00+02:00,48.25,EUR,,MWh
Power,Intraday,Continuous,NL,ID3,QH,2021-04-21T04:45:00+02:00,2021-04-21T05:00:00+02:00,48.25,EUR,,MWh
Power,Intraday,Continuous,NL,ID3,QH,2021-04-21T05:00:00+02:00,2021-04-21T05:15:00+02:00,54.97,EUR,,MWh
Power,Intraday,Continuous,NL,ID3,QH,2021-04-21T05:15:00+02:00,2021-04-21T05:30:00+02:00,54.97,EUR,,MWh
Power,Intraday,Continuous,NL,ID3,QH,2021-04-21T05:30:00+02:00,2021-04-21T05:45:00+02:00,54.97,EUR,,MWh
Power,Intraday,Continuous,NL,ID3,QH,2021-04-21T05:45:00+02:00,2021-04-21T06:00:00+02:00,54.97,EUR,,MWh
Power,Intraday,Continuous,NL,ID3,QH,2021-04-21T06:00:00+02:00,2021-04-21T06:15:00+02:00,57.02,EUR,6.780,MWh
Power,Intraday,Continuous,NL,ID3,QH,2021-04-21T06:15:00+02:00,2021-04-21T06:30:00+02:00,78.90,EUR,3.480,MWh
Power,Intraday,Continuous,NL,ID3,QH,2021-04-21T06:30:00+02:00,2021-04-21T06:45:00+02:00,76.66,EUR,,MWh
Power,Intraday,Continuous,NL,ID3,QH,2021-04-21T06:45:00+02:00,2021-04-21T07:00:00+02:00,76.66,EUR,,MWh
Power,Intraday,Continuous,NL,ID3,QH,2021-04-21T07:00:00+02:00,2021-04-21T07:15:00+02:00,89.71,EUR,34.080,MWh
Power,Intraday,Continuous,NL,ID3,QH,2021-04-21T07:15:00+02:00,2021-04-21T07:30:00+02:00,93.52,EUR,20.230,MWh
Power,Intraday,Continuous,NL,ID3,QH,2021-04-21T07:30:00+02:00,2021-04-21T07:45:00+02:00,87.54,EUR,26.100,MWh
Power,Intraday,Continuous,NL,ID3,QH,2021-04-21T07:45:00+02:00,2021-04-21T08:00:00+02:00,71.48,EUR,54.230,MWh
Power,Intraday,Continuous,NL,ID3,QH,2021-04-21T08:00:00+02:00,2021-04-21T08:15:00+02:00,83.03,EUR,3.000,MWh
Power,Intraday,Continuous,NL,ID3,QH,2021-04-21T08:15:00+02:00,2021-04-21T08:30:00+02:00,72.52,EUR,7.850,MWh
Power,Intraday,Continuous,NL,ID3,QH,2021-04-21T08:30:00+02:00,2021-04-21T08:45:00+02:00,23.77,EUR,2.500,MWh
Power,Intraday,Continuous,NL,ID3,QH,2021-04-21T08:45:00+02:00,2021-04-21T09:00:00+02:00,22.38,EUR,2.500,MWh
Power,Intraday,Continuous,NL,ID3,QH,2021-04-21T09:00:00+02:00,2021-04-21T09:15:00+02:00,86.30,EUR,37.630,MWh
Power,Intraday,Continuous,NL,ID3,QH,2021-04-21T09:15:00+02:00,2021-04-21T09:30:00+02:00,40.80,EUR,4.600,MWh
Power,Intraday,Continuous,NL,ID3,QH,2021-04-21T09:30:00+02:00,2021-04-21T09:45:00+02:00,38.48,EUR,9.530,MWh
Power,Intraday,Continuous,NL,ID3,QH,2021-04-21T09:45:00+02:00,2021-04-21T10:00:00+02:00,0.00,EUR,7.500,MWh
Power,Intraday,Continuous,NL,ID3,QH,2021-04-21T10:00:00+02:00,2021-04-21T10:15:00+02:00,64.24,EUR,33.100,MWh
Power,Intraday,Continuous,NL,ID3,QH,2021-04-21T10:15:00+02:00,2021-04-21T10:30:00+02:00,44.59,EUR,28.150,MWh
Power,Intraday,Continuous,NL,ID3,QH,2021-04-21T10:30:00+02:00,2021-04-21T10:45:00+02:00,38.79,EUR,10.900,MWh
Power,Intraday,Continuous,NL,ID3,QH,2021-04-21T10:45:00+02:00,2021-04-21T11:00:00+02:00,39.89,EUR,,MWh
Power,Intraday,Continuous,NL,ID3,QH,2021-04-21T11:00:00+02:00,2021-04-21T11:15:00+02:00,53.27,EUR,54.980,MWh
Power,Intraday,Continuous,NL,ID3,QH,2021-04-21T11:15:00+02:00,2021-04-21T11:30:00+02:00,53.79,EUR,34.500,MWh
Power,Intraday,Continuous,NL,ID3,QH,2021-04-21T11:30:00+02:00,2021-04-21T11:45:00+02:00,13.69,EUR,,MWh
Power,Intraday,Continuous,NL,ID3,QH,2021-04-21T11:45:00+02:00,2021-04-21T12:00:00+02:00,13.69,EUR,,MWh
Power,Intraday,Continuous,NL,ID3,QH,2021-04-21T12:00:00+02:00,2021-04-21T12:15:00+02:00,48.82,EUR,35.480,MWh
Power,Intraday,Continuous,NL,ID3,QH,2021-04-21T12:15:00+02:00,2021-04-21T12:30:00+02:00,37.66,EUR,11.800,MWh
Power,Intraday,Continuous,NL,ID3,QH,2021-04-21T12:30:00+02:00,2021-04-21T12:45:00+02:00,32.63,EUR,4.250,MWh
Power,Intraday,Continuous,NL,ID3,QH,2021-04-21T12:45:00+02:00,2021-04-21T13:00:00+02:00,10.28,EUR,3.000,MWh
Power,Intraday,Continuous,NL,ID3,QH,2021-04-21T13:00:00+02:00,2021-04-21T13:15:00+02:00,13.16,EUR,,MWh
Power,Intraday,Continuous,NL,ID3,QH,2021-04-21T13:15:00+02:00,2021-04-21T13:30:00+02:00,13.16,EUR,,MWh
Power,Intraday,Continuous,NL,ID3,QH,2021-04-21T13:30:00+02:00,2021-04-21T13:45:00+02:00,44.19,EUR,5.400,MWh
Power,Intraday,Continuous,NL,ID3,QH,2021-04-21T13:45:00+02:00,2021-04-21T14:00:00+02:00,25.77,EUR,4.400,MWh
Power,Intraday,Continuous,NL,ID3,QH,2021-04-21T14:00:00+02:00,2021-04-21T14:15:00+02:00,28.46,EUR,6.750,MWh
Power,Intraday,Continuous,NL,ID3,QH,2021-04-21T14:15:00+02:00,2021-04-21T14:30:00+02:00,22.33,EUR,,MWh
Power,Intraday,Continuous,NL,ID3,QH,2021-04-21T14:30:00+02:00,2021-04-21T14:45:00+02:00,22.33,EUR,,MWh
Power,Intraday,Continuous,NL,ID3,QH,2021-04-21T14:45:00+02:00,2021-04-21T15:00:00+02:00,31.05,EUR,2.500,MWh
Power,Intraday,Continuous,NL,ID3,QH,2021-04-21T15:00:00+02:00,2021-04-21T15:15:00+02:00,20.26,EUR,,MWh
Power,Intraday,Continuous,NL,ID3,QH,2021-04-21T15:15:00+02:00,2021-04-21T15:30:00+02:00,25.08,EUR,,MWh
Power,Intraday,Continuous,NL,ID3,QH,2021-04-21T15:30:00+02:00,2021-04-21T15:45:00+02:00,47.02,EUR,11.130,MWh
Power,Intraday,Continuous,NL,ID3,QH,2021-04-21T15:45:00+02:00,2021-04-21T16:00:00+02:00,43.45,EUR,9.380,MWh
Power,Intraday,Continuous,NL,ID3,QH,2021-04-21T16:00:00+02:00,2021-04-21T16:15:00+02:00,31.51,EUR,21.930,MWh
Power,Intraday,Continuous,NL,ID3,QH,2021-04-21T16:15:00+02:00,2021-04-21T16:30:00+02:00,45.90,EUR,22.100,MWh
Power,Intraday,Continuous,NL,ID3,QH,2021-04-21T16:30:00+02:00,2021-04-21T16:45:00+02:00,55.52,EUR,54.100,MWh
Power,Intraday,Continuous,NL,ID3,QH,2021-04-21T16:45:00+02:00,2021-04-21T17:00:00+02:00,60.23,EUR,93.300,MWh
Power,Intraday,Continuous,NL,ID3,QH,2021-04-21T17:00:00+02:00,2021-04-21T17:15:00+02:00,26.70,EUR,99.030,MWh
Power,Intraday,Continuous,NL,ID3,QH,2021-04-21T17:15:00+02:00,2021-04-21T17:30:00+02:00,56.93,EUR,41.980,MWh
Power,Intraday,Continuous,NL,ID3,QH,2021-04-21T17:30:00+02:00,2021-04-21T17:45:00+02:00,68.84,EUR,67.180,MWh
Power,Intraday,Continuous,NL,ID3,QH,2021-04-21T17:45:00+02:00,2021-04-21T18:00:00+02:00,78.18,EUR,85.100,MWh
Power,Intraday,Continuous,NL,ID3,QH,2021-04-21T18:00:00+02:00,2021-04-21T18:15:00+02:00,22.75,EUR,10.000,MWh
Power,Intraday,Continuous,NL,ID3,QH,2021-04-21T18:15:00+02:00,2021-04-21T18:30:00+02:00,40.27,EUR,,MWh
Power,Intraday,Continuous,NL,ID3,QH,2021-04-21T18:30:00+02:00,2021-04-21T18:45:00+02:00,40.27,EUR,,MWh
Power,Intraday,Continuous,NL,ID3,QH,2021-04-21T18:45:00+02:00,2021-04-21T19:00:00+02:00,40.27,EUR,,MWh
Power,Intraday,Continuous,NL,ID3,QH,2021-04-21T19:00:00+02:00,2021-04-21T19:15:00+02:00,55.28,EUR,,MWh
Power,Intraday,Continuous,NL,ID3,QH,2021-04-21T19:15:00+02:00,2021-04-21T19:30:00+02:00,81.26,EUR,7.350,MWh
Power,Intraday,Continuous,NL,ID3,QH,2021-04-21T19:30:00+02:00,2021-04-21T19:45:00+02:00,86.18,EUR,8.230,MWh
Power,Intraday,Continuous,NL,ID3,QH,2021-04-21T19:45:00+02:00,2021-04-21T20:00:00+02:00,85.44,EUR,42.350,MWh
Power,Intraday,Continuous,NL,ID3,QH,2021-04-21T20:00:00+02:00,2021-04-21T20:15:00+02:00,93.56,EUR,52.050,MWh
Power,Intraday,Continuous,NL,ID3,QH,2021-04-21T20:15:00+02:00,2021-04-21T20:30:00+02:00,87.30,EUR,39.150,MWh
Power,Intraday,Continuous,NL,ID3,QH,2021-04-21T20:30:00+02:00,2021-04-21T20:45:00+02:00,76.37,EUR,38.350,MWh
Power,Intraday,Continuous,NL,ID3,QH,2021-04-21T20:45:00+02:00,2021-04-21T21:00:00+02:00,70.07,EUR,36.030,MWh
Power,Intraday,Continuous,NL,ID3,QH,2021-04-21T21:00:00+02:00,2021-04-21T21:15:00+02:00,87.40,EUR,29.500,MWh
Power,Intraday,Continuous,NL,ID3,QH,2021-04-21T21:15:00+02:00,2021-04-21T21:30:00+02:00,76.77,EUR,17.550,MWh
Power,Intraday,Continuous,NL,ID3,QH,2021-04-21T21:30:00+02:00,2021-04-21T21:45:00+02:00,67.47,EUR,17.580,MWh
Power,Intraday,Continuous,NL,ID3,QH,2021-04-21T21:45:00+02:00,2021-04-21T22:00:00+02:00,50.93,EUR,34.480,MWh
Power,Intraday,Continuous,NL,ID3,QH,2021-04-21T22:00:00+02:00,2021-04-21T22:15:00+02:00,81.24,EUR,49.830,MWh
Power,Intraday,Continuous,NL,ID3,QH,2021-04-21T22:15:00+02:00,2021-04-21T22:30:00+02:00,70.88,EUR,14.150,MWh
Power,Intraday,Continuous,NL,ID3,QH,2021-04-21T22:30:00+02:00,2021-04-21T22:45:00+02:00,51.65,EUR,16.530,MWh
Power,Intraday,Continuous,NL,ID3,QH,2021-04-21T22:45:00+02:00,2021-04-21T23:00:00+02:00,48.46,EUR,40.780,MWh
Power,Intraday,Continuous,NL,ID3,QH,2021-04-21T23:00:00+02:00,2021-04-21T23:15:00+02:00,66.19,EUR,90.100,MWh
Power,Intraday,Continuous,NL,ID3,QH,2021-04-21T23:15:00+02:00,2021-04-21T23:30:00+02:00,62.09,EUR,31.400,MWh
Power,Intraday,Continuous,NL,ID3,QH,2021-04-21T23:30:00+02:00,2021-04-21T23:45:00+02:00,49.97,EUR,17.030,MWh
Power,Intraday,Continuous,NL,ID3,QH,2021-04-21T23:45:00+02:00,2021-04-22T00:00:00+02:00,41.83,EUR,13.830,MWh
Power,Intraday,Continuous,NL,IDFULL,BASE,2021-04-21T00:00:00+02:00,2021-04-22T00:00:00+02:00,49.57,EUR,13161.900,MWh
Power,Intraday,Continuous,NL,IDFULL,PEAK,2021-04-21T08:00:00+02:00,2021-04-21T20:00:00+02:00,36.09,EUR,8909.100,MWh
