Commodity,NominationModality,TradingModality,MarketArea,IndexName,TimeResolution,DeliveryStart,DeliveryEnd,IndexPrice,Currency,Volume,VolumeUnit
Power,Intraday,Continuous,NL,IDFULL,H,2021-09-10T00:00:00+02:00,2021-09-10T01:00:00+02:00,123.75,EUR,438.300,MWh
Power,Intraday,Continuous,NL,IDFULL,H,2021-09-10T01:00:00+02:00,2021-09-10T02:00:00+02:00,118.82,EUR,225.100,MWh
Power,Intraday,Continuous,NL,IDFULL,H,2021-09-10T02:00:00+02:00,2021-09-10T03:00:00+02:00,119.24,EUR,534.300,MWh
Power,Intraday,Continuous,NL,IDFULL,H,2021-09-10T03:00:00+02:00,2021-09-10T04:00:00+02:00,118.96,EUR,734.200,MWh
Power,Intraday,Continuous,NL,IDFULL,H,2021-09-10T04:00:00+02:00,2021-09-10T05:00:00+02:00,123.61,EUR,830.400,MWh
Power,Intraday,Continuous,NL,IDFULL,H,2021-09-10T05:00:00+02:00,2021-09-10T06:00:00+02:00,132.65,EUR,639.000,MWh
Power,Intraday,Continuous,NL,IDFULL,H,2021-09-10T06:00:00+02:00,2021-09-10T07:00:00+02:00,150.78,EUR,623.000,MWh
Power,Intraday,Continuous,NL,IDFULL,H,2021-09-10T07:00:00+02:00,2021-09-10T08:00:00+02:00,165.61,EUR,784.400,MWh
Power,Intraday,Continuous,NL,IDFULL,H,2021-09-10T08:00:00+02:00,2021-09-10T09:00:00+02:00,177.68,EUR,563.700,MWh
Power,Intraday,Continuous,NL,IDFULL,H,2021-09-10T09:00:00+02:00,2021-09-10T10:00:00+02:00,161.14,EUR,2008.600,MWh
Power,Intraday,Continuous,NL,IDFULL,H,2021-09-10T10:00:00+02:00,2021-09-10T11:00:00+02:00,157.89,EUR,1748.300,MWh
Power,Intraday,Continuous,NL,IDFULL,H,2021-09-10T11:00:00+02:00,2021-09-10T12:00:00+02:00,160.77,EUR,1581.300,MWh
Power,Intraday,Continuous,NL,IDFULL,H,2021-09-10T12:00:00+02:00,2021-09-10T13:00:00+02:00,161.57,EUR,1404.600,MWh
Power,Intraday,Continuous,NL,IDFULL,H,2021-09-10T13:00:00+02:00,2021-09-10T14:00:00+02:00,149.60,EUR,1665.500,MWh
Power,Intraday,Continuous,NL,IDFULL,H,2021-09-10T14:00:00+02:00,2021-09-10T15:00:00+02:00,146.40,EUR,1444.300,MWh
Power,Intraday,Continuous,NL,IDFULL,H,2021-09-10T15:00:00+02:00,2021-09-10T16:00:00+02:00,150.56,EUR,1535.700,MWh
Power,Intraday,Continuous,NL,IDFULL,H,2021-09-10T16:00:00+02:00,2021-09-10T17:00:00+02:00,205.81,EUR,1425.000,MWh
Power,Intraday,Continuous,NL,IDFULL,H,2021-09-10T17:00:00+02:00,2021-09-10T18:00:00+02:00,234.72,EUR,989.200,MWh
Power,Intraday,Continuous,NL,IDFULL,H,2021-09-10T18:00:00+02:00,2021-09-10T19:00:00+02:00,194.80,EUR,921.500,MWh
Power,Intraday,Continuous,NL,IDFULL,H,2021-09-10T19:00:00+02:00,2021-09-10T20:00:00+02:00,189.35,EUR,605.600,MWh
Power,Intraday,Continuous,NL,IDFULL,H,2021-09-10T20:00:00+02:00,2021-09-10T21:00:00+02:00,173.87,EUR,1577.000,MWh
Power,Intraday,Continuous,NL,IDFULL,H,2021-09-10T21:00:00+02:00,2021-09-10T22:00:00+02:00,150.55,EUR,905.300,MWh
Power,Intraday,Continuous,NL,IDFULL,H,2021-09-10T22:00:00+02:00,2021-09-10T23:00:00+02:00,146.22,EUR,881.600,MWh
Power,Intraday,Continuous,NL,IDFULL,H,2021-09-10T23:00:00+02:00,2021-09-11T00:00:00+02:00,139.59,EUR,1234.400,MWh
Power,Intraday,Continuous,NL,ID1,H,2021-09-10T00:00:00+02:00,2021-09-10T01:00:00+02:00,149.98,EUR,30.900,MWh
Power,Intraday,Continuous,NL,ID1,H,2021-09-10T01:00:00+02:00,2021-09-10T02:00:00+02:00,118.81,EUR,,MWh
Power,Intraday,Continuous,NL,ID1,H,2021-09-10T02:00:00+02:00,2021-09-10T03:00:00+02:00,126.42,EUR,109.800,MWh
Power,Intraday,Continuous,NL,ID1,H,2021-09-10T03:00:00+02:00,2021-09-10T04:00:00+02:00,119.69,EUR,,MWh
Power,Intraday,Continuous,NL,ID1,H,2021-09-10T04:00:00+02:00,2021-09-10T05:00:00+02:00,130.71,EUR,112.500,MWh
Power,Intraday,Continuous,NL,ID1,H,2021-09-10T05:00:00+02:00,2021-09-10T06:00:00+02:00,135.79,EUR,,MWh
Power,Intraday,Continuous,NL,ID1,H,2021-09-10T06:00:00+02:00,2021-09-10T07:00:00+02:00,151.68,EUR,,MWh
Power,Intraday,Continuous,NL,ID1,H,2021-09-10T07:00:00+02:00,2021-09-10T08:00:00+02:00,160.17,EUR,14.000,MWh
Power,Intraday,Continuous,NL,ID1,H,2021-09-10T08:00:00+02:00,2021-09-10T09:00:00+02:00,182.58,EUR,,MWh
Power,Intraday,Continuous,NL,ID1,H,2021-09-10T09:00:00+02:00,2021-09-10T10:00:00+02:00,205.49,EUR,57.600,MWh
Power,Intraday,Continuous,NL,ID1,H,2021-09-10T10:00:00+02:00,2021-09-10T11:00:00+02:00,218.15,EUR,77.000,MWh
Power,Intraday,Continuous,NL,ID1,H,2021-09-10T11:00:00+02:00,2021-09-10T12:00:00+02:00,157.99,EUR,44.000,MWh
Power,Intraday,Continuous,NL,ID1,H,2021-09-10T12:00:00+02:00,2021-09-10T13:00:00+02:00,151.99,EUR,62.400,MWh
Power,Intraday,Continuous,NL,ID1,H,2021-09-10T13:00:00+02:00,2021-09-10T14:00:00+02:00,176.58,EUR,105.500,MWh
Power,Intraday,Continuous,NL,ID1,H,2021-09-10T14:00:00+02:00,2021-09-10T15:00:00+02:00,149.91,EUR,266.000,MWh
Power,Intraday,Continuous,NL,ID1,H,2021-09-10T15:00:00+02:00,2021-09-10T16:00:00+02:00,140.82,EUR,250.300,MWh
Power,Intraday,Continuous,NL,ID1,H,2021-09-10T16:00:00+02:00,2021-09-10T17:00:00+02:00,177.25,EUR,27.100,MWh
Power,Intraday,Continuous,NL,ID1,H,2021-09-10T17:00:00+02:00,2021-09-10T18:00:00+02:00,192.67,EUR,147.500,MWh
Power,Intraday,Continuous,NL,ID1,H,2021-09-10T18:00:00+02:00,2021-09-10T19:00:00+02:00,162.20,EUR,282.300,MWh
Power,Intraday,Continuous,NL,ID1,H,2021-09-10T19:00:00+02:00,2021-09-10T20:00:00+02:00,132.34,EUR,56.200,MWh
Power,Intraday,Continuous,NL,ID1,H,2021-09-10T20:00:00+02:00,2021-09-10T21:00:00+02:00,129.54,EUR,47.000,MWh
Power,Intraday,Continuous,NL,ID1,H,2021-09-10T21:00:00+02:00,2021-09-10T22:00:00+02:00,149.51,EUR,,MWh
Power,Intraday,Continuous,NL,ID1,H,2021-09-10T22:00:00+02:00,2021-09-10T23:00:00+02:00,145.30,EUR,,MWh
Power,Intraday,Continuous,NL,ID1,H,2021-09-10T23:00:00+02:00,2021-09-11T00:00:00+02:00,143.63,EUR,34.000,MWh
Power,Intraday,Continuous,NL,ID3,H,2021-09-10T00:00:00+02:00,2021-09-10T01:00:00+02:00,123.66,EUR,430.800,MWh
Power,Intraday,Continuous,NL,ID3,H,2021-09-10T01:00:00+02:00,2021-09-10T02:00:00+02:00,118.81,EUR,212.000,MWh
Power,Intraday,Continuous,NL,ID3,H,2021-09-10T02:00:00+02:00,2021-09-10T03:00:00+02:00,119.84,EUR,455.000,MWh
Power,Intraday,Continuous,NL,ID3,H,2021-09-10T03:00:00+02:00,2021-09-10T04:00:00+02:00,119.69,EUR,617.500,MWh
Power,Intraday,Continuous,NL,ID3,H,2021-09-10T04:00:00+02:00,2021-09-10T05:00:00+02:00,126.20,EUR,586.000,MWh
Power,Intraday,Continuous,NL,ID3,H,2021-09-10T05:00:00+02:00,2021-09-10T06:00:00+02:00,135.79,EUR,429.600,MWh
Power,Intraday,Continuous,NL,ID3,H,2021-09-10T06:00:00+02:00,2021-09-10T07:00:00+02:00,151.68,EUR,493.800,MWh
Power,Intraday,Continuous,NL,ID3,H,2021-09-10T07:00:00+02:00,2021-09-10T08:00:00+02:00,165.44,EUR,641.800,MWh
Power,Intraday,Continuous,NL,ID3,H,2021-09-10T08:00:00+02:00,2021-09-10T09:00:00+02:00,182.58,EUR,313.100,MWh
Power,Intraday,Continuous,NL,ID3,H,2021-09-10T09:00:00+02:00,2021-09-10T10:00:00+02:00,161.69,EUR,921.100,MWh
Power,Intraday,Continuous,NL,ID3,H,2021-09-10T10:00:00+02:00,2021-09-10T11:00:00+02:00,159.64,EUR,1208.400,MWh
Power,Intraday,Continuous,NL,ID3,H,2021-09-10T11:00:00+02:00,2021-09-10T12:00:00+02:00,166.71,EUR,1073.100,MWh
Power,Intraday,Continuous,NL,ID3,H,2021-09-10T12:00:00+02:00,2021-09-10T13:00:00+02:00,187.57,EUR,614.100,MWh
Power,Intraday,Continuous,NL,ID3,H,2021-09-10T13:00:00+02:00,2021-09-10T14:00:00+02:00,178.94,EUR,518.000,MWh
Power,Intraday,Continuous,NL,ID3,H,2021-09-10T14:00:00+02:00,2021-09-10T15:00:00+02:00,165.64,EUR,610.200,MWh
Power,Intraday,Continuous,NL,ID3,H,2021-09-10T15:00:00+02:00,2021-09-10T16:00:00+02:00,159.53,EUR,782.200,MWh
Power,Intraday,Continuous,NL,ID3,H,2021-09-10T16:00:00+02:00,2021-09-10T17:00:00+02:00,201.75,EUR,506.800,MWh
Power,Intraday,Continuous,NL,ID3,H,2021-09-10T17:00:00+02:00,2021-09-10T18:00:00+02:00,245.36,EUR,589.800,MWh
Power,Intraday,Continuous,NL,ID3,H,2021-09-10T18:00:00+02:00,2021-09-10T19:00:00+02:00,182.06,EUR,533.700,MWh
Power,Intraday,Continuous,NL,ID3,H,2021-09-10T19:00:00+02:00,2021-09-10T20:00:00+02:00,182.97,EUR,470.400,MWh
Power,Intraday,Continuous,NL,ID3,H,2021-09-10T20:00:00+02:00,2021-09-10T21:00:00+02:00,157.79,EUR,784.300,MWh
Power,Intraday,Continuous,NL,ID3,H,2021-09-10T21:00:00+02:00,2021-09-10T22:00:00+02:00,149.51,EUR,321.100,MWh
Power,Intraday,Continuous,NL,ID3,H,2021-09-10T22:00:00+02:00,2021-09-10T23:00:00+02:00,145.30,EUR,370.700,MWh
Power,Intraday,Continuous,NL,ID3,H,2021-09-10T23:00:00+02:00,2021-09-11T00:00:00+02:00,141.33,EUR,541.700,MWh
Power,Intraday,Continuous,NL,IDFULL,HH,2021-09-10T00:00:00+02:00,2021-09-10T00:30:00+02:00,123.75,EUR,,MWh
Power,Intraday,Continuous,NL,IDFULL,HH,2021-09-10T00:30:00+02:00,2021-09-10T01:00:00+02:00,123.75,EUR,,MWh
Power,Intraday,Continuous,NL,IDFULL,HH,2021-09-10T01:00:00+02:00,2021-09-10T01:30:00+02:00,118.82,EUR,,MWh
Power,Intraday,Continuous,NL,IDFULL,HH,2021-09-10T01:30:00+02:00,2021-09-10T02:00:00+02:00,118.82,EUR,,MWh
Power,Intraday,Continuous,NL,IDFULL,HH,2021-09-10T02:00:00+02:00,2021-09-10T02:30:00+02:00,119.24,EUR,,MWh
Power,Intraday,Continuous,NL,IDFULL,HH,2021-09-10T02:30:00+02:00,2021-09-10T03:00:00+02:00,119.24,EUR,,MWh
Power,Intraday,Continuous,NL,IDFULL,HH,2021-09-10T03:00:00+02:00,2021-09-10T03:30:00+02:00,118.96,EUR,,MWh
Power,Intraday,Continuous,NL,IDFULL,HH,2021-09-10T03:30:00+02:00,2021-09-10T04:00:00+02:00,118.96,EUR,,MWh
Power,Intraday,Continuous,NL,IDFULL,HH,2021-09-10T04:00:00+02:00,2021-09-10T04:30:00+02:00,123.61,EUR,,MWh
Power,Intraday,Continuous,NL,IDFULL,HH,2021-09-10T04:30:00+02:00,2021-09-10T05:00:00+02:00,123.61,EUR,,MWh
Power,Intraday,Continuous,NL,IDFULL,HH,2021-09-10T05:00:00+02:00,2021-09-10T05:30:00+02:00,132.65,EUR,,MWh
Power,Intraday,Continuous,NL,IDFULL,HH,2021-09-10T05:30:00+02:00,2021-09-10T06:00:00+02:00,132.65,EUR,,MWh
Power,Intraday,Continuous,NL,IDFULL,HH,2021-09-10T06:00:00+02:00,2021-09-10T06:30:00+02:00,150.78,EUR,,MWh
Power,Intraday,Continuous,NL,IDFULL,HH,2021-09-10T06:30:00+02:00,2021-09-10T07:00:00+02:00,150.78,EUR,,MWh
Power,Intraday,Continuous,NL,IDFULL,HH,2021-09-10T07:00:00+02:00,2021-09-10T07:30:00+02:00,165.61,EUR,,MWh
Power,Intraday,Continuous,NL,IDFULL,HH,2021-09-10T07:30:00+02:00,2021-09-10T08:00:00+02:00,165.61,EUR,,MWh
Power,Intraday,Continuous,NL,IDFULL,HH,2021-09-10T08:00:00+02:00,2021-09-10T08:30:00+02:00,177.68,EUR,,MWh
Power,Intraday,Continuous,NL,IDFULL,HH,2021-09-10T08:30:00+02:00,2021-09-10T09:00:00+02:00,177.68,EUR,,MWh
Power,Intraday,Continuous,NL,IDFULL,HH,2021-09-10T09:00:00+02:00,2021-09-10T09:30:00+02:00,161.14,EUR,,MWh
Power,Intraday,Continuous,NL,IDFULL,HH,2021-09-10T09:30:00+02:00,2021-09-10T10:00:00+02:00,161.14,EUR,,MWh
Power,Intraday,Continuous,NL,IDFULL,HH,2021-09-10T10:00:00+02:00,2021-09-10T10:30:00+02:00,157.89,EUR,,MWh
Power,Intraday,Continuous,NL,IDFULL,HH,2021-09-10T10:30:00+02:00,2021-09-10T11:00:00+02:00,157.89,EUR,,MWh
Power,Intraday,Continuous,NL,IDFULL,HH,2021-09-10T11:00:00+02:00,2021-09-10T11:30:00+02:00,160.77,EUR,,MWh
Power,Intraday,Continuous,NL,IDFULL,HH,2021-09-10T11:30:00+02:00,2021-09-10T12:00:00+02:00,160.77,EUR,,MWh
Power,Intraday,Continuous,NL,IDFULL,HH,2021-09-10T12:00:00+02:00,2021-09-10T12:30:00+02:00,161.57,EUR,,MWh
Power,Intraday,Continuous,NL,IDFULL,HH,2021-09-10T12:30:00+02:00,2021-09-10T13:00:00+02:00,161.57,EUR,,MWh
Power,Intraday,Continuous,NL,IDFULL,HH,2021-09-10T13:00:00+02:00,2021-09-10T13:30:00+02:00,149.60,EUR,,MWh
Power,Intraday,Continuous,NL,IDFULL,HH,2021-09-10T13:30:00+02:00,2021-09-10T14:00:00+02:00,149.60,EUR,,MWh
Power,Intraday,Continuous,NL,IDFULL,HH,2021-09-10T14:00:00+02:00,2021-09-10T14:30:00+02:00,153.01,EUR,,MWh
Power,Intraday,Continuous,NL,IDFULL,HH,2021-09-10T14:30:00+02:00,2021-09-10T15:00:00+02:00,139.79,EUR,8.100,MWh
Power,Intraday,Continuous,NL,IDFULL,HH,2021-09-10T15:00:00+02:00,2021-09-10T15:30:00+02:00,150.56,EUR,,MWh
Power,Intraday,Continuous,NL,IDFULL,HH,2021-09-10T15:30:00+02:00,2021-09-10T16:00:00+02:00,150.56,EUR,,MWh
Power,Intraday,Continuous,NL,IDFULL,HH,2021-09-10T16:00:00+02:00,2021-09-10T16:30:00+02:00,134.84,EUR,6.600,MWh
Power,Intraday,Continuous,NL,IDFULL,HH,2021-09-10T16:30:00+02:00,2021-09-10T17:00:00+02:00,276.78,EUR,,MWh
Power,Intraday,Continuous,NL,IDFULL,HH,2021-09-10T17:00:00+02:00,2021-09-10T17:30:00+02:00,234.72,EUR,,MWh
Power,Intraday,Continuous,NL,IDFULL,HH,2021-09-10T17:30:00+02:00,2021-09-10T18:00:00+02:00,234.72,EUR,,MWh
Power,Intraday,Continuous,NL,IDFULL,HH,2021-09-10T18:00:00+02:00,2021-09-10T18:30:00+02:00,194.80,EUR,,MWh
Power,Intraday,Continuous,NL,IDFULL,HH,2021-09-10T18:30:00+02:00,2021-09-10T19:00:00+02:00,194.80,EUR,,MWh
Power,Intraday,Continuous,NL,IDFULL,HH,2021-09-10T19:00:00+02:00,2021-09-10T19:30:00+02:00,189.35,EUR,,MWh
Power,Intraday,Continuous,NL,IDFULL,HH,2021-09-10T19:30:00+02:00,2021-09-10T20:00:00+02:00,189.35,EUR,,MWh
Power,Intraday,Continuous,NL,IDFULL,HH,2021-09-10T20:00:00+02:00,2021-09-10T20:30:00+02:00,173.87,EUR,,MWh
Power,Intraday,Continuous,NL,IDFULL,HH,2021-09-10T20:30:00+02:00,2021-09-10T21:00:00+02:00,173.87,EUR,,MWh
Power,Intraday,Continuous,NL,IDFULL,HH,2021-09-10T21:00:00+02:00,2021-09-10T21:30:00+02:00,150.55,EUR,,MWh
Power,Intraday,Continuous,NL,IDFULL,HH,2021-09-10T21:30:00+02:00,2021-09-10T22:00:00+02:00,150.55,EUR,,MWh
Power,Intraday,Continuous,NL,IDFULL,HH,2021-09-10T22:00:00+02:00,2021-09-10T22:30:00+02:00,146.22,EUR,,MWh
Power,Intraday,Continuous,NL,IDFULL,HH,2021-09-10T22:30:00+02:00,2021-09-10T23:00:00+02:00,146.22,EUR,,MWh
Power,Intraday,Continuous,NL,IDFULL,HH,2021-09-10T23:00:00+02:00,2021-09-10T23:30:00+02:00,139.59,EUR,,MWh
Power,Intraday,Continuous,NL,IDFULL,HH,2021-09-10T23:30:00+02:00,2021-09-11T00:00:00+02:00,139.59,EUR,,MWh
Power,Intraday,Continuous,NL,ID1,HH,2021-09-10T00:00:00+02:00,2021-09-10T00:30:00+02:00,123.75,EUR,,MWh
Power,Intraday,Continuous,NL,ID1,HH,2021-09-10T00:30:00+02:00,2021-09-10T01:00:00+02:00,123.75,EUR,,MWh
Power,Intraday,Continuous,NL,ID1,HH,2021-09-10T01:00:00+02:00,2021-09-10T01:30:00+02:00,118.82,EUR,,MWh
Power,Intraday,Continuous,NL,ID1,HH,2021-09-10T01:30:00+02:00,2021-09-10T02:00:00+02:00,118.82,EUR,,MWh
Power,Intraday,Continuous,NL,ID1,HH,2021-09-10T02:00:00+02:00,2021-09-10T02:30:00+02:00,119.24,EUR,,MWh
Power,Intraday,Continuous,NL,ID1,HH,2021-09-10T02:30:00+02:00,2021-09-10T03:00:00+02:00,119.24,EUR,,MWh
Power,Intraday,Continuous,NL,ID1,HH,2021-09-10T03:00:00+02:00,2021-09-10T03:30:00+02:00,118.96,EUR,,MWh
Power,Intraday,Continuous,NL,ID1,HH,2021-09-10T03:30:00+02:00,2021-09-10T04:00:00+02:00,118.96,EUR,,MWh
Power,Intraday,Continuous,NL,ID1,HH,2021-09-10T04:00:00+02:00,2021-09-10T04:30:00+02:00,123.61,EUR,,MWh
Power,Intraday,Continuous,NL,ID1,HH,2021-09-10T04:30:00+02:00,2021-09-10T05:00:00+02:00,123.61,EUR,,MWh
Power,Intraday,Continuous,NL,ID1,HH,2021-09-10T05:00:00+02:00,2021-09-10T05:30:00+02:00,132.65,EUR,,MWh
Power,Intraday,Continuous,NL,ID1,HH,2021-09-10T05:30:00+02:00,2021-09-10T06:00:00+02:00,132.65,EUR,,MWh
Power,Intraday,Continuous,NL,ID1,HH,2021-09-10T06:00:00+02:00,2021-09-10T06:30:00+02:00,150.78,EUR,,MWh
Power,Intraday,Continuous,NL,ID1,HH,2021-09-10T06:30:00+02:00,2021-09-10T07:00:00+02:00,150.78,EUR,,MWh
Power,Intraday,Continuous,NL,ID1,HH,2021-09-10T07:00:00+02:00,2021-09-10T07:30:00+02:00,165.61,EUR,,MWh
Power,Intraday,Continuous,NL,ID1,HH,2021-09-10T07:30:00+02:00,2021-09-10T08:00:00+02:00,165.61,EUR,,MWh
Power,Intraday,Continuous,NL,ID1,HH,2021-09-10T08:00:00+02:00,2021-09-10T08:30:00+02:00,177.68,EUR,,MWh
Power,Intraday,Continuous,NL,ID1,HH,2021-09-10T08:30:00+02:00,2021-09-10T09:00:00+02:00,177.68,EUR,,MWh
Power,Intraday,Continuous,NL,ID1,HH,2021-09-10T09:00:00+02:00,2021-09-10T09:30:00+02:00,161.14,EUR,,MWh
Power,Intraday,Continuous,NL,ID1,HH,2021-09-10T09:30:00+02:00,2021-09-10T10:00:00+02:00,161.14,EUR,,MWh
Power,Intraday,Continuous,NL,ID1,HH,2021-09-10T10:00:00+02:00,2021-09-10T10:30:00+02:00,157.89,EUR,,MWh
Power,Intraday,Continuous,NL,ID1,HH,2021-09-10T10:30:00+02:00,2021-09-10T11:00:00+02:00,157.89,EUR,,MWh
Power,Intraday,Continuous,NL,ID1,HH,2021-09-10T11:00:00+02:00,2021-09-10T11:30:00+02:00,160.77,EUR,,MWh
Power,Intraday,Continuous,NL,ID1,HH,2021-09-10T11:30:00+02:00,2021-09-10T12:00:00+02:00,160.77,EUR,,MWh
Power,Intraday,Continuous,NL,ID1,HH,2021-09-10T12:00:00+02:00,2021-09-10T12:30:00+02:00,161.57,EUR,,MWh
Power,Intraday,Continuous,NL,ID1,HH,2021-09-10T12:30:00+02:00,2021-09-10T13:00:00+02:00,161.57,EUR,,MWh
Power,Intraday,Continuous,NL,ID1,HH,2021-09-10T13:00:00+02:00,2021-09-10T13:30:00+02:00,149.60,EUR,,MWh
Power,Intraday,Continuous,NL,ID1,HH,2021-09-10T13:30:00+02:00,2021-09-10T14:00:00+02:00,149.60,EUR,,MWh
Power,Intraday,Continuous,NL,ID1,HH,2021-09-10T14:00:00+02:00,2021-09-10T14:30:00+02:00,153.01,EUR,,MWh
Power,Intraday,Continuous,NL,ID1,HH,2021-09-10T14:30:00+02:00,2021-09-10T15:00:00+02:00,139.79,EUR,,MWh
Power,Intraday,Continuous,NL,ID1,HH,2021-09-10T15:00:00+02:00,2021-09-10T15:30:00+02:00,150.56,EUR,,MWh
Power,Intraday,Continuous,NL,ID1,HH,2021-09-10T15:30:00+02:00,2021-09-10T16:00:00+02:00,150.56,EUR,,MWh
Power,Intraday,Continuous,NL,ID1,HH,2021-09-10T16:00:00+02:00,2021-09-10T16:30:00+02:00,134.84,EUR,,MWh
Power,Intraday,Continuous,NL,ID1,HH,2021-09-10T16:30:00+02:00,2021-09-10T17:00:00+02:00,276.78,EUR,,MWh
Power,Intraday,Continuous,NL,ID1,HH,2021-09-10T17:00:00+02:00,2021-09-10T17:30:00+02:00,234.72,EUR,,MWh
Power,Intraday,Continuous,NL,ID1,HH,2021-09-10T17:30:00+02:00,2021-09-10T18:00:00+02:00,234.72,EUR,,MWh
Power,Intraday,Continuous,NL,ID1,HH,2021-09-10T18:00:00+02:00,2021-09-10T18:30:00+02:00,194.80,EUR,,MWh
Power,Intraday,Continuous,NL,ID1,HH,2021-09-10T18:30:00+02:00,2021-09-10T19:00:00+02:00,194.80,EUR,,MWh
Power,Intraday,Continuous,NL,ID1,HH,2021-09-10T19:00:00+02:00,2021-09-10T19:30:00+02:00,189.35,EUR,,MWh
Power,Intraday,Continuous,NL,ID1,HH,2021-09-10T19:30:00+02:00,2021-09-10T20:00:00+02:00,189.35,EUR,,MWh
Power,Intraday,Continuous,NL,ID1,HH,2021-09-10T20:00:00+02:00,2021-09-10T20:30:00+02:00,173.87,EUR,,MWh
Power,Intraday,Continuous,NL,ID1,HH,2021-09-10T20:30:00+02:00,2021-09-10T21:00:00+02:00,173.87,EUR,,MWh
Power,Intraday,Continuous,NL,ID1,HH,2021-09-10T21:00:00+02:00,2021-09-10T21:30:00+02:00,150.55,EUR,,MWh
Power,Intraday,Continuous,NL,ID1,HH,2021-09-10T21:30:00+02:00,2021-09-10T22:00:00+02:00,150.55,EUR,,MWh
Power,Intraday,Continuous,NL,ID1,HH,2021-09-10T22:00:00+02:00,2021-09-10T22:30:00+02:00,146.22,EUR,,MWh
Power,Intraday,Continuous,NL,ID1,HH,2021-09-10T22:30:00+02:00,2021-09-10T23:00:00+02:00,146.22,EUR,,MWh
Power,Intraday,Continuous,NL,ID1,HH,2021-09-10T23:00:00+02:00,2021-09-10T23:30:00+02:00,139.59,EUR,,MWh
Power,Intraday,Continuous,NL,ID1,HH,2021-09-10T23:30:00+02:00,2021-09-11T00:00:00+02:00,139.59,EUR,,MWh
Power,Intraday,Continuous,NL,ID3,HH,2021-09-10T00:00:00+02:00,2021-09-10T00:30:00+02:00,123.75,EUR,,MWh
Power,Intraday,Continuous,NL,ID3,HH,2021-09-10T00:30:00+02:00,2021-09-10T01:00:00+02:00,123.75,EUR,,MWh
Power,Intraday,Continuous,NL,ID3,HH,2021-09-10T01:00:00+02:00,2021-09-10T01:30:00+02:00,118.82,EUR,,MWh
Power,Intraday,Continuous,NL,ID3,HH,2021-09-10T01:30:00+02:00,2021-09-10T02:00:00+02:00,118.82,EUR,,MWh
Power,Intraday,Continuous,NL,ID3,HH,2021-09-10T02:00:00+02:00,2021-09-10T02:30:00+02:00,119.24,EUR,,MWh
Power,Intraday,Continuous,NL,ID3,HH,2021-09-10T02:30:00+02:00,2021-09-10T03:00:00+02:00,119.24,EUR,,MWh
Power,Intraday,Continuous,NL,ID3,HH,2021-09-10T03:00:00+02:00,2021-09-10T03:30:00+02:00,118.96,EUR,,MWh
Power,Intraday,Continuous,NL,ID3,HH,2021-09-10T03:30:00+02:00,2021-09-10T04:00:00+02:00,118.96,EUR,,MWh
Power,Intraday,Continuous,NL,ID3,HH,2021-09-10T04:00:00+02:00,2021-09-10T04:30:00+02:00,123.61,EUR,,MWh
Power,Intraday,Continuous,NL,ID3,HH,2021-09-10T04:30:00+02:00,2021-09-10T05:00:00+02:00,123.61,EUR,,MWh
Power,Intraday,Continuous,NL,ID3,HH,2021-09-10T05:00:00+02:00,2021-09-10T05:30:00+02:00,132.65,EUR,,MWh
Power,Intraday,Continuous,NL,ID3,HH,2021-09-10T05:30:00+02:00,2021-09-10T06:00:00+02:00,132.65,EUR,,MWh
Power,Intraday,Continuous,NL,ID3,HH,2021-09-10T06:00:00+02:00,2021-09-10T06:30:00+02:00,150.78,EUR,,MWh
Power,Intraday,Continuous,NL,ID3,HH,2021-09-10T06:30:00+02:00,2021-09-10T07:00:00+02:00,150.78,EUR,,MWh
Power,Intraday,Continuous,NL,ID3,HH,2021-09-10T07:00:00+02:00,2021-09-10T07:30:00+02:00,165.61,EUR,,MWh
Power,Intraday,Continuous,NL,ID3,HH,2021-09-10T07:30:00+02:00,2021-09-10T08:00:00+02:00,165.61,EUR,,MWh
Power,Intraday,Continuous,NL,ID3,HH,2021-09-10T08:00:00+02:00,2021-09-10T08:30:00+02:00,177.68,EUR,,MWh
Power,Intraday,Continuous,NL,ID3,HH,2021-09-10T08:30:00+02:00,2021-09-10T09:00:00+02:00,177.68,EUR,,MWh
Power,Intraday,Continuous,NL,ID3,HH,2021-09-10T09:00:00+02:00,2021-09-10T09:30:00+02:00,161.14,EUR,,MWh
Power,Intraday,Continuous,NL,ID3,HH,2021-09-10T09:30:00+02:00,2021-09-10T10:00:00+02:00,161.14,EUR,,MWh
Power,Intraday,Continuous,NL,ID3,HH,2021-09-10T10:00:00+02:00,2021-09-10T10:30:00+02:00,157.89,EUR,,MWh
Power,Intraday,Continuous,NL,ID3,HH,2021-09-10T10:30:00+02:00,2021-09-10T11:00:00+02:00,157.89,EUR,,MWh
Power,Intraday,Continuous,NL,ID3,HH,2021-09-10T11:00:00+02:00,2021-09-10T11:30:00+02:00,160.77,EUR,,MWh
Power,Intraday,Continuous,NL,ID3,HH,2021-09-10T11:30:00+02:00,2021-09-10T12:00:00+02:00,160.77,EUR,,MWh
Power,Intraday,Continuous,NL,ID3,HH,2021-09-10T12:00:00+02:00,2021-09-10T12:30:00+02:00,161.57,EUR,,MWh
Power,Intraday,Continuous,NL,ID3,HH,2021-09-10T12:30:00+02:00,2021-09-10T13:00:00+02:00,161.57,EUR,,MWh
Power,Intraday,Continuous,NL,ID3,HH,2021-09-10T13:00:00+02:00,2021-09-10T13:30:00+02:00,149.60,EUR,,MWh
Power,Intraday,Continuous,NL,ID3,HH,2021-09-10T13:30:00+02:00,2021-09-10T14:00:00+02:00,149.60,EUR,,MWh
Power,Intraday,Continuous,NL,ID3,HH,2021-09-10T14:00:00+02:00,2021-09-10T14:30:00+02:00,153.01,EUR,,MWh
Power,Intraday,Continuous,NL,ID3,HH,2021-09-10T14:30:00+02:00,2021-09-10T15:00:00+02:00,139.79,EUR,,MWh
Power,Intraday,Continuous,NL,ID3,HH,2021-09-10T15:00:00+02:00,2021-09-10T15:30:00+02:00,150.56,EUR,,MWh
Power,Intraday,Continuous,NL,ID3,HH,2021-09-10T15:30:00+02:00,2021-09-10T16:00:00+02:00,150.56,EUR,,MWh
Power,Intraday,Continuous,NL,ID3,HH,2021-09-10T16:00:00+02:00,2021-09-10T16:30:00+02:00,134.84,EUR,6.600,MWh
Power,Intraday,Continuous,NL,ID3,HH,2021-09-10T16:30:00+02:00,2021-09-10T17:00:00+02:00,276.78,EUR,,MWh
Power,Intraday,Continuous,NL,ID3,HH,2021-09-10T17:00:00+02:00,2021-09-10T17:30:00+02:00,234.72,EUR,,MWh
Power,Intraday,Continuous,NL,ID3,HH,2021-09-10T17:30:00+02:00,2021-09-10T18:00:00+02:00,234.72,EUR,,MWh
Power,Intraday,Continuous,NL,ID3,HH,2021-09-10T18:00:00+02:00,2021-09-10T18:30:00+02:00,194.80,EUR,,MWh
Power,Intraday,Continuous,NL,ID3,HH,2021-09-10T18:30:00+02:00,2021-09-10T19:00:00+02:00,194.80,EUR,,MWh
Power,Intraday,Continuous,NL,ID3,HH,2021-09-10T19:00:00+02:00,2021-09-10T19:30:00+02:00,189.35,EUR,,MWh
Power,Intraday,Continuous,NL,ID3,HH,2021-09-10T19:30:00+02:00,2021-09-10T20:00:00+02:00,189.35,EUR,,MWh
Power,Intraday,Continuous,NL,ID3,HH,2021-09-10T20:00:00+02:00,2021-09-10T20:30:00+02:00,173.87,EUR,,MWh
Power,Intraday,Continuous,NL,ID3,HH,2021-09-10T20:30:00+02:00,2021-09-10T21:00:00+02:00,173.87,EUR,,MWh
Power,Intraday,Continuous,NL,ID3,HH,2021-09-10T21:00:00+02:00,2021-09-10T21:30:00+02:00,150.55,EUR,,MWh
Power,Intraday,Continuous,NL,ID3,HH,2021-09-10T21:30:00+02:00,2021-09-10T22:00:00+02:00,150.55,EUR,,MWh
Power,Intraday,Continuous,NL,ID3,HH,2021-09-10T22:00:00+02:00,2021-09-10T22:30:00+02:00,146.22,EUR,,MWh
Power,Intraday,Continuous,NL,ID3,HH,2021-09-10T22:30:00+02:00,2021-09-10T23:00:00+02:00,146.22,EUR,,MWh
Power,Intraday,Continuous,NL,ID3,HH,2021-09-10T23:00:00+02:00,2021-09-10T23:30:00+02:00,139.59,EUR,,MWh
Power,Intraday,Continuous,NL,ID3,HH,2021-09-10T23:30:00+02:00,2021-09-11T00:00:00+02:00,139.59,EUR,,MWh
Power,Intraday,Continuous,NL,IDFULL,QH,2021-09-10T00:00:00+02:00,2021-09-10T00:15:00+02:00,153.94,EUR,35.230,MWh
Power,Intraday,Continuous,NL,IDFULL,QH,2021-09-10T00:15:00+02:00,2021-09-10T00:30:00+02:00,128.63,EUR,22.430,MWh
Power,Intraday,Continuous,NL,IDFULL,QH,2021-09-10T00:30:00+02:00,2021-09-10T00:45:00+02:00,120.45,EUR,9.500,MWh
Power,Intraday,Continuous,NL,IDFULL,QH,2021-09-10T00:45:00+02:00,2021-09-10T01:00:00+02:00,115.64,EUR,11.380,MWh
Power,Intraday,Continuous,NL,IDFULL,QH,2021-09-10T01:00:00+02:00,2021-09-10T01:15:00+02:00,132.49,EUR,36.600,MWh
Power,Intraday,Continuous,NL,IDFULL,QH,2021-09-10T01:15:00+02:00,2021-09-10T01:30:00+02:00,119.41,EUR,12.430,MWh
Power,Intraday,Continuous,NL,IDFULL,QH,2021-09-10T01:30:00+02:00,2021-09-10T01:45:00+02:00,118.29,EUR,11.200,MWh
Power,Intraday,Continuous,NL,IDFULL,QH,2021-09-10T01:45:00+02:00,2021-09-10T02:00:00+02:00,118.21,EUR,16.450,MWh
Power,Intraday,Continuous,NL,IDFULL,QH,2021-09-10T02:00:00+02:00,2021-09-10T02:15:00+02:00,118.67,EUR,27.580,MWh
Power,Intraday,Continuous,NL,IDFULL,QH,2021-09-10T02:15:00+02:00,2021-09-10T02:30:00+02:00,118.43,EUR,14.830,MWh
Power,Intraday,Continuous,NL,IDFULL,QH,2021-09-10T02:30:00+02:00,2021-09-10T02:45:00+02:00,121.53,EUR,9.630,MWh
Power,Intraday,Continuous,NL,IDFULL,QH,2021-09-10T02:45:00+02:00,2021-09-10T03:00:00+02:00,124.66,EUR,12.230,MWh
Power,Intraday,Continuous,NL,IDFULL,QH,2021-09-10T03:00:00+02:00,2021-09-10T03:15:00+02:00,118.38,EUR,16.530,MWh
Power,Intraday,Continuous,NL,IDFULL,QH,2021-09-10T03:15:00+02:00,2021-09-10T03:30:00+02:00,114.25,EUR,9.800,MWh
Power,Intraday,Continuous,NL,IDFULL,QH,2021-09-10T03:30:00+02:00,2021-09-10T03:45:00+02:00,117.37,EUR,5.230,MWh
Power,Intraday,Continuous,NL,IDFULL,QH,2021-09-10T03:45:00+02:00,2021-09-10T04:00:00+02:00,122.85,EUR,8.000,MWh
Power,Intraday,Continuous,NL,IDFULL,QH,2021-09-10T04:00:00+02:00,2021-09-10T04:15:00+02:00,119.39,EUR,24.250,MWh
Power,Intraday,Continuous,NL,IDFULL,QH,2021-09-10T04:15:00+02:00,2021-09-10T04:30:00+02:00,120.56,EUR,5.630,MWh
Power,Intraday,Continuous,NL,IDFULL,QH,2021-09-10T04:30:00+02:00,2021-09-10T04:45:00+02:00,132.10,EUR,5.180,MWh
Power,Intraday,Continuous,NL,IDFULL,QH,2021-09-10T04:45:00+02:00,2021-09-10T05:00:00+02:00,143.42,EUR,9.850,MWh
Power,Intraday,Continuous,NL,IDFULL,QH,2021-09-10T05:00:00+02:00,2021-09-10T05:15:00+02:00,114.13,EUR,56.480,MWh
Power,Intraday,Continuous,NL,IDFULL,QH,2021-09-10T05:15:00+02:00,2021-09-10T05:30:00+02:00,114.50,EUR,45.870,MWh
Power,Intraday,Continuous,NL,IDFULL,QH,2021-09-10T05:30:00+02:00,2021-09-10T05:45:00+02:00,127.16,EUR,45.080,MWh
Power,Intraday,Continuous,NL,IDFULL,QH,2021-09-10T05:45:00+02:00,2021-09-10T06:00:00+02:00,156.62,EUR,70.250,MWh
Power,Intraday,Continuous,NL,IDFULL,QH,2021-09-10T06:00:00+02:00,2021-09-10T06:15:00+02:00,105.34,EUR,54.500,MWh
Power,Intraday,Continuous,NL,IDFULL,QH,2021-09-10T06:15:00+02:00,2021-09-10T06:30:00+02:00,151.28,EUR,29.450,MWh
Power,Intraday,Continuous,NL,IDFULL,QH,2021-09-10T06:30:00+02:00,2021-09-10T06:45:00+02:00,165.75,EUR,53.180,MWh
Power,Intraday,Continuous,NL,IDFULL,QH,2021-09-10T06:45:00+02:00,2021-09-10T07:00:00+02:00,175.23,EUR,63.500,MWh
Power,Intraday,Continuous,NL,IDFULL,QH,2021-09-10T07:00:00+02:00,2021-09-10T07:15:00+02:00,144.56,EUR,41.400,MWh
Power,Intraday,Continuous,NL,IDFULL,QH,2021-09-10T07:15:00+02:00,2021-09-10T07:30:00+02:00,162.48,EUR,20.750,MWh
Power,Intraday,Continuous,NL,IDFULL,QH,2021-09-10T07:30:00+02:00,2021-09-10T07:45:00+02:00,171.26,EUR,50.380,MWh
Power,Intraday,Continuous,NL,IDFULL,QH,2021-09-10T07:45:00+02:00,2021-09-10T08:00:00+02:00,176.31,EUR,42.550,MWh
Power,Intraday,Continuous,NL,IDFULL,QH,2021-09-10T08:00:00+02:00,2021-09-10T08:15:00+02:00,193.94,EUR,11.680,MWh
Power,Intraday,Continuous,NL,IDFULL,QH,2021-09-10T08:15:00+02:00,2021-09-10T08:30:00+02:00,178.41,EUR,7.630,MWh
Power,Intraday,Continuous,NL,IDFULL,QH,2021-09-10T08:30:00+02:00,2021-09-10T08:45:00+02:00,157.00,EUR,6.230,MWh
Power,Intraday,Continuous,NL,IDFULL,QH,2021-09-10T08:45:00+02:00,2021-09-10T09:00:00+02:00,153.39,EUR,13.380,MWh
Power,Intraday,Continuous,NL,IDFULL,QH,2021-09-10T09:00:00+02:00,2021-09-10T09:15:00+02:00,177.54,EUR,56.330,MWh
Power,Intraday,Continuous,NL,IDFULL,QH,2021-09-10T09:15:00+02:00,2021-09-10T09:30:00+02:00,171.84,EUR,23.730,MWh
Power,Intraday,Continuous,NL,IDFULL,QH,2021-09-10T09:30:00+02:00,2021-09-10T09:45:00+02:00,147.83,EUR,40.000,MWh
Power,Intraday,Continuous,NL,IDFULL,QH,2021-09-10T09:45:00+02:00,2021-09-10T10:00:00+02:00,138.47,EUR,101.530,MWh
Power,Intraday,Continuous,NL,IDFULL,QH,2021-09-10T10:00:00+02:00,2021-09-10T10:15:00+02:00,182.41,EUR,35.300,MWh
Power,Intraday,Continuous,NL,IDFULL,QH,2021-09-10T10:15:00+02:00,2021-09-10T10:30:00+02:00,153.91,EUR,36.780,MWh
Power,Intraday,Continuous,NL,IDFULL,QH,2021-09-10T10:30:00+02:00,2021-09-10T10:45:00+02:00,147.40,EUR,66.300,MWh
Power,Intraday,Continuous,NL,IDFULL,QH,2021-09-10T10:45:00+02:00,2021-09-10T11:00:00+02:00,135.85,EUR,90.400,MWh
Power,Intraday,Continuous,NL,IDFULL,QH,2021-09-10T11:00:00+02:00,2021-09-10T11:15:00+02:00,181.45,EUR,22.230,MWh
Power,Intraday,Continuous,NL,IDFULL,QH,2021-09-10T11:15:00+02:00,2021-09-10T11:30:00+02:00,156.14,EUR,10.400,MWh
Power,Intraday,Continuous,NL,IDFULL,QH,2021-09-10T11:30:00+02:00,2021-09-10T11:45:00+02:00,147.45,EUR,11.900,MWh
Power,Intraday,Continuous,NL,IDFULL,QH,2021-09-10T11:45:00+02:00,2021-09-10T12:00:00+02:00,130.80,EUR,13.100,MWh
Power,Intraday,Continuous,NL,IDFULL,QH,2021-09-10T12:00:00+02:00,2021-09-10T12:15:00+02:00,169.72,EUR,11.750,MWh
Power,Intraday,Continuous,NL,IDFULL,QH,2021-09-10T12:15:00+02:00,2021-09-10T12:30:00+02:00,151.96,EUR,10.450,MWh
Power,Intraday,Continuous,NL,IDFULL,QH,2021-09-10T12:30:00+02:00,2021-09-10T12:45:00+02:00,140.50,EUR,13.050,MWh
Power,Intraday,Continuous,NL,IDFULL,QH,2021-09-10T12:45:00+02:00,2021-09-10T13:00:00+02:00,128.09,EUR,15.950,MWh
Power,Intraday,Continuous,NL,IDFULL,QH,2021-09-10T13:00:00+02:00,2021-09-10T13:15:00+02:00,137.51,EUR,13.730,MWh
Power,Intraday,Continuous,NL,IDFULL,QH,2021-09-10T13:15:00+02:00,2021-09-10T13:30:00+02:00,140.69,EUR,13.030,MWh
Power,Intraday,Continuous,NL,IDFULL,QH,2021-09-10T13:30:00+02:00,2021-09-10T13:45:00+02:00,122.50,EUR,10.450,MWh
Power,Intraday,Continuous,NL,IDFULL,QH,2021-09-10T13:45:00+02:00,2021-09-10T14:00:00+02:00,111.17,EUR,14.250,MWh
Power,Intraday,Continuous,NL,IDFULL,QH,2021-09-10T14:00:00+02:00,2021-09-10T14:15:00+02:00,110.17,EUR,14.730,MWh
Power,Intraday,Continuous,NL,IDFULL,QH,2021-09-10T14:15:00+02:00,2021-09-10T14:30:00+02:00,113.53,EUR,13.180,MWh
Power,Intraday,Continuous,NL,IDFULL,QH,2021-09-10T14:30:00+02:00,2021-09-10T14:45:00+02:00,128.00,EUR,15.180,MWh
Power,Intraday,Continuous,NL,IDFULL,QH,2021-09-10T14:45:00+02:00,2021-09-10T15:00:00+02:00,135.43,EUR,18.380,MWh
Power,Intraday,Continuous,NL,IDFULL,QH,2021-09-10T15:00:00+02:00,2021-09-10T15:15:00+02:00,103.71,EUR,37.580,MWh
Power,Intraday,Continuous,NL,IDFULL,QH,2021-09-10T15:15:00+02:00,2021-09-10T15:30:00+02:00,123.94,EUR,8.950,MWh
Power,Intraday,Continuous,NL,IDFULL,QH,2021-09-10T15:30:00+02:00,2021-09-10T15:45:00+02:00,140.40,EUR,10.530,MWh
Power,Intraday,Continuous,NL,IDFULL,QH,2021-09-10T15:45:00+02:00,2021-09-10T16:00:00+02:00,148.21,EUR,6.500,MWh
Power,Intraday,Continuous,NL,IDFULL,QH,2021-09-10T16:00:00+02:00,2021-09-10T16:15:00+02:00,113.26,EUR,47.680,MWh
Power,Intraday,Continuous,NL,IDFULL,QH,2021-09-10T16:15:00+02:00,2021-09-10T16:30:00+02:00,146.27,EUR,16.700,MWh
Power,Intraday,Continuous,NL,IDFULL,QH,2021-09-10T16:30:00+02:00,2021-09-10T16:45:00+02:00,166.25,EUR,6.950,MWh
Power,Intraday,Continuous,NL,IDFULL,QH,2021-09-10T16:45:00+02:00,2021-09-10T17:00:00+02:00,397.46,EUR,,MWh
Power,Intraday,Continuous,NL,IDFULL,QH,2021-09-10T17:00:00+02:00,2021-09-10T17:15:00+02:00,129.81,EUR,6.200,MWh
Power,Intraday,Continuous,NL,IDFULL,QH,2021-09-10T17:15:00+02:00,2021-09-10T17:30:00+02:00,269.69,EUR,,MWh
Power,Intraday,Continuous,NL,IDFULL,QH,2021-09-10T17:30:00+02:00,2021-09-10T17:45:00+02:00,269.69,EUR,,MWh
Power,Intraday,Continuous,NL,IDFULL,QH,2021-09-10T17:45:00+02:00,2021-09-10T18:00:00+02:00,269.69,EUR,,MWh
Power,Intraday,Continuous,NL,IDFULL,QH,2021-09-10T18:00:00+02:00,2021-09-10T18:15:00+02:00,258.50,EUR,3.830,MWh
Power,Intraday,Continuous,NL,IDFULL,QH,2021-09-10T18:15:00+02:00,2021-09-10T18:30:00+02:00,224.46,EUR,3.350,MWh
Power,Intraday,Continuous,NL,IDFULL,QH,2021-09-10T18:30:00+02:00,2021-09-10T18:45:00+02:00,150.63,EUR,41.250,MWh
Power,Intraday,Continuous,NL,IDFULL,QH,2021-09-10T18:45:00+02:00,2021-09-10T19:00:00+02:00,161.83,EUR,60.050,MWh
Power,Intraday,Continuous,NL,IDFULL,QH,2021-09-10T19:00:00+02:00,2021-09-10T19:15:00+02:00,117.71,EUR,23.630,MWh
Power,Intraday,Continuous,NL,IDFULL,QH,2021-09-10T19:15:00+02:00,2021-09-10T19:30:00+02:00,129.45,EUR,19.930,MWh
Power,Intraday,Continuous,NL,IDFULL,QH,2021-09-10T19:30:00+02:00,2021-09-10T19:45:00+02:00,159.73,EUR,20.430,MWh
Power,Intraday,Continuous,NL,IDFULL,QH,2021-09-10T19:45:00+02:00,2021-09-10T20:00:00+02:00,154.68,EUR,29.130,MWh
Power,Intraday,Continuous,NL,IDFULL,QH,2021-09-10T20:00:00+02:00,2021-09-10T20:15:00+02:00,173.21,EUR,25.750,MWh
Power,Intraday,Continuous,NL,IDFULL,QH,2021-09-10T20:15:00+02:00,2021-09-10T20:30:00+02:00,159.12,EUR,16.830,MWh
Power,Intraday,Continuous,NL,IDFULL,QH,2021-09-10T20:30:00+02:00,2021-09-10T20:45:00+02:00,151.14,EUR,31.030,MWh
Power,Intraday,Continuous,NL,IDFULL,QH,2021-09-10T20:45:00+02:00,2021-09-10T21:00:00+02:00,141.38,EUR,28.180,MWh
Power,Intraday,Continuous,NL,IDFULL,QH,2021-09-10T21:00:00+02:00,2021-09-10T21:15:00+02:00,171.02,EUR,64.600,MWh
Power,Intraday,Continuous,NL,IDFULL,QH,2021-09-10T21:15:00+02:00,2021-09-10T21:30:00+02:00,155.00,EUR,34.150,MWh
Power,Intraday,Continuous,NL,IDFULL,QH,2021-09-10T21:30:00+02:00,2021-09-10T21:45:00+02:00,152.68,EUR,65.680,MWh
Power,Intraday,Continuous,NL,IDFULL,QH,2021-09-10T21:45:00+02:00,2021-09-10T22:00:00+02:00,130.06,EUR,78.800,MWh
Power,Intraday,Continuous,NL,IDFULL,QH,2021-09-10T22:00:00+02:00,2021-09-10T22:15:00+02:00,166.91,EUR,26.500,MWh
Power,Intraday,Continuous,NL,IDFULL,QH,2021-09-10T22:15:00+02:00,2021-09-10T22:30:00+02:00,148.52,EUR,28.550,MWh
Power,Intraday,Continuous,NL,IDFULL,QH,2021-09-10T22:30:00+02:00,2021-09-10T22:45:00+02:00,140.78,EUR,37.580,MWh
Power,Intraday,Continuous,NL,IDFULL,QH,2021-09-10T22:45:00+02:00,2021-09-10T23:00:00+02:00,120.75,EUR,59.150,MWh
Power,Intraday,Continuous,NL,IDFULL,QH,2021-09-10T23:00:00+02:00,2021-09-10T23:15:00+02:00,154.70,EUR,44.100,MWh
Power,Intraday,Continuous,NL,IDFULL,QH,2021-09-10T23:15:00+02:00,2021-09-10T23:30:00+02:00,146.98,EUR,45.330,MWh
Power,Intraday,Continuous,NL,IDFULL,QH,2021-09-10T23:30:00+02:00,2021-09-10T23:45:00+02:00,132.76,EUR,48.900,MWh
Power,Intraday,Continuous,NL,IDFULL,QH,2021-09-10T23:45:00+02:00,2021-09-11T00:00:00+02:00,118.85,EUR,71.000,MWh
Power,Intraday,Continuous,NL,ID1,QH,2021-09-10T00:00:00+02:00,2021-09-10T00:15:00+02:00,239.54,EUR,3.750,MWh
Power,Intraday,Continuous,NL,ID1,QH,2021-09-10T00:15:00+02:00,2021-09-10T00:30:00+02:00,127.92,EUR,,MWh
Power,Intraday,Continuous,NL,ID1,QH,2021-09-10T00:30:00+02:00,2021-09-10T00:45:00+02:00,122.26,EUR,,MWh
Power,Intraday,Continuous,NL,ID1,QH,2021-09-10T00:45:00+02:00,2021-09-10T01:00:00+02:00,119.17,EUR,,MWh
Power,Intraday,Continuous,NL,ID1,QH,2021-09-10T01:00:00+02:00,2021-09-10T01:15:00+02:00,132.54,EUR,,MWh
Power,Intraday,Continuous,NL,ID1,QH,2021-09-10T01:15:00+02:00,2021-09-10T01:30:00+02:00,119.37,EUR,,MWh
Power,Intraday,Continuous,NL,ID1,QH,2021-09-10T01:30:00+02:00,2021-09-10T01:45:00+02:00,118.29,EUR,,MWh
Power,Intraday,Continuous,NL,ID1,QH,2021-09-10T01:45:00+02:00,2021-09-10T02:00:00+02:00,118.73,EUR,,MWh
Power,Intraday,Continuous,NL,ID1,QH,2021-09-10T02:00:00+02:00,2021-09-10T02:15:00+02:00,118.83,EUR,,MWh
Power,Intraday,Continuous,NL,ID1,QH,2021-09-10T02:15:00+02:00,2021-09-10T02:30:00+02:00,119.18,EUR,,MWh
Power,Intraday,Continuous,NL,ID1,QH,2021-09-10T02:30:00+02:00,2021-09-10T02:45:00+02:00,125.95,EUR,,MWh
Power,Intraday,Continuous,NL,ID1,QH,2021-09-10T02:45:00+02:00,2021-09-10T03:00:00+02:00,125.41,EUR,,MWh
Power,Intraday,Continuous,NL,ID1,QH,2021-09-10T03:00:00+02:00,2021-09-10T03:15:00+02:00,118.38,EUR,,MWh
Power,Intraday,Continuous,NL,ID1,QH,2021-09-10T03:15:00+02:00,2021-09-10T03:30:00+02:00,114.50,EUR,,MWh
Power,Intraday,Continuous,NL,ID1,QH,2021-09-10T03:30:00+02:00,2021-09-10T03:45:00+02:00,118.20,EUR,,MWh
Power,Intraday,Continuous,NL,ID1,QH,2021-09-10T03:45:00+02:00,2021-09-10T04:00:00+02:00,125.15,EUR,,MWh
Power,Intraday,Continuous,NL,ID1,QH,2021-09-10T04:00:00+02:00,2021-09-10T04:15:00+02:00,119.94,EUR,,MWh
Power,Intraday,Continuous,NL,ID1,QH,2021-09-10T04:15:00+02:00,2021-09-10T04:30:00+02:00,122.14,EUR,,MWh
Power,Intraday,Continuous,NL,ID1,QH,2021-09-10T04:30:00+02:00,2021-09-10T04:45:00+02:00,132.10,EUR,,MWh
Power,Intraday,Continuous,NL,ID1,QH,2021-09-10T04:45:00+02:00,2021-09-10T05:00:00+02:00,143.42,EUR,,MWh
Power,Intraday,Continuous,NL,ID1,QH,2021-09-10T05:00:00+02:00,2021-09-10T05:15:00+02:00,126.56,EUR,,MWh
Power,Intraday,Continuous,NL,ID1,QH,2021-09-10T05:15:00+02:00,2021-09-10T05:30:00+02:00,124.10,EUR,,MWh
Power,Intraday,Continuous,NL,ID1,QH,2021-09-10T05:30:00+02:00,2021-09-10T05:45:00+02:00,134.47,EUR,,MWh
Power,Intraday,Continuous,NL,ID1,QH,2021-09-10T05:45:00+02:00,2021-09-10T06:00:00+02:00,152.75,EUR,,MWh
Power,Intraday,Continuous,NL,ID1,QH,2021-09-10T06:00:00+02:00,2021-09-10T06:15:00+02:00,112.76,EUR,,MWh
Power,Intraday,Continuous,NL,ID1,QH,2021-09-10T06:15:00+02:00,2021-09-10T06:30:00+02:00,153.94,EUR,,MWh
Power,Intraday,Continuous,NL,ID1,QH,2021-09-10T06:30:00+02:00,2021-09-10T06:45:00+02:00,165.00,EUR,,MWh
Power,Intraday,Continuous,NL,ID1,QH,2021-09-10T06:45:00+02:00,2021-09-10T07:00:00+02:00,176.30,EUR,,MWh
Power,Intraday,Continuous,NL,ID1,QH,2021-09-10T07:00:00+02:00,2021-09-10T07:15:00+02:00,144.77,EUR,,MWh
Power,Intraday,Continuous,NL,ID1,QH,2021-09-10T07:15:00+02:00,2021-09-10T07:30:00+02:00,162.25,EUR,,MWh
Power,Intraday,Continuous,NL,ID1,QH,2021-09-10T07:30:00+02:00,2021-09-10T07:45:00+02:00,170.70,EUR,,MWh
Power,Intraday,Continuous,NL,ID1,QH,2021-09-10T07:45:00+02:00,2021-09-10T08:00:00+02:00,176.48,EUR,,MWh
Power,Intraday,Continuous,NL,ID1,QH,2021-09-10T08:00:00+02:00,2021-09-10T08:15:00+02:00,191.31,EUR,,MWh
Power,Intraday,Continuous,NL,ID1,QH,2021-09-10T08:15:00+02:00,2021-09-10T08:30:00+02:00,177.23,EUR,,MWh
Power,Intraday,Continuous,NL,ID1,QH,2021-09-10T08:30:00+02:00,2021-09-10T08:45:00+02:00,157.00,EUR,,MWh
Power,Intraday,Continuous,NL,ID1,QH,2021-09-10T08:45:00+02:00,2021-09-10T09:00:00+02:00,155.31,EUR,,MWh
Power,Intraday,Continuous,NL,ID1,QH,2021-09-10T09:00:00+02:00,2021-09-10T09:15:00+02:00,177.00,EUR,,MWh
Power,Intraday,Continuous,NL,ID1,QH,2021-09-10T09:15:00+02:00,2021-09-10T09:30:00+02:00,171.62,EUR,,MWh
Power,Intraday,Continuous,NL,ID1,QH,2021-09-10T09:30:00+02:00,2021-09-10T09:45:00+02:00,147.51,EUR,,MWh
Power,Intraday,Continuous,NL,ID1,QH,2021-09-10T09:45:00+02:00,2021-09-10T10:00:00+02:00,138.85,EUR,,MWh
Power,Intraday,Continuous,NL,ID1,QH,2021-09-10T10:00:00+02:00,2021-09-10T10:15:00+02:00,182.46,EUR,,MWh
Power,Intraday,Continuous,NL,ID1,QH,2021-09-10T10:15:00+02:00,2021-09-10T10:30:00+02:00,100.00,EUR,3.700,MWh
Power,Intraday,Continuous,NL,ID1,QH,2021-09-10T10:30:00+02:00,2021-09-10T10:45:00+02:00,147.32,EUR,,MWh
Power,Intraday,Continuous,NL,ID1,QH,2021-09-10T10:45:00+02:00,2021-09-10T11:00:00+02:00,137.74,EUR,,MWh
Power,Intraday,Continuous,NL,ID1,QH,2021-09-10T11:00:00+02:00,2021-09-10T11:15:00+02:00,197.25,EUR,,MWh
Power,Intraday,Continuous,NL,ID1,QH,2021-09-10T11:15:00+02:00,2021-09-10T11:30:00+02:00,155.98,EUR,,MWh
Power,Intraday,Continuous,NL,ID1,QH,2021-09-10T11:30:00+02:00,2021-09-10T11:45:00+02:00,147.75,EUR,,MWh
Power,Intraday,Continuous,NL,ID1,QH,2021-09-10T11:45:00+02:00,2021-09-10T12:00:00+02:00,131.62,EUR,,MWh
Power,Intraday,Continuous,NL,ID1,QH,2021-09-10T12:00:00+02:00,2021-09-10T12:15:00+02:00,169.72,EUR,,MWh
Power,Intraday,Continuous,NL,ID1,QH,2021-09-10T12:15:00+02:00,2021-09-10T12:30:00+02:00,152.65,EUR,,MWh
Power,Intraday,Continuous,NL,ID1,QH,2021-09-10T12:30:00+02:00,2021-09-10T12:45:00+02:00,141.51,EUR,,MWh
Power,Intraday,Continuous,NL,ID1,QH,2021-09-10T12:45:00+02:00,2021-09-10T13:00:00+02:00,128.09,EUR,,MWh
Power,Intraday,Continuous,NL,ID1,QH,2021-09-10T13:00:00+02:00,2021-09-10T13:15:00+02:00,137.51,EUR,,MWh
Power,Intraday,Continuous,NL,ID1,QH,2021-09-10T13:15:00+02:00,2021-09-10T13:30:00+02:00,140.69,EUR,,MWh
Power,Intraday,Continuous,NL,ID1,QH,2021-09-10T13:30:00+02:00,2021-09-10T13:45:00+02:00,122.50,EUR,,MWh
Power,Intraday,Continuous,NL,ID1,QH,2021-09-10T13:45:00+02:00,2021-09-10T14:00:00+02:00,93.30,EUR,3.750,MWh
Power,Intraday,Continuous,NL,ID1,QH,2021-09-10T14:00:00+02:00,2021-09-10T14:15:00+02:00,105.21,EUR,,MWh
Power,Intraday,Continuous,NL,ID1,QH,2021-09-10T14:15:00+02:00,2021-09-10T14:30:00+02:00,101.77,EUR,4.550,MWh
Power,Intraday,Continuous,NL,ID1,QH,2021-09-10T14:30:00+02:00,2021-09-10T14:45:00+02:00,102.77,EUR,3.250,MWh
Power,Intraday,Continuous,NL,ID1,QH,2021-09-10T14:45:00+02:00,2021-09-10T15:00:00+02:00,125.43,EUR,,MWh
Power,Intraday,Continuous,NL,ID1,QH,2021-09-10T15:00:00+02:00,2021-09-10T15:15:00+02:00,102.50,EUR,2.600,MWh
Power,Intraday,Continuous,NL,ID1,QH,2021-09-10T15:15:00+02:00,2021-09-10T15:30:00+02:00,108.83,EUR,,MWh
Power,Intraday,Continuous,NL,ID1,QH,2021-09-10T15:30:00+02:00,2021-09-10T15:45:00+02:00,135.18,EUR,,MWh
Power,Intraday,Continuous,NL,ID1,QH,2021-09-10T15:45:00+02:00,2021-09-10T16:00:00+02:00,147.90,EUR,,MWh
Power,Intraday,Continuous,NL,ID1,QH,2021-09-10T16:00:00+02:00,2021-09-10T16:15:00+02:00,111.89,EUR,,MWh
Power,Intraday,Continuous,NL,ID1,QH,2021-09-10T16:15:00+02:00,2021-09-10T16:30:00+02:00,169.43,EUR,,MWh
Power,Intraday,Continuous,NL,ID1,QH,2021-09-10T16:30:00+02:00,2021-09-10T16:45:00+02:00,166.25,EUR,,MWh
Power,Intraday,Continuous,NL,ID1,QH,2021-09-10T16:45:00+02:00,2021-09-10T17:00:00+02:00,397.46,EUR,,MWh
Power,Intraday,Continuous,NL,ID1,QH,2021-09-10T17:00:00+02:00,2021-09-10T17:15:00+02:00,129.81,EUR,,MWh
Power,Intraday,Continuous,NL,ID1,QH,2021-09-10T17:15:00+02:00,2021-09-10T17:30:00+02:00,269.69,EUR,,MWh
Power,Intraday,Continuous,NL,ID1,QH,2021-09-10T17:30:00+02:00,2021-09-10T17:45:00+02:00,269.69,EUR,,MWh
Power,Intraday,Continuous,NL,ID1,QH,2021-09-10T17:45:00+02:00,2021-09-10T18:00:00+02:00,269.69,EUR,,MWh
Power,Intraday,Continuous,NL,ID1,QH,2021-09-10T18:00:00+02:00,2021-09-10T18:15:00+02:00,258.50,EUR,,MWh
Power,Intraday,Continuous,NL,ID1,QH,2021-09-10T18:15:00+02:00,2021-09-10T18:30:00+02:00,224.46,EUR,,MWh
Power,Intraday,Continuous,NL,ID1,QH,2021-09-10T18:30:00+02:00,2021-09-10T18:45:00+02:00,97.28,EUR,4.000,MWh
Power,Intraday,Continuous,NL,ID1,QH,2021-09-10T18:45:00+02:00,2021-09-10T19:00:00+02:00,98.04,EUR,6.750,MWh
Power,Intraday,Continuous,NL,ID1,QH,2021-09-10T19:00:00+02:00,2021-09-10T19:15:00+02:00,97.96,EUR,20.000,MWh
Power,Intraday,Continuous,NL,ID1,QH,2021-09-10T19:15:00+02:00,2021-09-10T19:30:00+02:00,102.89,EUR,8.800,MWh
Power,Intraday,Continuous,NL,ID1,QH,2021-09-10T19:30:00+02:00,2021-09-10T19:45:00+02:00,159.73,EUR,,MWh
Power,Intraday,Continuous,NL,ID1,QH,2021-09-10T19:45:00+02:00,2021-09-10T20:00:00+02:00,154.68,EUR,,MWh
Power,Intraday,Continuous,NL,ID1,QH,2021-09-10T20:00:00+02:00,2021-09-10T20:15:00+02:00,108.73,EUR,4.000,MWh
Power,Intraday,Continuous,NL,ID1,QH,2021-09-10T20:15:00+02:00,2021-09-10T20:30:00+02:00,157.60,EUR,,MWh
Power,Intraday,Continuous,NL,ID1,QH,2021-09-10T20:30:00+02:00,2021-09-10T20:45:00+02:00,151.05,EUR,,MWh
Power,Intraday,Continuous,NL,ID1,QH,2021-09-10T20:45:00+02:00,2021-09-10T21:00:00+02:00,141.81,EUR,,MWh
Power,Intraday,Continuous,NL,ID1,QH,2021-09-10T21:00:00+02:00,2021-09-10T21:15:00+02:00,156.99,EUR,,MWh
Power,Intraday,Continuous,NL,ID1,QH,2021-09-10T21:15:00+02:00,2021-09-10T21:30:00+02:00,152.06,EUR,,MWh
Power,Intraday,Continuous,NL,ID1,QH,2021-09-10T21:30:00+02:00,2021-09-10T21:45:00+02:00,157.25,EUR,,MWh
Power,Intraday,Continuous,NL,ID1,QH,2021-09-10T21:45:00+02:00,2021-09-10T22:00:00+02:00,135.48,EUR,,MWh
Power,Intraday,Continuous,NL,ID1,QH,2021-09-10T22:00:00+02:00,2021-09-10T22:15:00+02:00,162.65,EUR,,MWh
Power,Intraday,Continuous,NL,ID1,QH,2021-09-10T22:15:00+02:00,2021-09-10T22:30:00+02:00,148.46,EUR,,MWh
Power,Intraday,Continuous,NL,ID1,QH,2021-09-10T22:30:00+02:00,2021-09-10T22:45:00+02:00,156.64,EUR,,MWh
Power,Intraday,Continuous,NL,ID1,QH,2021-09-10T22:45:00+02:00,2021-09-10T23:00:00+02:00,122.54,EUR,,MWh
Power,Intraday,Continuous,NL,ID1,QH,2021-09-10T23:00:00+02:00,2021-09-10T23:15:00+02:00,158.12,EUR,,MWh
Power,Intraday,Continuous,NL,ID1,QH,2021-09-10T23:15:00+02:00,2021-09-10T23:30:00+02:00,148.65,EUR,,MWh
Power,Intraday,Continuous,NL,ID1,QH,2021-09-10T23:30:00+02:00,2021-09-10T23:45:00+02:00,132.87,EUR,,MWh
Power,Intraday,Continuous,NL,ID1,QH,2021-09-10T23:45:00+02:00,2021-09-11T00:00:00+02:00,121.19,EUR,,MWh
Power,Intraday,Continuous,NL,ID3,QH,2021-09-10T00:00:00+02:00,2021-09-10T00:15:00+02:00,153.37,EUR,32.330,MWh
Power,Intraday,Continuous,NL,ID3,QH,2021-09-10T00:15:00+02:00,2021-09-10T00:30:00+02:00,127.92,EUR,20.050,MWh
Power,Intraday,Continuous,NL,ID3,QH,2021-09-10T00:30:00+02:00,2021-09-10T00:45:00+02:00,122.26,EUR,7.750,MWh
Power,Intraday,Continuous,NL,ID3,QH,2021-09-10T00:45:00+02:00,2021-09-10T01:00:00+02:00,119.17,EUR,7.100,MWh
Power,Intraday,Continuous,NL,ID3,QH,2021-09-10T01:00:00+02:00,2021-09-10T01:15:00+02:00,132.54,EUR,35.680,MWh
Power,Intraday,Continuous,NL,ID3,QH,2021-09-10T01:15:00+02:00,2021-09-10T01:30:00+02:00,119.37,EUR,12.280,MWh
Power,Intraday,Continuous,NL,ID3,QH,2021-09-10T01:30:00+02:00,2021-09-10T01:45:00+02:00,118.29,EUR,11.200,MWh
Power,Intraday,Continuous,NL,ID3,QH,2021-09-10T01:45:00+02:00,2021-09-10T02:00:00+02:00,118.73,EUR,15.830,MWh
Power,Intraday,Continuous,NL,ID3,QH,2021-09-10T02:00:00+02:00,2021-09-10T02:15:00+02:00,118.83,EUR,25.830,MWh
Power,Intraday,Continuous,NL,ID3,QH,2021-09-10T02:15:00+02:00,2021-09-10T02:30:00+02:00,119.18,EUR,13.900,MWh
Power,Intraday,Continuous,NL,ID3,QH,2021-09-10T02:30:00+02:00,2021-09-10T02:45:00+02:00,125.95,EUR,5.580,MWh
Power,Intraday,Continuous,NL,ID3,QH,2021-09-10T02:45:00+02:00,2021-09-10T03:00:00+02:00,125.41,EUR,8.500,MWh
Power,Intraday,Continuous,NL,ID3,QH,2021-09-10T03:00:00+02:00,2021-09-10T03:15:00+02:00,118.38,EUR,16.530,MWh
Power,Intraday,Continuous,NL,ID3,QH,2021-09-10T03:15:00+02:00,2021-09-10T03:30:00+02:00,114.50,EUR,9.330,MWh
Power,Intraday,Continuous,NL,ID3,QH,2021-09-10T03:30:00+02:00,2021-09-10T03:45:00+02:00,118.20,EUR,2.880,MWh
Power,Intraday,Continuous,NL,ID3,QH,2021-09-10T03:45:00+02:00,2021-09-10T04:00:00+02:00,125.15,EUR,2.680,MWh
Power,Intraday,Continuous,NL,ID3,QH,2021-09-10T04:00:00+02:00,2021-09-10T04:15:00+02:00,119.94,EUR,23.530,MWh
Power,Intraday,Continuous,NL,ID3,QH,2021-09-10T04:15:00+02:00,2021-09-10T04:30:00+02:00,122.14,EUR,4.980,MWh
Power,Intraday,Continuous,NL,ID3,QH,2021-09-10T04:30:00+02:00,2021-09-10T04:45:00+02:00,132.10,EUR,5.180,MWh
Power,Intraday,Continuous,NL,ID3,QH,2021-09-10T04:45:00+02:00,2021-09-10T05:00:00+02:00,143.42,EUR,9.850,MWh
Power,Intraday,Continuous,NL,ID3,QH,2021-09-10T05:00:00+02:00,2021-09-10T05:15:00+02:00,126.56,EUR,8.550,MWh
Power,Intraday,Continuous,NL,ID3,QH,2021-09-10T05:15:00+02:00,2021-09-10T05:30:00+02:00,124.10,EUR,7.530,MWh
Power,Intraday,Continuous,NL,ID3,QH,2021-09-10T05:30:00+02:00,2021-09-10T05:45:00+02:00,134.47,EUR,10.050,MWh
Power,Intraday,Continuous,NL,ID3,QH,2021-09-10T05:45:00+02:00,2021-09-10T06:00:00+02:00,152.75,EUR,11.180,MWh
Power,Intraday,Continuous,NL,ID3,QH,2021-09-10T06:00:00+02:00,2021-09-10T06:15:00+02:00,112.76,EUR,20.330,MWh
Power,Intraday,Continuous,NL,ID3,QH,2021-09-10T06:15:00+02:00,2021-09-10T06:30:00+02:00,153.94,EUR,23.900,MWh
Power,Intraday,Continuous,NL,ID3,QH,2021-09-10T06:30:00+02:00,2021-09-10T06:45:00+02:00,165.00,EUR,44.280,MWh
Power,Intraday,Continuous,NL,ID3,QH,2021-09-10T06:45:00+02:00,2021-09-10T07:00:00+02:00,176.30,EUR,31.750,MWh
Power,Intraday,Continuous,NL,ID3,QH,2021-09-10T07:00:00+02:00,2021-09-10T07:15:00+02:00,144.77,EUR,17.230,MWh
Power,Intraday,Continuous,NL,ID3,QH,2021-09-10T07:15:00+02:00,2021-09-10T07:30:00+02:00,162.25,EUR,18.130,MWh
Power,Intraday,Continuous,NL,ID3,QH,2021-09-10T07:30:00+02:00,2021-09-10T07:45:00+02:00,170.70,EUR,44.650,MWh
Power,Intraday,Continuous,NL,ID3,QH,2021-09-10T07:45:00+02:00,2021-09-10T08:00:00+02:00,176.48,EUR,37.580,MWh
Power,Intraday,Continuous,NL,ID3,QH,2021-09-10T08:00:00+02:00,2021-09-10T08:15:00+02:00,191.31,EUR,6.830,MWh
Power,Intraday,Continuous,NL,ID3,QH,2021-09-10T08:15:00+02:00,2021-09-10T08:30:00+02:00,177.23,EUR,4.380,MWh
Power,Intraday,Continuous,NL,ID3,QH,2021-09-10T08:30:00+02:00,2021-09-10T08:45:00+02:00,157.00,EUR,,MWh
Power,Intraday,Continuous,NL,ID3,QH,2021-09-10T08:45:00+02:00,2021-09-10T09:00:00+02:00,155.31,EUR,7.280,MWh
Power,Intraday,Continuous,NL,ID3,QH,2021-09-10T09:00:00+02:00,2021-09-10T09:15:00+02:00,177.00,EUR,42.850,MWh
Power,Intraday,Continuous,NL,ID3,QH,2021-09-10T09:15:00+02:00,2021-09-10T09:30:00+02:00,171.62,EUR,14.200,MWh
Power,Intraday,Continuous,NL,ID3,QH,2021-09-10T09:30:00+02:00,2021-09-10T09:45:00+02:00,147.51,EUR,33.630,MWh
Power,Intraday,Continuous,NL,ID3,QH,2021-09-10T09:45:00+02:00,2021-09-10T10:00:00+02:00,138.85,EUR,91.930,MWh
Power,Intraday,Continuous,NL,ID3,QH,2021-09-10T10:00:00+02:00,2021-09-10T10:15:00+02:00,182.46,EUR,17.200,MWh
Power,Intraday,Continuous,NL,ID3,QH,2021-09-10T10:15:00+02:00,2021-09-10T10:30:00+02:00,148.11,EUR,19.000,MWh
Power,Intraday,Continuous,NL,ID3,QH,2021-09-10T10:30:00+02:00,2021-09-10T10:45:00+02:00,147.32,EUR,55.270,MWh
Power,Intraday,Continuous,NL,ID3,QH,2021-09-10T10:45:00+02:00,2021-09-10T11:00:00+02:00,137.74,EUR,75.380,MWh
Power,Intraday,Continuous,NL,ID3,QH,2021-09-10T11:00:00+02:00,2021-09-10T11:15:00+02:00,197.25,EUR,9.600,MWh
Power,Intraday,Continuous,NL,ID3,QH,2021-09-10T11:15:00+02:00,2021-09-10T11:30:00+02:00,155.98,EUR,9.250,MWh
Power,Intraday,Continuous,NL,ID3,QH,2021-09-10T11:30:00+02:00,2021-09-10T11:45:00+02:00,147.75,EUR,11.080,MWh
Power,Intraday,Continuous,NL,ID3,QH,2021-09-10T11:45:00+02:00,2021-09-10T12:00:00+02:00,131.62,EUR,10.830,MWh
Power,Intraday,Continuous,NL,ID3,QH,2021-09-10T12:00:00+02:00,2021-09-10T12:15:00+02:00,169.72,EUR,,MWh
Power,Intraday,Continuous,NL,ID3,QH,2021-09-10T12:15:00+02:00,2021-09-10T12:30:00+02:00,152.65,EUR,9.580,MWh
Power,Intraday,Continuous,NL,ID3,QH,2021-09-10T12:30:00+02:00,2021-09-10T12:45:00+02:00,141.51,EUR,11.430,MWh
Power,Intraday,Continuous,NL,ID3,QH,2021-09-10T12:45:00+02:00,2021-09-10T13:00:00+02:00,128.09,EUR,,MWh
Power,Intraday,Continuous,NL,ID3,QH,2021-09-10T13:00:00+02:00,2021-09-10T13:15:00+02:00,137.51,EUR,,MWh
Power,Intraday,Continuous,NL,ID3,QH,2021-09-10T13:15:00+02:00,2021-09-10T13:30:00+02:00,140.69,EUR,,MWh
Power,Intraday,Continuous,NL,ID3,QH,2021-09-10T13:30:00+02:00,2021-09-10T13:45:00+02:00,122.50,EUR,,MWh
Power,Intraday,Continuous,NL,ID3,QH,2021-09-10T13:45:00+02:00,2021-09-10T14:00:00+02:00,93.30,EUR,3.750,MWh
Power,Intraday,Continuous,NL,ID3,QH,2021-09-10T14:00:00+02:00,2021-09-10T14:15:00+02:00,105.21,EUR,5.250,MWh
Power,Intraday,Continuous,NL,ID3,QH,2021-09-10T14:15:00+02:00,2021-09-10T14:30:00+02:00,101.77,EUR,4.550,MWh
Power,Intraday,Continuous,NL,ID3,QH,2021-09-10T14:30:00+02:00,2021-09-10T14:45:00+02:00,106.76,EUR,3.680,MWh
Power,Intraday,Continuous,NL,ID3,QH,2021-09-10T14:45:00+02:00,2021-09-10T15:00:00+02:00,125.43,EUR,3.930,MWh
Power,Intraday,Continuous,NL,ID3,QH,2021-09-10T15:00:00+02:00,2021-09-10T15:15:00+02:00,100.51,EUR,27.800,MWh
Power,Intraday,Continuous,NL,ID3,QH,2021-09-10T15:15:00+02:00,2021-09-10T15:30:00+02:00,108.83,EUR,3.580,MWh
Power,Intraday,Continuous,NL,ID3,QH,2021-09-10T15:30:00+02:00,2021-09-10T15:45:00+02:00,135.18,EUR,4.480,MWh
Power,Intraday,Continuous,NL,ID3,QH,2021-09-10T15:45:00+02:00,2021-09-10T16:00:00+02:00,147.90,EUR,3.300,MWh
Power,Intraday,Continuous,NL,ID3,QH,2021-09-10T16:00:00+02:00,2021-09-10T16:15:00+02:00,111.89,EUR,39.180,MWh
Power,Intraday,Continuous,NL,ID3,QH,2021-09-10T16:15:00+02:00,2021-09-10T16:30:00+02:00,169.43,EUR,5.380,MWh
Power,Intraday,Continuous,NL,ID3,QH,2021-09-10T16:30:00+02:00,2021-09-10T16:45:00+02:00,166.25,EUR,,MWh
Power,Intraday,Continuous,NL,ID3,QH,2021-09-10T16:45:00+02:00,2021-09-10T17:00:00+02:00,397.46,EUR,,MWh
Power,Intraday,Continuous,NL,ID3,QH,2021-09-10T17:00:00+02:00,2021-09-10T17:15:00+02:00,129.81,EUR,,MWh
Power,Intraday,Continuous,NL,ID3,QH,2021-09-10T17:15:00+02:00,2021-09-10T17:30:00+02:00,269.69,EUR,,MWh
Power,Intraday,Continuous,NL,ID3,QH,2021-09-10T17:30:00+02:00,2021-09-10T17:45:00+02:00,269.69,EUR,,MWh
Power,Intraday,Continuous,NL,ID3,QH,2021-09-10T17:45:00+02:00,2021-09-10T18:00:00+02:00,269.69,EUR,,MWh
Power,Intraday,Continuous,NL,ID3,QH,2021-09-10T18:00:00+02:00,2021-09-10T18:15:00+02:00,258.50,EUR,3.830,MWh
Power,Intraday,Continuous,NL,ID3,QH,2021-09-10T18:15:00+02:00,2021-09-10T18:30:00+02:00,224.46,EUR,3.350,MWh
Power,Intraday,Continuous,NL,ID3,QH,2021-09-10T18:30:00+02:00,2021-09-10T18:45:00+02:00,150.63,EUR,41.250,MWh
Power,Intraday,Continuous,NL,ID3,QH,2021-09-10T18:45:00+02:00,2021-09-10T19:00:00+02:00,161.83,EUR,60.050,MWh
Power,Intraday,Continuous,NL,ID3,QH,2021-09-10T19:00:00+02:00,2021-09-10T19:15:00+02:00,117.71,EUR,23.630,MWh
Power,Intraday,Continuous,NL,ID3,QH,2021-09-10T19:15:00+02:00,2021-09-10T19:30:00+02:00,129.45,EUR,19.930,MWh
Power,Intraday,Continuous,NL,ID3,QH,2021-09-10T19:30:00+02:00,2021-09-10T19:45:00+02:00,159.73,EUR,20.430,MWh
Power,Intraday,Continuous,NL,ID3,QH,2021-09-10T19:45:00+02:00,2021-09-10T20:00:00+02:00,154.68,EUR,29.130,MWh
Power,Intraday,Continuous,NL,ID3,QH,2021-09-10T20:00:00+02:00,2021-09-10T20:15:00+02:00,172.57,EUR,23.180,MWh
Power,Intraday,Continuous,NL,ID3,QH,2021-09-10T20:15:00+02:00,2021-09-10T20:30:00+02:00,157.60,EUR,14.250,MWh
Power,Intraday,Continuous,NL,ID3,QH,2021-09-10T20:30:00+02:00,2021-09-10T20:45:00+02:00,151.05,EUR,11.230,MWh
Power,Intraday,Continuous,NL,ID3,QH,2021-09-10T20:45:00+02:00,2021-09-10T21:00:00+02:00,141.81,EUR,9.550,MWh
Power,Intraday,Continuous,NL,ID3,QH,2021-09-10T21:00:00+02:00,2021-09-10T21:15:00+02:00,156.99,EUR,11.000,MWh
Power,Intraday,Continuous,NL,ID3,QH,2021-09-10T21:15:00+02:00,2021-09-10T21:30:00+02:00,152.06,EUR,19.150,MWh
Power,Intraday,Continuous,NL,ID3,QH,2021-09-10T21:30:00+02:00,2021-09-10T21:45:00+02:00,157.25,EUR,44.280,MWh
Power,Intraday,Continuous,NL,ID3,QH,2021-09-10T21:45:00+02:00,2021-09-10T22:00:00+02:00,135.48,EUR,48.580,MWh
Power,Intraday,Continuous,NL,ID3,QH,2021-09-10T22:00:00+02:00,2021-09-10T22:15:00+02:00,162.65,EUR,11.530,MWh
Power,Intraday,Continuous,NL,ID3,QH,2021-09-10T22:15:00+02:00,2021-09-10T22:30:00+02:00,148.46,EUR,19.700,MWh
Power,Intraday,Continuous,NL,ID3,QH,2021-09-10T22:30:00+02:00,2021-09-10T22:45:00+02:00,156.64,EUR,4.080,MWh
Power,Intraday,Continuous,NL,ID3,QH,2021-09-10T22:45:00+02:00,2021-09-10T23:00:00+02:00,122.54,EUR,14.030,MWh
Power,Intraday,Continuous,NL,ID3,QH,2021-09-10T23:00:00+02:00,2021-09-10T23:15:00+02:00,158.12,EUR,12.380,MWh
Power,Intraday,Continuous,NL,ID3,QH,2021-09-10T23:15:00+02:00,2021-09-10T23:30:00+02:00,148.65,EUR,22.950,MWh
Power,Intraday,Continuous,NL,ID3,QH,2021-09-10T23:30:00+02:00,2021-09-10T23:45:00+02:00,132.87,EUR,26.150,MWh
Power,Intraday,Continuous,NL,ID3,QH,2021-09-10T23:45:00+02:00,2021-09-11T00:00:00+02:00,121.19,EUR,33.700,MWh
Power,Intraday,Continuous,NL,IDFULL,BASE,2021-09-10T00:00:00+02:00,2021-09-11T00:00:00+02:00,156.41,EUR,25300.300,MWh
Power,Intraday,Continuous,NL,IDFULL,PEAK,2021-09-10T08:00:00+02:00,2021-09-10T20:00:00+02:00,174.19,EUR,15893.300,MWh
