Commodity,NominationModality,TradingModality,MarketArea,IndexName,TimeResolution,DeliveryStart,DeliveryEnd,IndexPrice,Currency,Volume,VolumeUnit
Power,Intraday,Continuous,NL,IDFULL,H,2021-01-19T00:00:00+01:00,2021-01-19T01:00:00+01:00,36.90,EUR,310.200,MWh
Power,Intraday,Continuous,NL,IDFULL,H,2021-01-19T01:00:00+01:00,2021-01-19T02:00:00+01:00,39.22,EUR,170.500,MWh
Power,Intraday,Continuous,NL,IDFULL,H,2021-01-19T02:00:00+01:00,2021-01-19T03:00:00+01:00,32.01,EUR,118.100,MWh
Power,Intraday,Continuous,NL,IDFULL,H,2021-01-19T03:00:00+01:00,2021-01-19T04:00:00+01:00,36.17,EUR,344.200,MWh
Power,Intraday,Continuous,NL,IDFULL,H,2021-01-19T04:00:00+01:00,2021-01-19T05:00:00+01:00,34.60,EUR,154.000,MWh
Power,Intraday,Continuous,NL,IDFULL,H,2021-01-19T05:00:00+01:00,2021-01-19T06:00:00+01:00,38.42,EUR,91.800,MWh
Power,Intraday,Continuous,NL,IDFULL,H,2021-01-19T06:00:00+01:00,2021-01-19T07:00:00+01:00,45.72,EUR,150.400,MWh
Power,Intraday,Continuous,NL,IDFULL,H,2021-01-19T07:00:00+01:00,2021-01-19T08:00:00+01:00,45.49,EUR,436.200,MWh
Power,Intraday,Continuous,NL,IDFULL,H,2021-01-19T08:00:00+01:00,2021-01-19T09:00:00+01:00,57.79,EUR,425.800,MWh
Power,Intraday,Continuous,NL,IDFULL,H,2021-01-19T09:00:00+01:00,2021-01-19T10:00:00+01:00,69.99,EUR,537.600,MWh
Power,Intraday,Continuous,NL,IDFULL,H,2021-01-19T10:00:00+01:00,2021-01-19T11:00:00+01:00,73.14,EUR,849.500,MWh
Power,Intraday,Continuous,NL,IDFULL,H,2021-01-19T11:00:00+01:00,2021-01-19T12:00:00+01:00,61.26,EUR,834.200,MWh
Power,Intraday,Continuous,NL,IDFULL,H,2021-01-19T12:00:00+01:00,2021-01-19T13:00:00+01:00,48.60,EUR,1549.800,MWh
Power,Intraday,Continuous,NL,IDFULL,H,2021-01-19T13:00:00+01:00,2021-01-19T14:00:00+01:00,50.72,EUR,1255.800,MWh
Power,Intraday,Continuous,NL,IDFULL,H,2021-01-19T14:00:00+01:00,2021-01-19T15:00:00+01:00,53.44,EUR,1161.700,MWh
Power,Intraday,Continuous,NL,IDFULL,H,2021-01-19T15:00:00+01:00,2021-01-19T16:00:00+01:00,57.10,EUR,1342.600,MWh
Power,Intraday,Continuous,NL,IDFULL,H,2021-01-19T16:00:00+01:00,2021-01-19T17:00:00+01:00,58.55,EUR,1006.400,MWh
Power,Intraday,Continuous,NL,IDFULL,H,2021-01-19T17:00:00+01:00,2021-01-19T18:00:00+01:00,67.47,EUR,951.300,MWh
Power,Intraday,Continuous,NL,IDFULL,H,2021-01-19T18:00:00+01:00,2021-01-19T19:00:00+01:00,52.34,EUR,280.300,MWh
Power,Intraday,Continuous,NL,IDFULL,H,2021-01-19T19:00:00+01:00,2021-01-19T20:00:00+01:00,51.45,EUR,866.900,MWh
Power,Intraday,Continuous,NL,IDFULL,H,2021-01-19T20:00:00+01:00,2021-01-19T21:00:00+01:00,47.25,EUR,1106.000,MWh
Power,Intraday,Continuous,NL,IDFULL,H,2021-01-19T21:00:00+01:00,2021-01-19T22:00:00+01:00,45.46,EUR,520.600,MWh
Power,Intraday,Continuous,NL,IDFULL,H,2021-01-19T22:00:00+01:00,2021-01-19T23:00:00+01:00,41.94,EUR,301.700,MWh
Power,Intraday,Continuous,NL,IDFULL,H,2021-01-19T23:00:00+01:00,2021-01-20T00:00:00+01:00,34.61,EUR,363.800,MWh
Power,Intraday,Continuous,NL,ID1,H,2021-01-19T00:00:00+01:00,2021-01-19T01:00:00+01:00,35.92,EUR,16.500,MWh
Power,Intraday,Continuous,NL,ID1,H,2021-01-19T01:00:00+01:00,2021-01-19T02:00:00+01:00,38.46,EUR,67.300,MWh
Power,Intraday,Continuous,NL,ID1,H,2021-01-19T02:00:00+01:00,2021-01-19T03:00:00+01:00,25.60,EUR,49.400,MWh
Power,Intraday,Continuous,NL,ID1,H,2021-01-19T03:00:00+01:00,2021-01-19T04:00:00+01:00,35.73,EUR,,MWh
Power,Intraday,Continuous,NL,ID1,H,2021-01-19T04:00:00+01:00,2021-01-19T05:00:00+01:00,33.34,EUR,,MWh
Power,Intraday,Continuous,NL,ID1,H,2021-01-19T05:00:00+01:00,2021-01-19T06:00:00+01:00,36.72,EUR,,MWh
Power,Intraday,Continuous,NL,ID1,H,2021-01-19T06:00:00+01:00,2021-01-19T07:00:00+01:00,47.92,EUR,12.600,MWh
Power,Intraday,Continuous,NL,ID1,H,2021-01-19T07:00:00+01:00,2021-01-19T08:00:00+01:00,35.87,EUR,,MWh
Power,Intraday,Continuous,NL,ID1,H,2021-01-19T08:00:00+01:00,2021-01-19T09:00:00+01:00,46.27,EUR,17.900,MWh
Power,Intraday,Continuous,NL,ID1,H,2021-01-19T09:00:00+01:00,2021-01-19T10:00:00+01:00,71.05,EUR,62.100,MWh
Power,Intraday,Continuous,NL,ID1,H,2021-01-19T10:00:00+01:00,2021-01-19T11:00:00+01:00,82.63,EUR,43.200,MWh
Power,Intraday,Continuous,NL,ID1,H,2021-01-19T11:00:00+01:00,2021-01-19T12:00:00+01:00,55.73,EUR,237.600,MWh
Power,Intraday,Continuous,NL,ID1,H,2021-01-19T12:00:00+01:00,2021-01-19T13:00:00+01:00,54.38,EUR,224.300,MWh
Power,Intraday,Continuous,NL,ID1,H,2021-01-19T13:00:00+01:00,2021-01-19T14:00:00+01:00,58.19,EUR,27.200,MWh
Power,Intraday,Continuous,NL,ID1,H,2021-01-19T14:00:00+01:00,2021-01-19T15:00:00+01:00,66.43,EUR,14.200,MWh
Power,Intraday,Continuous,NL,ID1,H,2021-01-19T15:00:00+01:00,2021-01-19T16:00:00+01:00,51.73,EUR,62.000,MWh
Power,Intraday,Continuous,NL,ID1,H,2021-01-19T16:00:00+01:00,2021-01-19T17:00:00+01:00,45.69,EUR,46.100,MWh
Power,Intraday,Continuous,NL,ID1,H,2021-01-19T17:00:00+01:00,2021-01-19T18:00:00+01:00,53.28,EUR,37.000,MWh
Power,Intraday,Continuous,NL,ID1,H,2021-01-19T18:00:00+01:00,2021-01-19T19:00:00+01:00,53.92,EUR,18.200,MWh
Power,Intraday,Continuous,NL,ID1,H,2021-01-19T19:00:00+01:00,2021-01-19T20:00:00+01:00,55.34,EUR,43.300,MWh
Power,Intraday,Continuous,NL,ID1,H,2021-01-19T20:00:00+01:00,2021-01-19T21:00:00+01:00,43.57,EUR,31.300,MWh
Power,Intraday,Continuous,NL,ID1,H,2021-01-19T21:00:00+01:00,2021-01-19T22:00:00+01:00,42.48,EUR,,MWh
Power,Intraday,Continuous,NL,ID1,H,2021-01-19T22:00:00+01:00,2021-01-19T23:00:00+01:00,41.62,EUR,,MWh
Power,Intraday,Continuous,NL,ID1,H,2021-01-19T23:00:00+01:00,2021-01-20T00:00:00+01:00,34.61,EUR,,MWh
Power,Intraday,Continuous,NL,ID3,H,2021-01-19T00:00:00+01:00,2021-01-19T01:00:00+01:00,38.79,EUR,89.400,MWh
Power,Intraday,Continuous,NL,ID3,H,2021-01-19T01:00:00+01:00,2021-01-19T02:00:00+01:00,39.68,EUR,146.000,MWh
Power,Intraday,Continuous,NL,ID3,H,2021-01-19T02:00:00+01:00,2021-01-19T03:00:00+01:00,30.92,EUR,94.000,MWh
Power,Intraday,Continuous,NL,ID3,H,2021-01-19T03:00:00+01:00,2021-01-19T04:00:00+01:00,35.73,EUR,256.100,MWh
Power,Intraday,Continuous,NL,ID3,H,2021-01-19T04:00:00+01:00,2021-01-19T05:00:00+01:00,33.34,EUR,120.000,MWh
Power,Intraday,Continuous,NL,ID3,H,2021-01-19T05:00:00+01:00,2021-01-19T06:00:00+01:00,36.72,EUR,56.000,MWh
Power,Intraday,Continuous,NL,ID3,H,2021-01-19T06:00:00+01:00,2021-01-19T07:00:00+01:00,43.90,EUR,60.100,MWh
Power,Intraday,Continuous,NL,ID3,H,2021-01-19T07:00:00+01:00,2021-01-19T08:00:00+01:00,35.87,EUR,166.300,MWh
Power,Intraday,Continuous,NL,ID3,H,2021-01-19T08:00:00+01:00,2021-01-19T09:00:00+01:00,43.90,EUR,135.400,MWh
Power,Intraday,Continuous,NL,ID3,H,2021-01-19T09:00:00+01:00,2021-01-19T10:00:00+01:00,71.87,EUR,160.200,MWh
Power,Intraday,Continuous,NL,ID3,H,2021-01-19T10:00:00+01:00,2021-01-19T11:00:00+01:00,77.21,EUR,342.300,MWh
Power,Intraday,Continuous,NL,ID3,H,2021-01-19T11:00:00+01:00,2021-01-19T12:00:00+01:00,56.29,EUR,404.700,MWh
Power,Intraday,Continuous,NL,ID3,H,2021-01-19T12:00:00+01:00,2021-01-19T13:00:00+01:00,47.53,EUR,983.800,MWh
Power,Intraday,Continuous,NL,ID3,H,2021-01-19T13:00:00+01:00,2021-01-19T14:00:00+01:00,51.77,EUR,775.500,MWh
Power,Intraday,Continuous,NL,ID3,H,2021-01-19T14:00:00+01:00,2021-01-19T15:00:00+01:00,52.44,EUR,713.200,MWh
Power,Intraday,Continuous,NL,ID3,H,2021-01-19T15:00:00+01:00,2021-01-19T16:00:00+01:00,59.21,EUR,842.900,MWh
Power,Intraday,Continuous,NL,ID3,H,2021-01-19T16:00:00+01:00,2021-01-19T17:00:00+01:00,62.83,EUR,490.100,MWh
Power,Intraday,Continuous,NL,ID3,H,2021-01-19T17:00:00+01:00,2021-01-19T18:00:00+01:00,67.49,EUR,607.500,MWh
Power,Intraday,Continuous,NL,ID3,H,2021-01-19T18:00:00+01:00,2021-01-19T19:00:00+01:00,51.41,EUR,228.600,MWh
Power,Intraday,Continuous,NL,ID3,H,2021-01-19T19:00:00+01:00,2021-01-19T20:00:00+01:00,50.17,EUR,210.300,MWh
Power,Intraday,Continuous,NL,ID3,H,2021-01-19T20:00:00+01:00,2021-01-19T21:00:00+01:00,44.85,EUR,681.100,MWh
Power,Intraday,Continuous,NL,ID3,H,2021-01-19T21:00:00+01:00,2021-01-19T22:00:00+01:00,42.48,EUR,209.400,MWh
Power,Intraday,Continuous,NL,ID3,H,2021-01-19T22:00:00+01:00,2021-01-19T23:00:00+01:00,41.62,EUR,32.000,MWh
Power,Intraday,Continuous,NL,ID3,H,2021-01-19T23:00:00+01:00,2021-01-20T00:00:00+01:00,34.61,EUR,,MWh
Power,Intraday,Continuous,NL,IDFULL,HH,2021-01-19T00:00:00+01:00,2021-01-19T00:30:00+01:00,36.90,EUR,,MWh
Power,Intraday,Continuous,NL,IDFULL,HH,2021-01-19T00:30:00+01:00,2021-01-19T01:00:00+01:00,36.90,EUR,,MWh
Power,Intraday,Continuous,NL,IDFULL,HH,2021-01-19T01:00:00+01:00,2021-01-19T01:30:00+01:00,39.22,EUR,,MWh
Power,Intraday,Continuous,NL,IDFULL,HH,2021-01-19T01:30:00+01:00,2021-01-19T02:00:00+01:00,39.22,EUR,,MWh
Power,Intraday,Continuous,NL,IDFULL,HH,2021-01-19T02:00:00+01:00,2021-01-19T02:30:00+01:00,32.01,EUR,,MWh
Power,Intraday,Continuous,NL,IDFULL,HH,2021-01-19T02:30:00+01:00,2021-01-19T03:00:00+01:00,32.01,EUR,,MWh
Power,Intraday,Continuous,NL,IDFULL,HH,2021-01-19T03:00:00+01:00,2021-01-19T03:30:00+01:00,36.17,EUR,,MWh
Power,Intraday,Continuous,NL,IDFULL,HH,2021-01-19T03:30:00+01:00,2021-01-19T04:00:00+01:00,36.17,EUR,,MWh
Power,Intraday,Continuous,NL,IDFULL,HH,2021-01-19T04:00:00+01:00,2021-01-19T04:30:00+01:00,34.60,EUR,,MWh
Power,Intraday,Continuous,NL,IDFULL,HH,2021-01-19T04:30:00+01:00,2021-01-19T05:00:00+01:00,34.60,EUR,,MWh
Power,Intraday,Continuous,NL,IDFULL,HH,2021-01-19T05:00:00+01:00,2021-01-19T05:30:00+01:00,38.42,EUR,,MWh
Power,Intraday,Continuous,NL,IDFULL,HH,2021-01-19T05:30:00+01:00,2021-01-19T06:00:00+01:00,38.42,EUR,,MWh
Power,Intraday,Continuous,NL,IDFULL,HH,2021-01-19T06:00:00+01:00,2021-01-19T06:30:00+01:00,45.72,EUR,,MWh
Power,Intraday,Continuous,NL,IDFULL,HH,2021-01-19T06:30:00+01:00,2021-01-19T07:00:00+01:00,45.72,EUR,,MWh
Power,Intraday,Continuous,NL,IDFULL,HH,2021-01-19T07:00:00+01:00,2021-01-19T07:30:00+01:00,45.49,EUR,,MWh
Power,Intraday,Continuous,NL,IDFULL,HH,2021-01-19T07:30:00+01:00,2021-01-19T08:00:00+01:00,45.49,EUR,,MWh
Power,Intraday,Continuous,NL,IDFULL,HH,2021-01-19T08:00:00+01:00,2021-01-19T08:30:00+01:00,57.79,EUR,,MWh
Power,Intraday,Continuous,NL,IDFULL,HH,2021-01-19T08:30:00+01:00,2021-01-19T09:00:00+01:00,57.79,EUR,,MWh
Power,Intraday,Continuous,NL,IDFULL,HH,2021-01-19T09:00:00+01:00,2021-01-19T09:30:00+01:00,69.99,EUR,,MWh
Power,Intraday,Continuous,NL,IDFULL,HH,2021-01-19T09:30:00+01:00,2021-01-19T10:00:00+01:00,69.99,EUR,,MWh
Power,Intraday,Continuous,NL,IDFULL,HH,2021-01-19T10:00:00+01:00,2021-01-19T10:30:00+01:00,73.14,EUR,,MWh
Power,Intraday,Continuous,NL,IDFULL,HH,2021-01-19T10:30:00+01:00,2021-01-19T11:00:00+01:00,73.14,EUR,,MWh
Power,Intraday,Continuous,NL,IDFULL,HH,2021-01-19T11:00:00+01:00,2021-01-19T11:30:00+01:00,61.26,EUR,,MWh
Power,Intraday,Continuous,NL,IDFULL,HH,2021-01-19T11:30:00+01:00,2021-01-19T12:00:00+01:00,61.26,EUR,,MWh
Power,Intraday,Continuous,NL,IDFULL,HH,2021-01-19T12:00:00+01:00,2021-01-19T12:30:00+01:00,48.60,EUR,,MWh
Power,Intraday,Continuous,NL,IDFULL,HH,2021-01-19T12:30:00+01:00,2021-01-19T13:00:00+01:00,48.60,EUR,,MWh
Power,Intraday,Continuous,NL,IDFULL,HH,2021-01-19T13:00:00+01:00,2021-01-19T13:30:00+01:00,50.72,EUR,,MWh
Power,Intraday,Continuous,NL,IDFULL,HH,2021-01-19T13:30:00+01:00,2021-01-19T14:00:00+01:00,50.72,EUR,,MWh
Power,Intraday,Continuous,NL,IDFULL,HH,2021-01-19T14:00:00+01:00,2021-01-19T14:30:00+01:00,53.44,EUR,,MWh
Power,Intraday,Continuous,NL,IDFULL,HH,2021-01-19T14:30:00+01:00,2021-01-19T15:00:00+01:00,53.44,EUR,,MWh
Power,Intraday,Continuous,NL,IDFULL,HH,2021-01-19T15:00:00+01:00,2021-01-19T15:30:00+01:00,57.10,EUR,,MWh
Power,Intraday,Continuous,NL,IDFULL,HH,2021-01-19T15:30:00+01:00,2021-01-19T16:00:00+01:00,57.10,EUR,,MWh
Power,Intraday,Continuous,NL,IDFULL,HH,2021-01-19T16:00:00+01:00,2021-01-19T16:30:00+01:00,58.55,EUR,,MWh
Power,Intraday,Continuous,NL,IDFULL,HH,2021-01-19T16:30:00+01:00,2021-01-19T17:00:00+01:00,58.55,EUR,,MWh
Power,Intraday,Continuous,NL,IDFULL,HH,2021-01-19T17:00:00+01:00,2021-01-19T17:30:00+01:00,67.47,EUR,,MWh
Power,Intraday,Continuous,NL,IDFULL,HH,2021-01-19T17:30:00+01:00,2021-01-19T18:00:00+01:00,67.47,EUR,,MWh
Power,Intraday,Continuous,NL,IDFULL,HH,2021-01-19T18:00:00+01:00,2021-01-19T18:30:00+01:00,52.34,EUR,,MWh
Power,Intraday,Continuous,NL,IDFULL,HH,2021-01-19T18:30:00+01:00,2021-01-19T19:00:00+01:00,52.34,EUR,,MWh
Power,Intraday,Continuous,NL,IDFULL,HH,2021-01-19T19:00:00+01:00,2021-01-19T19:30:00+01:00,51.45,EUR,,MWh
Power,Intraday,Continuous,NL,IDFULL,HH,2021-01-19T19:30:00+01:00,2021-01-19T20:00:00+01:00,51.45,EUR,,MWh
Power,Intraday,Continuous,NL,IDFULL,HH,2021-01-19T20:00:00+01:00,2021-01-19T20:30:00+01:00,47.25,EUR,,MWh
Power,Intraday,Continuous,NL,IDFULL,HH,2021-01-19T20:30:00+01:00,2021-01-19T21:00:00+01:00,47.25,EUR,,MWh
Power,Intraday,Continuous,NL,IDFULL,HH,2021-01-19T21:00:00+01:00,2021-01-19T21:30:00+01:00,45.46,EUR,,MWh
Power,Intraday,Continuous,NL,IDFULL,HH,2021-01-19T21:30:00+01:00,2021-01-19T22:00:00+01:00,45.46,EUR,,MWh
Power,Intraday,Continuous,NL,IDFULL,HH,2021-01-19T22:00:00+01:00,2021-01-19T22:30:00+01:00,41.94,EUR,,MWh
Power,Intraday,Continuous,NL,IDFULL,HH,2021-01-19T22:30:00+01:00,2021-01-19T23:00:00+01:00,41.94,EUR,,MWh
Power,Intraday,Continuous,NL,IDFULL,HH,2021-01-19T23:00:00+01:00,2021-01-19T23:30:00+01:00,34.61,EUR,,MWh
Power,Intraday,Continuous,NL,IDFULL,HH,2021-01-19T23:30:00+01:00,2021-01-20T00:00:00+01:00,34.61,EUR,,MWh
Power,Intraday,Continuous,NL,ID1,HH,2021-01-19T00:00:00+01:00,2021-01-19T00:30:00+01:00,36.90,EUR,,MWh
Power,Intraday,Continuous,NL,ID1,HH,2021-01-19T00:30:00+01:00,2021-01-19T01:00:00+01:00,36.90,EUR,,MWh
Power,Intraday,Continuous,NL,ID1,HH,2021-01-19T01:00:00+01:00,2021-01-19T01:30:00+01:00,39.22,EUR,,MWh
Power,Intraday,Continuous,NL,ID1,HH,2021-01-19T01:30:00+01:00,2021-01-19T02:00:00+01:00,39.22,EUR,,MWh
Power,Intraday,Continuous,NL,ID1,HH,2021-01-19T02:00:00+01:00,2021-01-19T02:30:00+01:00,32.01,EUR,,MWh
Power,Intraday,Continuous,NL,ID1,HH,2021-01-19T02:30:00+01:00,2021-01-19T03:00:00+01:00,32.01,EUR,,MWh
Power,Intraday,Continuous,NL,ID1,HH,2021-01-19T03:00:00+01:00,2021-01-19T03:30:00+01:00,36.17,EUR,,MWh
Power,Intraday,Continuous,NL,ID1,HH,2021-01-19T03:30:00+01:00,2021-01-19T04:00:00+01:00,36.17,EUR,,MWh
Power,Intraday,Continuous,NL,ID1,HH,2021-01-19T04:00:00+01:00,2021-01-19T04:30:00+01:00,34.60,EUR,,MWh
Power,Intraday,Continuous,NL,ID1,HH,2021-01-19T04:30:00+01:00,2021-01-19T05:00:00+01:00,34.60,EUR,,MWh
Power,Intraday,Continuous,NL,ID1,HH,2021-01-19T05:00:00+01:00,2021-01-19T05:30:00+01:00,38.42,EUR,,MWh
Power,Intraday,Continuous,NL,ID1,HH,2021-01-19T05:30:00+01:00,2021-01-19T06:00:00+01:00,38.42,EUR,,MWh
Power,Intraday,Continuous,NL,ID1,HH,2021-01-19T06:00:00+01:00,2021-01-19T06:30:00+01:00,45.72,EUR,,MWh
Power,Intraday,Continuous,NL,ID1,HH,2021-01-19T06:30:00+01:00,2021-01-19T07:00:00+01:00,45.72,EUR,,MWh
Power,Intraday,Continuous,NL,ID1,HH,2021-01-19T07:00:00+01:00,2021-01-19T07:30:00+01:00,45.49,EUR,,MWh
Power,Intraday,Continuous,NL,ID1,HH,2021-01-19T07:30:00+01:00,2021-01-19T08:00:00+01:00,45.49,EUR,,MWh
Power,Intraday,Continuous,NL,ID1,HH,2021-01-19T08:00:00+01:00,2021-01-19T08:30:00+01:00,57.79,EUR,,MWh
Power,Intraday,Continuous,NL,ID1,HH,2021-01-19T08:30:00+01:00,2021-01-19T09:00:00+01:00,57.79,EUR,,MWh
Power,Intraday,Continuous,NL,ID1,HH,2021-01-19T09:00:00+01:00,2021-01-19T09:30:00+01:00,69.99,EUR,,MWh
Power,Intraday,Continuous,NL,ID1,HH,2021-01-19T09:30:00+01:00,2021-01-19T10:00:00+01:00,69.99,EUR,,MWh
Power,Intraday,Continuous,NL,ID1,HH,2021-01-19T10:00:00+01:00,2021-01-19T10:30:00+01:00,73.14,EUR,,MWh
Power,Intraday,Continuous,NL,ID1,HH,2021-01-19T10:30:00+01:00,2021-01-19T11:00:00+01:00,73.14,EUR,,MWh
Power,Intraday,Continuous,NL,ID1,HH,2021-01-19T11:00:00+01:00,2021-01-19T11:30:00+01:00,61.26,EUR,,MWh
Power,Intraday,Continuous,NL,ID1,HH,2021-01-19T11:30:00+01:00,2021-01-19T12:00:00+01:00,61.26,EUR,,MWh
Power,Intraday,Continuous,NL,ID1,HH,2021-01-19T12:00:00+01:00,2021-01-19T12:30:00+01:00,48.60,EUR,,MWh
Power,Intraday,Continuous,NL,ID1,HH,2021-01-19T12:30:00+01:00,2021-01-19T13:00:00+01:00,48.60,EUR,,MWh
Power,Intraday,Continuous,NL,ID1,HH,2021-01-19T13:00:00+01:00,2021-01-19T13:30:00+01:00,50.72,EUR,,MWh
Power,Intraday,Continuous,NL,ID1,HH,2021-01-19T13:30:00+01:00,2021-01-19T14:00:00+01:00,50.72,EUR,,MWh
Power,Intraday,Continuous,NL,ID1,HH,2021-01-19T14:00:00+01:00,2021-01-19T14:30:00+01:00,53.44,EUR,,MWh
Power,Intraday,Continuous,NL,ID1,HH,2021-01-19T14:30:00+01:00,2021-01-19T15:00:00+01:00,53.44,EUR,,MWh
Power,Intraday,Continuous,NL,ID1,HH,2021-01-19T15:00:00+01:00,2021-01-19T15:30:00+01:00,57.10,EUR,,MWh
Power,Intraday,Continuous,NL,ID1,HH,2021-01-19T15:30:00+01:00,2021-01-19T16:00:00+01:00,57.10,EUR,,MWh
Power,Intraday,Continuous,NL,ID1,HH,2021-01-19T16:00:00+01:00,2021-01-19T16:30:00+01:00,58.55,EUR,,MWh
Power,Intraday,Continuous,NL,ID1,HH,2021-01-19T16:30:00+01:00,2021-01-19T17:00:00+01:00,58.55,EUR,,MWh
Power,Intraday,Continuous,NL,ID1,HH,2021-01-19T17:00:00+01:00,2021-01-19T17:30:00+01:00,67.47,EUR,,MWh
Power,Intraday,Continuous,NL,ID1,HH,2021-01-19T17:30:00+01:00,2021-01-19T18:00:00+01:00,67.47,EUR,,MWh
Power,Intraday,Continuous,NL,ID1,HH,2021-01-19T18:00:00+01:00,2021-01-19T18:30:00+01:00,52.34,EUR,,MWh
Power,Intraday,Continuous,NL,ID1,HH,2021-01-19T18:30:00+01:00,2021-01-19T19:00:00+01:00,52.34,EUR,,MWh
Power,Intraday,Continuous,NL,ID1,HH,2021-01-19T19:00:00+01:00,2021-01-19T19:30:00+01:00,51.45,EUR,,MWh
Power,Intraday,Continuous,NL,ID1,HH,2021-01-19T19:30:00+01:00,2021-01-19T20:00:00+01:00,51.45,EUR,,MWh
Power,Intraday,Continuous,NL,ID1,HH,2021-01-19T20:00:00+01:00,2021-01-19T20:30:00+01:00,47.25,EUR,,MWh
Power,Intraday,Continuous,NL,ID1,HH,2021-01-19T20:30:00+01:00,2021-01-19T21:00:00+01:00,47.25,EUR,,MWh
Power,Intraday,Continuous,NL,ID1,HH,2021-01-19T21:00:00+01:00,2021-01-19T21:30:00+01:00,45.46,EUR,,MWh
Power,Intraday,Continuous,NL,ID1,HH,2021-01-19T21:30:00+01:00,2021-01-19T22:00:00+01:00,45.46,EUR,,MWh
Power,Intraday,Continuous,NL,ID1,HH,2021-01-19T22:00:00+01:00,2021-01-19T22:30:00+01:00,41.94,EUR,,MWh
Power,Intraday,Continuous,NL,ID1,HH,2021-01-19T22:30:00+01:00,2021-01-19T23:00:00+01:00,41.94,EUR,,MWh
Power,Intraday,Continuous,NL,ID1,HH,2021-01-19T23:00:00+01:00,2021-01-19T23:30:00+01:00,34.61,EUR,,MWh
Power,Intraday,Continuous,NL,ID1,HH,2021-01-19T23:30:00+01:00,2021-01-20T00:00:00+01:00,34.61,EUR,,MWh
Power,Intraday,Continuous,NL,ID3,HH,2021-01-19T00:00:00+01:00,2021-01-19T00:30:00+01:00,36.90,EUR,,MWh
Power,Intraday,Continuous,NL,ID3,HH,2021-01-19T00:30:00+01:00,2021-01-19T01:00:00+01:00,36.90,EUR,,MWh
Power,Intraday,Continuous,NL,ID3,HH,2021-01-19T01:00:00+01:00,2021-01-19T01:30:00+01:00,39.22,EUR,,MWh
Power,Intraday,Continuous,NL,ID3,HH,2021-01-19T01:30:00+01:00,2021-01-19T02:00:00+01:00,39.22,EUR,,MWh
Power,Intraday,Continuous,NL,ID3,HH,2021-01-19T02:00:00+01:00,2021-01-19T02:30:00+01:00,32.01,EUR,,MWh
Power,Intraday,Continuous,NL,ID3,HH,2021-01-19T02:30:00+01:00,2021-01-19T03:00:00+01:00,32.01,EUR,,MWh
Power,Intraday,Continuous,NL,ID3,HH,2021-01-19T03:00:00+01:00,2021-01-19T03:30:00+01:00,36.17,EUR,,MWh
Power,Intraday,Continuous,NL,ID3,HH,2021-01-19T03:30:00+01:00,2021-01-19T04:00:00+01:00,36.17,EUR,,MWh
Power,Intraday,Continuous,NL,ID3,HH,2021-01-19T04:00:00+01:00,2021-01-19T04:30:00+01:00,34.60,EUR,,MWh
Power,Intraday,Continuous,NL,ID3,HH,2021-01-19T04:30:00+01:00,2021-01-19T05:00:00+01:00,34.60,EUR,,MWh
Power,Intraday,Continuous,NL,ID3,HH,2021-01-19T05:00:00+01:00,2021-01-19T05:30:00+01:00,38.42,EUR,,MWh
Power,Intraday,Continuous,NL,ID3,HH,2021-01-19T05:30:00+01:00,2021-01-19T06:00:00+01:00,38.42,EUR,,MWh
Power,Intraday,Continuous,NL,ID3,HH,2021-01-19T06:00:00+01:00,2021-01-19T06:30:00+01:00,45.72,EUR,,MWh
Power,Intraday,Continuous,NL,ID3,HH,2021-01-19T06:30:00+01:00,2021-01-19T07:00:00+01:00,45.72,EUR,,MWh
Power,Intraday,Continuous,NL,ID3,HH,2021-01-19T07:00:00+01:00,2021-01-19T07:30:00+01:00,45.49,EUR,,MWh
Power,Intraday,Continuous,NL,ID3,HH,2021-01-19T07:30:00+01:00,2021-01-19T08:00:00+01:00,45.49,EUR,,MWh
Power,Intraday,Continuous,NL,ID3,HH,2021-01-19T08:00:00+01:00,2021-01-19T08:30:00+01:00,57.79,EUR,,MWh
Power,Intraday,Continuous,NL,ID3,HH,2021-01-19T08:30:00+01:00,2021-01-19T09:00:00+01:00,57.79,EUR,,MWh
Power,Intraday,Continuous,NL,ID3,HH,2021-01-19T09:00:00+01:00,2021-01-19T09:30:00+01:00,69.99,EUR,,MWh
Power,Intraday,Continuous,NL,ID3,HH,2021-01-19T09:30:00+01:00,2021-01-19T10:00:00+01:00,69.99,EUR,,MWh
Power,Intraday,Continuous,NL,ID3,HH,2021-01-19T10:00:00+01:00,2021-01-19T10:30:00+01:00,73.14,EUR,,MWh
Power,Intraday,Continuous,NL,ID3,HH,2021-01-19T10:30:00+01:00,2021-01-19T11:00:00+01:00,73.14,EUR,,MWh
Power,Intraday,Continuous,NL,ID3,HH,2021-01-19T11:00:00+01:00,2021-01-19T11:30:00+01:00,61.26,EUR,,MWh
Power,Intraday,Continuous,NL,ID3,HH,2021-01-19T11:30:00+01:00,2021-01-19T12:00:00+01:00,61.26,EUR,,MWh
Power,Intraday,Continuous,NL,ID3,HH,2021-01-19T12:00:00+01:00,2021-01-19T12:30:00+01:00,48.60,EUR,,MWh
Power,Intraday,Continuous,NL,ID3,HH,2021-01-19T12:30:00+01:00,2021-01-19T13:00:00+01:00,48.60,EUR,,MWh
Power,Intraday,Continuous,NL,ID3,HH,2021-01-19T13:00:00+01:00,2021-01-19T13:30:00+01:00,50.72,EUR,,MWh
Power,Intraday,Continuous,NL,ID3,HH,2021-01-19T13:30:00+01:00,2021-01-19T14:00:00+01:00,50.72,EUR,,MWh
Power,Intraday,Continuous,NL,ID3,HH,2021-01-19T14:00:00+01:00,2021-01-19T14:30:00+01:00,53.44,EUR,,MWh
Power,Intraday,Continuous,NL,ID3,HH,2021-01-19T14:30:00+01:00,2021-01-19T15:00:00+01:00,53.44,EUR,,MWh
Power,Intraday,Continuous,NL,ID3,HH,2021-01-19T15:00:00+01:00,2021-01-19T15:30:00+01:00,57.10,EUR,,MWh
Power,Intraday,Continuous,NL,ID3,HH,2021-01-19T15:30:00+01:00,2021-01-19T16:00:00+01:00,57.10,EUR,,MWh
Power,Intraday,Continuous,NL,ID3,HH,2021-01-19T16:00:00+01:00,2021-01-19T16:30:00+01:00,58.55,EUR,,MWh
Power,Intraday,Continuous,NL,ID3,HH,2021-01-19T16:30:00+01:00,2021-01-19T17:00:00+01:00,58.55,EUR,,MWh
Power,Intraday,Continuous,NL,ID3,HH,2021-01-19T17:00:00+01:00,2021-01-19T17:30:00+01:00,67.47,EUR,,MWh
Power,Intraday,Continuous,NL,ID3,HH,2021-01-19T17:30:00+01:00,2021-01-19T18:00:00+01:00,67.47,EUR,,MWh
Power,Intraday,Continuous,NL,ID3,HH,2021-01-19T18:00:00+01:00,2021-01-19T18:30:00+01:00,52.34,EUR,,MWh
Power,Intraday,Continuous,NL,ID3,HH,2021-01-19T18:30:00+01:00,2021-01-19T19:00:00+01:00,52.34,EUR,,MWh
Power,Intraday,Continuous,NL,ID3,HH,2021-01-19T19:00:00+01:00,2021-01-19T19:30:00+01:00,51.45,EUR,,MWh
Power,Intraday,Continuous,NL,ID3,HH,2021-01-19T19:30:00+01:00,2021-01-19T20:00:00+01:00,51.45,EUR,,MWh
Power,Intraday,Continuous,NL,ID3,HH,2021-01-19T20:00:00+01:00,2021-01-19T20:30:00+01:00,47.25,EUR,,MWh
Power,Intraday,Continuous,NL,ID3,HH,2021-01-19T20:30:00+01:00,2021-01-19T21:00:00+01:00,47.25,EUR,,MWh
Power,Intraday,Continuous,NL,ID3,HH,2021-01-19T21:00:00+01:00,2021-01-19T21:30:00+01:00,45.46,EUR,,MWh
Power,Intraday,Continuous,NL,ID3,HH,2021-01-19T21:30:00+01:00,2021-01-19T22:00:00+01:00,45.46,EUR,,MWh
Power,Intraday,Continuous,NL,ID3,HH,2021-01-19T22:00:00+01:00,2021-01-19T22:30:00+01:00,41.94,EUR,,MWh
Power,Intraday,Continuous,NL,ID3,HH,2021-01-19T22:30:00+01:00,2021-01-19T23:00:00+01:00,41.94,EUR,,MWh
Power,Intraday,Continuous,NL,ID3,HH,2021-01-19T23:00:00+01:00,2021-01-19T23:30:00+01:00,34.61,EUR,,MWh
Power,Intraday,Continuous,NL,ID3,HH,2021-01-19T23:30:00+01:00,2021-01-20T00:00:00+01:00,34.61,EUR,,MWh
Power,Intraday,Continuous,NL,IDFULL,QH,2021-01-19T00:00:00+01:00,2021-01-19T00:15:00+01:00,58.71,EUR,8.750,MWh
Power,Intraday,Continuous,NL,IDFULL,QH,2021-01-19T00:15:00+01:00,2021-01-19T00:30:00+01:00,34.73,EUR,,MWh
Power,Intraday,Continuous,NL,IDFULL,QH,2021-01-19T00:30:00+01:00,2021-01-19T00:45:00+01:00,34.73,EUR,,MWh
Power,Intraday,Continuous,NL,IDFULL,QH,2021-01-19T00:45:00+01:00,2021-01-19T01:00:00+01:00,19.44,EUR,37.300,MWh
Power,Intraday,Continuous,NL,IDFULL,QH,2021-01-19T01:00:00+01:00,2021-01-19T01:15:00+01:00,44.76,EUR,,MWh
Power,Intraday,Continuous,NL,IDFULL,QH,2021-01-19T01:15:00+01:00,2021-01-19T01:30:00+01:00,44.76,EUR,,MWh
Power,Intraday,Continuous,NL,IDFULL,QH,2021-01-19T01:30:00+01:00,2021-01-19T01:45:00+01:00,44.76,EUR,,MWh
Power,Intraday,Continuous,NL,IDFULL,QH,2021-01-19T01:45:00+01:00,2021-01-19T02:00:00+01:00,22.60,EUR,3.750,MWh
Power,Intraday,Continuous,NL,IDFULL,QH,2021-01-19T02:00:00+01:00,2021-01-19T02:15:00+01:00,48.71,EUR,5.930,MWh
Power,Intraday,Continuous,NL,IDFULL,QH,2021-01-19T02:15:00+01:00,2021-01-19T02:30:00+01:00,28.69,EUR,,MWh
Power,Intraday,Continuous,NL,IDFULL,QH,2021-01-19T02:30:00+01:00,2021-01-19T02:45:00+01:00,28.69,EUR,,MWh
Power,Intraday,Continuous,NL,IDFULL,QH,2021-01-19T02:45:00+01:00,2021-01-19T03:00:00+01:00,21.96,EUR,8.430,MWh
Power,Intraday,Continuous,NL,IDFULL,QH,2021-01-19T03:00:00+01:00,2021-01-19T03:15:00+01:00,37.57,EUR,8.030,MWh
Power,Intraday,Continuous,NL,IDFULL,QH,2021-01-19T03:15:00+01:00,2021-01-19T03:30:00+01:00,37.30,EUR,17.850,MWh
Power,Intraday,Continuous,NL,IDFULL,QH,2021-01-19T03:30:00+01:00,2021-01-19T03:45:00+01:00,34.69,EUR,15.650,MWh
Power,Intraday,Continuous,NL,IDFULL,QH,2021-01-19T03:45:00+01:00,2021-01-19T04:00:00+01:00,30.45,EUR,12.930,MWh
Power,Intraday,Continuous,NL,IDFULL,QH,2021-01-19T04:00:00+01:00,2021-01-19T04:15:00+01:00,33.12,EUR,,MWh
Power,Intraday,Continuous,NL,IDFULL,QH,2021-01-19T04:15:00+01:00,2021-01-19T04:30:00+01:00,33.12,EUR,,MWh
Power,Intraday,Continuous,NL,IDFULL,QH,2021-01-19T04:30:00+01:00,2021-01-19T04:45:00+01:00,39.05,EUR,2.580,MWh
Power,Intraday,Continuous,NL,IDFULL,QH,2021-01-19T04:45:00+01:00,2021-01-19T05:00:00+01:00,33.12,EUR,,MWh
Power,Intraday,Continuous,NL,IDFULL,QH,2021-01-19T05:00:00+01:00,2021-01-19T05:15:00+01:00,24.23,EUR,15.680,MWh
Power,Intraday,Continuous,NL,IDFULL,QH,2021-01-19T05:15:00+01:00,2021-01-19T05:30:00+01:00,41.98,EUR,,MWh
Power,Intraday,Continuous,NL,IDFULL,QH,2021-01-19T05:30:00+01:00,2021-01-19T05:45:00+01:00,34.92,EUR,2.500,MWh
Power,Intraday,Continuous,NL,IDFULL,QH,2021-01-19T05:45:00+01:00,2021-01-19T06:00:00+01:00,52.55,EUR,37.580,MWh
Power,Intraday,Continuous,NL,IDFULL,QH,2021-01-19T06:00:00+01:00,2021-01-19T06:15:00+01:00,30.00,EUR,6.250,MWh
Power,Intraday,Continuous,NL,IDFULL,QH,2021-01-19T06:15:00+01:00,2021-01-19T06:30:00+01:00,41.44,EUR,,MWh
Power,Intraday,Continuous,NL,IDFULL,QH,2021-01-19T06:30:00+01:00,2021-01-19T06:45:00+01:00,55.44,EUR,11.300,MWh
Power,Intraday,Continuous,NL,IDFULL,QH,2021-01-19T06:45:00+01:00,2021-01-19T07:00:00+01:00,56.00,EUR,7.500,MWh
Power,Intraday,Continuous,NL,IDFULL,QH,2021-01-19T07:00:00+01:00,2021-01-19T07:15:00+01:00,27.40,EUR,14.380,MWh
Power,Intraday,Continuous,NL,IDFULL,QH,2021-01-19T07:15:00+01:00,2021-01-19T07:30:00+01:00,50.44,EUR,,MWh
Power,Intraday,Continuous,NL,IDFULL,QH,2021-01-19T07:30:00+01:00,2021-01-19T07:45:00+01:00,49.12,EUR,6.380,MWh
Power,Intraday,Continuous,NL,IDFULL,QH,2021-01-19T07:45:00+01:00,2021-01-19T08:00:00+01:00,55.00,EUR,11.380,MWh
Power,Intraday,Continuous,NL,IDFULL,QH,2021-01-19T08:00:00+01:00,2021-01-19T08:15:00+01:00,63.97,EUR,,MWh
Power,Intraday,Continuous,NL,IDFULL,QH,2021-01-19T08:15:00+01:00,2021-01-19T08:30:00+01:00,40.55,EUR,4.980,MWh
Power,Intraday,Continuous,NL,IDFULL,QH,2021-01-19T08:30:00+01:00,2021-01-19T08:45:00+01:00,63.97,EUR,,MWh
Power,Intraday,Continuous,NL,IDFULL,QH,2021-01-19T08:45:00+01:00,2021-01-19T09:00:00+01:00,62.68,EUR,6.180,MWh
Power,Intraday,Continuous,NL,IDFULL,QH,2021-01-19T09:00:00+01:00,2021-01-19T09:15:00+01:00,72.29,EUR,,MWh
Power,Intraday,Continuous,NL,IDFULL,QH,2021-01-19T09:15:00+01:00,2021-01-19T09:30:00+01:00,72.29,EUR,,MWh
Power,Intraday,Continuous,NL,IDFULL,QH,2021-01-19T09:30:00+01:00,2021-01-19T09:45:00+01:00,72.29,EUR,,MWh
Power,Intraday,Continuous,NL,IDFULL,QH,2021-01-19T09:45:00+01:00,2021-01-19T10:00:00+01:00,63.10,EUR,2.500,MWh
Power,Intraday,Continuous,NL,IDFULL,QH,2021-01-19T10:00:00+01:00,2021-01-19T10:15:00+01:00,73.14,EUR,,MWh
Power,Intraday,Continuous,NL,IDFULL,QH,2021-01-19T10:15:00+01:00,2021-01-19T10:30:00+01:00,73.14,EUR,,MWh
Power,Intraday,Continuous,NL,IDFULL,QH,2021-01-19T10:30:00+01:00,2021-01-19T10:45:00+01:00,73.14,EUR,,MWh
Power,Intraday,Continuous,NL,IDFULL,QH,2021-01-19T10:45:00+01:00,2021-01-19T11:00:00+01:00,73.14,EUR,,MWh
Power,Intraday,Continuous,NL,IDFULL,QH,2021-01-19T11:00:00+01:00,2021-01-19T11:15:00+01:00,65.93,EUR,,MWh
Power,Intraday,Continuous,NL,IDFULL,QH,2021-01-19T11:15:00+01:00,2021-01-19T11:30:00+01:00,65.93,EUR,,MWh
Power,Intraday,Continuous,NL,IDFULL,QH,2021-01-19T11:30:00+01:00,2021-01-19T11:45:00+01:00,65.93,EUR,,MWh
Power,Intraday,Continuous,NL,IDFULL,QH,2021-01-19T11:45:00+01:00,2021-01-19T12:00:00+01:00,47.26,EUR,14.000,MWh
Power,Intraday,Continuous,NL,IDFULL,QH,2021-01-19T12:00:00+01:00,2021-01-19T12:15:00+01:00,41.83,EUR,40.700,MWh
Power,Intraday,Continuous,NL,IDFULL,QH,2021-01-19T12:15:00+01:00,2021-01-19T12:30:00+01:00,54.16,EUR,7.880,MWh
Power,Intraday,Continuous,NL,IDFULL,QH,2021-01-19T12:30:00+01:00,2021-01-19T12:45:00+01:00,55.44,EUR,12.700,MWh
Power,Intraday,Continuous,NL,IDFULL,QH,2021-01-19T12:45:00+01:00,2021-01-19T13:00:00+01:00,49.94,EUR,25.100,MWh
Power,Intraday,Continuous,NL,IDFULL,QH,2021-01-19T13:00:00+01:00,2021-01-19T13:15:00+01:00,61.98,EUR,6.780,MWh
Power,Intraday,Continuous,NL,IDFULL,QH,2021-01-19T13:15:00+01:00,2021-01-19T13:30:00+01:00,56.80,EUR,5.050,MWh
Power,Intraday,Continuous,NL,IDFULL,QH,2021-01-19T13:30:00+01:00,2021-01-19T13:45:00+01:00,46.18,EUR,8.800,MWh
Power,Intraday,Continuous,NL,IDFULL,QH,2021-01-19T13:45:00+01:00,2021-01-19T14:00:00+01:00,30.81,EUR,11.280,MWh
Power,Intraday,Continuous,NL,IDFULL,QH,2021-01-19T14:00:00+01:00,2021-01-19T14:15:00+01:00,52.03,EUR,,MWh
Power,Intraday,Continuous,NL,IDFULL,QH,2021-01-19T14:15:00+01:00,2021-01-19T14:30:00+01:00,52.03,EUR,,MWh
Power,Intraday,Continuous,NL,IDFULL,QH,2021-01-19T14:30:00+01:00,2021-01-19T14:45:00+01:00,52.03,EUR,,MWh
Power,Intraday,Continuous,NL,IDFULL,QH,2021-01-19T14:45:00+01:00,2021-01-19T15:00:00+01:00,57.68,EUR,3.400,MWh
Power,Intraday,Continuous,NL,IDFULL,QH,2021-01-19T15:00:00+01:00,2021-01-19T15:15:00+01:00,58.80,EUR,3.880,MWh
Power,Intraday,Continuous,NL,IDFULL,QH,2021-01-19T15:15:00+01:00,2021-01-19T15:30:00+01:00,67.30,EUR,7.030,MWh
Power,Intraday,Continuous,NL,IDFULL,QH,2021-01-19T15:30:00+01:00,2021-01-19T15:45:00+01:00,66.04,EUR,13.280,MWh
Power,Intraday,Continuous,NL,IDFULL,QH,2021-01-19T15:45:00+01:00,2021-01-19T16:00:00+01:00,74.06,EUR,34.130,MWh
Power,Intraday,Continuous,NL,IDFULL,QH,2021-01-19T16:00:00+01:00,2021-01-19T16:15:00+01:00,54.21,EUR,54.780,MWh
Power,Intraday,Continuous,NL,IDFULL,QH,2021-01-19T16:15:00+01:00,2021-01-19T16:30:00+01:00,58.98,EUR,6.150,MWh
Power,Intraday,Continuous,NL,IDFULL,QH,2021-01-19T16:30:00+01:00,2021-01-19T16:45:00+01:00,62.00,EUR,14.180,MWh
Power,Intraday,Continuous,NL,IDFULL,QH,2021-01-19T16:45:00+01:00,2021-01-19T17:00:00+01:00,72.81,EUR,53.300,MWh
Power,Intraday,Continuous,NL,IDFULL,QH,2021-01-19T17:00:00+01:00,2021-01-19T17:15:00+01:00,48.87,EUR,60.980,MWh
Power,Intraday,Continuous,NL,IDFULL,QH,2021-01-19T17:15:00+01:00,2021-01-19T17:30:00+01:00,57.05,EUR,11.780,MWh
Power,Intraday,Continuous,NL,IDFULL,QH,2021-01-19T17:30:00+01:00,2021-01-19T17:45:00+01:00,72.67,EUR,8.030,MWh
Power,Intraday,Continuous,NL,IDFULL,QH,2021-01-19T17:45:00+01:00,2021-01-19T18:00:00+01:00,87.60,EUR,12.930,MWh
Power,Intraday,Continuous,NL,IDFULL,QH,2021-01-19T18:00:00+01:00,2021-01-19T18:15:00+01:00,64.79,EUR,,MWh
Power,Intraday,Continuous,NL,IDFULL,QH,2021-01-19T18:15:00+01:00,2021-01-19T18:30:00+01:00,64.79,EUR,,MWh
Power,Intraday,Continuous,NL,IDFULL,QH,2021-01-19T18:30:00+01:00,2021-01-19T18:45:00+01:00,64.79,EUR,,MWh
Power,Intraday,Continuous,NL,IDFULL,QH,2021-01-19T18:45:00+01:00,2021-01-19T19:00:00+01:00,15.00,EUR,2.500,MWh
Power,Intraday,Continuous,NL,IDFULL,QH,2021-01-19T19:00:00+01:00,2021-01-19T19:15:00+01:00,58.60,EUR,,MWh
Power,Intraday,Continuous,NL,IDFULL,QH,2021-01-19T19:15:00+01:00,2021-01-19T19:30:00+01:00,58.60,EUR,,MWh
Power,Intraday,Continuous,NL,IDFULL,QH,2021-01-19T19:30:00+01:00,2021-01-19T19:45:00+01:00,58.60,EUR,,MWh
Power,Intraday,Continuous,NL,IDFULL,QH,2021-01-19T19:45:00+01:00,2021-01-19T20:00:00+01:00,30.00,EUR,7.500,MWh
Power,Intraday,Continuous,NL,IDFULL,QH,2021-01-19T20:00:00+01:00,2021-01-19T20:15:00+01:00,63.85,EUR,18.250,MWh
Power,Intraday,Continuous,NL,IDFULL,QH,2021-01-19T20:15:00+01:00,2021-01-19T20:30:00+01:00,44.31,EUR,4.500,MWh
Power,Intraday,Continuous,NL,IDFULL,QH,2021-01-19T20:30:00+01:00,2021-01-19T20:45:00+01:00,41.04,EUR,4.780,MWh
Power,Intraday,Continuous,NL,IDFULL,QH,2021-01-19T20:45:00+01:00,2021-01-19T21:00:00+01:00,29.98,EUR,17.900,MWh
Power,Intraday,Continuous,NL,IDFULL,QH,2021-01-19T21:00:00+01:00,2021-01-19T21:15:00+01:00,65.80,EUR,34.530,MWh
Power,Intraday,Continuous,NL,IDFULL,QH,2021-01-19T21:15:00+01:00,2021-01-19T21:30:00+01:00,60.47,EUR,3.000,MWh
Power,Intraday,Continuous,NL,IDFULL,QH,2021-01-19T21:30:00+01:00,2021-01-19T21:45:00+01:00,33.86,EUR,3.080,MWh
Power,Intraday,Continuous,NL,IDFULL,QH,2021-01-19T21:45:00+01:00,2021-01-19T22:00:00+01:00,17.35,EUR,3.000,MWh
Power,Intraday,Continuous,NL,IDFULL,QH,2021-01-19T22:00:00+01:00,2021-01-19T22:15:00+01:00,68.92,EUR,8.600,MWh
Power,Intraday,Continuous,NL,IDFULL,QH,2021-01-19T22:15:00+01:00,2021-01-19T22:30:00+01:00,47.32,EUR,5.250,MWh
Power,Intraday,Continuous,NL,IDFULL,QH,2021-01-19T22:30:00+01:00,2021-01-19T22:45:00+01:00,27.49,EUR,6.330,MWh
Power,Intraday,Continuous,NL,IDFULL,QH,2021-01-19T22:45:00+01:00,2021-01-19T23:00:00+01:00,29.68,EUR,8.630,MWh
Power,Intraday,Continuous,NL,IDFULL,QH,2021-01-19T23:00:00+01:00,2021-01-19T23:15:00+01:00,67.47,EUR,6.730,MWh
Power,Intraday,Continuous,NL,IDFULL,QH,2021-01-19T23:15:00+01:00,2021-01-19T23:30:00+01:00,59.54,EUR,8.600,MWh
Power,Intraday,Continuous,NL,IDFULL,QH,2021-01-19T23:30:00+01:00,2021-01-19T23:45:00+01:00,33.01,EUR,16.330,MWh
Power,Intraday,Continuous,NL,IDFULL,QH,2021-01-19T23:45:00+01:00,2021-01-20T00:00:00+01:00,-21.58,EUR,,MWh
Power,Intraday,Continuous,NL,ID1,QH,2021-01-19T00:00:00+01:00,2021-01-19T00:15:00+01:00,55.00,EUR,3.750,MWh
Power,Intraday,Continuous,NL,ID1,QH,2021-01-19T00:15:00+01:00,2021-01-19T00:30:00+01:00,34.73,EUR,,MWh
Power,Intraday,Continuous,NL,ID1,QH,2021-01-19T00:30:00+01:00,2021-01-19T00:45:00+01:00,34.73,EUR,,MWh
Power,Intraday,Continuous,NL,ID1,QH,2021-01-19T00:45:00+01:00,2021-01-19T01:00:00+01:00,19.44,EUR,,MWh
Power,Intraday,Continuous,NL,ID1,QH,2021-01-19T01:00:00+01:00,2021-01-19T01:15:00+01:00,44.76,EUR,,MWh
Power,Intraday,Continuous,NL,ID1,QH,2021-01-19T01:15:00+01:00,2021-01-19T01:30:00+01:00,44.76,EUR,,MWh
Power,Intraday,Continuous,NL,ID1,QH,2021-01-19T01:30:00+01:00,2021-01-19T01:45:00+01:00,44.76,EUR,,MWh
Power,Intraday,Continuous,NL,ID1,QH,2021-01-19T01:45:00+01:00,2021-01-19T02:00:00+01:00,22.60,EUR,,MWh
Power,Intraday,Continuous,NL,ID1,QH,2021-01-19T02:00:00+01:00,2021-01-19T02:15:00+01:00,48.71,EUR,,MWh
Power,Intraday,Continuous,NL,ID1,QH,2021-01-19T02:15:00+01:00,2021-01-19T02:30:00+01:00,28.69,EUR,,MWh
Power,Intraday,Continuous,NL,ID1,QH,2021-01-19T02:30:00+01:00,2021-01-19T02:45:00+01:00,28.69,EUR,,MWh
Power,Intraday,Continuous,NL,ID1,QH,2021-01-19T02:45:00+01:00,2021-01-19T03:00:00+01:00,21.96,EUR,,MWh
Power,Intraday,Continuous,NL,ID1,QH,2021-01-19T03:00:00+01:00,2021-01-19T03:15:00+01:00,37.57,EUR,,MWh
Power,Intraday,Continuous,NL,ID1,QH,2021-01-19T03:15:00+01:00,2021-01-19T03:30:00+01:00,37.30,EUR,,MWh
Power,Intraday,Continuous,NL,ID1,QH,2021-01-19T03:30:00+01:00,2021-01-19T03:45:00+01:00,34.69,EUR,,MWh
Power,Intraday,Continuous,NL,ID1,QH,2021-01-19T03:45:00+01:00,2021-01-19T04:00:00+01:00,30.45,EUR,,MWh
Power,Intraday,Continuous,NL,ID1,QH,2021-01-19T04:00:00+01:00,2021-01-19T04:15:00+01:00,33.12,EUR,,MWh
Power,Intraday,Continuous,NL,ID1,QH,2021-01-19T04:15:00+01:00,2021-01-19T04:30:00+01:00,33.12,EUR,,MWh
Power,Intraday,Continuous,NL,ID1,QH,2021-01-19T04:30:00+01:00,2021-01-19T04:45:00+01:00,39.13,EUR,,MWh
Power,Intraday,Continuous,NL,ID1,QH,2021-01-19T04:45:00+01:00,2021-01-19T05:00:00+01:00,33.12,EUR,,MWh
Power,Intraday,Continuous,NL,ID1,QH,2021-01-19T05:00:00+01:00,2021-01-19T05:15:00+01:00,21.01,EUR,,MWh
Power,Intraday,Continuous,NL,ID1,QH,2021-01-19T05:15:00+01:00,2021-01-19T05:30:00+01:00,41.98,EUR,,MWh
Power,Intraday,Continuous,NL,ID1,QH,2021-01-19T05:30:00+01:00,2021-01-19T05:45:00+01:00,34.92,EUR,,MWh
Power,Intraday,Continuous,NL,ID1,QH,2021-01-19T05:45:00+01:00,2021-01-19T06:00:00+01:00,55.51,EUR,,MWh
Power,Intraday,Continuous,NL,ID1,QH,2021-01-19T06:00:00+01:00,2021-01-19T06:15:00+01:00,30.00,EUR,,MWh
Power,Intraday,Continuous,NL,ID1,QH,2021-01-19T06:15:00+01:00,2021-01-19T06:30:00+01:00,41.44,EUR,,MWh
Power,Intraday,Continuous,NL,ID1,QH,2021-01-19T06:30:00+01:00,2021-01-19T06:45:00+01:00,55.00,EUR,3.800,MWh
Power,Intraday,Continuous,NL,ID1,QH,2021-01-19T06:45:00+01:00,2021-01-19T07:00:00+01:00,56.00,EUR,,MWh
Power,Intraday,Continuous,NL,ID1,QH,2021-01-19T07:00:00+01:00,2021-01-19T07:15:00+01:00,25.00,EUR,,MWh
Power,Intraday,Continuous,NL,ID1,QH,2021-01-19T07:15:00+01:00,2021-01-19T07:30:00+01:00,50.44,EUR,,MWh
Power,Intraday,Continuous,NL,ID1,QH,2021-01-19T07:30:00+01:00,2021-01-19T07:45:00+01:00,55.00,EUR,2.630,MWh
Power,Intraday,Continuous,NL,ID1,QH,2021-01-19T07:45:00+01:00,2021-01-19T08:00:00+01:00,55.00,EUR,5.130,MWh
Power,Intraday,Continuous,NL,ID1,QH,2021-01-19T08:00:00+01:00,2021-01-19T08:15:00+01:00,63.97,EUR,,MWh
Power,Intraday,Continuous,NL,ID1,QH,2021-01-19T08:15:00+01:00,2021-01-19T08:30:00+01:00,40.55,EUR,,MWh
Power,Intraday,Continuous,NL,ID1,QH,2021-01-19T08:30:00+01:00,2021-01-19T08:45:00+01:00,63.97,EUR,,MWh
Power,Intraday,Continuous,NL,ID1,QH,2021-01-19T08:45:00+01:00,2021-01-19T09:00:00+01:00,69.20,EUR,3.850,MWh
Power,Intraday,Continuous,NL,ID1,QH,2021-01-19T09:00:00+01:00,2021-01-19T09:15:00+01:00,72.29,EUR,,MWh
Power,Intraday,Continuous,NL,ID1,QH,2021-01-19T09:15:00+01:00,2021-01-19T09:30:00+01:00,72.29,EUR,,MWh
Power,Intraday,Continuous,NL,ID1,QH,2021-01-19T09:30:00+01:00,2021-01-19T09:45:00+01:00,72.29,EUR,,MWh
Power,Intraday,Continuous,NL,ID1,QH,2021-01-19T09:45:00+01:00,2021-01-19T10:00:00+01:00,63.10,EUR,,MWh
Power,Intraday,Continuous,NL,ID1,QH,2021-01-19T10:00:00+01:00,2021-01-19T10:15:00+01:00,73.14,EUR,,MWh
Power,Intraday,Continuous,NL,ID1,QH,2021-01-19T10:15:00+01:00,2021-01-19T10:30:00+01:00,73.14,EUR,,MWh
Power,Intraday,Continuous,NL,ID1,QH,2021-01-19T10:30:00+01:00,2021-01-19T10:45:00+01:00,73.14,EUR,,MWh
Power,Intraday,Continuous,NL,ID1,QH,2021-01-19T10:45:00+01:00,2021-01-19T11:00:00+01:00,73.14,EUR,,MWh
Power,Intraday,Continuous,NL,ID1,QH,2021-01-19T11:00:00+01:00,2021-01-19T11:15:00+01:00,65.93,EUR,,MWh
Power,Intraday,Continuous,NL,ID1,QH,2021-01-19T11:15:00+01:00,2021-01-19T11:30:00+01:00,65.93,EUR,,MWh
Power,Intraday,Continuous,NL,ID1,QH,2021-01-19T11:30:00+01:00,2021-01-19T11:45:00+01:00,65.93,EUR,,MWh
Power,Intraday,Continuous,NL,ID1,QH,2021-01-19T11:45:00+01:00,2021-01-19T12:00:00+01:00,47.26,EUR,,MWh
Power,Intraday,Continuous,NL,ID1,QH,2021-01-19T12:00:00+01:00,2021-01-19T12:15:00+01:00,39.11,EUR,,MWh
Power,Intraday,Continuous,NL,ID1,QH,2021-01-19T12:15:00+01:00,2021-01-19T12:30:00+01:00,54.16,EUR,,MWh
Power,Intraday,Continuous,NL,ID1,QH,2021-01-19T12:30:00+01:00,2021-01-19T12:45:00+01:00,56.38,EUR,,MWh
Power,Intraday,Continuous,NL,ID1,QH,2021-01-19T12:45:00+01:00,2021-01-19T13:00:00+01:00,49.79,EUR,,MWh
Power,Intraday,Continuous,NL,ID1,QH,2021-01-19T13:00:00+01:00,2021-01-19T13:15:00+01:00,61.98,EUR,,MWh
Power,Intraday,Continuous,NL,ID1,QH,2021-01-19T13:15:00+01:00,2021-01-19T13:30:00+01:00,56.80,EUR,,MWh
Power,Intraday,Continuous,NL,ID1,QH,2021-01-19T13:30:00+01:00,2021-01-19T13:45:00+01:00,47.61,EUR,,MWh
Power,Intraday,Continuous,NL,ID1,QH,2021-01-19T13:45:00+01:00,2021-01-19T14:00:00+01:00,22.19,EUR,,MWh
Power,Intraday,Continuous,NL,ID1,QH,2021-01-19T14:00:00+01:00,2021-01-19T14:15:00+01:00,52.03,EUR,,MWh
Power,Intraday,Continuous,NL,ID1,QH,2021-01-19T14:15:00+01:00,2021-01-19T14:30:00+01:00,52.03,EUR,,MWh
Power,Intraday,Continuous,NL,ID1,QH,2021-01-19T14:30:00+01:00,2021-01-19T14:45:00+01:00,52.03,EUR,,MWh
Power,Intraday,Continuous,NL,ID1,QH,2021-01-19T14:45:00+01:00,2021-01-19T15:00:00+01:00,58.33,EUR,,MWh
Power,Intraday,Continuous,NL,ID1,QH,2021-01-19T15:00:00+01:00,2021-01-19T15:15:00+01:00,58.80,EUR,,MWh
Power,Intraday,Continuous,NL,ID1,QH,2021-01-19T15:15:00+01:00,2021-01-19T15:30:00+01:00,68.43,EUR,,MWh
Power,Intraday,Continuous,NL,ID1,QH,2021-01-19T15:30:00+01:00,2021-01-19T15:45:00+01:00,67.34,EUR,,MWh
Power,Intraday,Continuous,NL,ID1,QH,2021-01-19T15:45:00+01:00,2021-01-19T16:00:00+01:00,74.75,EUR,,MWh
Power,Intraday,Continuous,NL,ID1,QH,2021-01-19T16:00:00+01:00,2021-01-19T16:15:00+01:00,55.99,EUR,,MWh
Power,Intraday,Continuous,NL,ID1,QH,2021-01-19T16:15:00+01:00,2021-01-19T16:30:00+01:00,61.92,EUR,,MWh
Power,Intraday,Continuous,NL,ID1,QH,2021-01-19T16:30:00+01:00,2021-01-19T16:45:00+01:00,64.67,EUR,,MWh
Power,Intraday,Continuous,NL,ID1,QH,2021-01-19T16:45:00+01:00,2021-01-19T17:00:00+01:00,59.48,EUR,3.000,MWh
Power,Intraday,Continuous,NL,ID1,QH,2021-01-19T17:00:00+01:00,2021-01-19T17:15:00+01:00,48.46,EUR,,MWh
Power,Intraday,Continuous,NL,ID1,QH,2021-01-19T17:15:00+01:00,2021-01-19T17:30:00+01:00,60.13,EUR,,MWh
Power,Intraday,Continuous,NL,ID1,QH,2021-01-19T17:30:00+01:00,2021-01-19T17:45:00+01:00,74.16,EUR,,MWh
Power,Intraday,Continuous,NL,ID1,QH,2021-01-19T17:45:00+01:00,2021-01-19T18:00:00+01:00,89.08,EUR,,MWh
Power,Intraday,Continuous,NL,ID1,QH,2021-01-19T18:00:00+01:00,2021-01-19T18:15:00+01:00,64.79,EUR,,MWh
Power,Intraday,Continuous,NL,ID1,QH,2021-01-19T18:15:00+01:00,2021-01-19T18:30:00+01:00,64.79,EUR,,MWh
Power,Intraday,Continuous,NL,ID1,QH,2021-01-19T18:30:00+01:00,2021-01-19T18:45:00+01:00,64.79,EUR,,MWh
Power,Intraday,Continuous,NL,ID1,QH,2021-01-19T18:45:00+01:00,2021-01-19T19:00:00+01:00,15.00,EUR,2.500,MWh
Power,Intraday,Continuous,NL,ID1,QH,2021-01-19T19:00:00+01:00,2021-01-19T19:15:00+01:00,58.60,EUR,,MWh
Power,Intraday,Continuous,NL,ID1,QH,2021-01-19T19:15:00+01:00,2021-01-19T19:30:00+01:00,58.60,EUR,,MWh
Power,Intraday,Continuous,NL,ID1,QH,2021-01-19T19:30:00+01:00,2021-01-19T19:45:00+01:00,58.60,EUR,,MWh
Power,Intraday,Continuous,NL,ID1,QH,2021-01-19T19:45:00+01:00,2021-01-19T20:00:00+01:00,30.00,EUR,2.500,MWh
Power,Intraday,Continuous,NL,ID1,QH,2021-01-19T20:00:00+01:00,2021-01-19T20:15:00+01:00,65.23,EUR,,MWh
Power,Intraday,Continuous,NL,ID1,QH,2021-01-19T20:15:00+01:00,2021-01-19T20:30:00+01:00,44.31,EUR,,MWh
Power,Intraday,Continuous,NL,ID1,QH,2021-01-19T20:30:00+01:00,2021-01-19T20:45:00+01:00,41.04,EUR,,MWh
Power,Intraday,Continuous,NL,ID1,QH,2021-01-19T20:45:00+01:00,2021-01-19T21:00:00+01:00,29.98,EUR,,MWh
Power,Intraday,Continuous,NL,ID1,QH,2021-01-19T21:00:00+01:00,2021-01-19T21:15:00+01:00,67.23,EUR,,MWh
Power,Intraday,Continuous,NL,ID1,QH,2021-01-19T21:15:00+01:00,2021-01-19T21:30:00+01:00,60.47,EUR,,MWh
Power,Intraday,Continuous,NL,ID1,QH,2021-01-19T21:30:00+01:00,2021-01-19T21:45:00+01:00,33.86,EUR,,MWh
Power,Intraday,Continuous,NL,ID1,QH,2021-01-19T21:45:00+01:00,2021-01-19T22:00:00+01:00,17.35,EUR,,MWh
Power,Intraday,Continuous,NL,ID1,QH,2021-01-19T22:00:00+01:00,2021-01-19T22:15:00+01:00,68.92,EUR,,MWh
Power,Intraday,Continuous,NL,ID1,QH,2021-01-19T22:15:00+01:00,2021-01-19T22:30:00+01:00,47.32,EUR,,MWh
Power,Intraday,Continuous,NL,ID1,QH,2021-01-19T22:30:00+01:00,2021-01-19T22:45:00+01:00,27.49,EUR,,MWh
Power,Intraday,Continuous,NL,ID1,QH,2021-01-19T22:45:00+01:00,2021-01-19T23:00:00+01:00,29.68,EUR,,MWh
Power,Intraday,Continuous,NL,ID1,QH,2021-01-19T23:00:00+01:00,2021-01-19T23:15:00+01:00,67.47,EUR,,MWh
Power,Intraday,Continuous,NL,ID1,QH,2021-01-19T23:15:00+01:00,2021-01-19T23:30:00+01:00,59.54,EUR,,MWh
Power,Intraday,Continuous,NL,ID1,QH,2021-01-19T23:30:00+01:00,2021-01-19T23:45:00+01:00,20.29,EUR,,MWh
Power,Intraday,Continuous,NL,ID1,QH,2021-01-19T23:45:00+01:00,2021-01-20T00:00:00+01:00,-21.58,EUR,,MWh
Power,Intraday,Continuous,NL,ID3,QH,2021-01-19T00:00:00+01:00,2021-01-19T00:15:00+01:00,58.71,EUR,8.750,MWh
Power,Intraday,Continuous,NL,ID3,QH,2021-01-19T00:15:00+01:00,2021-01-19T00:30:00+01:00,34.73,EUR,,MWh
Power,Intraday,Continuous,NL,ID3,QH,2021-01-19T00:30:00+01:00,2021-01-19T00:45:00+01:00,34.73,EUR,,MWh
Power,Intraday,Continuous,NL,ID3,QH,2021-01-19T00:45:00+01:00,2021-01-19T01:00:00+01:00,19.44,EUR,37.300,MWh
Power,Intraday,Continuous,NL,ID3,QH,2021-01-19T01:00:00+01:00,2021-01-19T01:15:00+01:00,44.76,EUR,,MWh
Power,Intraday,Continuous,NL,ID3,QH,2021-01-19T01:15:00+01:00,2021-01-19T01:30:00+01:00,44.76,EUR,,MWh
Power,Intraday,Continuous,NL,ID3,QH,2021-01-19T01:30:00+01:00,2021-01-19T01:45:00+01:00,44.76,EUR,,MWh
Power,Intraday,Continuous,NL,ID3,QH,2021-01-19T01:45:00+01:00,2021-01-19T02:00:00+01:00,22.60,EUR,3.750,MWh
Power,Intraday,Continuous,NL,ID3,QH,2021-01-19T02:00:00+01:00,2021-01-19T02:15:00+01:00,48.71,EUR,5.930,MWh
Power,Intraday,Continuous,NL,ID3,QH,2021-01-19T02:15:00+01:00,2021-01-19T02:30:00+01:00,28.69,EUR,,MWh
Power,Intraday,Continuous,NL,ID3,QH,2021-01-19T02:30:00+01:00,2021-01-19T02:45:00+01:00,28.69,EUR,,MWh
Power,Intraday,Continuous,NL,ID3,QH,2021-01-19T02:45:00+01:00,2021-01-19T03:00:00+01:00,21.96,EUR,8.430,MWh
Power,Intraday,Continuous,NL,ID3,QH,2021-01-19T03:00:00+01:00,2021-01-19T03:15:00+01:00,37.57,EUR,8.030,MWh
Power,Intraday,Continuous,NL,ID3,QH,2021-01-19T03:15:00+01:00,2021-01-19T03:30:00+01:00,37.30,EUR,17.850,MWh
Power,Intraday,Continuous,NL,ID3,QH,2021-01-19T03:30:00+01:00,2021-01-19T03:45:00+01:00,34.69,EUR,15.650,MWh
Power,Intraday,Continuous,NL,ID3,QH,2021-01-19T03:45:00+01:00,2021-01-19T04:00:00+01:00,30.45,EUR,12.930,MWh
Power,Intraday,Continuous,NL,ID3,QH,2021-01-19T04:00:00+01:00,2021-01-19T04:15:00+01:00,33.12,EUR,,MWh
Power,Intraday,Continuous,NL,ID3,QH,2021-01-19T04:15:00+01:00,2021-01-19T04:30:00+01:00,33.12,EUR,,MWh
Power,Intraday,Continuous,NL,ID3,QH,2021-01-19T04:30:00+01:00,2021-01-19T04:45:00+01:00,39.13,EUR,2.500,MWh
Power,Intraday,Continuous,NL,ID3,QH,2021-01-19T04:45:00+01:00,2021-01-19T05:00:00+01:00,33.12,EUR,,MWh
Power,Intraday,Continuous,NL,ID3,QH,2021-01-19T05:00:00+01:00,2021-01-19T05:15:00+01:00,21.01,EUR,6.100,MWh
Power,Intraday,Continuous,NL,ID3,QH,2021-01-19T05:15:00+01:00,2021-01-19T05:30:00+01:00,41.98,EUR,,MWh
Power,Intraday,Continuous,NL,ID3,QH,2021-01-19T05:30:00+01:00,2021-01-19T05:45:00+01:00,34.92,EUR,2.500,MWh
Power,Intraday,Continuous,NL,ID3,QH,2021-01-19T05:45:00+01:00,2021-01-19T06:00:00+01:00,55.51,EUR,6.100,MWh
Power,Intraday,Continuous,NL,ID3,QH,2021-01-19T06:00:00+01:00,2021-01-19T06:15:00+01:00,30.00,EUR,,MWh
Power,Intraday,Continuous,NL,ID3,QH,2021-01-19T06:15:00+01:00,2021-01-19T06:30:00+01:00,41.44,EUR,,MWh
Power,Intraday,Continuous,NL,ID3,QH,2021-01-19T06:30:00+01:00,2021-01-19T06:45:00+01:00,55.00,EUR,6.300,MWh
Power,Intraday,Continuous,NL,ID3,QH,2021-01-19T06:45:00+01:00,2021-01-19T07:00:00+01:00,56.00,EUR,2.500,MWh
Power,Intraday,Continuous,NL,ID3,QH,2021-01-19T07:00:00+01:00,2021-01-19T07:15:00+01:00,25.00,EUR,7.500,MWh
Power,Intraday,Continuous,NL,ID3,QH,2021-01-19T07:15:00+01:00,2021-01-19T07:30:00+01:00,50.44,EUR,,MWh
Power,Intraday,Continuous,NL,ID3,QH,2021-01-19T07:30:00+01:00,2021-01-19T07:45:00+01:00,49.12,EUR,6.380,MWh
Power,Intraday,Continuous,NL,ID3,QH,2021-01-19T07:45:00+01:00,2021-01-19T08:00:00+01:00,55.00,EUR,11.380,MWh
Power,Intraday,Continuous,NL,ID3,QH,2021-01-19T08:00:00+01:00,2021-01-19T08:15:00+01:00,63.97,EUR,,MWh
Power,Intraday,Continuous,NL,ID3,QH,2021-01-19T08:15:00+01:00,2021-01-19T08:30:00+01:00,40.55,EUR,4.980,MWh
Power,Intraday,Continuous,NL,ID3,QH,2021-01-19T08:30:00+01:00,2021-01-19T08:45:00+01:00,63.97,EUR,,MWh
Power,Intraday,Continuous,NL,ID3,QH,2021-01-19T08:45:00+01:00,2021-01-19T09:00:00+01:00,62.68,EUR,6.180,MWh
Power,Intraday,Continuous,NL,ID3,QH,2021-01-19T09:00:00+01:00,2021-01-19T09:15:00+01:00,72.29,EUR,,MWh
Power,Intraday,Continuous,NL,ID3,QH,2021-01-19T09:15:00+01:00,2021-01-19T09:30:00+01:00,72.29,EUR,,MWh
Power,Intraday,Continuous,NL,ID3,QH,2021-01-19T09:30:00+01:00,2021-01-19T09:45:00+01:00,72.29,EUR,,MWh
Power,Intraday,Continuous,NL,ID3,QH,2021-01-19T09:45:00+01:00,2021-01-19T10:00:00+01:00,63.10,EUR,2.500,MWh
Power,Intraday,Continuous,NL,ID3,QH,2021-01-19T10:00:00+01:00,2021-01-19T10:15:00+01:00,73.14,EUR,,MWh
Power,Intraday,Continuous,NL,ID3,QH,2021-01-19T10:15:00+01:00,2021-01-19T10:30:00+01:00,73.14,EUR,,MWh
Power,Intraday,Continuous,NL,ID3,QH,2021-01-19T10:30:00+01:00,2021-01-19T10:45:00+01:00,73.14,EUR,,MWh
Power,Intraday,Continuous,NL,ID3,QH,2021-01-19T10:45:00+01:00,2021-01-19T11:00:00+01:00,73.14,EUR,,MWh
Power,Intraday,Continuous,NL,ID3,QH,2021-01-19T11:00:00+01:00,2021-01-19T11:15:00+01:00,65.93,EUR,,MWh
Power,Intraday,Continuous,NL,ID3,QH,2021-01-19T11:15:00+01:00,2021-01-19T11:30:00+01:00,65.93,EUR,,MWh
Power,Intraday,Continuous,NL,ID3,QH,2021-01-19T11:30:00+01:00,2021-01-19T11:45:00+01:00,65.93,EUR,,MWh
Power,Intraday,Continuous,NL,ID3,QH,2021-01-19T11:45:00+01:00,2021-01-19T12:00:00+01:00,47.26,EUR,14.000,MWh
Power,Intraday,Continuous,NL,ID3,QH,2021-01-19T12:00:00+01:00,2021-01-19T12:15:00+01:00,39.11,EUR,33.150,MWh
Power,Intraday,Continuous,NL,ID3,QH,2021-01-19T12:15:00+01:00,2021-01-19T12:30:00+01:00,54.16,EUR,,MWh
Power,Intraday,Continuous,NL,ID3,QH,2021-01-19T12:30:00+01:00,2021-01-19T12:45:00+01:00,56.38,EUR,2.500,MWh
Power,Intraday,Continuous,NL,ID3,QH,2021-01-19T12:45:00+01:00,2021-01-19T13:00:00+01:00,49.79,EUR,16.800,MWh
Power,Intraday,Continuous,NL,ID3,QH,2021-01-19T13:00:00+01:00,2021-01-19T13:15:00+01:00,61.98,EUR,,MWh
Power,Intraday,Continuous,NL,ID3,QH,2021-01-19T13:15:00+01:00,2021-01-19T13:30:00+01:00,56.80,EUR,,MWh
Power,Intraday,Continuous,NL,ID3,QH,2021-01-19T13:30:00+01:00,2021-01-19T13:45:00+01:00,47.61,EUR,3.750,MWh
Power,Intraday,Continuous,NL,ID3,QH,2021-01-19T13:45:00+01:00,2021-01-19T14:00:00+01:00,22.19,EUR,3.780,MWh
Power,Intraday,Continuous,NL,ID3,QH,2021-01-19T14:00:00+01:00,2021-01-19T14:15:00+01:00,52.03,EUR,,MWh
Power,Intraday,Continuous,NL,ID3,QH,2021-01-19T14:15:00+01:00,2021-01-19T14:30:00+01:00,52.03,EUR,,MWh
Power,Intraday,Continuous,NL,ID3,QH,2021-01-19T14:30:00+01:00,2021-01-19T14:45:00+01:00,52.03,EUR,,MWh
Power,Intraday,Continuous,NL,ID3,QH,2021-01-19T14:45:00+01:00,2021-01-19T15:00:00+01:00,58.33,EUR,2.780,MWh
Power,Intraday,Continuous,NL,ID3,QH,2021-01-19T15:00:00+01:00,2021-01-19T15:15:00+01:00,58.80,EUR,,MWh
Power,Intraday,Continuous,NL,ID3,QH,2021-01-19T15:15:00+01:00,2021-01-19T15:30:00+01:00,68.43,EUR,6.250,MWh
Power,Intraday,Continuous,NL,ID3,QH,2021-01-19T15:30:00+01:00,2021-01-19T15:45:00+01:00,67.34,EUR,12.500,MWh
Power,Intraday,Continuous,NL,ID3,QH,2021-01-19T15:45:00+01:00,2021-01-19T16:00:00+01:00,74.75,EUR,33.350,MWh
Power,Intraday,Continuous,NL,ID3,QH,2021-01-19T16:00:00+01:00,2021-01-19T16:15:00+01:00,55.99,EUR,42.100,MWh
Power,Intraday,Continuous,NL,ID3,QH,2021-01-19T16:15:00+01:00,2021-01-19T16:30:00+01:00,61.92,EUR,4.380,MWh
Power,Intraday,Continuous,NL,ID3,QH,2021-01-19T16:30:00+01:00,2021-01-19T16:45:00+01:00,64.67,EUR,10.530,MWh
Power,Intraday,Continuous,NL,ID3,QH,2021-01-19T16:45:00+01:00,2021-01-19T17:00:00+01:00,74.19,EUR,36.400,MWh
Power,Intraday,Continuous,NL,ID3,QH,2021-01-19T17:00:00+01:00,2021-01-19T17:15:00+01:00,48.46,EUR,52.880,MWh
Power,Intraday,Continuous,NL,ID3,QH,2021-01-19T17:15:00+01:00,2021-01-19T17:30:00+01:00,60.13,EUR,6.380,MWh
Power,Intraday,Continuous,NL,ID3,QH,2021-01-19T17:30:00+01:00,2021-01-19T17:45:00+01:00,74.16,EUR,5.530,MWh
Power,Intraday,Continuous,NL,ID3,QH,2021-01-19T17:45:00+01:00,2021-01-19T18:00:00+01:00,89.08,EUR,11.180,MWh
Power,Intraday,Continuous,NL,ID3,QH,2021-01-19T18:00:00+01:00,2021-01-19T18:15:00+01:00,64.79,EUR,,MWh
Power,Intraday,Continuous,NL,ID3,QH,2021-01-19T18:15:00+01:00,2021-01-19T18:30:00+01:00,64.79,EUR,,MWh
Power,Intraday,Continuous,NL,ID3,QH,2021-01-19T18:30:00+01:00,2021-01-19T18:45:00+01:00,64.79,EUR,,MWh
Power,Intraday,Continuous,NL,ID3,QH,2021-01-19T18:45:00+01:00,2021-01-19T19:00:00+01:00,15.00,EUR,2.500,MWh
Power,Intraday,Continuous,NL,ID3,QH,2021-01-19T19:00:00+01:00,2021-01-19T19:15:00+01:00,58.60,EUR,,MWh
Power,Intraday,Continuous,NL,ID3,QH,2021-01-19T19:15:00+01:00,2021-01-19T19:30:00+01:00,58.60,EUR,,MWh
Power,Intraday,Continuous,NL,ID3,QH,2021-01-19T19:30:00+01:00,2021-01-19T19:45:00+01:00,58.60,EUR,,MWh
Power,Intraday,Continuous,NL,ID3,QH,2021-01-19T19:45:00+01:00,2021-01-19T20:00:00+01:00,30.00,EUR,7.500,MWh
Power,Intraday,Continuous,NL,ID3,QH,2021-01-19T20:00:00+01:00,2021-01-19T20:15:00+01:00,65.23,EUR,13.250,MWh
Power,Intraday,Continuous,NL,ID3,QH,2021-01-19T20:15:00+01:00,2021-01-19T20:30:00+01:00,44.31,EUR,4.500,MWh
Power,Intraday,Continuous,NL,ID3,QH,2021-01-19T20:30:00+01:00,2021-01-19T20:45:00+01:00,41.04,EUR,4.780,MWh
Power,Intraday,Continuous,NL,ID3,QH,2021-01-19T20:45:00+01:00,2021-01-19T21:00:00+01:00,29.98,EUR,12.650,MWh
Power,Intraday,Continuous,NL,ID3,QH,2021-01-19T21:00:00+01:00,2021-01-19T21:15:00+01:00,67.23,EUR,29.450,MWh
Power,Intraday,Continuous,NL,ID3,QH,2021-01-19T21:15:00+01:00,2021-01-19T21:30:00+01:00,60.47,EUR,,MWh
Power,Intraday,Continuous,NL,ID3,QH,2021-01-19T21:30:00+01:00,2021-01-19T21:45:00+01:00,33.86,EUR,,MWh
Power,Intraday,Continuous,NL,ID3,QH,2021-01-19T21:45:00+01:00,2021-01-19T22:00:00+01:00,17.35,EUR,,MWh
Power,Intraday,Continuous,NL,ID3,QH,2021-01-19T22:00:00+01:00,2021-01-19T22:15:00+01:00,68.92,EUR,,MWh
Power,Intraday,Continuous,NL,ID3,QH,2021-01-19T22:15:00+01:00,2021-01-19T22:30:00+01:00,47.32,EUR,,MWh
Power,Intraday,Continuous,NL,ID3,QH,2021-01-19T22:30:00+01:00,2021-01-19T22:45:00+01:00,27.49,EUR,,MWh
Power,Intraday,Continuous,NL,ID3,QH,2021-01-19T22:45:00+01:00,2021-01-19T23:00:00+01:00,29.68,EUR,,MWh
Power,Intraday,Continuous,NL,ID3,QH,2021-01-19T23:00:00+01:00,2021-01-19T23:15:00+01:00,67.47,EUR,,MWh
Power,Intraday,Continuous,NL,ID3,QH,2021-01-19T23:15:00+01:00,2021-01-19T23:30:00+01:00,59.54,EUR,,MWh
Power,Intraday,Continuous,NL,ID3,QH,2021-01-19T23:30:00+01:00,2021-01-19T23:45:00+01:00,20.29,EUR,4.780,MWh
Power,Intraday,Continuous,NL,ID3,QH,2021-01-19T23:45:00+01:00,2021-01-20T00:00:00+01:00,-21.58,EUR,,MWh
Power,Intraday,Continuous,NL,IDFULL,BASE,2021-01-19T00:00:00+01:00,2021-01-20T00:00:00+01:00,49.15,EUR,15129.400,MWh
Power,Intraday,Continuous,NL,IDFULL,PEAK,2021-01-19T08:00:00+01:00,2021-01-19T20:00:00+01:00,58.49,EUR,11061.900,MWh
