Commodity,NominationModality,TradingModality,MarketArea,IndexName,TimeResolution,DeliveryStart,DeliveryEnd,IndexPrice,Currency,Volume,VolumeUnit
Power,Intraday,Continuous,NL,IDFULL,H,2021-02-07T00:00:00+01:00,2021-02-07T01:00:00+01:00,11.03,EUR,115.000,MWh
Power,Intraday,Continuous,NL,IDFULL,H,2021-02-07T01:00:00+01:00,2021-02-07T02:00:00+01:00,30.85,EUR,186.100,MWh
Power,Intraday,Continuous,NL,IDFULL,H,2021-02-07T02:00:00+01:00,2021-02-07T03:00:00+01:00,5.67,EUR,96.500,MWh
Power,Intraday,Continuous,NL,IDFULL,H,2021-02-07T03:00:00+01:00,2021-02-07T04:00:00+01:00,-5.28,EUR,187.400,MWh
Power,Intraday,Continuous,NL,IDFULL,H,2021-02-07T04:00:00+01:00,2021-02-07T05:00:00+01:00,-2.06,EUR,476.900,MWh
Power,Intraday,Continuous,NL,IDFULL,H,2021-02-07T05:00:00+01:00,2021-02-07T06:00:00+01:00,-0.89,EUR,198.600,MWh
Power,Intraday,Continuous,NL,IDFULL,H,2021-02-07T06:00:00+01:00,2021-02-07T07:00:00+01:00,-4.17,EUR,201.800,MWh
Power,Intraday,Continuous,NL,IDFULL,H,2021-02-07T07:00:00+01:00,2021-02-07T08:00:00+01:00,1.79,EUR,284.200,MWh
Power,Intraday,Continuous,NL,IDFULL,H,2021-02-07T08:00:00+01:00,2021-02-07T09:00:00+01:00,19.23,EUR,328.600,MWh
Power,Intraday,Continuous,NL,IDFULL,H,2021-02-07T09:00:00+01:00,2021-02-07T10:00:00+01:00,34.29,EUR,401.200,MWh
Power,Intraday,Continuous,NL,IDFULL,H,2021-02-07T10:00:00+01:00,2021-02-07T11:00:00+01:00,40.49,EUR,606.100,MWh
Power,Intraday,Continuous,NL,IDFULL,H,2021-02-07T11:00:00+01:00,2021-02-07T12:00:00+01:00,48.49,EUR,822.300,MWh
Power,Intraday,Continuous,NL,IDFULL,H,2021-02-07T12:00:00+01:00,2021-02-07T13:00:00+01:00,47.27,EUR,1052.900,MWh
Power,Intraday,Continuous,NL,IDFULL,H,2021-02-07T13:00:00+01:00,2021-02-07T14:00:00+01:00,47.73,EUR,1059.800,MWh
Power,Intraday,Continuous,NL,IDFULL,H,2021-02-07T14:00:00+01:00,2021-02-07T15:00:00+01:00,44.47,EUR,1126.200,MWh
Power,Intraday,Continuous,NL,IDFULL,H,2021-02-07T15:00:00+01:00,2021-02-07T16:00:00+01:00,44.63,EUR,967.500,MWh
Power,Intraday,Continuous,NL,IDFULL,H,2021-02-07T16:00:00+01:00,2021-02-07T17:00:00+01:00,48.71,EUR,1200.400,MWh
Power,Intraday,Continuous,NL,IDFULL,H,2021-02-07T17:00:00+01:00,2021-02-07T18:00:00+01:00,56.63,EUR,1243.900,MWh
Power,Intraday,Continuous,NL,IDFULL,H,2021-02-07T18:00:00+01:00,2021-02-07T19:00:00+01:00,52.75,EUR,1305.100,MWh
Power,Intraday,Continuous,NL,IDFULL,H,2021-02-07T19:00:00+01:00,2021-02-07T20:00:00+01:00,47.93,EUR,1028.500,MWh
Power,Intraday,Continuous,NL,IDFULL,H,2021-02-07T20:00:00+01:00,2021-02-07T21:00:00+01:00,38.77,EUR,822.700,MWh
Power,Intraday,Continuous,NL,IDFULL,H,2021-02-07T21:00:00+01:00,2021-02-07T22:00:00+01:00,45.97,EUR,968.700,MWh
Power,Intraday,Continuous,NL,IDFULL,H,2021-02-07T22:00:00+01:00,2021-02-07T23:00:00+01:00,36.35,EUR,1055.600,MWh
Power,Intraday,Continuous,NL,IDFULL,H,2021-02-07T23:00:00+01:00,2021-02-08T00:00:00+01:00,28.58,EUR,922.500,MWh
Power,Intraday,Continuous,NL,ID1,H,2021-02-07T00:00:00+01:00,2021-02-07T01:00:00+01:00,-39.95,EUR,20.000,MWh
Power,Intraday,Continuous,NL,ID1,H,2021-02-07T01:00:00+01:00,2021-02-07T02:00:00+01:00,30.92,EUR,,MWh
Power,Intraday,Continuous,NL,ID1,H,2021-02-07T02:00:00+01:00,2021-02-07T03:00:00+01:00,-7.81,EUR,,MWh
Power,Intraday,Continuous,NL,ID1,H,2021-02-07T03:00:00+01:00,2021-02-07T04:00:00+01:00,-20.00,EUR,25.000,MWh
Power,Intraday,Continuous,NL,ID1,H,2021-02-07T04:00:00+01:00,2021-02-07T05:00:00+01:00,0.00,EUR,15.000,MWh
Power,Intraday,Continuous,NL,ID1,H,2021-02-07T05:00:00+01:00,2021-02-07T06:00:00+01:00,-1.00,EUR,17.000,MWh
Power,Intraday,Continuous,NL,ID1,H,2021-02-07T06:00:00+01:00,2021-02-07T07:00:00+01:00,-40.00,EUR,20.000,MWh
Power,Intraday,Continuous,NL,ID1,H,2021-02-07T07:00:00+01:00,2021-02-07T08:00:00+01:00,1.45,EUR,,MWh
Power,Intraday,Continuous,NL,ID1,H,2021-02-07T08:00:00+01:00,2021-02-07T09:00:00+01:00,21.08,EUR,94.800,MWh
Power,Intraday,Continuous,NL,ID1,H,2021-02-07T09:00:00+01:00,2021-02-07T10:00:00+01:00,20.17,EUR,134.000,MWh
Power,Intraday,Continuous,NL,ID1,H,2021-02-07T10:00:00+01:00,2021-02-07T11:00:00+01:00,29.90,EUR,144.700,MWh
Power,Intraday,Continuous,NL,ID1,H,2021-02-07T11:00:00+01:00,2021-02-07T12:00:00+01:00,40.43,EUR,75.900,MWh
Power,Intraday,Continuous,NL,ID1,H,2021-02-07T12:00:00+01:00,2021-02-07T13:00:00+01:00,39.59,EUR,76.900,MWh
Power,Intraday,Continuous,NL,ID1,H,2021-02-07T13:00:00+01:00,2021-02-07T14:00:00+01:00,45.58,EUR,78.100,MWh
Power,Intraday,Continuous,NL,ID1,H,2021-02-07T14:00:00+01:00,2021-02-07T15:00:00+01:00,46.50,EUR,42.500,MWh
Power,Intraday,Continuous,NL,ID1,H,2021-02-07T15:00:00+01:00,2021-02-07T16:00:00+01:00,27.06,EUR,10.000,MWh
Power,Intraday,Continuous,NL,ID1,H,2021-02-07T16:00:00+01:00,2021-02-07T17:00:00+01:00,50.16,EUR,,MWh
Power,Intraday,Continuous,NL,ID1,H,2021-02-07T17:00:00+01:00,2021-02-07T18:00:00+01:00,48.88,EUR,18.900,MWh
Power,Intraday,Continuous,NL,ID1,H,2021-02-07T18:00:00+01:00,2021-02-07T19:00:00+01:00,45.00,EUR,15.000,MWh
Power,Intraday,Continuous,NL,ID1,H,2021-02-07T19:00:00+01:00,2021-02-07T20:00:00+01:00,54.99,EUR,25.000,MWh
Power,Intraday,Continuous,NL,ID1,H,2021-02-07T20:00:00+01:00,2021-02-07T21:00:00+01:00,35.91,EUR,158.200,MWh
Power,Intraday,Continuous,NL,ID1,H,2021-02-07T21:00:00+01:00,2021-02-07T22:00:00+01:00,35.00,EUR,38.800,MWh
Power,Intraday,Continuous,NL,ID1,H,2021-02-07T22:00:00+01:00,2021-02-07T23:00:00+01:00,36.77,EUR,,MWh
Power,Intraday,Continuous,NL,ID1,H,2021-02-07T23:00:00+01:00,2021-02-08T00:00:00+01:00,28.50,EUR,,MWh
Power,Intraday,Continuous,NL,ID3,H,2021-02-07T00:00:00+01:00,2021-02-07T01:00:00+01:00,10.86,EUR,113.600,MWh
Power,Intraday,Continuous,NL,ID3,H,2021-02-07T01:00:00+01:00,2021-02-07T02:00:00+01:00,30.92,EUR,184.700,MWh
Power,Intraday,Continuous,NL,ID3,H,2021-02-07T02:00:00+01:00,2021-02-07T03:00:00+01:00,-7.81,EUR,55.600,MWh
Power,Intraday,Continuous,NL,ID3,H,2021-02-07T03:00:00+01:00,2021-02-07T04:00:00+01:00,-6.64,EUR,148.400,MWh
Power,Intraday,Continuous,NL,ID3,H,2021-02-07T04:00:00+01:00,2021-02-07T05:00:00+01:00,-2.05,EUR,202.100,MWh
Power,Intraday,Continuous,NL,ID3,H,2021-02-07T05:00:00+01:00,2021-02-07T06:00:00+01:00,-1.38,EUR,179.400,MWh
Power,Intraday,Continuous,NL,ID3,H,2021-02-07T06:00:00+01:00,2021-02-07T07:00:00+01:00,-4.20,EUR,199.300,MWh
Power,Intraday,Continuous,NL,ID3,H,2021-02-07T07:00:00+01:00,2021-02-07T08:00:00+01:00,1.45,EUR,245.400,MWh
Power,Intraday,Continuous,NL,ID3,H,2021-02-07T08:00:00+01:00,2021-02-07T09:00:00+01:00,18.05,EUR,311.200,MWh
Power,Intraday,Continuous,NL,ID3,H,2021-02-07T09:00:00+01:00,2021-02-07T10:00:00+01:00,34.07,EUR,398.800,MWh
Power,Intraday,Continuous,NL,ID3,H,2021-02-07T10:00:00+01:00,2021-02-07T11:00:00+01:00,40.42,EUR,603.600,MWh
Power,Intraday,Continuous,NL,ID3,H,2021-02-07T11:00:00+01:00,2021-02-07T12:00:00+01:00,48.47,EUR,819.800,MWh
Power,Intraday,Continuous,NL,ID3,H,2021-02-07T12:00:00+01:00,2021-02-07T13:00:00+01:00,46.48,EUR,756.800,MWh
Power,Intraday,Continuous,NL,ID3,H,2021-02-07T13:00:00+01:00,2021-02-07T14:00:00+01:00,46.70,EUR,825.300,MWh
Power,Intraday,Continuous,NL,ID3,H,2021-02-07T14:00:00+01:00,2021-02-07T15:00:00+01:00,44.00,EUR,938.000,MWh
Power,Intraday,Continuous,NL,ID3,H,2021-02-07T15:00:00+01:00,2021-02-07T16:00:00+01:00,44.30,EUR,567.500,MWh
Power,Intraday,Continuous,NL,ID3,H,2021-02-07T16:00:00+01:00,2021-02-07T17:00:00+01:00,50.16,EUR,875.900,MWh
Power,Intraday,Continuous,NL,ID3,H,2021-02-07T17:00:00+01:00,2021-02-07T18:00:00+01:00,56.47,EUR,678.700,MWh
Power,Intraday,Continuous,NL,ID3,H,2021-02-07T18:00:00+01:00,2021-02-07T19:00:00+01:00,49.31,EUR,879.100,MWh
Power,Intraday,Continuous,NL,ID3,H,2021-02-07T19:00:00+01:00,2021-02-07T20:00:00+01:00,42.37,EUR,736.800,MWh
Power,Intraday,Continuous,NL,ID3,H,2021-02-07T20:00:00+01:00,2021-02-07T21:00:00+01:00,38.60,EUR,788.300,MWh
Power,Intraday,Continuous,NL,ID3,H,2021-02-07T21:00:00+01:00,2021-02-07T22:00:00+01:00,45.10,EUR,461.000,MWh
Power,Intraday,Continuous,NL,ID3,H,2021-02-07T22:00:00+01:00,2021-02-07T23:00:00+01:00,36.77,EUR,464.900,MWh
Power,Intraday,Continuous,NL,ID3,H,2021-02-07T23:00:00+01:00,2021-02-08T00:00:00+01:00,28.50,EUR,679.200,MWh
Power,Intraday,Continuous,NL,IDFULL,HH,2021-02-07T00:00:00+01:00,2021-02-07T00:30:00+01:00,11.03,EUR,,MWh
Power,Intraday,Continuous,NL,IDFULL,HH,2021-02-07T00:30:00+01:00,2021-02-07T01:00:00+01:00,11.03,EUR,,MWh
Power,Intraday,Continuous,NL,IDFULL,HH,2021-02-07T01:00:00+01:00,2021-02-07T01:30:00+01:00,30.85,EUR,,MWh
Power,Intraday,Continuous,NL,IDFULL,HH,2021-02-07T01:30:00+01:00,2021-02-07T02:00:00+01:00,30.85,EUR,,MWh
Power,Intraday,Continuous,NL,IDFULL,HH,2021-02-07T02:00:00+01:00,2021-02-07T02:30:00+01:00,5.67,EUR,,MWh
Power,Intraday,Continuous,NL,IDFULL,HH,2021-02-07T02:30:00+01:00,2021-02-07T03:00:00+01:00,5.67,EUR,,MWh
Power,Intraday,Continuous,NL,IDFULL,HH,2021-02-07T03:00:00+01:00,2021-02-07T03:30:00+01:00,-5.28,EUR,,MWh
Power,Intraday,Continuous,NL,IDFULL,HH,2021-02-07T03:30:00+01:00,2021-02-07T04:00:00+01:00,-5.28,EUR,,MWh
Power,Intraday,Continuous,NL,IDFULL,HH,2021-02-07T04:00:00+01:00,2021-02-07T04:30:00+01:00,-2.06,EUR,,MWh
Power,Intraday,Continuous,NL,IDFULL,HH,2021-02-07T04:30:00+01:00,2021-02-07T05:00:00+01:00,-2.06,EUR,,MWh
Power,Intraday,Continuous,NL,IDFULL,HH,2021-02-07T05:00:00+01:00,2021-02-07T05:30:00+01:00,-0.89,EUR,,MWh
Power,Intraday,Continuous,NL,IDFULL,HH,2021-02-07T05:30:00+01:00,2021-02-07T06:00:00+01:00,-0.89,EUR,,MWh
Power,Intraday,Continuous,NL,IDFULL,HH,2021-02-07T06:00:00+01:00,2021-02-07T06:30:00+01:00,-4.17,EUR,,MWh
Power,Intraday,Continuous,NL,IDFULL,HH,2021-02-07T06:30:00+01:00,2021-02-07T07:00:00+01:00,-4.17,EUR,,MWh
Power,Intraday,Continuous,NL,IDFULL,HH,2021-02-07T07:00:00+01:00,2021-02-07T07:30:00+01:00,1.79,EUR,,MWh
Power,Intraday,Continuous,NL,IDFULL,HH,2021-02-07T07:30:00+01:00,2021-02-07T08:00:00+01:00,1.79,EUR,,MWh
Power,Intraday,Continuous,NL,IDFULL,HH,2021-02-07T08:00:00+01:00,2021-02-07T08:30:00+01:00,19.23,EUR,,MWh
Power,Intraday,Continuous,NL,IDFULL,HH,2021-02-07T08:30:00+01:00,2021-02-07T09:00:00+01:00,19.23,EUR,,MWh
Power,Intraday,Continuous,NL,IDFULL,HH,2021-02-07T09:00:00+01:00,2021-02-07T09:30:00+01:00,34.29,EUR,,MWh
Power,Intraday,Continuous,NL,IDFULL,HH,2021-02-07T09:30:00+01:00,2021-02-07T10:00:00+01:00,34.29,EUR,,MWh
Power,Intraday,Continuous,NL,IDFULL,HH,2021-02-07T10:00:00+01:00,2021-02-07T10:30:00+01:00,40.49,EUR,,MWh
Power,Intraday,Continuous,NL,IDFULL,HH,2021-02-07T10:30:00+01:00,2021-02-07T11:00:00+01:00,40.49,EUR,,MWh
Power,Intraday,Continuous,NL,IDFULL,HH,2021-02-07T11:00:00+01:00,2021-02-07T11:30:00+01:00,48.49,EUR,,MWh
Power,Intraday,Continuous,NL,IDFULL,HH,2021-02-07T11:30:00+01:00,2021-02-07T12:00:00+01:00,48.49,EUR,,MWh
Power,Intraday,Continuous,NL,IDFULL,HH,2021-02-07T12:00:00+01:00,2021-02-07T12:30:00+01:00,47.27,EUR,,MWh
Power,Intraday,Continuous,NL,IDFULL,HH,2021-02-07T12:30:00+01:00,2021-02-07T13:00:00+01:00,47.27,EUR,,MWh
Power,Intraday,Continuous,NL,IDFULL,HH,2021-02-07T13:00:00+01:00,2021-02-07T13:30:00+01:00,47.73,EUR,,MWh
Power,Intraday,Continuous,NL,IDFULL,HH,2021-02-07T13:30:00+01:00,2021-02-07T14:00:00+01:00,47.73,EUR,,MWh
Power,Intraday,Continuous,NL,IDFULL,HH,2021-02-07T14:00:00+01:00,2021-02-07T14:30:00+01:00,44.47,EUR,,MWh
Power,Intraday,Continuous,NL,IDFULL,HH,2021-02-07T14:30:00+01:00,2021-02-07T15:00:00+01:00,44.47,EUR,,MWh
Power,Intraday,Continuous,NL,IDFULL,HH,2021-02-07T15:00:00+01:00,2021-02-07T15:30:00+01:00,44.63,EUR,,MWh
Power,Intraday,Continuous,NL,IDFULL,HH,2021-02-07T15:30:00+01:00,2021-02-07T16:00:00+01:00,44.63,EUR,,MWh
Power,Intraday,Continuous,NL,IDFULL,HH,2021-02-07T16:00:00+01:00,2021-02-07T16:30:00+01:00,51.42,EUR,,MWh
Power,Intraday,Continuous,NL,IDFULL,HH,2021-02-07T16:30:00+01:00,2021-02-07T17:00:00+01:00,46.00,EUR,7.500,MWh
Power,Intraday,Continuous,NL,IDFULL,HH,2021-02-07T17:00:00+01:00,2021-02-07T17:30:00+01:00,42.56,EUR,,MWh
Power,Intraday,Continuous,NL,IDFULL,HH,2021-02-07T17:30:00+01:00,2021-02-07T18:00:00+01:00,70.70,EUR,5.000,MWh
Power,Intraday,Continuous,NL,IDFULL,HH,2021-02-07T18:00:00+01:00,2021-02-07T18:30:00+01:00,52.75,EUR,,MWh
Power,Intraday,Continuous,NL,IDFULL,HH,2021-02-07T18:30:00+01:00,2021-02-07T19:00:00+01:00,52.75,EUR,,MWh
Power,Intraday,Continuous,NL,IDFULL,HH,2021-02-07T19:00:00+01:00,2021-02-07T19:30:00+01:00,47.93,EUR,,MWh
Power,Intraday,Continuous,NL,IDFULL,HH,2021-02-07T19:30:00+01:00,2021-02-07T20:00:00+01:00,47.93,EUR,,MWh
Power,Intraday,Continuous,NL,IDFULL,HH,2021-02-07T20:00:00+01:00,2021-02-07T20:30:00+01:00,38.77,EUR,,MWh
Power,Intraday,Continuous,NL,IDFULL,HH,2021-02-07T20:30:00+01:00,2021-02-07T21:00:00+01:00,38.77,EUR,,MWh
Power,Intraday,Continuous,NL,IDFULL,HH,2021-02-07T21:00:00+01:00,2021-02-07T21:30:00+01:00,45.97,EUR,,MWh
Power,Intraday,Continuous,NL,IDFULL,HH,2021-02-07T21:30:00+01:00,2021-02-07T22:00:00+01:00,45.97,EUR,,MWh
Power,Intraday,Continuous,NL,IDFULL,HH,2021-02-07T22:00:00+01:00,2021-02-07T22:30:00+01:00,36.35,EUR,,MWh
Power,Intraday,Continuous,NL,IDFULL,HH,2021-02-07T22:30:00+01:00,2021-02-07T23:00:00+01:00,36.35,EUR,,MWh
Power,Intraday,Continuous,NL,IDFULL,HH,2021-02-07T23:00:00+01:00,2021-02-07T23:30:00+01:00,28.58,EUR,,MWh
Power,Intraday,Continuous,NL,IDFULL,HH,2021-02-07T23:30:00+01:00,2021-02-08T00:00:00+01:00,28.58,EUR,,MWh
Power,Intraday,Continuous,NL,ID1,HH,2021-02-07T00:00:00+01:00,2021-02-07T00:30:00+01:00,11.03,EUR,,MWh
Power,Intraday,Continuous,NL,ID1,HH,2021-02-07T00:30:00+01:00,2021-02-07T01:00:00+01:00,11.03,EUR,,MWh
Power,Intraday,Continuous,NL,ID1,HH,2021-02-07T01:00:00+01:00,2021-02-07T01:30:00+01:00,30.85,EUR,,MWh
Power,Intraday,Continuous,NL,ID1,HH,2021-02-07T01:30:00+01:00,2021-02-07T02:00:00+01:00,30.85,EUR,,MWh
Power,Intraday,Continuous,NL,ID1,HH,2021-02-07T02:00:00+01:00,2021-02-07T02:30:00+01:00,5.67,EUR,,MWh
Power,Intraday,Continuous,NL,ID1,HH,2021-02-07T02:30:00+01:00,2021-02-07T03:00:00+01:00,5.67,EUR,,MWh
Power,Intraday,Continuous,NL,ID1,HH,2021-02-07T03:00:00+01:00,2021-02-07T03:30:00+01:00,-5.28,EUR,,MWh
Power,Intraday,Continuous,NL,ID1,HH,2021-02-07T03:30:00+01:00,2021-02-07T04:00:00+01:00,-5.28,EUR,,MWh
Power,Intraday,Continuous,NL,ID1,HH,2021-02-07T04:00:00+01:00,2021-02-07T04:30:00+01:00,-2.06,EUR,,MWh
Power,Intraday,Continuous,NL,ID1,HH,2021-02-07T04:30:00+01:00,2021-02-07T05:00:00+01:00,-2.06,EUR,,MWh
Power,Intraday,Continuous,NL,ID1,HH,2021-02-07T05:00:00+01:00,2021-02-07T05:30:00+01:00,-0.89,EUR,,MWh
Power,Intraday,Continuous,NL,ID1,HH,2021-02-07T05:30:00+01:00,2021-02-07T06:00:00+01:00,-0.89,EUR,,MWh
Power,Intraday,Continuous,NL,ID1,HH,2021-02-07T06:00:00+01:00,2021-02-07T06:30:00+01:00,-4.17,EUR,,MWh
Power,Intraday,Continuous,NL,ID1,HH,2021-02-07T06:30:00+01:00,2021-02-07T07:00:00+01:00,-4.17,EUR,,MWh
Power,Intraday,Continuous,NL,ID1,HH,2021-02-07T07:00:00+01:00,2021-02-07T07:30:00+01:00,1.79,EUR,,MWh
Power,Intraday,Continuous,NL,ID1,HH,2021-02-07T07:30:00+01:00,2021-02-07T08:00:00+01:00,1.79,EUR,,MWh
Power,Intraday,Continuous,NL,ID1,HH,2021-02-07T08:00:00+01:00,2021-02-07T08:30:00+01:00,19.23,EUR,,MWh
Power,Intraday,Continuous,NL,ID1,HH,2021-02-07T08:30:00+01:00,2021-02-07T09:00:00+01:00,19.23,EUR,,MWh
Power,Intraday,Continuous,NL,ID1,HH,2021-02-07T09:00:00+01:00,2021-02-07T09:30:00+01:00,34.29,EUR,,MWh
Power,Intraday,Continuous,NL,ID1,HH,2021-02-07T09:30:00+01:00,2021-02-07T10:00:00+01:00,34.29,EUR,,MWh
Power,Intraday,Continuous,NL,ID1,HH,2021-02-07T10:00:00+01:00,2021-02-07T10:30:00+01:00,40.49,EUR,,MWh
Power,Intraday,Continuous,NL,ID1,HH,2021-02-07T10:30:00+01:00,2021-02-07T11:00:00+01:00,40.49,EUR,,MWh
Power,Intraday,Continuous,NL,ID1,HH,2021-02-07T11:00:00+01:00,2021-02-07T11:30:00+01:00,48.49,EUR,,MWh
Power,Intraday,Continuous,NL,ID1,HH,2021-02-07T11:30:00+01:00,2021-02-07T12:00:00+01:00,48.49,EUR,,MWh
Power,Intraday,Continuous,NL,ID1,HH,2021-02-07T12:00:00+01:00,2021-02-07T12:30:00+01:00,47.27,EUR,,MWh
Power,Intraday,Continuous,NL,ID1,HH,2021-02-07T12:30:00+01:00,2021-02-07T13:00:00+01:00,47.27,EUR,,MWh
Power,Intraday,Continuous,NL,ID1,HH,2021-02-07T13:00:00+01:00,2021-02-07T13:30:00+01:00,47.73,EUR,,MWh
Power,Intraday,Continuous,NL,ID1,HH,2021-02-07T13:30:00+01:00,2021-02-07T14:00:00+01:00,47.73,EUR,,MWh
Power,Intraday,Continuous,NL,ID1,HH,2021-02-07T14:00:00+01:00,2021-02-07T14:30:00+01:00,44.47,EUR,,MWh
Power,Intraday,Continuous,NL,ID1,HH,2021-02-07T14:30:00+01:00,2021-02-07T15:00:00+01:00,44.47,EUR,,MWh
Power,Intraday,Continuous,NL,ID1,HH,2021-02-07T15:00:00+01:00,2021-02-07T15:30:00+01:00,44.63,EUR,,MWh
Power,Intraday,Continuous,NL,ID1,HH,2021-02-07T15:30:00+01:00,2021-02-07T16:00:00+01:00,44.63,EUR,,MWh
Power,Intraday,Continuous,NL,ID1,HH,2021-02-07T16:00:00+01:00,2021-02-07T16:30:00+01:00,51.42,EUR,,MWh
Power,Intraday,Continuous,NL,ID1,HH,2021-02-07T16:30:00+01:00,2021-02-07T17:00:00+01:00,46.00,EUR,,MWh
Power,Intraday,Continuous,NL,ID1,HH,2021-02-07T17:00:00+01:00,2021-02-07T17:30:00+01:00,42.56,EUR,,MWh
Power,Intraday,Continuous,NL,ID1,HH,2021-02-07T17:30:00+01:00,2021-02-07T18:00:00+01:00,70.70,EUR,,MWh
Power,Intraday,Continuous,NL,ID1,HH,2021-02-07T18:00:00+01:00,2021-02-07T18:30:00+01:00,52.75,EUR,,MWh
Power,Intraday,Continuous,NL,ID1,HH,2021-02-07T18:30:00+01:00,2021-02-07T19:00:00+01:00,52.75,EUR,,MWh
Power,Intraday,Continuous,NL,ID1,HH,2021-02-07T19:00:00+01:00,2021-02-07T19:30:00+01:00,47.93,EUR,,MWh
Power,Intraday,Continuous,NL,ID1,HH,2021-02-07T19:30:00+01:00,2021-02-07T20:00:00+01:00,47.93,EUR,,MWh
Power,Intraday,Continuous,NL,ID1,HH,2021-02-07T20:00:00+01:00,2021-02-07T20:30:00+01:00,38.77,EUR,,MWh
Power,Intraday,Continuous,NL,ID1,HH,2021-02-07T20:30:00+01:00,2021-02-07T21:00:00+01:00,38.77,EUR,,MWh
Power,Intraday,Continuous,NL,ID1,HH,2021-02-07T21:00:00+01:00,2021-02-07T21:30:00+01:00,45.97,EUR,,MWh
Power,Intraday,Continuous,NL,ID1,HH,2021-02-07T21:30:00+01:00,2021-02-07T22:00:00+01:00,45.97,EUR,,MWh
Power,Intraday,Continuous,NL,ID1,HH,2021-02-07T22:00:00+01:00,2021-02-07T22:30:00+01:00,36.35,EUR,,MWh
Power,Intraday,Continuous,NL,ID1,HH,2021-02-07T22:30:00+01:00,2021-02-07T23:00:00+01:00,36.35,EUR,,MWh
Power,Intraday,Continuous,NL,ID1,HH,2021-02-07T23:00:00+01:00,2021-02-07T23:30:00+01:00,28.58,EUR,,MWh
Power,Intraday,Continuous,NL,ID1,HH,2021-02-07T23:30:00+01:00,2021-02-08T00:00:00+01:00,28.58,EUR,,MWh
Power,Intraday,Continuous,NL,ID3,HH,2021-02-07T00:00:00+01:00,2021-02-07T00:30:00+01:00,11.03,EUR,,MWh
Power,Intraday,Continuous,NL,ID3,HH,2021-02-07T00:30:00+01:00,2021-02-07T01:00:00+01:00,11.03,EUR,,MWh
Power,Intraday,Continuous,NL,ID3,HH,2021-02-07T01:00:00+01:00,2021-02-07T01:30:00+01:00,30.85,EUR,,MWh
Power,Intraday,Continuous,NL,ID3,HH,2021-02-07T01:30:00+01:00,2021-02-07T02:00:00+01:00,30.85,EUR,,MWh
Power,Intraday,Continuous,NL,ID3,HH,2021-02-07T02:00:00+01:00,2021-02-07T02:30:00+01:00,5.67,EUR,,MWh
Power,Intraday,Continuous,NL,ID3,HH,2021-02-07T02:30:00+01:00,2021-02-07T03:00:00+01:00,5.67,EUR,,MWh
Power,Intraday,Continuous,NL,ID3,HH,2021-02-07T03:00:00+01:00,2021-02-07T03:30:00+01:00,-5.28,EUR,,MWh
Power,Intraday,Continuous,NL,ID3,HH,2021-02-07T03:30:00+01:00,2021-02-07T04:00:00+01:00,-5.28,EUR,,MWh
Power,Intraday,Continuous,NL,ID3,HH,2021-02-07T04:00:00+01:00,2021-02-07T04:30:00+01:00,-2.06,EUR,,MWh
Power,Intraday,Continuous,NL,ID3,HH,2021-02-07T04:30:00+01:00,2021-02-07T05:00:00+01:00,-2.06,EUR,,MWh
Power,Intraday,Continuous,NL,ID3,HH,2021-02-07T05:00:00+01:00,2021-02-07T05:30:00+01:00,-0.89,EUR,,MWh
Power,Intraday,Continuous,NL,ID3,HH,2021-02-07T05:30:00+01:00,2021-02-07T06:00:00+01:00,-0.89,EUR,,MWh
Power,Intraday,Continuous,NL,ID3,HH,2021-02-07T06:00:00+01:00,2021-02-07T06:30:00+01:00,-4.17,EUR,,MWh
Power,Intraday,Continuous,NL,ID3,HH,2021-02-07T06:30:00+01:00,2021-02-07T07:00:00+01:00,-4.17,EUR,,MWh
Power,Intraday,Continuous,NL,ID3,HH,2021-02-07T07:00:00+01:00,2021-02-07T07:30:00+01:00,1.79,EUR,,MWh
Power,Intraday,Continuous,NL,ID3,HH,2021-02-07T07:30:00+01:00,2021-02-07T08:00:00+01:00,1.79,EUR,,MWh
Power,Intraday,Continuous,NL,ID3,HH,2021-02-07T08:00:00+01:00,2021-02-07T08:30:00+01:00,19.23,EUR,,MWh
Power,Intraday,Continuous,NL,ID3,HH,2021-02-07T08:30:00+01:00,2021-02-07T09:00:00+01:00,19.23,EUR,,MWh
Power,Intraday,Continuous,NL,ID3,HH,2021-02-07T09:00:00+01:00,2021-02-07T09:30:00+01:00,34.29,EUR,,MWh
Power,Intraday,Continuous,NL,ID3,HH,2021-02-07T09:30:00+01:00,2021-02-07T10:00:00+01:00,34.29,EUR,,MWh
Power,Intraday,Continuous,NL,ID3,HH,2021-02-07T10:00:00+01:00,2021-02-07T10:30:00+01:00,40.49,EUR,,MWh
Power,Intraday,Continuous,NL,ID3,HH,2021-02-07T10:30:00+01:00,2021-02-07T11:00:00+01:00,40.49,EUR,,MWh
Power,Intraday,Continuous,NL,ID3,HH,2021-02-07T11:00:00+01:00,2021-02-07T11:30:00+01:00,48.49,EUR,,MWh
Power,Intraday,Continuous,NL,ID3,HH,2021-02-07T11:30:00+01:00,2021-02-07T12:00:00+01:00,48.49,EUR,,MWh
Power,Intraday,Continuous,NL,ID3,HH,2021-02-07T12:00:00+01:00,2021-02-07T12:30:00+01:00,47.27,EUR,,MWh
Power,Intraday,Continuous,NL,ID3,HH,2021-02-07T12:30:00+01:00,2021-02-07T13:00:00+01:00,47.27,EUR,,MWh
Power,Intraday,Continuous,NL,ID3,HH,2021-02-07T13:00:00+01:00,2021-02-07T13:30:00+01:00,47.73,EUR,,MWh
Power,Intraday,Continuous,NL,ID3,HH,2021-02-07T13:30:00+01:00,2021-02-07T14:00:00+01:00,47.73,EUR,,MWh
Power,Intraday,Continuous,NL,ID3,HH,2021-02-07T14:00:00+01:00,2021-02-07T14:30:00+01:00,44.47,EUR,,MWh
Power,Intraday,Continuous,NL,ID3,HH,2021-02-07T14:30:00+01:00,2021-02-07T15:00:00+01:00,44.47,EUR,,MWh
Power,Intraday,Continuous,NL,ID3,HH,2021-02-07T15:00:00+01:00,2021-02-07T15:30:00+01:00,44.63,EUR,,MWh
Power,Intraday,Continuous,NL,ID3,HH,2021-02-07T15:30:00+01:00,2021-02-07T16:00:00+01:00,44.63,EUR,,MWh
Power,Intraday,Continuous,NL,ID3,HH,2021-02-07T16:00:00+01:00,2021-02-07T16:30:00+01:00,51.42,EUR,,MWh
Power,Intraday,Continuous,NL,ID3,HH,2021-02-07T16:30:00+01:00,2021-02-07T17:00:00+01:00,46.00,EUR,7.500,MWh
Power,Intraday,Continuous,NL,ID3,HH,2021-02-07T17:00:00+01:00,2021-02-07T17:30:00+01:00,42.56,EUR,,MWh
Power,Intraday,Continuous,NL,ID3,HH,2021-02-07T17:30:00+01:00,2021-02-07T18:00:00+01:00,70.70,EUR,5.000,MWh
Power,Intraday,Continuous,NL,ID3,HH,2021-02-07T18:00:00+01:00,2021-02-07T18:30:00+01:00,52.75,EUR,,MWh
Power,Intraday,Continuous,NL,ID3,HH,2021-02-07T18:30:00+01:00,2021-02-07T19:00:00+01:00,52.75,EUR,,MWh
Power,Intraday,Continuous,NL,ID3,HH,2021-02-07T19:00:00+01:00,2021-02-07T19:30:00+01:00,47.93,EUR,,MWh
Power,Intraday,Continuous,NL,ID3,HH,2021-02-07T19:30:00+01:00,2021-02-07T20:00:00+01:00,47.93,EUR,,MWh
Power,Intraday,Continuous,NL,ID3,HH,2021-02-07T20:00:00+01:00,2021-02-07T20:30:00+01:00,38.77,EUR,,MWh
Power,Intraday,Continuous,NL,ID3,HH,2021-02-07T20:30:00+01:00,2021-02-07T21:00:00+01:00,38.77,EUR,,MWh
Power,Intraday,Continuous,NL,ID3,HH,2021-02-07T21:00:00+01:00,2021-02-07T21:30:00+01:00,45.97,EUR,,MWh
Power,Intraday,Continuous,NL,ID3,HH,2021-02-07T21:30:00+01:00,2021-02-07T22:00:00+01:00,45.97,EUR,,MWh
Power,Intraday,Continuous,NL,ID3,HH,2021-02-07T22:00:00+01:00,2021-02-07T22:30:00+01:00,36.35,EUR,,MWh
Power,Intraday,Continuous,NL,ID3,HH,2021-02-07T22:30:00+01:00,2021-02-07T23:00:00+01:00,36.35,EUR,,MWh
Power,Intraday,Continuous,NL,ID3,HH,2021-02-07T23:00:00+01:00,2021-02-07T23:30:00+01:00,28.58,EUR,,MWh
Power,Intraday,Continuous,NL,ID3,HH,2021-02-07T23:30:00+01:00,2021-02-08T00:00:00+01:00,28.58,EUR,,MWh
Power,Intraday,Continuous,NL,IDFULL,QH,2021-02-07T00:00:00+01:00,2021-02-07T00:15:00+01:00,11.03,EUR,,MWh
Power,Intraday,Continuous,NL,IDFULL,QH,2021-02-07T00:15:00+01:00,2021-02-07T00:30:00+01:00,11.03,EUR,,MWh
Power,Intraday,Continuous,NL,IDFULL,QH,2021-02-07T00:30:00+01:00,2021-02-07T00:45:00+01:00,11.03,EUR,,MWh
Power,Intraday,Continuous,NL,IDFULL,QH,2021-02-07T00:45:00+01:00,2021-02-07T01:00:00+01:00,11.03,EUR,,MWh
Power,Intraday,Continuous,NL,IDFULL,QH,2021-02-07T01:00:00+01:00,2021-02-07T01:15:00+01:00,32.00,EUR,3.750,MWh
Power,Intraday,Continuous,NL,IDFULL,QH,2021-02-07T01:15:00+01:00,2021-02-07T01:30:00+01:00,30.47,EUR,,MWh
Power,Intraday,Continuous,NL,IDFULL,QH,2021-02-07T01:30:00+01:00,2021-02-07T01:45:00+01:00,30.47,EUR,,MWh
Power,Intraday,Continuous,NL,IDFULL,QH,2021-02-07T01:45:00+01:00,2021-02-07T02:00:00+01:00,30.47,EUR,,MWh
Power,Intraday,Continuous,NL,IDFULL,QH,2021-02-07T02:00:00+01:00,2021-02-07T02:15:00+01:00,5.67,EUR,,MWh
Power,Intraday,Continuous,NL,IDFULL,QH,2021-02-07T02:15:00+01:00,2021-02-07T02:30:00+01:00,5.67,EUR,,MWh
Power,Intraday,Continuous,NL,IDFULL,QH,2021-02-07T02:30:00+01:00,2021-02-07T02:45:00+01:00,5.67,EUR,,MWh
Power,Intraday,Continuous,NL,IDFULL,QH,2021-02-07T02:45:00+01:00,2021-02-07T03:00:00+01:00,5.67,EUR,,MWh
Power,Intraday,Continuous,NL,IDFULL,QH,2021-02-07T03:00:00+01:00,2021-02-07T03:15:00+01:00,-5.28,EUR,,MWh
Power,Intraday,Continuous,NL,IDFULL,QH,2021-02-07T03:15:00+01:00,2021-02-07T03:30:00+01:00,-5.28,EUR,,MWh
Power,Intraday,Continuous,NL,IDFULL,QH,2021-02-07T03:30:00+01:00,2021-02-07T03:45:00+01:00,-5.28,EUR,,MWh
Power,Intraday,Continuous,NL,IDFULL,QH,2021-02-07T03:45:00+01:00,2021-02-07T04:00:00+01:00,-5.28,EUR,,MWh
Power,Intraday,Continuous,NL,IDFULL,QH,2021-02-07T04:00:00+01:00,2021-02-07T04:15:00+01:00,-2.06,EUR,,MWh
Power,Intraday,Continuous,NL,IDFULL,QH,2021-02-07T04:15:00+01:00,2021-02-07T04:30:00+01:00,-2.06,EUR,,MWh
Power,Intraday,Continuous,NL,IDFULL,QH,2021-02-07T04:30:00+01:00,2021-02-07T04:45:00+01:00,-2.06,EUR,,MWh
Power,Intraday,Continuous,NL,IDFULL,QH,2021-02-07T04:45:00+01:00,2021-02-07T05:00:00+01:00,-2.06,EUR,,MWh
Power,Intraday,Continuous,NL,IDFULL,QH,2021-02-07T05:00:00+01:00,2021-02-07T05:15:00+01:00,-0.89,EUR,,MWh
Power,Intraday,Continuous,NL,IDFULL,QH,2021-02-07T05:15:00+01:00,2021-02-07T05:30:00+01:00,-0.89,EUR,,MWh
Power,Intraday,Continuous,NL,IDFULL,QH,2021-02-07T05:30:00+01:00,2021-02-07T05:45:00+01:00,-0.89,EUR,,MWh
Power,Intraday,Continuous,NL,IDFULL,QH,2021-02-07T05:45:00+01:00,2021-02-07T06:00:00+01:00,-0.89,EUR,,MWh
Power,Intraday,Continuous,NL,IDFULL,QH,2021-02-07T06:00:00+01:00,2021-02-07T06:15:00+01:00,-4.17,EUR,,MWh
Power,Intraday,Continuous,NL,IDFULL,QH,2021-02-07T06:15:00+01:00,2021-02-07T06:30:00+01:00,-4.17,EUR,,MWh
Power,Intraday,Continuous,NL,IDFULL,QH,2021-02-07T06:30:00+01:00,2021-02-07T06:45:00+01:00,-4.17,EUR,,MWh
Power,Intraday,Continuous,NL,IDFULL,QH,2021-02-07T06:45:00+01:00,2021-02-07T07:00:00+01:00,-4.17,EUR,,MWh
Power,Intraday,Continuous,NL,IDFULL,QH,2021-02-07T07:00:00+01:00,2021-02-07T07:15:00+01:00,0.00,EUR,5.000,MWh
Power,Intraday,Continuous,NL,IDFULL,QH,2021-02-07T07:15:00+01:00,2021-02-07T07:30:00+01:00,-10.31,EUR,,MWh
Power,Intraday,Continuous,NL,IDFULL,QH,2021-02-07T07:30:00+01:00,2021-02-07T07:45:00+01:00,-10.31,EUR,,MWh
Power,Intraday,Continuous,NL,IDFULL,QH,2021-02-07T07:45:00+01:00,2021-02-07T08:00:00+01:00,38.10,EUR,7.200,MWh
Power,Intraday,Continuous,NL,IDFULL,QH,2021-02-07T08:00:00+01:00,2021-02-07T08:15:00+01:00,19.23,EUR,,MWh
Power,Intraday,Continuous,NL,IDFULL,QH,2021-02-07T08:15:00+01:00,2021-02-07T08:30:00+01:00,19.23,EUR,,MWh
Power,Intraday,Continuous,NL,IDFULL,QH,2021-02-07T08:30:00+01:00,2021-02-07T08:45:00+01:00,19.23,EUR,,MWh
Power,Intraday,Continuous,NL,IDFULL,QH,2021-02-07T08:45:00+01:00,2021-02-07T09:00:00+01:00,19.23,EUR,,MWh
Power,Intraday,Continuous,NL,IDFULL,QH,2021-02-07T09:00:00+01:00,2021-02-07T09:15:00+01:00,13.04,EUR,2.750,MWh
Power,Intraday,Continuous,NL,IDFULL,QH,2021-02-07T09:15:00+01:00,2021-02-07T09:30:00+01:00,18.52,EUR,2.750,MWh
Power,Intraday,Continuous,NL,IDFULL,QH,2021-02-07T09:30:00+01:00,2021-02-07T09:45:00+01:00,23.50,EUR,12.580,MWh
Power,Intraday,Continuous,NL,IDFULL,QH,2021-02-07T09:45:00+01:00,2021-02-07T10:00:00+01:00,33.70,EUR,15.780,MWh
Power,Intraday,Continuous,NL,IDFULL,QH,2021-02-07T10:00:00+01:00,2021-02-07T10:15:00+01:00,48.64,EUR,,MWh
Power,Intraday,Continuous,NL,IDFULL,QH,2021-02-07T10:15:00+01:00,2021-02-07T10:30:00+01:00,27.86,EUR,5.180,MWh
Power,Intraday,Continuous,NL,IDFULL,QH,2021-02-07T10:30:00+01:00,2021-02-07T10:45:00+01:00,41.50,EUR,9.550,MWh
Power,Intraday,Continuous,NL,IDFULL,QH,2021-02-07T10:45:00+01:00,2021-02-07T11:00:00+01:00,43.96,EUR,10.880,MWh
Power,Intraday,Continuous,NL,IDFULL,QH,2021-02-07T11:00:00+01:00,2021-02-07T11:15:00+01:00,52.36,EUR,,MWh
Power,Intraday,Continuous,NL,IDFULL,QH,2021-02-07T11:15:00+01:00,2021-02-07T11:30:00+01:00,52.36,EUR,,MWh
Power,Intraday,Continuous,NL,IDFULL,QH,2021-02-07T11:30:00+01:00,2021-02-07T11:45:00+01:00,45.31,EUR,3.000,MWh
Power,Intraday,Continuous,NL,IDFULL,QH,2021-02-07T11:45:00+01:00,2021-02-07T12:00:00+01:00,43.94,EUR,3.750,MWh
Power,Intraday,Continuous,NL,IDFULL,QH,2021-02-07T12:00:00+01:00,2021-02-07T12:15:00+01:00,48.12,EUR,2.500,MWh
Power,Intraday,Continuous,NL,IDFULL,QH,2021-02-07T12:15:00+01:00,2021-02-07T12:30:00+01:00,46.99,EUR,,MWh
Power,Intraday,Continuous,NL,IDFULL,QH,2021-02-07T12:30:00+01:00,2021-02-07T12:45:00+01:00,46.99,EUR,,MWh
Power,Intraday,Continuous,NL,IDFULL,QH,2021-02-07T12:45:00+01:00,2021-02-07T13:00:00+01:00,46.99,EUR,,MWh
Power,Intraday,Continuous,NL,IDFULL,QH,2021-02-07T13:00:00+01:00,2021-02-07T13:15:00+01:00,47.73,EUR,,MWh
Power,Intraday,Continuous,NL,IDFULL,QH,2021-02-07T13:15:00+01:00,2021-02-07T13:30:00+01:00,47.73,EUR,,MWh
Power,Intraday,Continuous,NL,IDFULL,QH,2021-02-07T13:30:00+01:00,2021-02-07T13:45:00+01:00,47.73,EUR,,MWh
Power,Intraday,Continuous,NL,IDFULL,QH,2021-02-07T13:45:00+01:00,2021-02-07T14:00:00+01:00,47.73,EUR,,MWh
Power,Intraday,Continuous,NL,IDFULL,QH,2021-02-07T14:00:00+01:00,2021-02-07T14:15:00+01:00,41.44,EUR,7.500,MWh
Power,Intraday,Continuous,NL,IDFULL,QH,2021-02-07T14:15:00+01:00,2021-02-07T14:30:00+01:00,45.48,EUR,,MWh
Power,Intraday,Continuous,NL,IDFULL,QH,2021-02-07T14:30:00+01:00,2021-02-07T14:45:00+01:00,45.48,EUR,,MWh
Power,Intraday,Continuous,NL,IDFULL,QH,2021-02-07T14:45:00+01:00,2021-02-07T15:00:00+01:00,45.48,EUR,,MWh
Power,Intraday,Continuous,NL,IDFULL,QH,2021-02-07T15:00:00+01:00,2021-02-07T15:15:00+01:00,44.63,EUR,,MWh
Power,Intraday,Continuous,NL,IDFULL,QH,2021-02-07T15:15:00+01:00,2021-02-07T15:30:00+01:00,44.63,EUR,,MWh
Power,Intraday,Continuous,NL,IDFULL,QH,2021-02-07T15:30:00+01:00,2021-02-07T15:45:00+01:00,44.63,EUR,,MWh
Power,Intraday,Continuous,NL,IDFULL,QH,2021-02-07T15:45:00+01:00,2021-02-07T16:00:00+01:00,44.63,EUR,,MWh
Power,Intraday,Continuous,NL,IDFULL,QH,2021-02-07T16:00:00+01:00,2021-02-07T16:15:00+01:00,17.82,EUR,15.950,MWh
Power,Intraday,Continuous,NL,IDFULL,QH,2021-02-07T16:15:00+01:00,2021-02-07T16:30:00+01:00,34.96,EUR,5.200,MWh
Power,Intraday,Continuous,NL,IDFULL,QH,2021-02-07T16:30:00+01:00,2021-02-07T16:45:00+01:00,46.50,EUR,8.630,MWh
Power,Intraday,Continuous,NL,IDFULL,QH,2021-02-07T16:45:00+01:00,2021-02-07T17:00:00+01:00,50.00,EUR,5.000,MWh
Power,Intraday,Continuous,NL,IDFULL,QH,2021-02-07T17:00:00+01:00,2021-02-07T17:15:00+01:00,16.84,EUR,110.730,MWh
Power,Intraday,Continuous,NL,IDFULL,QH,2021-02-07T17:15:00+01:00,2021-02-07T17:30:00+01:00,34.86,EUR,79.480,MWh
Power,Intraday,Continuous,NL,IDFULL,QH,2021-02-07T17:30:00+01:00,2021-02-07T17:45:00+01:00,46.09,EUR,41.600,MWh
Power,Intraday,Continuous,NL,IDFULL,QH,2021-02-07T17:45:00+01:00,2021-02-07T18:00:00+01:00,75.43,EUR,35.580,MWh
Power,Intraday,Continuous,NL,IDFULL,QH,2021-02-07T18:00:00+01:00,2021-02-07T18:15:00+01:00,51.83,EUR,15.580,MWh
Power,Intraday,Continuous,NL,IDFULL,QH,2021-02-07T18:15:00+01:00,2021-02-07T18:30:00+01:00,44.49,EUR,7.530,MWh
Power,Intraday,Continuous,NL,IDFULL,QH,2021-02-07T18:30:00+01:00,2021-02-07T18:45:00+01:00,46.67,EUR,13.800,MWh
Power,Intraday,Continuous,NL,IDFULL,QH,2021-02-07T18:45:00+01:00,2021-02-07T19:00:00+01:00,42.48,EUR,35.730,MWh
Power,Intraday,Continuous,NL,IDFULL,QH,2021-02-07T19:00:00+01:00,2021-02-07T19:15:00+01:00,61.79,EUR,17.480,MWh
Power,Intraday,Continuous,NL,IDFULL,QH,2021-02-07T19:15:00+01:00,2021-02-07T19:30:00+01:00,46.66,EUR,14.730,MWh
Power,Intraday,Continuous,NL,IDFULL,QH,2021-02-07T19:30:00+01:00,2021-02-07T19:45:00+01:00,32.32,EUR,21.480,MWh
Power,Intraday,Continuous,NL,IDFULL,QH,2021-02-07T19:45:00+01:00,2021-02-07T20:00:00+01:00,29.70,EUR,14.980,MWh
Power,Intraday,Continuous,NL,IDFULL,QH,2021-02-07T20:00:00+01:00,2021-02-07T20:15:00+01:00,52.00,EUR,15.930,MWh
Power,Intraday,Continuous,NL,IDFULL,QH,2021-02-07T20:15:00+01:00,2021-02-07T20:30:00+01:00,44.87,EUR,11.250,MWh
Power,Intraday,Continuous,NL,IDFULL,QH,2021-02-07T20:30:00+01:00,2021-02-07T20:45:00+01:00,26.11,EUR,8.150,MWh
Power,Intraday,Continuous,NL,IDFULL,QH,2021-02-07T20:45:00+01:00,2021-02-07T21:00:00+01:00,26.46,EUR,12.800,MWh
Power,Intraday,Continuous,NL,IDFULL,QH,2021-02-07T21:00:00+01:00,2021-02-07T21:15:00+01:00,30.57,EUR,26.530,MWh
Power,Intraday,Continuous,NL,IDFULL,QH,2021-02-07T21:15:00+01:00,2021-02-07T21:30:00+01:00,39.14,EUR,23.430,MWh
Power,Intraday,Continuous,NL,IDFULL,QH,2021-02-07T21:30:00+01:00,2021-02-07T21:45:00+01:00,29.29,EUR,4.050,MWh
Power,Intraday,Continuous,NL,IDFULL,QH,2021-02-07T21:45:00+01:00,2021-02-07T22:00:00+01:00,33.47,EUR,13.700,MWh
Power,Intraday,Continuous,NL,IDFULL,QH,2021-02-07T22:00:00+01:00,2021-02-07T22:15:00+01:00,47.62,EUR,29.980,MWh
Power,Intraday,Continuous,NL,IDFULL,QH,2021-02-07T22:15:00+01:00,2021-02-07T22:30:00+01:00,45.78,EUR,34.980,MWh
Power,Intraday,Continuous,NL,IDFULL,QH,2021-02-07T22:30:00+01:00,2021-02-07T22:45:00+01:00,25.90,EUR,27.450,MWh
Power,Intraday,Continuous,NL,IDFULL,QH,2021-02-07T22:45:00+01:00,2021-02-07T23:00:00+01:00,15.89,EUR,37.130,MWh
Power,Intraday,Continuous,NL,IDFULL,QH,2021-02-07T23:00:00+01:00,2021-02-07T23:15:00+01:00,48.39,EUR,7.500,MWh
Power,Intraday,Continuous,NL,IDFULL,QH,2021-02-07T23:15:00+01:00,2021-02-07T23:30:00+01:00,40.41,EUR,6.380,MWh
Power,Intraday,Continuous,NL,IDFULL,QH,2021-02-07T23:30:00+01:00,2021-02-07T23:45:00+01:00,13.40,EUR,3.580,MWh
Power,Intraday,Continuous,NL,IDFULL,QH,2021-02-07T23:45:00+01:00,2021-02-08T00:00:00+01:00,0.17,EUR,10.430,MWh
Power,Intraday,Continuous,NL,ID1,QH,2021-02-07T00:00:00+01:00,2021-02-07T00:15:00+01:00,11.03,EUR,,MWh
Power,Intraday,Continuous,NL,ID1,QH,2021-02-07T00:15:00+01:00,2021-02-07T00:30:00+01:00,11.03,EUR,,MWh
Power,Intraday,Continuous,NL,ID1,QH,2021-02-07T00:30:00+01:00,2021-02-07T00:45:00+01:00,11.03,EUR,,MWh
Power,Intraday,Continuous,NL,ID1,QH,2021-02-07T00:45:00+01:00,2021-02-07T01:00:00+01:00,11.03,EUR,,MWh
Power,Intraday,Continuous,NL,ID1,QH,2021-02-07T01:00:00+01:00,2021-02-07T01:15:00+01:00,32.00,EUR,3.750,MWh
Power,Intraday,Continuous,NL,ID1,QH,2021-02-07T01:15:00+01:00,2021-02-07T01:30:00+01:00,30.47,EUR,,MWh
Power,Intraday,Continuous,NL,ID1,QH,2021-02-07T01:30:00+01:00,2021-02-07T01:45:00+01:00,30.47,EUR,,MWh
Power,Intraday,Continuous,NL,ID1,QH,2021-02-07T01:45:00+01:00,2021-02-07T02:00:00+01:00,30.47,EUR,,MWh
Power,Intraday,Continuous,NL,ID1,QH,2021-02-07T02:00:00+01:00,2021-02-07T02:15:00+01:00,5.67,EUR,,MWh
Power,Intraday,Continuous,NL,ID1,QH,2021-02-07T02:15:00+01:00,2021-02-07T02:30:00+01:00,5.67,EUR,,MWh
Power,Intraday,Continuous,NL,ID1,QH,2021-02-07T02:30:00+01:00,2021-02-07T02:45:00+01:00,5.67,EUR,,MWh
Power,Intraday,Continuous,NL,ID1,QH,2021-02-07T02:45:00+01:00,2021-02-07T03:00:00+01:00,5.67,EUR,,MWh
Power,Intraday,Continuous,NL,ID1,QH,2021-02-07T03:00:00+01:00,2021-02-07T03:15:00+01:00,-5.28,EUR,,MWh
Power,Intraday,Continuous,NL,ID1,QH,2021-02-07T03:15:00+01:00,2021-02-07T03:30:00+01:00,-5.28,EUR,,MWh
Power,Intraday,Continuous,NL,ID1,QH,2021-02-07T03:30:00+01:00,2021-02-07T03:45:00+01:00,-5.28,EUR,,MWh
Power,Intraday,Continuous,NL,ID1,QH,2021-02-07T03:45:00+01:00,2021-02-07T04:00:00+01:00,-5.28,EUR,,MWh
Power,Intraday,Continuous,NL,ID1,QH,2021-02-07T04:00:00+01:00,2021-02-07T04:15:00+01:00,-2.06,EUR,,MWh
Power,Intraday,Continuous,NL,ID1,QH,2021-02-07T04:15:00+01:00,2021-02-07T04:30:00+01:00,-2.06,EUR,,MWh
Power,Intraday,Continuous,NL,ID1,QH,2021-02-07T04:30:00+01:00,2021-02-07T04:45:00+01:00,-2.06,EUR,,MWh
Power,Intraday,Continuous,NL,ID1,QH,2021-02-07T04:45:00+01:00,2021-02-07T05:00:00+01:00,-2.06,EUR,,MWh
Power,Intraday,Continuous,NL,ID1,QH,2021-02-07T05:00:00+01:00,2021-02-07T05:15:00+01:00,-0.89,EUR,,MWh
Power,Intraday,Continuous,NL,ID1,QH,2021-02-07T05:15:00+01:00,2021-02-07T05:30:00+01:00,-0.89,EUR,,MWh
Power,Intraday,Continuous,NL,ID1,QH,2021-02-07T05:30:00+01:00,2021-02-07T05:45:00+01:00,-0.89,EUR,,MWh
Power,Intraday,Continuous,NL,ID1,QH,2021-02-07T05:45:00+01:00,2021-02-07T06:00:00+01:00,-0.89,EUR,,MWh
Power,Intraday,Continuous,NL,ID1,QH,2021-02-07T06:00:00+01:00,2021-02-07T06:15:00+01:00,-4.17,EUR,,MWh
Power,Intraday,Continuous,NL,ID1,QH,2021-02-07T06:15:00+01:00,2021-02-07T06:30:00+01:00,-4.17,EUR,,MWh
Power,Intraday,Continuous,NL,ID1,QH,2021-02-07T06:30:00+01:00,2021-02-07T06:45:00+01:00,-4.17,EUR,,MWh
Power,Intraday,Continuous,NL,ID1,QH,2021-02-07T06:45:00+01:00,2021-02-07T07:00:00+01:00,-4.17,EUR,,MWh
Power,Intraday,Continuous,NL,ID1,QH,2021-02-07T07:00:00+01:00,2021-02-07T07:15:00+01:00,0.00,EUR,5.000,MWh
Power,Intraday,Continuous,NL,ID1,QH,2021-02-07T07:15:00+01:00,2021-02-07T07:30:00+01:00,-10.31,EUR,,MWh
Power,Intraday,Continuous,NL,ID1,QH,2021-02-07T07:30:00+01:00,2021-02-07T07:45:00+01:00,-10.31,EUR,,MWh
Power,Intraday,Continuous,NL,ID1,QH,2021-02-07T07:45:00+01:00,2021-02-07T08:00:00+01:00,38.10,EUR,7.200,MWh
Power,Intraday,Continuous,NL,ID1,QH,2021-02-07T08:00:00+01:00,2021-02-07T08:15:00+01:00,19.23,EUR,,MWh
Power,Intraday,Continuous,NL,ID1,QH,2021-02-07T08:15:00+01:00,2021-02-07T08:30:00+01:00,19.23,EUR,,MWh
Power,Intraday,Continuous,NL,ID1,QH,2021-02-07T08:30:00+01:00,2021-02-07T08:45:00+01:00,19.23,EUR,,MWh
Power,Intraday,Continuous,NL,ID1,QH,2021-02-07T08:45:00+01:00,2021-02-07T09:00:00+01:00,19.23,EUR,,MWh
Power,Intraday,Continuous,NL,ID1,QH,2021-02-07T09:00:00+01:00,2021-02-07T09:15:00+01:00,13.04,EUR,,MWh
Power,Intraday,Continuous,NL,ID1,QH,2021-02-07T09:15:00+01:00,2021-02-07T09:30:00+01:00,18.52,EUR,,MWh
Power,Intraday,Continuous,NL,ID1,QH,2021-02-07T09:30:00+01:00,2021-02-07T09:45:00+01:00,23.50,EUR,,MWh
Power,Intraday,Continuous,NL,ID1,QH,2021-02-07T09:45:00+01:00,2021-02-07T10:00:00+01:00,33.70,EUR,,MWh
Power,Intraday,Continuous,NL,ID1,QH,2021-02-07T10:00:00+01:00,2021-02-07T10:15:00+01:00,48.64,EUR,,MWh
Power,Intraday,Continuous,NL,ID1,QH,2021-02-07T10:15:00+01:00,2021-02-07T10:30:00+01:00,27.86,EUR,,MWh
Power,Intraday,Continuous,NL,ID1,QH,2021-02-07T10:30:00+01:00,2021-02-07T10:45:00+01:00,41.50,EUR,,MWh
Power,Intraday,Continuous,NL,ID1,QH,2021-02-07T10:45:00+01:00,2021-02-07T11:00:00+01:00,43.96,EUR,,MWh
Power,Intraday,Continuous,NL,ID1,QH,2021-02-07T11:00:00+01:00,2021-02-07T11:15:00+01:00,52.36,EUR,,MWh
Power,Intraday,Continuous,NL,ID1,QH,2021-02-07T11:15:00+01:00,2021-02-07T11:30:00+01:00,52.36,EUR,,MWh
Power,Intraday,Continuous,NL,ID1,QH,2021-02-07T11:30:00+01:00,2021-02-07T11:45:00+01:00,45.31,EUR,,MWh
Power,Intraday,Continuous,NL,ID1,QH,2021-02-07T11:45:00+01:00,2021-02-07T12:00:00+01:00,43.94,EUR,,MWh
Power,Intraday,Continuous,NL,ID1,QH,2021-02-07T12:00:00+01:00,2021-02-07T12:15:00+01:00,48.12,EUR,,MWh
Power,Intraday,Continuous,NL,ID1,QH,2021-02-07T12:15:00+01:00,2021-02-07T12:30:00+01:00,46.99,EUR,,MWh
Power,Intraday,Continuous,NL,ID1,QH,2021-02-07T12:30:00+01:00,2021-02-07T12:45:00+01:00,46.99,EUR,,MWh
Power,Intraday,Continuous,NL,ID1,QH,2021-02-07T12:45:00+01:00,2021-02-07T13:00:00+01:00,46.99,EUR,,MWh
Power,Intraday,Continuous,NL,ID1,QH,2021-02-07T13:00:00+01:00,2021-02-07T13:15:00+01:00,47.73,EUR,,MWh
Power,Intraday,Continuous,NL,ID1,QH,2021-02-07T13:15:00+01:00,2021-02-07T13:30:00+01:00,47.73,EUR,,MWh
Power,Intraday,Continuous,NL,ID1,QH,2021-02-07T13:30:00+01:00,2021-02-07T13:45:00+01:00,47.73,EUR,,MWh
Power,Intraday,Continuous,NL,ID1,QH,2021-02-07T13:45:00+01:00,2021-02-07T14:00:00+01:00,47.73,EUR,,MWh
Power,Intraday,Continuous,NL,ID1,QH,2021-02-07T14:00:00+01:00,2021-02-07T14:15:00+01:00,41.44,EUR,,MWh
Power,Intraday,Continuous,NL,ID1,QH,2021-02-07T14:15:00+01:00,2021-02-07T14:30:00+01:00,45.48,EUR,,MWh
Power,Intraday,Continuous,NL,ID1,QH,2021-02-07T14:30:00+01:00,2021-02-07T14:45:00+01:00,45.48,EUR,,MWh
Power,Intraday,Continuous,NL,ID1,QH,2021-02-07T14:45:00+01:00,2021-02-07T15:00:00+01:00,45.48,EUR,,MWh
Power,Intraday,Continuous,NL,ID1,QH,2021-02-07T15:00:00+01:00,2021-02-07T15:15:00+01:00,44.63,EUR,,MWh
Power,Intraday,Continuous,NL,ID1,QH,2021-02-07T15:15:00+01:00,2021-02-07T15:30:00+01:00,44.63,EUR,,MWh
Power,Intraday,Continuous,NL,ID1,QH,2021-02-07T15:30:00+01:00,2021-02-07T15:45:00+01:00,44.63,EUR,,MWh
Power,Intraday,Continuous,NL,ID1,QH,2021-02-07T15:45:00+01:00,2021-02-07T16:00:00+01:00,44.63,EUR,,MWh
Power,Intraday,Continuous,NL,ID1,QH,2021-02-07T16:00:00+01:00,2021-02-07T16:15:00+01:00,17.61,EUR,,MWh
Power,Intraday,Continuous,NL,ID1,QH,2021-02-07T16:15:00+01:00,2021-02-07T16:30:00+01:00,34.96,EUR,,MWh
Power,Intraday,Continuous,NL,ID1,QH,2021-02-07T16:30:00+01:00,2021-02-07T16:45:00+01:00,46.50,EUR,,MWh
Power,Intraday,Continuous,NL,ID1,QH,2021-02-07T16:45:00+01:00,2021-02-07T17:00:00+01:00,50.00,EUR,,MWh
Power,Intraday,Continuous,NL,ID1,QH,2021-02-07T17:00:00+01:00,2021-02-07T17:15:00+01:00,19.70,EUR,,MWh
Power,Intraday,Continuous,NL,ID1,QH,2021-02-07T17:15:00+01:00,2021-02-07T17:30:00+01:00,35.25,EUR,,MWh
Power,Intraday,Continuous,NL,ID1,QH,2021-02-07T17:30:00+01:00,2021-02-07T17:45:00+01:00,46.09,EUR,,MWh
Power,Intraday,Continuous,NL,ID1,QH,2021-02-07T17:45:00+01:00,2021-02-07T18:00:00+01:00,75.43,EUR,,MWh
Power,Intraday,Continuous,NL,ID1,QH,2021-02-07T18:00:00+01:00,2021-02-07T18:15:00+01:00,51.83,EUR,,MWh
Power,Intraday,Continuous,NL,ID1,QH,2021-02-07T18:15:00+01:00,2021-02-07T18:30:00+01:00,44.49,EUR,,MWh
Power,Intraday,Continuous,NL,ID1,QH,2021-02-07T18:30:00+01:00,2021-02-07T18:45:00+01:00,46.67,EUR,,MWh
Power,Intraday,Continuous,NL,ID1,QH,2021-02-07T18:45:00+01:00,2021-02-07T19:00:00+01:00,63.60,EUR,3.750,MWh
Power,Intraday,Continuous,NL,ID1,QH,2021-02-07T19:00:00+01:00,2021-02-07T19:15:00+01:00,61.79,EUR,,MWh
Power,Intraday,Continuous,NL,ID1,QH,2021-02-07T19:15:00+01:00,2021-02-07T19:30:00+01:00,46.66,EUR,,MWh
Power,Intraday,Continuous,NL,ID1,QH,2021-02-07T19:30:00+01:00,2021-02-07T19:45:00+01:00,32.32,EUR,,MWh
Power,Intraday,Continuous,NL,ID1,QH,2021-02-07T19:45:00+01:00,2021-02-07T20:00:00+01:00,29.70,EUR,,MWh
Power,Intraday,Continuous,NL,ID1,QH,2021-02-07T20:00:00+01:00,2021-02-07T20:15:00+01:00,52.00,EUR,,MWh
Power,Intraday,Continuous,NL,ID1,QH,2021-02-07T20:15:00+01:00,2021-02-07T20:30:00+01:00,44.87,EUR,,MWh
Power,Intraday,Continuous,NL,ID1,QH,2021-02-07T20:30:00+01:00,2021-02-07T20:45:00+01:00,28.04,EUR,,MWh
Power,Intraday,Continuous,NL,ID1,QH,2021-02-07T20:45:00+01:00,2021-02-07T21:00:00+01:00,30.99,EUR,,MWh
Power,Intraday,Continuous,NL,ID1,QH,2021-02-07T21:00:00+01:00,2021-02-07T21:15:00+01:00,30.57,EUR,,MWh
Power,Intraday,Continuous,NL,ID1,QH,2021-02-07T21:15:00+01:00,2021-02-07T21:30:00+01:00,39.14,EUR,,MWh
Power,Intraday,Continuous,NL,ID1,QH,2021-02-07T21:30:00+01:00,2021-02-07T21:45:00+01:00,29.29,EUR,,MWh
Power,Intraday,Continuous,NL,ID1,QH,2021-02-07T21:45:00+01:00,2021-02-07T22:00:00+01:00,38.06,EUR,,MWh
Power,Intraday,Continuous,NL,ID1,QH,2021-02-07T22:00:00+01:00,2021-02-07T22:15:00+01:00,48.49,EUR,,MWh
Power,Intraday,Continuous,NL,ID1,QH,2021-02-07T22:15:00+01:00,2021-02-07T22:30:00+01:00,46.67,EUR,,MWh
Power,Intraday,Continuous,NL,ID1,QH,2021-02-07T22:30:00+01:00,2021-02-07T22:45:00+01:00,23.59,EUR,,MWh
Power,Intraday,Continuous,NL,ID1,QH,2021-02-07T22:45:00+01:00,2021-02-07T23:00:00+01:00,9.94,EUR,,MWh
Power,Intraday,Continuous,NL,ID1,QH,2021-02-07T23:00:00+01:00,2021-02-07T23:15:00+01:00,48.78,EUR,,MWh
Power,Intraday,Continuous,NL,ID1,QH,2021-02-07T23:15:00+01:00,2021-02-07T23:30:00+01:00,40.24,EUR,,MWh
Power,Intraday,Continuous,NL,ID1,QH,2021-02-07T23:30:00+01:00,2021-02-07T23:45:00+01:00,13.40,EUR,,MWh
Power,Intraday,Continuous,NL,ID1,QH,2021-02-07T23:45:00+01:00,2021-02-08T00:00:00+01:00,5.14,EUR,,MWh
Power,Intraday,Continuous,NL,ID3,QH,2021-02-07T00:00:00+01:00,2021-02-07T00:15:00+01:00,11.03,EUR,,MWh
Power,Intraday,Continuous,NL,ID3,QH,2021-02-07T00:15:00+01:00,2021-02-07T00:30:00+01:00,11.03,EUR,,MWh
Power,Intraday,Continuous,NL,ID3,QH,2021-02-07T00:30:00+01:00,2021-02-07T00:45:00+01:00,11.03,EUR,,MWh
Power,Intraday,Continuous,NL,ID3,QH,2021-02-07T00:45:00+01:00,2021-02-07T01:00:00+01:00,11.03,EUR,,MWh
Power,Intraday,Continuous,NL,ID3,QH,2021-02-07T01:00:00+01:00,2021-02-07T01:15:00+01:00,32.00,EUR,3.750,MWh
Power,Intraday,Continuous,NL,ID3,QH,2021-02-07T01:15:00+01:00,2021-02-07T01:30:00+01:00,30.47,EUR,,MWh
Power,Intraday,Continuous,NL,ID3,QH,2021-02-07T01:30:00+01:00,2021-02-07T01:45:00+01:00,30.47,EUR,,MWh
Power,Intraday,Continuous,NL,ID3,QH,2021-02-07T01:45:00+01:00,2021-02-07T02:00:00+01:00,30.47,EUR,,MWh
Power,Intraday,Continuous,NL,ID3,QH,2021-02-07T02:00:00+01:00,2021-02-07T02:15:00+01:00,5.67,EUR,,MWh
Power,Intraday,Continuous,NL,ID3,QH,2021-02-07T02:15:00+01:00,2021-02-07T02:30:00+01:00,5.67,EUR,,MWh
Power,Intraday,Continuous,NL,ID3,QH,2021-02-07T02:30:00+01:00,2021-02-07T02:45:00+01:00,5.67,EUR,,MWh
Power,Intraday,Continuous,NL,ID3,QH,2021-02-07T02:45:00+01:00,2021-02-07T03:00:00+01:00,5.67,EUR,,MWh
Power,Intraday,Continuous,NL,ID3,QH,2021-02-07T03:00:00+01:00,2021-02-07T03:15:00+01:00,-5.28,EUR,,MWh
Power,Intraday,Continuous,NL,ID3,QH,2021-02-07T03:15:00+01:00,2021-02-07T03:30:00+01:00,-5.28,EUR,,MWh
Power,Intraday,Continuous,NL,ID3,QH,2021-02-07T03:30:00+01:00,2021-02-07T03:45:00+01:00,-5.28,EUR,,MWh
Power,Intraday,Continuous,NL,ID3,QH,2021-02-07T03:45:00+01:00,2021-02-07T04:00:00+01:00,-5.28,EUR,,MWh
Power,Intraday,Continuous,NL,ID3,QH,2021-02-07T04:00:00+01:00,2021-02-07T04:15:00+01:00,-2.06,EUR,,MWh
Power,Intraday,Continuous,NL,ID3,QH,2021-02-07T04:15:00+01:00,2021-02-07T04:30:00+01:00,-2.06,EUR,,MWh
Power,Intraday,Continuous,NL,ID3,QH,2021-02-07T04:30:00+01:00,2021-02-07T04:45:00+01:00,-2.06,EUR,,MWh
Power,Intraday,Continuous,NL,ID3,QH,2021-02-07T04:45:00+01:00,2021-02-07T05:00:00+01:00,-2.06,EUR,,MWh
Power,Intraday,Continuous,NL,ID3,QH,2021-02-07T05:00:00+01:00,2021-02-07T05:15:00+01:00,-0.89,EUR,,MWh
Power,Intraday,Continuous,NL,ID3,QH,2021-02-07T05:15:00+01:00,2021-02-07T05:30:00+01:00,-0.89,EUR,,MWh
Power,Intraday,Continuous,NL,ID3,QH,2021-02-07T05:30:00+01:00,2021-02-07T05:45:00+01:00,-0.89,EUR,,MWh
Power,Intraday,Continuous,NL,ID3,QH,2021-02-07T05:45:00+01:00,2021-02-07T06:00:00+01:00,-0.89,EUR,,MWh
Power,Intraday,Continuous,NL,ID3,QH,2021-02-07T06:00:00+01:00,2021-02-07T06:15:00+01:00,-4.17,EUR,,MWh
Power,Intraday,Continuous,NL,ID3,QH,2021-02-07T06:15:00+01:00,2021-02-07T06:30:00+01:00,-4.17,EUR,,MWh
Power,Intraday,Continuous,NL,ID3,QH,2021-02-07T06:30:00+01:00,2021-02-07T06:45:00+01:00,-4.17,EUR,,MWh
Power,Intraday,Continuous,NL,ID3,QH,2021-02-07T06:45:00+01:00,2021-02-07T07:00:00+01:00,-4.17,EUR,,MWh
Power,Intraday,Continuous,NL,ID3,QH,2021-02-07T07:00:00+01:00,2021-02-07T07:15:00+01:00,0.00,EUR,5.000,MWh
Power,Intraday,Continuous,NL,ID3,QH,2021-02-07T07:15:00+01:00,2021-02-07T07:30:00+01:00,-10.31,EUR,,MWh
Power,Intraday,Continuous,NL,ID3,QH,2021-02-07T07:30:00+01:00,2021-02-07T07:45:00+01:00,-10.31,EUR,,MWh
Power,Intraday,Continuous,NL,ID3,QH,2021-02-07T07:45:00+01:00,2021-02-07T08:00:00+01:00,38.10,EUR,7.200,MWh
Power,Intraday,Continuous,NL,ID3,QH,2021-02-07T08:00:00+01:00,2021-02-07T08:15:00+01:00,19.23,EUR,,MWh
Power,Intraday,Continuous,NL,ID3,QH,2021-02-07T08:15:00+01:00,2021-02-07T08:30:00+01:00,19.23,EUR,,MWh
Power,Intraday,Continuous,NL,ID3,QH,2021-02-07T08:30:00+01:00,2021-02-07T08:45:00+01:00,19.23,EUR,,MWh
Power,Intraday,Continuous,NL,ID3,QH,2021-02-07T08:45:00+01:00,2021-02-07T09:00:00+01:00,19.23,EUR,,MWh
Power,Intraday,Continuous,NL,ID3,QH,2021-02-07T09:00:00+01:00,2021-02-07T09:15:00+01:00,13.04,EUR,2.750,MWh
Power,Intraday,Continuous,NL,ID3,QH,2021-02-07T09:15:00+01:00,2021-02-07T09:30:00+01:00,18.52,EUR,2.750,MWh
Power,Intraday,Continuous,NL,ID3,QH,2021-02-07T09:30:00+01:00,2021-02-07T09:45:00+01:00,23.50,EUR,12.580,MWh
Power,Intraday,Continuous,NL,ID3,QH,2021-02-07T09:45:00+01:00,2021-02-07T10:00:00+01:00,33.70,EUR,15.780,MWh
Power,Intraday,Continuous,NL,ID3,QH,2021-02-07T10:00:00+01:00,2021-02-07T10:15:00+01:00,48.64,EUR,,MWh
Power,Intraday,Continuous,NL,ID3,QH,2021-02-07T10:15:00+01:00,2021-02-07T10:30:00+01:00,27.86,EUR,5.180,MWh
Power,Intraday,Continuous,NL,ID3,QH,2021-02-07T10:30:00+01:00,2021-02-07T10:45:00+01:00,41.50,EUR,9.550,MWh
Power,Intraday,Continuous,NL,ID3,QH,2021-02-07T10:45:00+01:00,2021-02-07T11:00:00+01:00,43.96,EUR,10.880,MWh
Power,Intraday,Continuous,NL,ID3,QH,2021-02-07T11:00:00+01:00,2021-02-07T11:15:00+01:00,52.36,EUR,,MWh
Power,Intraday,Continuous,NL,ID3,QH,2021-02-07T11:15:00+01:00,2021-02-07T11:30:00+01:00,52.36,EUR,,MWh
Power,Intraday,Continuous,NL,ID3,QH,2021-02-07T11:30:00+01:00,2021-02-07T11:45:00+01:00,45.31,EUR,3.000,MWh
Power,Intraday,Continuous,NL,ID3,QH,2021-02-07T11:45:00+01:00,2021-02-07T12:00:00+01:00,43.94,EUR,3.750,MWh
Power,Intraday,Continuous,NL,ID3,QH,2021-02-07T12:00:00+01:00,2021-02-07T12:15:00+01:00,48.12,EUR,2.500,MWh
Power,Intraday,Continuous,NL,ID3,QH,2021-02-07T12:15:00+01:00,2021-02-07T12:30:00+01:00,46.99,EUR,,MWh
Power,Intraday,Continuous,NL,ID3,QH,2021-02-07T12:30:00+01:00,2021-02-07T12:45:00+01:00,46.99,EUR,,MWh
Power,Intraday,Continuous,NL,ID3,QH,2021-02-07T12:45:00+01:00,2021-02-07T13:00:00+01:00,46.99,EUR,,MWh
Power,Intraday,Continuous,NL,ID3,QH,2021-02-07T13:00:00+01:00,2021-02-07T13:15:00+01:00,47.73,EUR,,MWh
Power,Intraday,Continuous,NL,ID3,QH,2021-02-07T13:15:00+01:00,2021-02-07T13:30:00+01:00,47.73,EUR,,MWh
Power,Intraday,Continuous,NL,ID3,QH,2021-02-07T13:30:00+01:00,2021-02-07T13:45:00+01:00,47.73,EUR,,MWh
Power,Intraday,Continuous,NL,ID3,QH,2021-02-07T13:45:00+01:00,2021-02-07T14:00:00+01:00,47.73,EUR,,MWh
Power,Intraday,Continuous,NL,ID3,QH,2021-02-07T14:00:00+01:00,2021-02-07T14:15:00+01:00,41.44,EUR,7.500,MWh
Power,Intraday,Continuous,NL,ID3,QH,2021-02-07T14:15:00+01:00,2021-02-07T14:30:00+01:00,45.48,EUR,,MWh
Power,Intraday,Continuous,NL,ID3,QH,2021-02-07T14:30:00+01:00,2021-02-07T14:45:00+01:00,45.48,EUR,,MWh
Power,Intraday,Continuous,NL,ID3,QH,2021-02-07T14:45:00+01:00,2021-02-07T15:00:00+01:00,45.48,EUR,,MWh
Power,Intraday,Continuous,NL,ID3,QH,2021-02-07T15:00:00+01:00,2021-02-07T15:15:00+01:00,44.63,EUR,,MWh
Power,Intraday,Continuous,NL,ID3,QH,2021-02-07T15:15:00+01:00,2021-02-07T15:30:00+01:00,44.63,EUR,,MWh
Power,Intraday,Continuous,NL,ID3,QH,2021-02-07T15:30:00+01:00,2021-02-07T15:45:00+01:00,44.63,EUR,,MWh
Power,Intraday,Continuous,NL,ID3,QH,2021-02-07T15:45:00+01:00,2021-02-07T16:00:00+01:00,44.63,EUR,,MWh
Power,Intraday,Continuous,NL,ID3,QH,2021-02-07T16:00:00+01:00,2021-02-07T16:15:00+01:00,17.61,EUR,5.930,MWh
Power,Intraday,Continuous,NL,ID3,QH,2021-02-07T16:15:00+01:00,2021-02-07T16:30:00+01:00,34.96,EUR,5.200,MWh
Power,Intraday,Continuous,NL,ID3,QH,2021-02-07T16:30:00+01:00,2021-02-07T16:45:00+01:00,46.50,EUR,8.630,MWh
Power,Intraday,Continuous,NL,ID3,QH,2021-02-07T16:45:00+01:00,2021-02-07T17:00:00+01:00,50.00,EUR,3.750,MWh
Power,Intraday,Continuous,NL,ID3,QH,2021-02-07T17:00:00+01:00,2021-02-07T17:15:00+01:00,19.70,EUR,76.500,MWh
Power,Intraday,Continuous,NL,ID3,QH,2021-02-07T17:15:00+01:00,2021-02-07T17:30:00+01:00,35.25,EUR,67.730,MWh
Power,Intraday,Continuous,NL,ID3,QH,2021-02-07T17:30:00+01:00,2021-02-07T17:45:00+01:00,46.09,EUR,41.600,MWh
Power,Intraday,Continuous,NL,ID3,QH,2021-02-07T17:45:00+01:00,2021-02-07T18:00:00+01:00,75.43,EUR,35.580,MWh
Power,Intraday,Continuous,NL,ID3,QH,2021-02-07T18:00:00+01:00,2021-02-07T18:15:00+01:00,51.83,EUR,15.580,MWh
Power,Intraday,Continuous,NL,ID3,QH,2021-02-07T18:15:00+01:00,2021-02-07T18:30:00+01:00,44.49,EUR,7.530,MWh
Power,Intraday,Continuous,NL,ID3,QH,2021-02-07T18:30:00+01:00,2021-02-07T18:45:00+01:00,46.67,EUR,13.800,MWh
Power,Intraday,Continuous,NL,ID3,QH,2021-02-07T18:45:00+01:00,2021-02-07T19:00:00+01:00,42.48,EUR,35.730,MWh
Power,Intraday,Continuous,NL,ID3,QH,2021-02-07T19:00:00+01:00,2021-02-07T19:15:00+01:00,61.79,EUR,17.480,MWh
Power,Intraday,Continuous,NL,ID3,QH,2021-02-07T19:15:00+01:00,2021-02-07T19:30:00+01:00,46.66,EUR,14.730,MWh
Power,Intraday,Continuous,NL,ID3,QH,2021-02-07T19:30:00+01:00,2021-02-07T19:45:00+01:00,32.32,EUR,21.480,MWh
Power,Intraday,Continuous,NL,ID3,QH,2021-02-07T19:45:00+01:00,2021-02-07T20:00:00+01:00,29.70,EUR,14.980,MWh
Power,Intraday,Continuous,NL,ID3,QH,2021-02-07T20:00:00+01:00,2021-02-07T20:15:00+01:00,52.00,EUR,15.930,MWh
Power,Intraday,Continuous,NL,ID3,QH,2021-02-07T20:15:00+01:00,2021-02-07T20:30:00+01:00,44.87,EUR,11.250,MWh
Power,Intraday,Continuous,NL,ID3,QH,2021-02-07T20:30:00+01:00,2021-02-07T20:45:00+01:00,28.04,EUR,4.230,MWh
Power,Intraday,Continuous,NL,ID3,QH,2021-02-07T20:45:00+01:00,2021-02-07T21:00:00+01:00,30.99,EUR,4.630,MWh
Power,Intraday,Continuous,NL,ID3,QH,2021-02-07T21:00:00+01:00,2021-02-07T21:15:00+01:00,30.57,EUR,26.530,MWh
Power,Intraday,Continuous,NL,ID3,QH,2021-02-07T21:15:00+01:00,2021-02-07T21:30:00+01:00,39.14,EUR,23.430,MWh
Power,Intraday,Continuous,NL,ID3,QH,2021-02-07T21:30:00+01:00,2021-02-07T21:45:00+01:00,29.29,EUR,4.050,MWh
Power,Intraday,Continuous,NL,ID3,QH,2021-02-07T21:45:00+01:00,2021-02-07T22:00:00+01:00,38.06,EUR,5.250,MWh
Power,Intraday,Continuous,NL,ID3,QH,2021-02-07T22:00:00+01:00,2021-02-07T22:15:00+01:00,48.49,EUR,23.980,MWh
Power,Intraday,Continuous,NL,ID3,QH,2021-02-07T22:15:00+01:00,2021-02-07T22:30:00+01:00,46.67,EUR,27.800,MWh
Power,Intraday,Continuous,NL,ID3,QH,2021-02-07T22:30:00+01:00,2021-02-07T22:45:00+01:00,23.59,EUR,20.550,MWh
Power,Intraday,Continuous,NL,ID3,QH,2021-02-07T22:45:00+01:00,2021-02-07T23:00:00+01:00,9.94,EUR,21.600,MWh
Power,Intraday,Continuous,NL,ID3,QH,2021-02-07T23:00:00+01:00,2021-02-07T23:15:00+01:00,48.78,EUR,6.250,MWh
Power,Intraday,Continuous,NL,ID3,QH,2021-02-07T23:15:00+01:00,2021-02-07T23:30:00+01:00,40.24,EUR,5.130,MWh
Power,Intraday,Continuous,NL,ID3,QH,2021-02-07T23:30:00+01:00,2021-02-07T23:45:00+01:00,13.40,EUR,3.580,MWh
Power,Intraday,Continuous,NL,ID3,QH,2021-02-07T23:45:00+01:00,2021-02-08T00:00:00+01:00,5.14,EUR,3.000,MWh
Power,Intraday,Continuous,NL,IDFULL,BASE,2021-02-07T00:00:00+01:00,2021-02-08T00:00:00+01:00,29.97,EUR,16658.500,MWh
Power,Intraday,Continuous,NL,IDFULL,PEAK,2021-02-07T08:00:00+01:00,2021-02-07T20:00:00+01:00,44.39,EUR,11142.500,MWh
