Commodity,NominationModality,TradingModality,MarketArea,IndexName,TimeResolution,DeliveryStart,DeliveryEnd,IndexPrice,Currency,Volume,VolumeUnit
Power,Intraday,Continuous,NL,IDFULL,H,2021-07-12T00:00:00+02:00,2021-07-12T01:00:00+02:00,82.39,EUR,221.900,MWh
Power,Intraday,Continuous,NL,IDFULL,H,2021-07-12T01:00:00+02:00,2021-07-12T02:00:00+02:00,75.91,EUR,397.600,MWh
Power,Intraday,Continuous,NL,IDFULL,H,2021-07-12T02:00:00+02:00,2021-07-12T03:00:00+02:00,73.29,EUR,318.700,MWh
Power,Intraday,Continuous,NL,IDFULL,H,2021-07-12T03:00:00+02:00,2021-07-12T04:00:00+02:00,72.64,EUR,422.100,MWh
Power,Intraday,Continuous,NL,IDFULL,H,2021-07-12T04:00:00+02:00,2021-07-12T05:00:00+02:00,74.57,EUR,427.700,MWh
Power,Intraday,Continuous,NL,IDFULL,H,2021-07-12T05:00:00+02:00,2021-07-12T06:00:00+02:00,77.40,EUR,377.400,MWh
Power,Intraday,Continuous,NL,IDFULL,H,2021-07-12T06:00:00+02:00,2021-07-12T07:00:00+02:00,91.91,EUR,344.900,MWh
Power,Intraday,Continuous,NL,IDFULL,H,2021-07-12T07:00:00+02:00,2021-07-12T08:00:00+02:00,107.63,EUR,281.200,MWh
Power,Intraday,Continuous,NL,IDFULL,H,2021-07-12T08:00:00+02:00,2021-07-12T09:00:00+02:00,108.13,EUR,510.400,MWh
Power,Intraday,Continuous,NL,IDFULL,H,2021-07-12T09:00:00+02:00,2021-07-12T10:00:00+02:00,100.72,EUR,540.900,MWh
Power,Intraday,Continuous,NL,IDFULL,H,2021-07-12T10:00:00+02:00,2021-07-12T11:00:00+02:00,94.61,EUR,990.300,MWh
Power,Intraday,Continuous,NL,IDFULL,H,2021-07-12T11:00:00+02:00,2021-07-12T12:00:00+02:00,86.77,EUR,906.200,MWh
Power,Intraday,Continuous,NL,IDFULL,H,2021-07-12T12:00:00+02:00,2021-07-12T13:00:00+02:00,78.67,EUR,645.500,MWh
Power,Intraday,Continuous,NL,IDFULL,H,2021-07-12T13:00:00+02:00,2021-07-12T14:00:00+02:00,82.54,EUR,1425.200,MWh
Power,Intraday,Continuous,NL,IDFULL,H,2021-07-12T14:00:00+02:00,2021-07-12T15:00:00+02:00,85.79,EUR,2143.100,MWh
Power,Intraday,Continuous,NL,IDFULL,H,2021-07-12T15:00:00+02:00,2021-07-12T16:00:00+02:00,87.56,EUR,1460.900,MWh
Power,Intraday,Continuous,NL,IDFULL,H,2021-07-12T16:00:00+02:00,2021-07-12T17:00:00+02:00,91.30,EUR,1256.500,MWh
Power,Intraday,Continuous,NL,IDFULL,H,2021-07-12T17:00:00+02:00,2021-07-12T18:00:00+02:00,98.52,EUR,1342.400,MWh
Power,Intraday,Continuous,NL,IDFULL,H,2021-07-12T18:00:00+02:00,2021-07-12T19:00:00+02:00,109.20,EUR,1131.100,MWh
Power,Intraday,Continuous,NL,IDFULL,H,2021-07-12T19:00:00+02:00,2021-07-12T20:00:00+02:00,120.54,EUR,878.300,MWh
Power,Intraday,Continuous,NL,IDFULL,H,2021-07-12T20:00:00+02:00,2021-07-12T21:00:00+02:00,110.36,EUR,709.600,MWh
Power,Intraday,Continuous,NL,IDFULL,H,2021-07-12T21:00:00+02:00,2021-07-12T22:00:00+02:00,103.23,EUR,564.200,MWh
Power,Intraday,Continuous,NL,IDFULL,H,2021-07-12T22:00:00+02:00,2021-07-12T23:00:00+02:00,101.19,EUR,554.000,MWh
Power,Intraday,Continuous,NL,IDFULL,H,2021-07-12T23:00:00+02:00,2021-07-13T00:00:00+02:00,94.86,EUR,956.600,MWh
Power,Intraday,Continuous,NL,ID1,H,2021-07-12T00:00:00+02:00,2021-07-12T01:00:00+02:00,85.41,EUR,,MWh
Power,Intraday,Continuous,NL,ID1,H,2021-07-12T01:00:00+02:00,2021-07-12T02:00:00+02:00,90.91,EUR,14.700,MWh
Power,Intraday,Continuous,NL,ID1,H,2021-07-12T02:00:00+02:00,2021-07-12T03:00:00+02:00,76.56,EUR,,MWh
Power,Intraday,Continuous,NL,ID1,H,2021-07-12T03:00:00+02:00,2021-07-12T04:00:00+02:00,73.76,EUR,,MWh
Power,Intraday,Continuous,NL,ID1,H,2021-07-12T04:00:00+02:00,2021-07-12T05:00:00+02:00,74.77,EUR,,MWh
Power,Intraday,Continuous,NL,ID1,H,2021-07-12T05:00:00+02:00,2021-07-12T06:00:00+02:00,77.29,EUR,,MWh
Power,Intraday,Continuous,NL,ID1,H,2021-07-12T06:00:00+02:00,2021-07-12T07:00:00+02:00,93.30,EUR,,MWh
Power,Intraday,Continuous,NL,ID1,H,2021-07-12T07:00:00+02:00,2021-07-12T08:00:00+02:00,122.18,EUR,15.500,MWh
Power,Intraday,Continuous,NL,ID1,H,2021-07-12T08:00:00+02:00,2021-07-12T09:00:00+02:00,105.23,EUR,77.600,MWh
Power,Intraday,Continuous,NL,ID1,H,2021-07-12T09:00:00+02:00,2021-07-12T10:00:00+02:00,100.94,EUR,,MWh
Power,Intraday,Continuous,NL,ID1,H,2021-07-12T10:00:00+02:00,2021-07-12T11:00:00+02:00,90.21,EUR,35.300,MWh
Power,Intraday,Continuous,NL,ID1,H,2021-07-12T11:00:00+02:00,2021-07-12T12:00:00+02:00,60.57,EUR,186.300,MWh
Power,Intraday,Continuous,NL,ID1,H,2021-07-12T12:00:00+02:00,2021-07-12T13:00:00+02:00,63.86,EUR,141.700,MWh
Power,Intraday,Continuous,NL,ID1,H,2021-07-12T13:00:00+02:00,2021-07-12T14:00:00+02:00,81.77,EUR,102.400,MWh
Power,Intraday,Continuous,NL,ID1,H,2021-07-12T14:00:00+02:00,2021-07-12T15:00:00+02:00,115.07,EUR,208.300,MWh
Power,Intraday,Continuous,NL,ID1,H,2021-07-12T15:00:00+02:00,2021-07-12T16:00:00+02:00,87.39,EUR,24.700,MWh
Power,Intraday,Continuous,NL,ID1,H,2021-07-12T16:00:00+02:00,2021-07-12T17:00:00+02:00,102.07,EUR,91.300,MWh
Power,Intraday,Continuous,NL,ID1,H,2021-07-12T17:00:00+02:00,2021-07-12T18:00:00+02:00,96.26,EUR,33.500,MWh
Power,Intraday,Continuous,NL,ID1,H,2021-07-12T18:00:00+02:00,2021-07-12T19:00:00+02:00,109.67,EUR,,MWh
Power,Intraday,Continuous,NL,ID1,H,2021-07-12T19:00:00+02:00,2021-07-12T20:00:00+02:00,118.68,EUR,,MWh
Power,Intraday,Continuous,NL,ID1,H,2021-07-12T20:00:00+02:00,2021-07-12T21:00:00+02:00,113.50,EUR,10.500,MWh
Power,Intraday,Continuous,NL,ID1,H,2021-07-12T21:00:00+02:00,2021-07-12T22:00:00+02:00,101.18,EUR,31.000,MWh
Power,Intraday,Continuous,NL,ID1,H,2021-07-12T22:00:00+02:00,2021-07-12T23:00:00+02:00,99.42,EUR,,MWh
Power,Intraday,Continuous,NL,ID1,H,2021-07-12T23:00:00+02:00,2021-07-13T00:00:00+02:00,94.53,EUR,,MWh
Power,Intraday,Continuous,NL,ID3,H,2021-07-12T00:00:00+02:00,2021-07-12T01:00:00+02:00,85.41,EUR,113.700,MWh
Power,Intraday,Continuous,NL,ID3,H,2021-07-12T01:00:00+02:00,2021-07-12T02:00:00+02:00,79.19,EUR,197.300,MWh
Power,Intraday,Continuous,NL,ID3,H,2021-07-12T02:00:00+02:00,2021-07-12T03:00:00+02:00,76.56,EUR,137.000,MWh
Power,Intraday,Continuous,NL,ID3,H,2021-07-12T03:00:00+02:00,2021-07-12T04:00:00+02:00,73.76,EUR,215.600,MWh
Power,Intraday,Continuous,NL,ID3,H,2021-07-12T04:00:00+02:00,2021-07-12T05:00:00+02:00,74.77,EUR,248.600,MWh
Power,Intraday,Continuous,NL,ID3,H,2021-07-12T05:00:00+02:00,2021-07-12T06:00:00+02:00,77.29,EUR,70.200,MWh
Power,Intraday,Continuous,NL,ID3,H,2021-07-12T06:00:00+02:00,2021-07-12T07:00:00+02:00,93.30,EUR,96.600,MWh
Power,Intraday,Continuous,NL,ID3,H,2021-07-12T07:00:00+02:00,2021-07-12T08:00:00+02:00,119.31,EUR,82.500,MWh
Power,Intraday,Continuous,NL,ID3,H,2021-07-12T08:00:00+02:00,2021-07-12T09:00:00+02:00,108.30,EUR,430.600,MWh
Power,Intraday,Continuous,NL,ID3,H,2021-07-12T09:00:00+02:00,2021-07-12T10:00:00+02:00,100.94,EUR,462.800,MWh
Power,Intraday,Continuous,NL,ID3,H,2021-07-12T10:00:00+02:00,2021-07-12T11:00:00+02:00,94.46,EUR,867.100,MWh
Power,Intraday,Continuous,NL,ID3,H,2021-07-12T11:00:00+02:00,2021-07-12T12:00:00+02:00,84.35,EUR,750.800,MWh
Power,Intraday,Continuous,NL,ID3,H,2021-07-12T12:00:00+02:00,2021-07-12T13:00:00+02:00,72.58,EUR,433.800,MWh
Power,Intraday,Continuous,NL,ID3,H,2021-07-12T13:00:00+02:00,2021-07-12T14:00:00+02:00,81.34,EUR,1170.100,MWh
Power,Intraday,Continuous,NL,ID3,H,2021-07-12T14:00:00+02:00,2021-07-12T15:00:00+02:00,85.53,EUR,1705.200,MWh
Power,Intraday,Continuous,NL,ID3,H,2021-07-12T15:00:00+02:00,2021-07-12T16:00:00+02:00,87.15,EUR,1026.500,MWh
Power,Intraday,Continuous,NL,ID3,H,2021-07-12T16:00:00+02:00,2021-07-12T17:00:00+02:00,91.43,EUR,978.700,MWh
Power,Intraday,Continuous,NL,ID3,H,2021-07-12T17:00:00+02:00,2021-07-12T18:00:00+02:00,98.64,EUR,1018.800,MWh
Power,Intraday,Continuous,NL,ID3,H,2021-07-12T18:00:00+02:00,2021-07-12T19:00:00+02:00,109.67,EUR,742.100,MWh
Power,Intraday,Continuous,NL,ID3,H,2021-07-12T19:00:00+02:00,2021-07-12T20:00:00+02:00,118.68,EUR,399.400,MWh
Power,Intraday,Continuous,NL,ID3,H,2021-07-12T20:00:00+02:00,2021-07-12T21:00:00+02:00,107.48,EUR,402.100,MWh
Power,Intraday,Continuous,NL,ID3,H,2021-07-12T21:00:00+02:00,2021-07-12T22:00:00+02:00,99.80,EUR,259.800,MWh
Power,Intraday,Continuous,NL,ID3,H,2021-07-12T22:00:00+02:00,2021-07-12T23:00:00+02:00,99.42,EUR,210.100,MWh
Power,Intraday,Continuous,NL,ID3,H,2021-07-12T23:00:00+02:00,2021-07-13T00:00:00+02:00,94.53,EUR,225.400,MWh
Power,Intraday,Continuous,NL,IDFULL,HH,2021-07-12T00:00:00+02:00,2021-07-12T00:30:00+02:00,82.39,EUR,,MWh
Power,Intraday,Continuous,NL,IDFULL,HH,2021-07-12T00:30:00+02:00,2021-07-12T01:00:00+02:00,82.39,EUR,,MWh
Power,Intraday,Continuous,NL,IDFULL,HH,2021-07-12T01:00:00+02:00,2021-07-12T01:30:00+02:00,75.91,EUR,,MWh
Power,Intraday,Continuous,NL,IDFULL,HH,2021-07-12T01:30:00+02:00,2021-07-12T02:00:00+02:00,75.91,EUR,,MWh
Power,Intraday,Continuous,NL,IDFULL,HH,2021-07-12T02:00:00+02:00,2021-07-12T02:30:00+02:00,73.29,EUR,,MWh
Power,Intraday,Continuous,NL,IDFULL,HH,2021-07-12T02:30:00+02:00,2021-07-12T03:00:00+02:00,73.29,EUR,,MWh
Power,Intraday,Continuous,NL,IDFULL,HH,2021-07-12T03:00:00+02:00,2021-07-12T03:30:00+02:00,72.64,EUR,,MWh
Power,Intraday,Continuous,NL,IDFULL,HH,2021-07-12T03:30:00+02:00,2021-07-12T04:00:00+02:00,72.64,EUR,,MWh
Power,Intraday,Continuous,NL,IDFULL,HH,2021-07-12T04:00:00+02:00,2021-07-12T04:30:00+02:00,74.57,EUR,,MWh
Power,Intraday,Continuous,NL,IDFULL,HH,2021-07-12T04:30:00+02:00,2021-07-12T05:00:00+02:00,74.57,EUR,,MWh
Power,Intraday,Continuous,NL,IDFULL,HH,2021-07-12T05:00:00+02:00,2021-07-12T05:30:00+02:00,77.40,EUR,,MWh
Power,Intraday,Continuous,NL,IDFULL,HH,2021-07-12T05:30:00+02:00,2021-07-12T06:00:00+02:00,77.40,EUR,,MWh
Power,Intraday,Continuous,NL,IDFULL,HH,2021-07-12T06:00:00+02:00,2021-07-12T06:30:00+02:00,91.91,EUR,,MWh
Power,Intraday,Continuous,NL,IDFULL,HH,2021-07-12T06:30:00+02:00,2021-07-12T07:00:00+02:00,91.91,EUR,,MWh
Power,Intraday,Continuous,NL,IDFULL,HH,2021-07-12T07:00:00+02:00,2021-07-12T07:30:00+02:00,107.63,EUR,,MWh
Power,Intraday,Continuous,NL,IDFULL,HH,2021-07-12T07:30:00+02:00,2021-07-12T08:00:00+02:00,107.63,EUR,,MWh
Power,Intraday,Continuous,NL,IDFULL,HH,2021-07-12T08:00:00+02:00,2021-07-12T08:30:00+02:00,108.13,EUR,,MWh
Power,Intraday,Continuous,NL,IDFULL,HH,2021-07-12T08:30:00+02:00,2021-07-12T09:00:00+02:00,108.13,EUR,,MWh
Power,Intraday,Continuous,NL,IDFULL,HH,2021-07-12T09:00:00+02:00,2021-07-12T09:30:00+02:00,100.72,EUR,,MWh
Power,Intraday,Continuous,NL,IDFULL,HH,2021-07-12T09:30:00+02:00,2021-07-12T10:00:00+02:00,100.72,EUR,,MWh
Power,Intraday,Continuous,NL,IDFULL,HH,2021-07-12T10:00:00+02:00,2021-07-12T10:30:00+02:00,94.61,EUR,,MWh
Power,Intraday,Continuous,NL,IDFULL,HH,2021-07-12T10:30:00+02:00,2021-07-12T11:00:00+02:00,94.61,EUR,,MWh
Power,Intraday,Continuous,NL,IDFULL,HH,2021-07-12T11:00:00+02:00,2021-07-12T11:30:00+02:00,86.77,EUR,,MWh
Power,Intraday,Continuous,NL,IDFULL,HH,2021-07-12T11:30:00+02:00,2021-07-12T12:00:00+02:00,86.77,EUR,,MWh
Power,Intraday,Continuous,NL,IDFULL,HH,2021-07-12T12:00:00+02:00,2021-07-12T12:30:00+02:00,78.67,EUR,,MWh
Power,Intraday,Continuous,NL,IDFULL,HH,2021-07-12T12:30:00+02:00,2021-07-12T13:00:00+02:00,78.67,EUR,,MWh
Power,Intraday,Continuous,NL,IDFULL,HH,2021-07-12T13:00:00+02:00,2021-07-12T13:30:00+02:00,82.54,EUR,,MWh
Power,Intraday,Continuous,NL,IDFULL,HH,2021-07-12T13:30:00+02:00,2021-07-12T14:00:00+02:00,82.54,EUR,,MWh
Power,Intraday,Continuous,NL,IDFULL,HH,2021-07-12T14:00:00+02:00,2021-07-12T14:30:00+02:00,79.92,EUR,10.750,MWh
Power,Intraday,Continuous,NL,IDFULL,HH,2021-07-12T14:30:00+02:00,2021-07-12T15:00:00+02:00,91.66,EUR,,MWh
Power,Intraday,Continuous,NL,IDFULL,HH,2021-07-12T15:00:00+02:00,2021-07-12T15:30:00+02:00,87.56,EUR,,MWh
Power,Intraday,Continuous,NL,IDFULL,HH,2021-07-12T15:30:00+02:00,2021-07-12T16:00:00+02:00,87.56,EUR,,MWh
Power,Intraday,Continuous,NL,IDFULL,HH,2021-07-12T16:00:00+02:00,2021-07-12T16:30:00+02:00,91.30,EUR,,MWh
Power,Intraday,Continuous,NL,IDFULL,HH,2021-07-12T16:30:00+02:00,2021-07-12T17:00:00+02:00,91.30,EUR,,MWh
Power,Intraday,Continuous,NL,IDFULL,HH,2021-07-12T17:00:00+02:00,2021-07-12T17:30:00+02:00,98.52,EUR,,MWh
Power,Intraday,Continuous,NL,IDFULL,HH,2021-07-12T17:30:00+02:00,2021-07-12T18:00:00+02:00,98.52,EUR,,MWh
Power,Intraday,Continuous,NL,IDFULL,HH,2021-07-12T18:00:00+02:00,2021-07-12T18:30:00+02:00,109.20,EUR,,MWh
Power,Intraday,Continuous,NL,IDFULL,HH,2021-07-12T18:30:00+02:00,2021-07-12T19:00:00+02:00,109.20,EUR,,MWh
Power,Intraday,Continuous,NL,IDFULL,HH,2021-07-12T19:00:00+02:00,2021-07-12T19:30:00+02:00,120.54,EUR,,MWh
Power,Intraday,Continuous,NL,IDFULL,HH,2021-07-12T19:30:00+02:00,2021-07-12T20:00:00+02:00,120.54,EUR,,MWh
Power,Intraday,Continuous,NL,IDFULL,HH,2021-07-12T20:00:00+02:00,2021-07-12T20:30:00+02:00,110.36,EUR,,MWh
Power,Intraday,Continuous,NL,IDFULL,HH,2021-07-12T20:30:00+02:00,2021-07-12T21:00:00+02:00,110.36,EUR,,MWh
Power,Intraday,Continuous,NL,IDFULL,HH,2021-07-12T21:00:00+02:00,2021-07-12T21:30:00+02:00,113.93,EUR,,MWh
Power,Intraday,Continuous,NL,IDFULL,HH,2021-07-12T21:30:00+02:00,2021-07-12T22:00:00+02:00,92.53,EUR,7.700,MWh
Power,Intraday,Continuous,NL,IDFULL,HH,2021-07-12T22:00:00+02:00,2021-07-12T22:30:00+02:00,101.19,EUR,,MWh
Power,Intraday,Continuous,NL,IDFULL,HH,2021-07-12T22:30:00+02:00,2021-07-12T23:00:00+02:00,101.19,EUR,,MWh
Power,Intraday,Continuous,NL,IDFULL,HH,2021-07-12T23:00:00+02:00,2021-07-12T23:30:00+02:00,94.86,EUR,,MWh
Power,Intraday,Continuous,NL,IDFULL,HH,2021-07-12T23:30:00+02:00,2021-07-13T00:00:00+02:00,94.86,EUR,,MWh
Power,Intraday,Continuous,NL,ID1,HH,2021-07-12T00:00:00+02:00,2021-07-12T00:30:00+02:00,82.39,EUR,,MWh
Power,Intraday,Continuous,NL,ID1,HH,2021-07-12T00:30:00+02:00,2021-07-12T01:00:00+02:00,82.39,EUR,,MWh
Power,Intraday,Continuous,NL,ID1,HH,2021-07-12T01:00:00+02:00,2021-07-12T01:30:00+02:00,75.91,EUR,,MWh
Power,Intraday,Continuous,NL,ID1,HH,2021-07-12T01:30:00+02:00,2021-07-12T02:00:00+02:00,75.91,EUR,,MWh
Power,Intraday,Continuous,NL,ID1,HH,2021-07-12T02:00:00+02:00,2021-07-12T02:30:00+02:00,73.29,EUR,,MWh
Power,Intraday,Continuous,NL,ID1,HH,2021-07-12T02:30:00+02:00,2021-07-12T03:00:00+02:00,73.29,EUR,,MWh
Power,Intraday,Continuous,NL,ID1,HH,2021-07-12T03:00:00+02:00,2021-07-12T03:30:00+02:00,72.64,EUR,,MWh
Power,Intraday,Continuous,NL,ID1,HH,2021-07-12T03:30:00+02:00,2021-07-12T04:00:00+02:00,72.64,EUR,,MWh
Power,Intraday,Continuous,NL,ID1,HH,2021-07-12T04:00:00+02:00,2021-07-12T04:30:00+02:00,74.57,EUR,,MWh
Power,Intraday,Continuous,NL,ID1,HH,2021-07-12T04:30:00+02:00,2021-07-12T05:00:00+02:00,74.57,EUR,,MWh
Power,Intraday,Continuous,NL,ID1,HH,2021-07-12T05:00:00+02:00,2021-07-12T05:30:00+02:00,77.40,EUR,,MWh
Power,Intraday,Continuous,NL,ID1,HH,2021-07-12T05:30:00+02:00,2021-07-12T06:00:00+02:00,77.40,EUR,,MWh
Power,Intraday,Continuous,NL,ID1,HH,2021-07-12T06:00:00+02:00,2021-07-12T06:30:00+02:00,91.91,EUR,,MWh
Power,Intraday,Continuous,NL,ID1,HH,2021-07-12T06:30:00+02:00,2021-07-12T07:00:00+02:00,91.91,EUR,,MWh
Power,Intraday,Continuous,NL,ID1,HH,2021-07-12T07:00:00+02:00,2021-07-12T07:30:00+02:00,107.63,EUR,,MWh
Power,Intraday,Continuous,NL,ID1,HH,2021-07-12T07:30:00+02:00,2021-07-12T08:00:00+02:00,107.63,EUR,,MWh
Power,Intraday,Continuous,NL,ID1,HH,2021-07-12T08:00:00+02:00,2021-07-12T08:30:00+02:00,108.13,EUR,,MWh
Power,Intraday,Continuous,NL,ID1,HH,2021-07-12T08:30:00+02:00,2021-07-12T09:00:00+02:00,108.13,EUR,,MWh
Power,Intraday,Continuous,NL,ID1,HH,2021-07-12T09:00:00+02:00,2021-07-12T09:30:00+02:00,100.72,EUR,,MWh
Power,Intraday,Continuous,NL,ID1,HH,2021-07-12T09:30:00+02:00,2021-07-12T10:00:00+02:00,100.72,EUR,,MWh
Power,Intraday,Continuous,NL,ID1,HH,2021-07-12T10:00:00+02:00,2021-07-12T10:30:00+02:00,94.61,EUR,,MWh
Power,Intraday,Continuous,NL,ID1,HH,2021-07-12T10:30:00+02:00,2021-07-12T11:00:00+02:00,94.61,EUR,,MWh
Power,Intraday,Continuous,NL,ID1,HH,2021-07-12T11:00:00+02:00,2021-07-12T11:30:00+02:00,86.77,EUR,,MWh
Power,Intraday,Continuous,NL,ID1,HH,2021-07-12T11:30:00+02:00,2021-07-12T12:00:00+02:00,86.77,EUR,,MWh
Power,Intraday,Continuous,NL,ID1,HH,2021-07-12T12:00:00+02:00,2021-07-12T12:30:00+02:00,78.67,EUR,,MWh
Power,Intraday,Continuous,NL,ID1,HH,2021-07-12T12:30:00+02:00,2021-07-12T13:00:00+02:00,78.67,EUR,,MWh
Power,Intraday,Continuous,NL,ID1,HH,2021-07-12T13:00:00+02:00,2021-07-12T13:30:00+02:00,82.54,EUR,,MWh
Power,Intraday,Continuous,NL,ID1,HH,2021-07-12T13:30:00+02:00,2021-07-12T14:00:00+02:00,82.54,EUR,,MWh
Power,Intraday,Continuous,NL,ID1,HH,2021-07-12T14:00:00+02:00,2021-07-12T14:30:00+02:00,79.92,EUR,,MWh
Power,Intraday,Continuous,NL,ID1,HH,2021-07-12T14:30:00+02:00,2021-07-12T15:00:00+02:00,91.66,EUR,,MWh
Power,Intraday,Continuous,NL,ID1,HH,2021-07-12T15:00:00+02:00,2021-07-12T15:30:00+02:00,87.56,EUR,,MWh
Power,Intraday,Continuous,NL,ID1,HH,2021-07-12T15:30:00+02:00,2021-07-12T16:00:00+02:00,87.56,EUR,,MWh
Power,Intraday,Continuous,NL,ID1,HH,2021-07-12T16:00:00+02:00,2021-07-12T16:30:00+02:00,91.30,EUR,,MWh
Power,Intraday,Continuous,NL,ID1,HH,2021-07-12T16:30:00+02:00,2021-07-12T17:00:00+02:00,91.30,EUR,,MWh
Power,Intraday,Continuous,NL,ID1,HH,2021-07-12T17:00:00+02:00,2021-07-12T17:30:00+02:00,98.52,EUR,,MWh
Power,Intraday,Continuous,NL,ID1,HH,2021-07-12T17:30:00+02:00,2021-07-12T18:00:00+02:00,98.52,EUR,,MWh
Power,Intraday,Continuous,NL,ID1,HH,2021-07-12T18:00:00+02:00,2021-07-12T18:30:00+02:00,109.20,EUR,,MWh
Power,Intraday,Continuous,NL,ID1,HH,2021-07-12T18:30:00+02:00,2021-07-12T19:00:00+02:00,109.20,EUR,,MWh
Power,Intraday,Continuous,NL,ID1,HH,2021-07-12T19:00:00+02:00,2021-07-12T19:30:00+02:00,120.54,EUR,,MWh
Power,Intraday,Continuous,NL,ID1,HH,2021-07-12T19:30:00+02:00,2021-07-12T20:00:00+02:00,120.54,EUR,,MWh
Power,Intraday,Continuous,NL,ID1,HH,2021-07-12T20:00:00+02:00,2021-07-12T20:30:00+02:00,110.36,EUR,,MWh
Power,Intraday,Continuous,NL,ID1,HH,2021-07-12T20:30:00+02:00,2021-07-12T21:00:00+02:00,110.36,EUR,,MWh
Power,Intraday,Continuous,NL,ID1,HH,2021-07-12T21:00:00+02:00,2021-07-12T21:30:00+02:00,113.93,EUR,,MWh
Power,Intraday,Continuous,NL,ID1,HH,2021-07-12T21:30:00+02:00,2021-07-12T22:00:00+02:00,92.53,EUR,,MWh
Power,Intraday,Continuous,NL,ID1,HH,2021-07-12T22:00:00+02:00,2021-07-12T22:30:00+02:00,101.19,EUR,,MWh
Power,Intraday,Continuous,NL,ID1,HH,2021-07-12T22:30:00+02:00,2021-07-12T23:00:00+02:00,101.19,EUR,,MWh
Power,Intraday,Continuous,NL,ID1,HH,2021-07-12T23:00:00+02:00,2021-07-12T23:30:00+02:00,94.86,EUR,,MWh
Power,Intraday,Continuous,NL,ID1,HH,2021-07-12T23:30:00+02:00,2021-07-13T00:00:00+02:00,94.86,EUR,,MWh
Power,Intraday,Continuous,NL,ID3,HH,2021-07-12T00:00:00+02:00,2021-07-12T00:30:00+02:00,82.39,EUR,,MWh
Power,Intraday,Continuous,NL,ID3,HH,2021-07-12T00:30:00+02:00,2021-07-12T01:00:00+02:00,82.39,EUR,,MWh
Power,Intraday,Continuous,NL,ID3,HH,2021-07-12T01:00:00+02:00,2021-07-12T01:30:00+02:00,75.91,EUR,,MWh
Power,Intraday,Continuous,NL,ID3,HH,2021-07-12T01:30:00+02:00,2021-07-12T02:00:00+02:00,75.91,EUR,,MWh
Power,Intraday,Continuous,NL,ID3,HH,2021-07-12T02:00:00+02:00,2021-07-12T02:30:00+02:00,73.29,EUR,,MWh
Power,Intraday,Continuous,NL,ID3,HH,2021-07-12T02:30:00+02:00,2021-07-12T03:00:00+02:00,73.29,EUR,,MWh
Power,Intraday,Continuous,NL,ID3,HH,2021-07-12T03:00:00+02:00,2021-07-12T03:30:00+02:00,72.64,EUR,,MWh
Power,Intraday,Continuous,NL,ID3,HH,2021-07-12T03:30:00+02:00,2021-07-12T04:00:00+02:00,72.64,EUR,,MWh
Power,Intraday,Continuous,NL,ID3,HH,2021-07-12T04:00:00+02:00,2021-07-12T04:30:00+02:00,74.57,EUR,,MWh
Power,Intraday,Continuous,NL,ID3,HH,2021-07-12T04:30:00+02:00,2021-07-12T05:00:00+02:00,74.57,EUR,,MWh
Power,Intraday,Continuous,NL,ID3,HH,2021-07-12T05:00:00+02:00,2021-07-12T05:30:00+02:00,77.40,EUR,,MWh
Power,Intraday,Continuous,NL,ID3,HH,2021-07-12T05:30:00+02:00,2021-07-12T06:00:00+02:00,77.40,EUR,,MWh
Power,Intraday,Continuous,NL,ID3,HH,2021-07-12T06:00:00+02:00,2021-07-12T06:30:00+02:00,91.91,EUR,,MWh
Power,Intraday,Continuous,NL,ID3,HH,2021-07-12T06:30:00+02:00,2021-07-12T07:00:00+02:00,91.91,EUR,,MWh
Power,Intraday,Continuous,NL,ID3,HH,2021-07-12T07:00:00+02:00,2021-07-12T07:30:00+02:00,107.63,EUR,,MWh
Power,Intraday,Continuous,NL,ID3,HH,2021-07-12T07:30:00+02:00,2021-07-12T08:00:00+02:00,107.63,EUR,,MWh
Power,Intraday,Continuous,NL,ID3,HH,2021-07-12T08:00:00+02:00,2021-07-12T08:30:00+02:00,108.13,EUR,,MWh
Power,Intraday,Continuous,NL,ID3,HH,2021-07-12T08:30:00+02:00,2021-07-12T09:00:00+02:00,108.13,EUR,,MWh
Power,Intraday,Continuous,NL,ID3,HH,2021-07-12T09:00:00+02:00,2021-07-12T09:30:00+02:00,100.72,EUR,,MWh
Power,Intraday,Continuous,NL,ID3,HH,2021-07-12T09:30:00+02:00,2021-07-12T10:00:00+02:00,100.72,EUR,,MWh
Power,Intraday,Continuous,NL,ID3,HH,2021-07-12T10:00:00+02:00,2021-07-12T10:30:00+02:00,94.61,EUR,,MWh
Power,Intraday,Continuous,NL,ID3,HH,2021-07-12T10:30:00+02:00,2021-07-12T11:00:00+02:00,94.61,EUR,,MWh
Power,Intraday,Continuous,NL,ID3,HH,2021-07-12T11:00:00+02:00,2021-07-12T11:30:00+02:00,86.77,EUR,,MWh
Power,Intraday,Continuous,NL,ID3,HH,2021-07-12T11:30:00+02:00,2021-07-12T12:00:00+02:00,86.77,EUR,,MWh
Power,Intraday,Continuous,NL,ID3,HH,2021-07-12T12:00:00+02:00,2021-07-12T12:30:00+02:00,78.67,EUR,,MWh
Power,Intraday,Continuous,NL,ID3,HH,2021-07-12T12:30:00+02:00,2021-07-12T13:00:00+02:00,78.67,EUR,,MWh
Power,Intraday,Continuous,NL,ID3,HH,2021-07-12T13:00:00+02:00,2021-07-12T13:30:00+02:00,82.54,EUR,,MWh
Power,Intraday,Continuous,NL,ID3,HH,2021-07-12T13:30:00+02:00,2021-07-12T14:00:00+02:00,82.54,EUR,,MWh
Power,Intraday,Continuous,NL,ID3,HH,2021-07-12T14:00:00+02:00,2021-07-12T14:30:00+02:00,79.92,EUR,,MWh
Power,Intraday,Continuous,NL,ID3,HH,2021-07-12T14:30:00+02:00,2021-07-12T15:00:00+02:00,91.66,EUR,,MWh
Power,Intraday,Continuous,NL,ID3,HH,2021-07-12T15:00:00+02:00,2021-07-12T15:30:00+02:00,87.56,EUR,,MWh
Power,Intraday,Continuous,NL,ID3,HH,2021-07-12T15:30:00+02:00,2021-07-12T16:00:00+02:00,87.56,EUR,,MWh
Power,Intraday,Continuous,NL,ID3,HH,2021-07-12T16:00:00+02:00,2021-07-12T16:30:00+02:00,91.30,EUR,,MWh
Power,Intraday,Continuous,NL,ID3,HH,2021-07-12T16:30:00+02:00,2021-07-12T17:00:00+02:00,91.30,EUR,,MWh
Power,Intraday,Continuous,NL,ID3,HH,2021-07-12T17:00:00+02:00,2021-07-12T17:30:00+02:00,98.52,EUR,,MWh
Power,Intraday,Continuous,NL,ID3,HH,2021-07-12T17:30:00+02:00,2021-07-12T18:00:00+02:00,98.52,EUR,,MWh
Power,Intraday,Continuous,NL,ID3,HH,2021-07-12T18:00:00+02:00,2021-07-12T18:30:00+02:00,109.20,EUR,,MWh
Power,Intraday,Continuous,NL,ID3,HH,2021-07-12T18:30:00+02:00,2021-07-12T19:00:00+02:00,109.20,EUR,,MWh
Power,Intraday,Continuous,NL,ID3,HH,2021-07-12T19:00:00+02:00,2021-07-12T19:30:00+02:00,120.54,EUR,,MWh
Power,Intraday,Continuous,NL,ID3,HH,2021-07-12T19:30:00+02:00,2021-07-12T20:00:00+02:00,120.54,EUR,,MWh
Power,Intraday,Continuous,NL,ID3,HH,2021-07-12T20:00:00+02:00,2021-07-12T20:30:00+02:00,110.36,EUR,,MWh
Power,Intraday,Continuous,NL,ID3,HH,2021-07-12T20:30:00+02:00,2021-07-12T21:00:00+02:00,110.36,EUR,,MWh
Power,Intraday,Continuous,NL,ID3,HH,2021-07-12T21:00:00+02:00,2021-07-12T21:30:00+02:00,113.93,EUR,,MWh
Power,Intraday,Continuous,NL,ID3,HH,2021-07-12T21:30:00+02:00,2021-07-12T22:00:00+02:00,92.53,EUR,,MWh
Power,Intraday,Continuous,NL,ID3,HH,2021-07-12T22:00:00+02:00,2021-07-12T22:30:00+02:00,101.19,EUR,,MWh
Power,Intraday,Continuous,NL,ID3,HH,2021-07-12T22:30:00+02:00,2021-07-12T23:00:00+02:00,101.19,EUR,,MWh
Power,Intraday,Continuous,NL,ID3,HH,2021-07-12T23:00:00+02:00,2021-07-12T23:30:00+02:00,94.86,EUR,,MWh
Power,Intraday,Continuous,NL,ID3,HH,2021-07-12T23:30:00+02:00,2021-07-13T00:00:00+02:00,94.86,EUR,,MWh
Power,Intraday,Continuous,NL,IDFULL,QH,2021-07-12T00:00:00+02:00,2021-07-12T00:15:00+02:00,99.26,EUR,78.950,MWh
Power,Intraday,Continuous,NL,IDFULL,QH,2021-07-12T00:15:00+02:00,2021-07-12T00:30:00+02:00,90.50,EUR,36.230,MWh
Power,Intraday,Continuous,NL,IDFULL,QH,2021-07-12T00:30:00+02:00,2021-07-12T00:45:00+02:00,75.61,EUR,35.350,MWh
Power,Intraday,Continuous,NL,IDFULL,QH,2021-07-12T00:45:00+02:00,2021-07-12T01:00:00+02:00,67.60,EUR,46.600,MWh
Power,Intraday,Continuous,NL,IDFULL,QH,2021-07-12T01:00:00+02:00,2021-07-12T01:15:00+02:00,79.88,EUR,29.380,MWh
Power,Intraday,Continuous,NL,IDFULL,QH,2021-07-12T01:15:00+02:00,2021-07-12T01:30:00+02:00,77.12,EUR,21.300,MWh
Power,Intraday,Continuous,NL,IDFULL,QH,2021-07-12T01:30:00+02:00,2021-07-12T01:45:00+02:00,71.96,EUR,28.630,MWh
Power,Intraday,Continuous,NL,IDFULL,QH,2021-07-12T01:45:00+02:00,2021-07-12T02:00:00+02:00,72.05,EUR,43.850,MWh
Power,Intraday,Continuous,NL,IDFULL,QH,2021-07-12T02:00:00+02:00,2021-07-12T02:15:00+02:00,81.00,EUR,25.780,MWh
Power,Intraday,Continuous,NL,IDFULL,QH,2021-07-12T02:15:00+02:00,2021-07-12T02:30:00+02:00,72.28,EUR,21.180,MWh
Power,Intraday,Continuous,NL,IDFULL,QH,2021-07-12T02:30:00+02:00,2021-07-12T02:45:00+02:00,72.30,EUR,36.280,MWh
Power,Intraday,Continuous,NL,IDFULL,QH,2021-07-12T02:45:00+02:00,2021-07-12T03:00:00+02:00,71.86,EUR,43.830,MWh
Power,Intraday,Continuous,NL,IDFULL,QH,2021-07-12T03:00:00+02:00,2021-07-12T03:15:00+02:00,71.63,EUR,15.550,MWh
Power,Intraday,Continuous,NL,IDFULL,QH,2021-07-12T03:15:00+02:00,2021-07-12T03:30:00+02:00,71.22,EUR,38.050,MWh
Power,Intraday,Continuous,NL,IDFULL,QH,2021-07-12T03:30:00+02:00,2021-07-12T03:45:00+02:00,71.70,EUR,33.830,MWh
Power,Intraday,Continuous,NL,IDFULL,QH,2021-07-12T03:45:00+02:00,2021-07-12T04:00:00+02:00,77.78,EUR,18.580,MWh
Power,Intraday,Continuous,NL,IDFULL,QH,2021-07-12T04:00:00+02:00,2021-07-12T04:15:00+02:00,71.68,EUR,18.250,MWh
Power,Intraday,Continuous,NL,IDFULL,QH,2021-07-12T04:15:00+02:00,2021-07-12T04:30:00+02:00,72.08,EUR,14.830,MWh
Power,Intraday,Continuous,NL,IDFULL,QH,2021-07-12T04:30:00+02:00,2021-07-12T04:45:00+02:00,76.80,EUR,10.300,MWh
Power,Intraday,Continuous,NL,IDFULL,QH,2021-07-12T04:45:00+02:00,2021-07-12T05:00:00+02:00,81.01,EUR,19.500,MWh
Power,Intraday,Continuous,NL,IDFULL,QH,2021-07-12T05:00:00+02:00,2021-07-12T05:15:00+02:00,70.08,EUR,46.850,MWh
Power,Intraday,Continuous,NL,IDFULL,QH,2021-07-12T05:15:00+02:00,2021-07-12T05:30:00+02:00,68.32,EUR,23.400,MWh
Power,Intraday,Continuous,NL,IDFULL,QH,2021-07-12T05:30:00+02:00,2021-07-12T05:45:00+02:00,72.63,EUR,30.250,MWh
Power,Intraday,Continuous,NL,IDFULL,QH,2021-07-12T05:45:00+02:00,2021-07-12T06:00:00+02:00,95.73,EUR,37.180,MWh
Power,Intraday,Continuous,NL,IDFULL,QH,2021-07-12T06:00:00+02:00,2021-07-12T06:15:00+02:00,73.74,EUR,79.430,MWh
Power,Intraday,Continuous,NL,IDFULL,QH,2021-07-12T06:15:00+02:00,2021-07-12T06:30:00+02:00,92.43,EUR,31.680,MWh
Power,Intraday,Continuous,NL,IDFULL,QH,2021-07-12T06:30:00+02:00,2021-07-12T06:45:00+02:00,95.91,EUR,57.800,MWh
Power,Intraday,Continuous,NL,IDFULL,QH,2021-07-12T06:45:00+02:00,2021-07-12T07:00:00+02:00,101.42,EUR,127.980,MWh
Power,Intraday,Continuous,NL,IDFULL,QH,2021-07-12T07:00:00+02:00,2021-07-12T07:15:00+02:00,91.29,EUR,30.330,MWh
Power,Intraday,Continuous,NL,IDFULL,QH,2021-07-12T07:15:00+02:00,2021-07-12T07:30:00+02:00,99.18,EUR,2.950,MWh
Power,Intraday,Continuous,NL,IDFULL,QH,2021-07-12T07:30:00+02:00,2021-07-12T07:45:00+02:00,125.11,EUR,,MWh
Power,Intraday,Continuous,NL,IDFULL,QH,2021-07-12T07:45:00+02:00,2021-07-12T08:00:00+02:00,114.94,EUR,10.450,MWh
Power,Intraday,Continuous,NL,IDFULL,QH,2021-07-12T08:00:00+02:00,2021-07-12T08:15:00+02:00,132.90,EUR,36.100,MWh
Power,Intraday,Continuous,NL,IDFULL,QH,2021-07-12T08:15:00+02:00,2021-07-12T08:30:00+02:00,106.55,EUR,41.630,MWh
Power,Intraday,Continuous,NL,IDFULL,QH,2021-07-12T08:30:00+02:00,2021-07-12T08:45:00+02:00,107.41,EUR,32.150,MWh
Power,Intraday,Continuous,NL,IDFULL,QH,2021-07-12T08:45:00+02:00,2021-07-12T09:00:00+02:00,87.03,EUR,46.650,MWh
Power,Intraday,Continuous,NL,IDFULL,QH,2021-07-12T09:00:00+02:00,2021-07-12T09:15:00+02:00,124.16,EUR,47.900,MWh
Power,Intraday,Continuous,NL,IDFULL,QH,2021-07-12T09:15:00+02:00,2021-07-12T09:30:00+02:00,102.51,EUR,39.880,MWh
Power,Intraday,Continuous,NL,IDFULL,QH,2021-07-12T09:30:00+02:00,2021-07-12T09:45:00+02:00,94.65,EUR,48.330,MWh
Power,Intraday,Continuous,NL,IDFULL,QH,2021-07-12T09:45:00+02:00,2021-07-12T10:00:00+02:00,78.67,EUR,63.850,MWh
Power,Intraday,Continuous,NL,IDFULL,QH,2021-07-12T10:00:00+02:00,2021-07-12T10:15:00+02:00,112.96,EUR,34.900,MWh
Power,Intraday,Continuous,NL,IDFULL,QH,2021-07-12T10:15:00+02:00,2021-07-12T10:30:00+02:00,92.57,EUR,23.430,MWh
Power,Intraday,Continuous,NL,IDFULL,QH,2021-07-12T10:30:00+02:00,2021-07-12T10:45:00+02:00,81.86,EUR,25.100,MWh
Power,Intraday,Continuous,NL,IDFULL,QH,2021-07-12T10:45:00+02:00,2021-07-12T11:00:00+02:00,76.63,EUR,32.030,MWh
Power,Intraday,Continuous,NL,IDFULL,QH,2021-07-12T11:00:00+02:00,2021-07-12T11:15:00+02:00,90.25,EUR,36.480,MWh
Power,Intraday,Continuous,NL,IDFULL,QH,2021-07-12T11:15:00+02:00,2021-07-12T11:30:00+02:00,86.18,EUR,25.880,MWh
Power,Intraday,Continuous,NL,IDFULL,QH,2021-07-12T11:30:00+02:00,2021-07-12T11:45:00+02:00,80.80,EUR,27.080,MWh
Power,Intraday,Continuous,NL,IDFULL,QH,2021-07-12T11:45:00+02:00,2021-07-12T12:00:00+02:00,74.87,EUR,26.400,MWh
Power,Intraday,Continuous,NL,IDFULL,QH,2021-07-12T12:00:00+02:00,2021-07-12T12:15:00+02:00,100.52,EUR,23.830,MWh
Power,Intraday,Continuous,NL,IDFULL,QH,2021-07-12T12:15:00+02:00,2021-07-12T12:30:00+02:00,84.13,EUR,10.800,MWh
Power,Intraday,Continuous,NL,IDFULL,QH,2021-07-12T12:30:00+02:00,2021-07-12T12:45:00+02:00,74.06,EUR,12.580,MWh
Power,Intraday,Continuous,NL,IDFULL,QH,2021-07-12T12:45:00+02:00,2021-07-12T13:00:00+02:00,74.66,EUR,28.980,MWh
Power,Intraday,Continuous,NL,IDFULL,QH,2021-07-12T13:00:00+02:00,2021-07-12T13:15:00+02:00,85.02,EUR,42.030,MWh
Power,Intraday,Continuous,NL,IDFULL,QH,2021-07-12T13:15:00+02:00,2021-07-12T13:30:00+02:00,81.56,EUR,47.850,MWh
Power,Intraday,Continuous,NL,IDFULL,QH,2021-07-12T13:30:00+02:00,2021-07-12T13:45:00+02:00,75.57,EUR,72.930,MWh
Power,Intraday,Continuous,NL,IDFULL,QH,2021-07-12T13:45:00+02:00,2021-07-12T14:00:00+02:00,73.42,EUR,106.780,MWh
Power,Intraday,Continuous,NL,IDFULL,QH,2021-07-12T14:00:00+02:00,2021-07-12T14:15:00+02:00,90.26,EUR,66.970,MWh
Power,Intraday,Continuous,NL,IDFULL,QH,2021-07-12T14:15:00+02:00,2021-07-12T14:30:00+02:00,80.67,EUR,44.750,MWh
Power,Intraday,Continuous,NL,IDFULL,QH,2021-07-12T14:30:00+02:00,2021-07-12T14:45:00+02:00,82.23,EUR,91.900,MWh
Power,Intraday,Continuous,NL,IDFULL,QH,2021-07-12T14:45:00+02:00,2021-07-12T15:00:00+02:00,94.88,EUR,94.380,MWh
Power,Intraday,Continuous,NL,IDFULL,QH,2021-07-12T15:00:00+02:00,2021-07-12T15:15:00+02:00,73.58,EUR,119.780,MWh
Power,Intraday,Continuous,NL,IDFULL,QH,2021-07-12T15:15:00+02:00,2021-07-12T15:30:00+02:00,88.01,EUR,39.850,MWh
Power,Intraday,Continuous,NL,IDFULL,QH,2021-07-12T15:30:00+02:00,2021-07-12T15:45:00+02:00,84.96,EUR,77.050,MWh
Power,Intraday,Continuous,NL,IDFULL,QH,2021-07-12T15:45:00+02:00,2021-07-12T16:00:00+02:00,96.41,EUR,112.030,MWh
Power,Intraday,Continuous,NL,IDFULL,QH,2021-07-12T16:00:00+02:00,2021-07-12T16:15:00+02:00,73.97,EUR,54.480,MWh
Power,Intraday,Continuous,NL,IDFULL,QH,2021-07-12T16:15:00+02:00,2021-07-12T16:30:00+02:00,85.50,EUR,34.130,MWh
Power,Intraday,Continuous,NL,IDFULL,QH,2021-07-12T16:30:00+02:00,2021-07-12T16:45:00+02:00,98.42,EUR,51.850,MWh
Power,Intraday,Continuous,NL,IDFULL,QH,2021-07-12T16:45:00+02:00,2021-07-12T17:00:00+02:00,105.36,EUR,71.700,MWh
Power,Intraday,Continuous,NL,IDFULL,QH,2021-07-12T17:00:00+02:00,2021-07-12T17:15:00+02:00,72.91,EUR,123.600,MWh
Power,Intraday,Continuous,NL,IDFULL,QH,2021-07-12T17:15:00+02:00,2021-07-12T17:30:00+02:00,94.47,EUR,34.530,MWh
Power,Intraday,Continuous,NL,IDFULL,QH,2021-07-12T17:30:00+02:00,2021-07-12T17:45:00+02:00,99.01,EUR,40.550,MWh
Power,Intraday,Continuous,NL,IDFULL,QH,2021-07-12T17:45:00+02:00,2021-07-12T18:00:00+02:00,124.63,EUR,42.980,MWh
Power,Intraday,Continuous,NL,IDFULL,QH,2021-07-12T18:00:00+02:00,2021-07-12T18:15:00+02:00,94.50,EUR,45.330,MWh
Power,Intraday,Continuous,NL,IDFULL,QH,2021-07-12T18:15:00+02:00,2021-07-12T18:30:00+02:00,100.28,EUR,42.180,MWh
Power,Intraday,Continuous,NL,IDFULL,QH,2021-07-12T18:30:00+02:00,2021-07-12T18:45:00+02:00,105.84,EUR,44.030,MWh
Power,Intraday,Continuous,NL,IDFULL,QH,2021-07-12T18:45:00+02:00,2021-07-12T19:00:00+02:00,140.98,EUR,48.980,MWh
Power,Intraday,Continuous,NL,IDFULL,QH,2021-07-12T19:00:00+02:00,2021-07-12T19:15:00+02:00,107.10,EUR,24.300,MWh
Power,Intraday,Continuous,NL,IDFULL,QH,2021-07-12T19:15:00+02:00,2021-07-12T19:30:00+02:00,117.80,EUR,23.450,MWh
Power,Intraday,Continuous,NL,IDFULL,QH,2021-07-12T19:30:00+02:00,2021-07-12T19:45:00+02:00,109.29,EUR,46.830,MWh
Power,Intraday,Continuous,NL,IDFULL,QH,2021-07-12T19:45:00+02:00,2021-07-12T20:00:00+02:00,121.22,EUR,42.930,MWh
Power,Intraday,Continuous,NL,IDFULL,QH,2021-07-12T20:00:00+02:00,2021-07-12T20:15:00+02:00,120.25,EUR,52.100,MWh
Power,Intraday,Continuous,NL,IDFULL,QH,2021-07-12T20:15:00+02:00,2021-07-12T20:30:00+02:00,107.69,EUR,36.400,MWh
Power,Intraday,Continuous,NL,IDFULL,QH,2021-07-12T20:30:00+02:00,2021-07-12T20:45:00+02:00,103.56,EUR,42.380,MWh
Power,Intraday,Continuous,NL,IDFULL,QH,2021-07-12T20:45:00+02:00,2021-07-12T21:00:00+02:00,99.90,EUR,54.830,MWh
Power,Intraday,Continuous,NL,IDFULL,QH,2021-07-12T21:00:00+02:00,2021-07-12T21:15:00+02:00,116.89,EUR,23.450,MWh
Power,Intraday,Continuous,NL,IDFULL,QH,2021-07-12T21:15:00+02:00,2021-07-12T21:30:00+02:00,107.63,EUR,34.630,MWh
Power,Intraday,Continuous,NL,IDFULL,QH,2021-07-12T21:30:00+02:00,2021-07-12T21:45:00+02:00,99.65,EUR,23.400,MWh
Power,Intraday,Continuous,NL,IDFULL,QH,2021-07-12T21:45:00+02:00,2021-07-12T22:00:00+02:00,96.13,EUR,28.900,MWh
Power,Intraday,Continuous,NL,IDFULL,QH,2021-07-12T22:00:00+02:00,2021-07-12T22:15:00+02:00,113.68,EUR,50.830,MWh
Power,Intraday,Continuous,NL,IDFULL,QH,2021-07-12T22:15:00+02:00,2021-07-12T22:30:00+02:00,102.43,EUR,29.350,MWh
Power,Intraday,Continuous,NL,IDFULL,QH,2021-07-12T22:30:00+02:00,2021-07-12T22:45:00+02:00,100.59,EUR,12.230,MWh
Power,Intraday,Continuous,NL,IDFULL,QH,2021-07-12T22:45:00+02:00,2021-07-12T23:00:00+02:00,91.66,EUR,26.730,MWh
Power,Intraday,Continuous,NL,IDFULL,QH,2021-07-12T23:00:00+02:00,2021-07-12T23:15:00+02:00,109.98,EUR,51.500,MWh
Power,Intraday,Continuous,NL,IDFULL,QH,2021-07-12T23:15:00+02:00,2021-07-12T23:30:00+02:00,98.92,EUR,36.280,MWh
Power,Intraday,Continuous,NL,IDFULL,QH,2021-07-12T23:30:00+02:00,2021-07-12T23:45:00+02:00,91.41,EUR,31.130,MWh
Power,Intraday,Continuous,NL,IDFULL,QH,2021-07-12T23:45:00+02:00,2021-07-13T00:00:00+02:00,75.95,EUR,54.180,MWh
Power,Intraday,Continuous,NL,ID1,QH,2021-07-12T00:00:00+02:00,2021-07-12T00:15:00+02:00,98.90,EUR,,MWh
Power,Intraday,Continuous,NL,ID1,QH,2021-07-12T00:15:00+02:00,2021-07-12T00:30:00+02:00,92.05,EUR,,MWh
Power,Intraday,Continuous,NL,ID1,QH,2021-07-12T00:30:00+02:00,2021-07-12T00:45:00+02:00,77.93,EUR,,MWh
Power,Intraday,Continuous,NL,ID1,QH,2021-07-12T00:45:00+02:00,2021-07-12T01:00:00+02:00,69.27,EUR,,MWh
Power,Intraday,Continuous,NL,ID1,QH,2021-07-12T01:00:00+02:00,2021-07-12T01:15:00+02:00,88.35,EUR,,MWh
Power,Intraday,Continuous,NL,ID1,QH,2021-07-12T01:15:00+02:00,2021-07-12T01:30:00+02:00,80.48,EUR,,MWh
Power,Intraday,Continuous,NL,ID1,QH,2021-07-12T01:30:00+02:00,2021-07-12T01:45:00+02:00,73.33,EUR,,MWh
Power,Intraday,Continuous,NL,ID1,QH,2021-07-12T01:45:00+02:00,2021-07-12T02:00:00+02:00,73.59,EUR,,MWh
Power,Intraday,Continuous,NL,ID1,QH,2021-07-12T02:00:00+02:00,2021-07-12T02:15:00+02:00,84.22,EUR,,MWh
Power,Intraday,Continuous,NL,ID1,QH,2021-07-12T02:15:00+02:00,2021-07-12T02:30:00+02:00,74.78,EUR,,MWh
Power,Intraday,Continuous,NL,ID1,QH,2021-07-12T02:30:00+02:00,2021-07-12T02:45:00+02:00,74.05,EUR,,MWh
Power,Intraday,Continuous,NL,ID1,QH,2021-07-12T02:45:00+02:00,2021-07-12T03:00:00+02:00,72.79,EUR,,MWh
Power,Intraday,Continuous,NL,ID1,QH,2021-07-12T03:00:00+02:00,2021-07-12T03:15:00+02:00,73.42,EUR,,MWh
Power,Intraday,Continuous,NL,ID1,QH,2021-07-12T03:15:00+02:00,2021-07-12T03:30:00+02:00,72.88,EUR,,MWh
Power,Intraday,Continuous,NL,ID1,QH,2021-07-12T03:30:00+02:00,2021-07-12T03:45:00+02:00,72.03,EUR,,MWh
Power,Intraday,Continuous,NL,ID1,QH,2021-07-12T03:45:00+02:00,2021-07-12T04:00:00+02:00,78.85,EUR,,MWh
Power,Intraday,Continuous,NL,ID1,QH,2021-07-12T04:00:00+02:00,2021-07-12T04:15:00+02:00,73.89,EUR,,MWh
Power,Intraday,Continuous,NL,ID1,QH,2021-07-12T04:15:00+02:00,2021-07-12T04:30:00+02:00,74.51,EUR,,MWh
Power,Intraday,Continuous,NL,ID1,QH,2021-07-12T04:30:00+02:00,2021-07-12T04:45:00+02:00,77.45,EUR,,MWh
Power,Intraday,Continuous,NL,ID1,QH,2021-07-12T04:45:00+02:00,2021-07-12T05:00:00+02:00,82.51,EUR,,MWh
Power,Intraday,Continuous,NL,ID1,QH,2021-07-12T05:00:00+02:00,2021-07-12T05:15:00+02:00,73.26,EUR,,MWh
Power,Intraday,Continuous,NL,ID1,QH,2021-07-12T05:15:00+02:00,2021-07-12T05:30:00+02:00,71.29,EUR,,MWh
Power,Intraday,Continuous,NL,ID1,QH,2021-07-12T05:30:00+02:00,2021-07-12T05:45:00+02:00,70.24,EUR,,MWh
Power,Intraday,Continuous,NL,ID1,QH,2021-07-12T05:45:00+02:00,2021-07-12T06:00:00+02:00,92.81,EUR,,MWh
Power,Intraday,Continuous,NL,ID1,QH,2021-07-12T06:00:00+02:00,2021-07-12T06:15:00+02:00,78.05,EUR,,MWh
Power,Intraday,Continuous,NL,ID1,QH,2021-07-12T06:15:00+02:00,2021-07-12T06:30:00+02:00,88.33,EUR,,MWh
Power,Intraday,Continuous,NL,ID1,QH,2021-07-12T06:30:00+02:00,2021-07-12T06:45:00+02:00,96.20,EUR,,MWh
Power,Intraday,Continuous,NL,ID1,QH,2021-07-12T06:45:00+02:00,2021-07-12T07:00:00+02:00,97.92,EUR,,MWh
Power,Intraday,Continuous,NL,ID1,QH,2021-07-12T07:00:00+02:00,2021-07-12T07:15:00+02:00,91.89,EUR,,MWh
Power,Intraday,Continuous,NL,ID1,QH,2021-07-12T07:15:00+02:00,2021-07-12T07:30:00+02:00,99.18,EUR,,MWh
Power,Intraday,Continuous,NL,ID1,QH,2021-07-12T07:30:00+02:00,2021-07-12T07:45:00+02:00,125.11,EUR,,MWh
Power,Intraday,Continuous,NL,ID1,QH,2021-07-12T07:45:00+02:00,2021-07-12T08:00:00+02:00,120.00,EUR,7.500,MWh
Power,Intraday,Continuous,NL,ID1,QH,2021-07-12T08:00:00+02:00,2021-07-12T08:15:00+02:00,137.84,EUR,,MWh
Power,Intraday,Continuous,NL,ID1,QH,2021-07-12T08:15:00+02:00,2021-07-12T08:30:00+02:00,71.27,EUR,2.500,MWh
Power,Intraday,Continuous,NL,ID1,QH,2021-07-12T08:30:00+02:00,2021-07-12T08:45:00+02:00,107.80,EUR,,MWh
Power,Intraday,Continuous,NL,ID1,QH,2021-07-12T08:45:00+02:00,2021-07-12T09:00:00+02:00,87.07,EUR,,MWh
Power,Intraday,Continuous,NL,ID1,QH,2021-07-12T09:00:00+02:00,2021-07-12T09:15:00+02:00,124.24,EUR,,MWh
Power,Intraday,Continuous,NL,ID1,QH,2021-07-12T09:15:00+02:00,2021-07-12T09:30:00+02:00,102.34,EUR,,MWh
Power,Intraday,Continuous,NL,ID1,QH,2021-07-12T09:30:00+02:00,2021-07-12T09:45:00+02:00,93.80,EUR,,MWh
Power,Intraday,Continuous,NL,ID1,QH,2021-07-12T09:45:00+02:00,2021-07-12T10:00:00+02:00,78.38,EUR,,MWh
Power,Intraday,Continuous,NL,ID1,QH,2021-07-12T10:00:00+02:00,2021-07-12T10:15:00+02:00,111.42,EUR,,MWh
Power,Intraday,Continuous,NL,ID1,QH,2021-07-12T10:15:00+02:00,2021-07-12T10:30:00+02:00,73.85,EUR,5.750,MWh
Power,Intraday,Continuous,NL,ID1,QH,2021-07-12T10:30:00+02:00,2021-07-12T10:45:00+02:00,65.76,EUR,9.000,MWh
Power,Intraday,Continuous,NL,ID1,QH,2021-07-12T10:45:00+02:00,2021-07-12T11:00:00+02:00,73.72,EUR,5.250,MWh
Power,Intraday,Continuous,NL,ID1,QH,2021-07-12T11:00:00+02:00,2021-07-12T11:15:00+02:00,74.59,EUR,14.130,MWh
Power,Intraday,Continuous,NL,ID1,QH,2021-07-12T11:15:00+02:00,2021-07-12T11:30:00+02:00,62.32,EUR,6.750,MWh
Power,Intraday,Continuous,NL,ID1,QH,2021-07-12T11:30:00+02:00,2021-07-12T11:45:00+02:00,73.49,EUR,,MWh
Power,Intraday,Continuous,NL,ID1,QH,2021-07-12T11:45:00+02:00,2021-07-12T12:00:00+02:00,55.07,EUR,3.250,MWh
Power,Intraday,Continuous,NL,ID1,QH,2021-07-12T12:00:00+02:00,2021-07-12T12:15:00+02:00,95.90,EUR,,MWh
Power,Intraday,Continuous,NL,ID1,QH,2021-07-12T12:15:00+02:00,2021-07-12T12:30:00+02:00,78.95,EUR,,MWh
Power,Intraday,Continuous,NL,ID1,QH,2021-07-12T12:30:00+02:00,2021-07-12T12:45:00+02:00,80.72,EUR,2.630,MWh
Power,Intraday,Continuous,NL,ID1,QH,2021-07-12T12:45:00+02:00,2021-07-12T13:00:00+02:00,79.86,EUR,16.550,MWh
Power,Intraday,Continuous,NL,ID1,QH,2021-07-12T13:00:00+02:00,2021-07-12T13:15:00+02:00,86.19,EUR,2.550,MWh
Power,Intraday,Continuous,NL,ID1,QH,2021-07-12T13:15:00+02:00,2021-07-12T13:30:00+02:00,79.55,EUR,13.600,MWh
Power,Intraday,Continuous,NL,ID1,QH,2021-07-12T13:30:00+02:00,2021-07-12T13:45:00+02:00,76.00,EUR,32.080,MWh
Power,Intraday,Continuous,NL,ID1,QH,2021-07-12T13:45:00+02:00,2021-07-12T14:00:00+02:00,87.95,EUR,9.600,MWh
Power,Intraday,Continuous,NL,ID1,QH,2021-07-12T14:00:00+02:00,2021-07-12T14:15:00+02:00,168.42,EUR,12.430,MWh
Power,Intraday,Continuous,NL,ID1,QH,2021-07-12T14:15:00+02:00,2021-07-12T14:30:00+02:00,81.94,EUR,11.650,MWh
Power,Intraday,Continuous,NL,ID1,QH,2021-07-12T14:30:00+02:00,2021-07-12T14:45:00+02:00,95.87,EUR,6.580,MWh
Power,Intraday,Continuous,NL,ID1,QH,2021-07-12T14:45:00+02:00,2021-07-12T15:00:00+02:00,95.28,EUR,,MWh
Power,Intraday,Continuous,NL,ID1,QH,2021-07-12T15:00:00+02:00,2021-07-12T15:15:00+02:00,78.01,EUR,8.750,MWh
Power,Intraday,Continuous,NL,ID1,QH,2021-07-12T15:15:00+02:00,2021-07-12T15:30:00+02:00,88.40,EUR,,MWh
Power,Intraday,Continuous,NL,ID1,QH,2021-07-12T15:30:00+02:00,2021-07-12T15:45:00+02:00,83.45,EUR,,MWh
Power,Intraday,Continuous,NL,ID1,QH,2021-07-12T15:45:00+02:00,2021-07-12T16:00:00+02:00,95.48,EUR,,MWh
Power,Intraday,Continuous,NL,ID1,QH,2021-07-12T16:00:00+02:00,2021-07-12T16:15:00+02:00,87.03,EUR,6.550,MWh
Power,Intraday,Continuous,NL,ID1,QH,2021-07-12T16:15:00+02:00,2021-07-12T16:30:00+02:00,69.35,EUR,8.750,MWh
Power,Intraday,Continuous,NL,ID1,QH,2021-07-12T16:30:00+02:00,2021-07-12T16:45:00+02:00,99.27,EUR,,MWh
Power,Intraday,Continuous,NL,ID1,QH,2021-07-12T16:45:00+02:00,2021-07-12T17:00:00+02:00,104.56,EUR,,MWh
Power,Intraday,Continuous,NL,ID1,QH,2021-07-12T17:00:00+02:00,2021-07-12T17:15:00+02:00,83.39,EUR,3.250,MWh
Power,Intraday,Continuous,NL,ID1,QH,2021-07-12T17:15:00+02:00,2021-07-12T17:30:00+02:00,93.01,EUR,,MWh
Power,Intraday,Continuous,NL,ID1,QH,2021-07-12T17:30:00+02:00,2021-07-12T17:45:00+02:00,98.95,EUR,,MWh
Power,Intraday,Continuous,NL,ID1,QH,2021-07-12T17:45:00+02:00,2021-07-12T18:00:00+02:00,125.41,EUR,,MWh
Power,Intraday,Continuous,NL,ID1,QH,2021-07-12T18:00:00+02:00,2021-07-12T18:15:00+02:00,96.79,EUR,,MWh
Power,Intraday,Continuous,NL,ID1,QH,2021-07-12T18:15:00+02:00,2021-07-12T18:30:00+02:00,99.98,EUR,,MWh
Power,Intraday,Continuous,NL,ID1,QH,2021-07-12T18:30:00+02:00,2021-07-12T18:45:00+02:00,104.29,EUR,,MWh
Power,Intraday,Continuous,NL,ID1,QH,2021-07-12T18:45:00+02:00,2021-07-12T19:00:00+02:00,142.21,EUR,,MWh
Power,Intraday,Continuous,NL,ID1,QH,2021-07-12T19:00:00+02:00,2021-07-12T19:15:00+02:00,104.20,EUR,,MWh
Power,Intraday,Continuous,NL,ID1,QH,2021-07-12T19:15:00+02:00,2021-07-12T19:30:00+02:00,113.01,EUR,,MWh
Power,Intraday,Continuous,NL,ID1,QH,2021-07-12T19:30:00+02:00,2021-07-12T19:45:00+02:00,106.62,EUR,,MWh
Power,Intraday,Continuous,NL,ID1,QH,2021-07-12T19:45:00+02:00,2021-07-12T20:00:00+02:00,119.97,EUR,,MWh
Power,Intraday,Continuous,NL,ID1,QH,2021-07-12T20:00:00+02:00,2021-07-12T20:15:00+02:00,118.13,EUR,,MWh
Power,Intraday,Continuous,NL,ID1,QH,2021-07-12T20:15:00+02:00,2021-07-12T20:30:00+02:00,107.06,EUR,,MWh
Power,Intraday,Continuous,NL,ID1,QH,2021-07-12T20:30:00+02:00,2021-07-12T20:45:00+02:00,102.19,EUR,,MWh
Power,Intraday,Continuous,NL,ID1,QH,2021-07-12T20:45:00+02:00,2021-07-12T21:00:00+02:00,99.27,EUR,,MWh
Power,Intraday,Continuous,NL,ID1,QH,2021-07-12T21:00:00+02:00,2021-07-12T21:15:00+02:00,112.36,EUR,,MWh
Power,Intraday,Continuous,NL,ID1,QH,2021-07-12T21:15:00+02:00,2021-07-12T21:30:00+02:00,105.59,EUR,,MWh
Power,Intraday,Continuous,NL,ID1,QH,2021-07-12T21:30:00+02:00,2021-07-12T21:45:00+02:00,97.52,EUR,,MWh
Power,Intraday,Continuous,NL,ID1,QH,2021-07-12T21:45:00+02:00,2021-07-12T22:00:00+02:00,96.95,EUR,,MWh
Power,Intraday,Continuous,NL,ID1,QH,2021-07-12T22:00:00+02:00,2021-07-12T22:15:00+02:00,113.47,EUR,,MWh
Power,Intraday,Continuous,NL,ID1,QH,2021-07-12T22:15:00+02:00,2021-07-12T22:30:00+02:00,102.45,EUR,,MWh
Power,Intraday,Continuous,NL,ID1,QH,2021-07-12T22:30:00+02:00,2021-07-12T22:45:00+02:00,99.81,EUR,,MWh
Power,Intraday,Continuous,NL,ID1,QH,2021-07-12T22:45:00+02:00,2021-07-12T23:00:00+02:00,93.98,EUR,,MWh
Power,Intraday,Continuous,NL,ID1,QH,2021-07-12T23:00:00+02:00,2021-07-12T23:15:00+02:00,104.03,EUR,,MWh
Power,Intraday,Continuous,NL,ID1,QH,2021-07-12T23:15:00+02:00,2021-07-12T23:30:00+02:00,97.46,EUR,,MWh
Power,Intraday,Continuous,NL,ID1,QH,2021-07-12T23:30:00+02:00,2021-07-12T23:45:00+02:00,92.16,EUR,,MWh
Power,Intraday,Continuous,NL,ID1,QH,2021-07-12T23:45:00+02:00,2021-07-13T00:00:00+02:00,75.17,EUR,,MWh
Power,Intraday,Continuous,NL,ID3,QH,2021-07-12T00:00:00+02:00,2021-07-12T00:15:00+02:00,98.90,EUR,62.930,MWh
Power,Intraday,Continuous,NL,ID3,QH,2021-07-12T00:15:00+02:00,2021-07-12T00:30:00+02:00,92.05,EUR,31.380,MWh
Power,Intraday,Continuous,NL,ID3,QH,2021-07-12T00:30:00+02:00,2021-07-12T00:45:00+02:00,77.93,EUR,22.480,MWh
Power,Intraday,Continuous,NL,ID3,QH,2021-07-12T00:45:00+02:00,2021-07-12T01:00:00+02:00,69.27,EUR,32.500,MWh
Power,Intraday,Continuous,NL,ID3,QH,2021-07-12T01:00:00+02:00,2021-07-12T01:15:00+02:00,88.35,EUR,10.930,MWh
Power,Intraday,Continuous,NL,ID3,QH,2021-07-12T01:15:00+02:00,2021-07-12T01:30:00+02:00,80.48,EUR,12.330,MWh
Power,Intraday,Continuous,NL,ID3,QH,2021-07-12T01:30:00+02:00,2021-07-12T01:45:00+02:00,73.33,EUR,17.730,MWh
Power,Intraday,Continuous,NL,ID3,QH,2021-07-12T01:45:00+02:00,2021-07-12T02:00:00+02:00,73.59,EUR,20.850,MWh
Power,Intraday,Continuous,NL,ID3,QH,2021-07-12T02:00:00+02:00,2021-07-12T02:15:00+02:00,84.22,EUR,18.650,MWh
Power,Intraday,Continuous,NL,ID3,QH,2021-07-12T02:15:00+02:00,2021-07-12T02:30:00+02:00,74.78,EUR,10.880,MWh
Power,Intraday,Continuous,NL,ID3,QH,2021-07-12T02:30:00+02:00,2021-07-12T02:45:00+02:00,74.05,EUR,14.000,MWh
Power,Intraday,Continuous,NL,ID3,QH,2021-07-12T02:45:00+02:00,2021-07-12T03:00:00+02:00,72.79,EUR,26.930,MWh
Power,Intraday,Continuous,NL,ID3,QH,2021-07-12T03:00:00+02:00,2021-07-12T03:15:00+02:00,73.42,EUR,7.430,MWh
Power,Intraday,Continuous,NL,ID3,QH,2021-07-12T03:15:00+02:00,2021-07-12T03:30:00+02:00,72.88,EUR,16.680,MWh
Power,Intraday,Continuous,NL,ID3,QH,2021-07-12T03:30:00+02:00,2021-07-12T03:45:00+02:00,72.03,EUR,22.080,MWh
Power,Intraday,Continuous,NL,ID3,QH,2021-07-12T03:45:00+02:00,2021-07-12T04:00:00+02:00,78.85,EUR,11.730,MWh
Power,Intraday,Continuous,NL,ID3,QH,2021-07-12T04:00:00+02:00,2021-07-12T04:15:00+02:00,73.89,EUR,7.250,MWh
Power,Intraday,Continuous,NL,ID3,QH,2021-07-12T04:15:00+02:00,2021-07-12T04:30:00+02:00,74.51,EUR,3.980,MWh
Power,Intraday,Continuous,NL,ID3,QH,2021-07-12T04:30:00+02:00,2021-07-12T04:45:00+02:00,77.45,EUR,4.750,MWh
Power,Intraday,Continuous,NL,ID3,QH,2021-07-12T04:45:00+02:00,2021-07-12T05:00:00+02:00,82.51,EUR,7.150,MWh
Power,Intraday,Continuous,NL,ID3,QH,2021-07-12T05:00:00+02:00,2021-07-12T05:15:00+02:00,73.26,EUR,21.850,MWh
Power,Intraday,Continuous,NL,ID3,QH,2021-07-12T05:15:00+02:00,2021-07-12T05:30:00+02:00,71.29,EUR,4.200,MWh
Power,Intraday,Continuous,NL,ID3,QH,2021-07-12T05:30:00+02:00,2021-07-12T05:45:00+02:00,70.24,EUR,15.080,MWh
Power,Intraday,Continuous,NL,ID3,QH,2021-07-12T05:45:00+02:00,2021-07-12T06:00:00+02:00,92.81,EUR,6.780,MWh
Power,Intraday,Continuous,NL,ID3,QH,2021-07-12T06:00:00+02:00,2021-07-12T06:15:00+02:00,78.05,EUR,19.180,MWh
Power,Intraday,Continuous,NL,ID3,QH,2021-07-12T06:15:00+02:00,2021-07-12T06:30:00+02:00,88.33,EUR,4.300,MWh
Power,Intraday,Continuous,NL,ID3,QH,2021-07-12T06:30:00+02:00,2021-07-12T06:45:00+02:00,96.20,EUR,10.680,MWh
Power,Intraday,Continuous,NL,ID3,QH,2021-07-12T06:45:00+02:00,2021-07-12T07:00:00+02:00,97.92,EUR,12.030,MWh
Power,Intraday,Continuous,NL,ID3,QH,2021-07-12T07:00:00+02:00,2021-07-12T07:15:00+02:00,91.89,EUR,10.580,MWh
Power,Intraday,Continuous,NL,ID3,QH,2021-07-12T07:15:00+02:00,2021-07-12T07:30:00+02:00,99.18,EUR,,MWh
Power,Intraday,Continuous,NL,ID3,QH,2021-07-12T07:30:00+02:00,2021-07-12T07:45:00+02:00,125.11,EUR,,MWh
Power,Intraday,Continuous,NL,ID3,QH,2021-07-12T07:45:00+02:00,2021-07-12T08:00:00+02:00,120.00,EUR,7.500,MWh
Power,Intraday,Continuous,NL,ID3,QH,2021-07-12T08:00:00+02:00,2021-07-12T08:15:00+02:00,137.84,EUR,23.350,MWh
Power,Intraday,Continuous,NL,ID3,QH,2021-07-12T08:15:00+02:00,2021-07-12T08:30:00+02:00,106.13,EUR,33.180,MWh
Power,Intraday,Continuous,NL,ID3,QH,2021-07-12T08:30:00+02:00,2021-07-12T08:45:00+02:00,107.80,EUR,23.630,MWh
Power,Intraday,Continuous,NL,ID3,QH,2021-07-12T08:45:00+02:00,2021-07-12T09:00:00+02:00,87.07,EUR,33.380,MWh
Power,Intraday,Continuous,NL,ID3,QH,2021-07-12T09:00:00+02:00,2021-07-12T09:15:00+02:00,124.24,EUR,47.280,MWh
Power,Intraday,Continuous,NL,ID3,QH,2021-07-12T09:15:00+02:00,2021-07-12T09:30:00+02:00,102.34,EUR,36.030,MWh
Power,Intraday,Continuous,NL,ID3,QH,2021-07-12T09:30:00+02:00,2021-07-12T09:45:00+02:00,93.80,EUR,38.750,MWh
Power,Intraday,Continuous,NL,ID3,QH,2021-07-12T09:45:00+02:00,2021-07-12T10:00:00+02:00,78.38,EUR,55.380,MWh
Power,Intraday,Continuous,NL,ID3,QH,2021-07-12T10:00:00+02:00,2021-07-12T10:15:00+02:00,111.42,EUR,22.900,MWh
Power,Intraday,Continuous,NL,ID3,QH,2021-07-12T10:15:00+02:00,2021-07-12T10:30:00+02:00,84.92,EUR,13.650,MWh
Power,Intraday,Continuous,NL,ID3,QH,2021-07-12T10:30:00+02:00,2021-07-12T10:45:00+02:00,77.61,EUR,16.650,MWh
Power,Intraday,Continuous,NL,ID3,QH,2021-07-12T10:45:00+02:00,2021-07-12T11:00:00+02:00,75.62,EUR,19.550,MWh
Power,Intraday,Continuous,NL,ID3,QH,2021-07-12T11:00:00+02:00,2021-07-12T11:15:00+02:00,87.83,EUR,33.880,MWh
Power,Intraday,Continuous,NL,ID3,QH,2021-07-12T11:15:00+02:00,2021-07-12T11:30:00+02:00,83.13,EUR,21.150,MWh
Power,Intraday,Continuous,NL,ID3,QH,2021-07-12T11:30:00+02:00,2021-07-12T11:45:00+02:00,73.49,EUR,17.580,MWh
Power,Intraday,Continuous,NL,ID3,QH,2021-07-12T11:45:00+02:00,2021-07-12T12:00:00+02:00,73.47,EUR,20.900,MWh
Power,Intraday,Continuous,NL,ID3,QH,2021-07-12T12:00:00+02:00,2021-07-12T12:15:00+02:00,95.90,EUR,14.950,MWh
Power,Intraday,Continuous,NL,ID3,QH,2021-07-12T12:15:00+02:00,2021-07-12T12:30:00+02:00,78.95,EUR,7.030,MWh
Power,Intraday,Continuous,NL,ID3,QH,2021-07-12T12:30:00+02:00,2021-07-12T12:45:00+02:00,69.42,EUR,9.100,MWh
Power,Intraday,Continuous,NL,ID3,QH,2021-07-12T12:45:00+02:00,2021-07-12T13:00:00+02:00,73.57,EUR,23.330,MWh
Power,Intraday,Continuous,NL,ID3,QH,2021-07-12T13:00:00+02:00,2021-07-12T13:15:00+02:00,84.12,EUR,36.330,MWh
Power,Intraday,Continuous,NL,ID3,QH,2021-07-12T13:15:00+02:00,2021-07-12T13:30:00+02:00,80.76,EUR,44.650,MWh
Power,Intraday,Continuous,NL,ID3,QH,2021-07-12T13:30:00+02:00,2021-07-12T13:45:00+02:00,75.24,EUR,69.450,MWh
Power,Intraday,Continuous,NL,ID3,QH,2021-07-12T13:45:00+02:00,2021-07-12T14:00:00+02:00,73.13,EUR,91.650,MWh
Power,Intraday,Continuous,NL,ID3,QH,2021-07-12T14:00:00+02:00,2021-07-12T14:15:00+02:00,117.59,EUR,26.680,MWh
Power,Intraday,Continuous,NL,ID3,QH,2021-07-12T14:15:00+02:00,2021-07-12T14:30:00+02:00,78.52,EUR,30.730,MWh
Power,Intraday,Continuous,NL,ID3,QH,2021-07-12T14:30:00+02:00,2021-07-12T14:45:00+02:00,80.97,EUR,79.300,MWh
Power,Intraday,Continuous,NL,ID3,QH,2021-07-12T14:45:00+02:00,2021-07-12T15:00:00+02:00,95.28,EUR,81.230,MWh
Power,Intraday,Continuous,NL,ID3,QH,2021-07-12T15:00:00+02:00,2021-07-12T15:15:00+02:00,73.15,EUR,91.600,MWh
Power,Intraday,Continuous,NL,ID3,QH,2021-07-12T15:15:00+02:00,2021-07-12T15:30:00+02:00,88.40,EUR,27.900,MWh
Power,Intraday,Continuous,NL,ID3,QH,2021-07-12T15:30:00+02:00,2021-07-12T15:45:00+02:00,83.45,EUR,64.750,MWh
Power,Intraday,Continuous,NL,ID3,QH,2021-07-12T15:45:00+02:00,2021-07-12T16:00:00+02:00,95.48,EUR,96.180,MWh
Power,Intraday,Continuous,NL,ID3,QH,2021-07-12T16:00:00+02:00,2021-07-12T16:15:00+02:00,76.03,EUR,16.350,MWh
Power,Intraday,Continuous,NL,ID3,QH,2021-07-12T16:15:00+02:00,2021-07-12T16:30:00+02:00,82.90,EUR,20.800,MWh
Power,Intraday,Continuous,NL,ID3,QH,2021-07-12T16:30:00+02:00,2021-07-12T16:45:00+02:00,99.27,EUR,40.850,MWh
Power,Intraday,Continuous,NL,ID3,QH,2021-07-12T16:45:00+02:00,2021-07-12T17:00:00+02:00,104.56,EUR,46.600,MWh
Power,Intraday,Continuous,NL,ID3,QH,2021-07-12T17:00:00+02:00,2021-07-12T17:15:00+02:00,71.40,EUR,67.280,MWh
Power,Intraday,Continuous,NL,ID3,QH,2021-07-12T17:15:00+02:00,2021-07-12T17:30:00+02:00,93.01,EUR,25.200,MWh
Power,Intraday,Continuous,NL,ID3,QH,2021-07-12T17:30:00+02:00,2021-07-12T17:45:00+02:00,98.95,EUR,32.200,MWh
Power,Intraday,Continuous,NL,ID3,QH,2021-07-12T17:45:00+02:00,2021-07-12T18:00:00+02:00,125.41,EUR,24.400,MWh
Power,Intraday,Continuous,NL,ID3,QH,2021-07-12T18:00:00+02:00,2021-07-12T18:15:00+02:00,96.79,EUR,28.150,MWh
Power,Intraday,Continuous,NL,ID3,QH,2021-07-12T18:15:00+02:00,2021-07-12T18:30:00+02:00,99.98,EUR,27.850,MWh
Power,Intraday,Continuous,NL,ID3,QH,2021-07-12T18:30:00+02:00,2021-07-12T18:45:00+02:00,104.29,EUR,33.850,MWh
Power,Intraday,Continuous,NL,ID3,QH,2021-07-12T18:45:00+02:00,2021-07-12T19:00:00+02:00,142.21,EUR,40.650,MWh
Power,Intraday,Continuous,NL,ID3,QH,2021-07-12T19:00:00+02:00,2021-07-12T19:15:00+02:00,104.20,EUR,13.250,MWh
Power,Intraday,Continuous,NL,ID3,QH,2021-07-12T19:15:00+02:00,2021-07-12T19:30:00+02:00,113.01,EUR,12.000,MWh
Power,Intraday,Continuous,NL,ID3,QH,2021-07-12T19:30:00+02:00,2021-07-12T19:45:00+02:00,106.62,EUR,38.750,MWh
Power,Intraday,Continuous,NL,ID3,QH,2021-07-12T19:45:00+02:00,2021-07-12T20:00:00+02:00,119.97,EUR,37.430,MWh
Power,Intraday,Continuous,NL,ID3,QH,2021-07-12T20:00:00+02:00,2021-07-12T20:15:00+02:00,118.13,EUR,34.800,MWh
Power,Intraday,Continuous,NL,ID3,QH,2021-07-12T20:15:00+02:00,2021-07-12T20:30:00+02:00,107.06,EUR,33.030,MWh
Power,Intraday,Continuous,NL,ID3,QH,2021-07-12T20:30:00+02:00,2021-07-12T20:45:00+02:00,102.19,EUR,38.030,MWh
Power,Intraday,Continuous,NL,ID3,QH,2021-07-12T20:45:00+02:00,2021-07-12T21:00:00+02:00,99.27,EUR,49.550,MWh
Power,Intraday,Continuous,NL,ID3,QH,2021-07-12T21:00:00+02:00,2021-07-12T21:15:00+02:00,112.36,EUR,12.780,MWh
Power,Intraday,Continuous,NL,ID3,QH,2021-07-12T21:15:00+02:00,2021-07-12T21:30:00+02:00,105.59,EUR,25.180,MWh
Power,Intraday,Continuous,NL,ID3,QH,2021-07-12T21:30:00+02:00,2021-07-12T21:45:00+02:00,97.52,EUR,12.250,MWh
Power,Intraday,Continuous,NL,ID3,QH,2021-07-12T21:45:00+02:00,2021-07-12T22:00:00+02:00,96.95,EUR,18.800,MWh
Power,Intraday,Continuous,NL,ID3,QH,2021-07-12T22:00:00+02:00,2021-07-12T22:15:00+02:00,113.47,EUR,30.450,MWh
Power,Intraday,Continuous,NL,ID3,QH,2021-07-12T22:15:00+02:00,2021-07-12T22:30:00+02:00,102.45,EUR,22.400,MWh
Power,Intraday,Continuous,NL,ID3,QH,2021-07-12T22:30:00+02:00,2021-07-12T22:45:00+02:00,99.81,EUR,9.080,MWh
Power,Intraday,Continuous,NL,ID3,QH,2021-07-12T22:45:00+02:00,2021-07-12T23:00:00+02:00,93.98,EUR,19.280,MWh
Power,Intraday,Continuous,NL,ID3,QH,2021-07-12T23:00:00+02:00,2021-07-12T23:15:00+02:00,104.03,EUR,18.350,MWh
Power,Intraday,Continuous,NL,ID3,QH,2021-07-12T23:15:00+02:00,2021-07-12T23:30:00+02:00,97.46,EUR,13.800,MWh
Power,Intraday,Continuous,NL,ID3,QH,2021-07-12T23:30:00+02:00,2021-07-12T23:45:00+02:00,92.16,EUR,23.730,MWh
Power,Intraday,Continuous,NL,ID3,QH,2021-07-12T23:45:00+02:00,2021-07-13T00:00:00+02:00,75.17,EUR,41.330,MWh
Power,Intraday,Continuous,NL,IDFULL,BASE,2021-07-12T00:00:00+02:00,2021-07-13T00:00:00+02:00,92.07,EUR,18806.700,MWh
Power,Intraday,Continuous,NL,IDFULL,PEAK,2021-07-12T08:00:00+02:00,2021-07-12T20:00:00+02:00,95.36,EUR,13230.800,MWh
