Commodity,NominationModality,TradingModality,MarketArea,IndexName,TimeResolution,DeliveryStart,DeliveryEnd,IndexPrice,Currency,Volume,VolumeUnit
Power,Intraday,Continuous,NL,IDFULL,H,2021-05-16T00:00:00+02:00,2021-05-16T01:00:00+02:00,46.33,EUR,460.500,MWh
Power,Intraday,Continuous,NL,IDFULL,H,2021-05-16T01:00:00+02:00,2021-05-16T02:00:00+02:00,47.82,EUR,192.000,MWh
Power,Intraday,Continuous,NL,IDFULL,H,2021-05-16T02:00:00+02:00,2021-05-16T03:00:00+02:00,30.70,EUR,329.000,MWh
Power,Intraday,Continuous,NL,IDFULL,H,2021-05-16T03:00:00+02:00,2021-05-16T04:00:00+02:00,25.82,EUR,277.600,MWh
Power,Intraday,Continuous,NL,IDFULL,H,2021-05-16T04:00:00+02:00,2021-05-16T05:00:00+02:00,21.57,EUR,364.400,MWh
Power,Intraday,Continuous,NL,IDFULL,H,2021-05-16T05:00:00+02:00,2021-05-16T06:00:00+02:00,23.10,EUR,451.300,MWh
Power,Intraday,Continuous,NL,IDFULL,H,2021-05-16T06:00:00+02:00,2021-05-16T07:00:00+02:00,22.71,EUR,479.300,MWh
Power,Intraday,Continuous,NL,IDFULL,H,2021-05-16T07:00:00+02:00,2021-05-16T08:00:00+02:00,24.91,EUR,341.500,MWh
Power,Intraday,Continuous,NL,IDFULL,H,2021-05-16T08:00:00+02:00,2021-05-16T09:00:00+02:00,27.22,EUR,376.100,MWh
Power,Intraday,Continuous,NL,IDFULL,H,2021-05-16T09:00:00+02:00,2021-05-16T10:00:00+02:00,30.74,EUR,523.100,MWh
Power,Intraday,Continuous,NL,IDFULL,H,2021-05-16T10:00:00+02:00,2021-05-16T11:00:00+02:00,24.54,EUR,597.400,MWh
Power,Intraday,Continuous,NL,IDFULL,H,2021-05-16T11:00:00+02:00,2021-05-16T12:00:00+02:00,22.01,EUR,665.500,MWh
Power,Intraday,Continuous,NL,IDFULL,H,2021-05-16T12:00:00+02:00,2021-05-16T13:00:00+02:00,20.46,EUR,822.200,MWh
Power,Intraday,Continuous,NL,IDFULL,H,2021-05-16T13:00:00+02:00,2021-05-16T14:00:00+02:00,7.12,EUR,937.700,MWh
Power,Intraday,Continuous,NL,IDFULL,H,2021-05-16T14:00:00+02:00,2021-05-16T15:00:00+02:00,15.18,EUR,650.100,MWh
Power,Intraday,Continuous,NL,IDFULL,H,2021-05-16T15:00:00+02:00,2021-05-16T16:00:00+02:00,7.99,EUR,964.100,MWh
Power,Intraday,Continuous,NL,IDFULL,H,2021-05-16T16:00:00+02:00,2021-05-16T17:00:00+02:00,22.74,EUR,1081.200,MWh
Power,Intraday,Continuous,NL,IDFULL,H,2021-05-16T17:00:00+02:00,2021-05-16T18:00:00+02:00,67.16,EUR,255.600,MWh
Power,Intraday,Continuous,NL,IDFULL,H,2021-05-16T18:00:00+02:00,2021-05-16T19:00:00+02:00,67.93,EUR,437.200,MWh
Power,Intraday,Continuous,NL,IDFULL,H,2021-05-16T19:00:00+02:00,2021-05-16T20:00:00+02:00,82.20,EUR,1136.700,MWh
Power,Intraday,Continuous,NL,IDFULL,H,2021-05-16T20:00:00+02:00,2021-05-16T21:00:00+02:00,105.23,EUR,172.200,MWh
Power,Intraday,Continuous,NL,IDFULL,H,2021-05-16T21:00:00+02:00,2021-05-16T22:00:00+02:00,78.13,EUR,637.400,MWh
Power,Intraday,Continuous,NL,IDFULL,H,2021-05-16T22:00:00+02:00,2021-05-16T23:00:00+02:00,75.29,EUR,624.600,MWh
Power,Intraday,Continuous,NL,IDFULL,H,2021-05-16T23:00:00+02:00,2021-05-17T00:00:00+02:00,66.52,EUR,601.400,MWh
Power,Intraday,Continuous,NL,ID1,H,2021-05-16T00:00:00+02:00,2021-05-16T01:00:00+02:00,45.00,EUR,10.000,MWh
Power,Intraday,Continuous,NL,ID1,H,2021-05-16T01:00:00+02:00,2021-05-16T02:00:00+02:00,5.90,EUR,10.000,MWh
Power,Intraday,Continuous,NL,ID1,H,2021-05-16T02:00:00+02:00,2021-05-16T03:00:00+02:00,28.90,EUR,,MWh
Power,Intraday,Continuous,NL,ID1,H,2021-05-16T03:00:00+02:00,2021-05-16T04:00:00+02:00,24.24,EUR,,MWh
Power,Intraday,Continuous,NL,ID1,H,2021-05-16T04:00:00+02:00,2021-05-16T05:00:00+02:00,19.79,EUR,,MWh
Power,Intraday,Continuous,NL,ID1,H,2021-05-16T05:00:00+02:00,2021-05-16T06:00:00+02:00,23.09,EUR,,MWh
Power,Intraday,Continuous,NL,ID1,H,2021-05-16T06:00:00+02:00,2021-05-16T07:00:00+02:00,23.66,EUR,,MWh
Power,Intraday,Continuous,NL,ID1,H,2021-05-16T07:00:00+02:00,2021-05-16T08:00:00+02:00,25.85,EUR,,MWh
Power,Intraday,Continuous,NL,ID1,H,2021-05-16T08:00:00+02:00,2021-05-16T09:00:00+02:00,28.63,EUR,40.000,MWh
Power,Intraday,Continuous,NL,ID1,H,2021-05-16T09:00:00+02:00,2021-05-16T10:00:00+02:00,31.64,EUR,,MWh
Power,Intraday,Continuous,NL,ID1,H,2021-05-16T10:00:00+02:00,2021-05-16T11:00:00+02:00,19.72,EUR,118.700,MWh
Power,Intraday,Continuous,NL,ID1,H,2021-05-16T11:00:00+02:00,2021-05-16T12:00:00+02:00,-15.86,EUR,15.500,MWh
Power,Intraday,Continuous,NL,ID1,H,2021-05-16T12:00:00+02:00,2021-05-16T13:00:00+02:00,32.11,EUR,45.000,MWh
Power,Intraday,Continuous,NL,ID1,H,2021-05-16T13:00:00+02:00,2021-05-16T14:00:00+02:00,-5.52,EUR,20.000,MWh
Power,Intraday,Continuous,NL,ID1,H,2021-05-16T14:00:00+02:00,2021-05-16T15:00:00+02:00,61.33,EUR,150.300,MWh
Power,Intraday,Continuous,NL,ID1,H,2021-05-16T15:00:00+02:00,2021-05-16T16:00:00+02:00,-11.09,EUR,84.300,MWh
Power,Intraday,Continuous,NL,ID1,H,2021-05-16T16:00:00+02:00,2021-05-16T17:00:00+02:00,37.48,EUR,58.000,MWh
Power,Intraday,Continuous,NL,ID1,H,2021-05-16T17:00:00+02:00,2021-05-16T18:00:00+02:00,74.85,EUR,14.400,MWh
Power,Intraday,Continuous,NL,ID1,H,2021-05-16T18:00:00+02:00,2021-05-16T19:00:00+02:00,68.03,EUR,,MWh
Power,Intraday,Continuous,NL,ID1,H,2021-05-16T19:00:00+02:00,2021-05-16T20:00:00+02:00,59.75,EUR,40.000,MWh
Power,Intraday,Continuous,NL,ID1,H,2021-05-16T20:00:00+02:00,2021-05-16T21:00:00+02:00,75.00,EUR,25.400,MWh
Power,Intraday,Continuous,NL,ID1,H,2021-05-16T21:00:00+02:00,2021-05-16T22:00:00+02:00,77.07,EUR,,MWh
Power,Intraday,Continuous,NL,ID1,H,2021-05-16T22:00:00+02:00,2021-05-16T23:00:00+02:00,76.29,EUR,,MWh
Power,Intraday,Continuous,NL,ID1,H,2021-05-16T23:00:00+02:00,2021-05-17T00:00:00+02:00,66.64,EUR,,MWh
Power,Intraday,Continuous,NL,ID3,H,2021-05-16T00:00:00+02:00,2021-05-16T01:00:00+02:00,46.47,EUR,425.900,MWh
Power,Intraday,Continuous,NL,ID3,H,2021-05-16T01:00:00+02:00,2021-05-16T02:00:00+02:00,48.38,EUR,167.800,MWh
Power,Intraday,Continuous,NL,ID3,H,2021-05-16T02:00:00+02:00,2021-05-16T03:00:00+02:00,28.90,EUR,253.900,MWh
Power,Intraday,Continuous,NL,ID3,H,2021-05-16T03:00:00+02:00,2021-05-16T04:00:00+02:00,24.24,EUR,207.100,MWh
Power,Intraday,Continuous,NL,ID3,H,2021-05-16T04:00:00+02:00,2021-05-16T05:00:00+02:00,19.79,EUR,198.600,MWh
Power,Intraday,Continuous,NL,ID3,H,2021-05-16T05:00:00+02:00,2021-05-16T06:00:00+02:00,23.09,EUR,289.300,MWh
Power,Intraday,Continuous,NL,ID3,H,2021-05-16T06:00:00+02:00,2021-05-16T07:00:00+02:00,23.66,EUR,347.400,MWh
Power,Intraday,Continuous,NL,ID3,H,2021-05-16T07:00:00+02:00,2021-05-16T08:00:00+02:00,25.85,EUR,233.800,MWh
Power,Intraday,Continuous,NL,ID3,H,2021-05-16T08:00:00+02:00,2021-05-16T09:00:00+02:00,27.33,EUR,273.700,MWh
Power,Intraday,Continuous,NL,ID3,H,2021-05-16T09:00:00+02:00,2021-05-16T10:00:00+02:00,31.64,EUR,357.100,MWh
Power,Intraday,Continuous,NL,ID3,H,2021-05-16T10:00:00+02:00,2021-05-16T11:00:00+02:00,24.50,EUR,460.400,MWh
Power,Intraday,Continuous,NL,ID3,H,2021-05-16T11:00:00+02:00,2021-05-16T12:00:00+02:00,20.58,EUR,509.200,MWh
Power,Intraday,Continuous,NL,ID3,H,2021-05-16T12:00:00+02:00,2021-05-16T13:00:00+02:00,19.94,EUR,718.200,MWh
Power,Intraday,Continuous,NL,ID3,H,2021-05-16T13:00:00+02:00,2021-05-16T14:00:00+02:00,5.39,EUR,741.000,MWh
Power,Intraday,Continuous,NL,ID3,H,2021-05-16T14:00:00+02:00,2021-05-16T15:00:00+02:00,15.40,EUR,576.000,MWh
Power,Intraday,Continuous,NL,ID3,H,2021-05-16T15:00:00+02:00,2021-05-16T16:00:00+02:00,7.26,EUR,788.800,MWh
Power,Intraday,Continuous,NL,ID3,H,2021-05-16T16:00:00+02:00,2021-05-16T17:00:00+02:00,22.60,EUR,718.800,MWh
Power,Intraday,Continuous,NL,ID3,H,2021-05-16T17:00:00+02:00,2021-05-16T18:00:00+02:00,73.01,EUR,170.900,MWh
Power,Intraday,Continuous,NL,ID3,H,2021-05-16T18:00:00+02:00,2021-05-16T19:00:00+02:00,68.03,EUR,339.500,MWh
Power,Intraday,Continuous,NL,ID3,H,2021-05-16T19:00:00+02:00,2021-05-16T20:00:00+02:00,82.37,EUR,685.500,MWh
Power,Intraday,Continuous,NL,ID3,H,2021-05-16T20:00:00+02:00,2021-05-16T21:00:00+02:00,109.12,EUR,140.500,MWh
Power,Intraday,Continuous,NL,ID3,H,2021-05-16T21:00:00+02:00,2021-05-16T22:00:00+02:00,77.07,EUR,383.400,MWh
Power,Intraday,Continuous,NL,ID3,H,2021-05-16T22:00:00+02:00,2021-05-16T23:00:00+02:00,76.29,EUR,295.300,MWh
Power,Intraday,Continuous,NL,ID3,H,2021-05-16T23:00:00+02:00,2021-05-17T00:00:00+02:00,66.64,EUR,199.400,MWh
Power,Intraday,Continuous,NL,IDFULL,HH,2021-05-16T00:00:00+02:00,2021-05-16T00:30:00+02:00,46.33,EUR,,MWh
Power,Intraday,Continuous,NL,IDFULL,HH,2021-05-16T00:30:00+02:00,2021-05-16T01:00:00+02:00,46.33,EUR,,MWh
Power,Intraday,Continuous,NL,IDFULL,HH,2021-05-16T01:00:00+02:00,2021-05-16T01:30:00+02:00,47.82,EUR,,MWh
Power,Intraday,Continuous,NL,IDFULL,HH,2021-05-16T01:30:00+02:00,2021-05-16T02:00:00+02:00,47.82,EUR,,MWh
Power,Intraday,Continuous,NL,IDFULL,HH,2021-05-16T02:00:00+02:00,2021-05-16T02:30:00+02:00,30.70,EUR,,MWh
Power,Intraday,Continuous,NL,IDFULL,HH,2021-05-16T02:30:00+02:00,2021-05-16T03:00:00+02:00,30.70,EUR,,MWh
Power,Intraday,Continuous,NL,IDFULL,HH,2021-05-16T03:00:00+02:00,2021-05-16T03:30:00+02:00,25.82,EUR,,MWh
Power,Intraday,Continuous,NL,IDFULL,HH,2021-05-16T03:30:00+02:00,2021-05-16T04:00:00+02:00,25.82,EUR,,MWh
Power,Intraday,Continuous,NL,IDFULL,HH,2021-05-16T04:00:00+02:00,2021-05-16T04:30:00+02:00,21.57,EUR,,MWh
Power,Intraday,Continuous,NL,IDFULL,HH,2021-05-16T04:30:00+02:00,2021-05-16T05:00:00+02:00,21.57,EUR,,MWh
Power,Intraday,Continuous,NL,IDFULL,HH,2021-05-16T05:00:00+02:00,2021-05-16T05:30:00+02:00,23.10,EUR,,MWh
Power,Intraday,Continuous,NL,IDFULL,HH,2021-05-16T05:30:00+02:00,2021-05-16T06:00:00+02:00,23.10,EUR,,MWh
Power,Intraday,Continuous,NL,IDFULL,HH,2021-05-16T06:00:00+02:00,2021-05-16T06:30:00+02:00,22.71,EUR,,MWh
Power,Intraday,Continuous,NL,IDFULL,HH,2021-05-16T06:30:00+02:00,2021-05-16T07:00:00+02:00,22.71,EUR,,MWh
Power,Intraday,Continuous,NL,IDFULL,HH,2021-05-16T07:00:00+02:00,2021-05-16T07:30:00+02:00,24.91,EUR,,MWh
Power,Intraday,Continuous,NL,IDFULL,HH,2021-05-16T07:30:00+02:00,2021-05-16T08:00:00+02:00,24.91,EUR,,MWh
Power,Intraday,Continuous,NL,IDFULL,HH,2021-05-16T08:00:00+02:00,2021-05-16T08:30:00+02:00,27.22,EUR,,MWh
Power,Intraday,Continuous,NL,IDFULL,HH,2021-05-16T08:30:00+02:00,2021-05-16T09:00:00+02:00,27.22,EUR,,MWh
Power,Intraday,Continuous,NL,IDFULL,HH,2021-05-16T09:00:00+02:00,2021-05-16T09:30:00+02:00,30.74,EUR,,MWh
Power,Intraday,Continuous,NL,IDFULL,HH,2021-05-16T09:30:00+02:00,2021-05-16T10:00:00+02:00,30.74,EUR,,MWh
Power,Intraday,Continuous,NL,IDFULL,HH,2021-05-16T10:00:00+02:00,2021-05-16T10:30:00+02:00,24.54,EUR,,MWh
Power,Intraday,Continuous,NL,IDFULL,HH,2021-05-16T10:30:00+02:00,2021-05-16T11:00:00+02:00,24.54,EUR,,MWh
Power,Intraday,Continuous,NL,IDFULL,HH,2021-05-16T11:00:00+02:00,2021-05-16T11:30:00+02:00,22.01,EUR,,MWh
Power,Intraday,Continuous,NL,IDFULL,HH,2021-05-16T11:30:00+02:00,2021-05-16T12:00:00+02:00,22.01,EUR,,MWh
Power,Intraday,Continuous,NL,IDFULL,HH,2021-05-16T12:00:00+02:00,2021-05-16T12:30:00+02:00,20.46,EUR,,MWh
Power,Intraday,Continuous,NL,IDFULL,HH,2021-05-16T12:30:00+02:00,2021-05-16T13:00:00+02:00,20.46,EUR,,MWh
Power,Intraday,Continuous,NL,IDFULL,HH,2021-05-16T13:00:00+02:00,2021-05-16T13:30:00+02:00,7.12,EUR,,MWh
Power,Intraday,Continuous,NL,IDFULL,HH,2021-05-16T13:30:00+02:00,2021-05-16T14:00:00+02:00,7.12,EUR,,MWh
Power,Intraday,Continuous,NL,IDFULL,HH,2021-05-16T14:00:00+02:00,2021-05-16T14:30:00+02:00,15.18,EUR,,MWh
Power,Intraday,Continuous,NL,IDFULL,HH,2021-05-16T14:30:00+02:00,2021-05-16T15:00:00+02:00,15.18,EUR,,MWh
Power,Intraday,Continuous,NL,IDFULL,HH,2021-05-16T15:00:00+02:00,2021-05-16T15:30:00+02:00,7.99,EUR,,MWh
Power,Intraday,Continuous,NL,IDFULL,HH,2021-05-16T15:30:00+02:00,2021-05-16T16:00:00+02:00,7.99,EUR,,MWh
Power,Intraday,Continuous,NL,IDFULL,HH,2021-05-16T16:00:00+02:00,2021-05-16T16:30:00+02:00,22.74,EUR,,MWh
Power,Intraday,Continuous,NL,IDFULL,HH,2021-05-16T16:30:00+02:00,2021-05-16T17:00:00+02:00,22.74,EUR,,MWh
Power,Intraday,Continuous,NL,IDFULL,HH,2021-05-16T17:00:00+02:00,2021-05-16T17:30:00+02:00,67.16,EUR,,MWh
Power,Intraday,Continuous,NL,IDFULL,HH,2021-05-16T17:30:00+02:00,2021-05-16T18:00:00+02:00,67.16,EUR,,MWh
Power,Intraday,Continuous,NL,IDFULL,HH,2021-05-16T18:00:00+02:00,2021-05-16T18:30:00+02:00,67.93,EUR,,MWh
Power,Intraday,Continuous,NL,IDFULL,HH,2021-05-16T18:30:00+02:00,2021-05-16T19:00:00+02:00,67.93,EUR,,MWh
Power,Intraday,Continuous,NL,IDFULL,HH,2021-05-16T19:00:00+02:00,2021-05-16T19:30:00+02:00,82.20,EUR,,MWh
Power,Intraday,Continuous,NL,IDFULL,HH,2021-05-16T19:30:00+02:00,2021-05-16T20:00:00+02:00,82.20,EUR,,MWh
Power,Intraday,Continuous,NL,IDFULL,HH,2021-05-16T20:00:00+02:00,2021-05-16T20:30:00+02:00,105.23,EUR,,MWh
Power,Intraday,Continuous,NL,IDFULL,HH,2021-05-16T20:30:00+02:00,2021-05-16T21:00:00+02:00,105.23,EUR,,MWh
Power,Intraday,Continuous,NL,IDFULL,HH,2021-05-16T21:00:00+02:00,2021-05-16T21:30:00+02:00,78.13,EUR,,MWh
Power,Intraday,Continuous,NL,IDFULL,HH,2021-05-16T21:30:00+02:00,2021-05-16T22:00:00+02:00,78.13,EUR,,MWh
Power,Intraday,Continuous,NL,IDFULL,HH,2021-05-16T22:00:00+02:00,2021-05-16T22:30:00+02:00,75.29,EUR,,MWh
Power,Intraday,Continuous,NL,IDFULL,HH,2021-05-16T22:30:00+02:00,2021-05-16T23:00:00+02:00,75.29,EUR,,MWh
Power,Intraday,Continuous,NL,IDFULL,HH,2021-05-16T23:00:00+02:00,2021-05-16T23:30:00+02:00,66.52,EUR,,MWh
Power,Intraday,Continuous,NL,IDFULL,HH,2021-05-16T23:30:00+02:00,2021-05-17T00:00:00+02:00,66.52,EUR,,MWh
Power,Intraday,Continuous,NL,ID1,HH,2021-05-16T00:00:00+02:00,2021-05-16T00:30:00+02:00,46.33,EUR,,MWh
Power,Intraday,Continuous,NL,ID1,HH,2021-05-16T00:30:00+02:00,2021-05-16T01:00:00+02:00,46.33,EUR,,MWh
Power,Intraday,Continuous,NL,ID1,HH,2021-05-16T01:00:00+02:00,2021-05-16T01:30:00+02:00,47.82,EUR,,MWh
Power,Intraday,Continuous,NL,ID1,HH,2021-05-16T01:30:00+02:00,2021-05-16T02:00:00+02:00,47.82,EUR,,MWh
Power,Intraday,Continuous,NL,ID1,HH,2021-05-16T02:00:00+02:00,2021-05-16T02:30:00+02:00,30.70,EUR,,MWh
Power,Intraday,Continuous,NL,ID1,HH,2021-05-16T02:30:00+02:00,2021-05-16T03:00:00+02:00,30.70,EUR,,MWh
Power,Intraday,Continuous,NL,ID1,HH,2021-05-16T03:00:00+02:00,2021-05-16T03:30:00+02:00,25.82,EUR,,MWh
Power,Intraday,Continuous,NL,ID1,HH,2021-05-16T03:30:00+02:00,2021-05-16T04:00:00+02:00,25.82,EUR,,MWh
Power,Intraday,Continuous,NL,ID1,HH,2021-05-16T04:00:00+02:00,2021-05-16T04:30:00+02:00,21.57,EUR,,MWh
Power,Intraday,Continuous,NL,ID1,HH,2021-05-16T04:30:00+02:00,2021-05-16T05:00:00+02:00,21.57,EUR,,MWh
Power,Intraday,Continuous,NL,ID1,HH,2021-05-16T05:00:00+02:00,2021-05-16T05:30:00+02:00,23.10,EUR,,MWh
Power,Intraday,Continuous,NL,ID1,HH,2021-05-16T05:30:00+02:00,2021-05-16T06:00:00+02:00,23.10,EUR,,MWh
Power,Intraday,Continuous,NL,ID1,HH,2021-05-16T06:00:00+02:00,2021-05-16T06:30:00+02:00,22.71,EUR,,MWh
Power,Intraday,Continuous,NL,ID1,HH,2021-05-16T06:30:00+02:00,2021-05-16T07:00:00+02:00,22.71,EUR,,MWh
Power,Intraday,Continuous,NL,ID1,HH,2021-05-16T07:00:00+02:00,2021-05-16T07:30:00+02:00,24.91,EUR,,MWh
Power,Intraday,Continuous,NL,ID1,HH,2021-05-16T07:30:00+02:00,2021-05-16T08:00:00+02:00,24.91,EUR,,MWh
Power,Intraday,Continuous,NL,ID1,HH,2021-05-16T08:00:00+02:00,2021-05-16T08:30:00+02:00,27.22,EUR,,MWh
Power,Intraday,Continuous,NL,ID1,HH,2021-05-16T08:30:00+02:00,2021-05-16T09:00:00+02:00,27.22,EUR,,MWh
Power,Intraday,Continuous,NL,ID1,HH,2021-05-16T09:00:00+02:00,2021-05-16T09:30:00+02:00,30.74,EUR,,MWh
Power,Intraday,Continuous,NL,ID1,HH,2021-05-16T09:30:00+02:00,2021-05-16T10:00:00+02:00,30.74,EUR,,MWh
Power,Intraday,Continuous,NL,ID1,HH,2021-05-16T10:00:00+02:00,2021-05-16T10:30:00+02:00,24.54,EUR,,MWh
Power,Intraday,Continuous,NL,ID1,HH,2021-05-16T10:30:00+02:00,2021-05-16T11:00:00+02:00,24.54,EUR,,MWh
Power,Intraday,Continuous,NL,ID1,HH,2021-05-16T11:00:00+02:00,2021-05-16T11:30:00+02:00,22.01,EUR,,MWh
Power,Intraday,Continuous,NL,ID1,HH,2021-05-16T11:30:00+02:00,2021-05-16T12:00:00+02:00,22.01,EUR,,MWh
Power,Intraday,Continuous,NL,ID1,HH,2021-05-16T12:00:00+02:00,2021-05-16T12:30:00+02:00,20.46,EUR,,MWh
Power,Intraday,Continuous,NL,ID1,HH,2021-05-16T12:30:00+02:00,2021-05-16T13:00:00+02:00,20.46,EUR,,MWh
Power,Intraday,Continuous,NL,ID1,HH,2021-05-16T13:00:00+02:00,2021-05-16T13:30:00+02:00,7.12,EUR,,MWh
Power,Intraday,Continuous,NL,ID1,HH,2021-05-16T13:30:00+02:00,2021-05-16T14:00:00+02:00,7.12,EUR,,MWh
Power,Intraday,Continuous,NL,ID1,HH,2021-05-16T14:00:00+02:00,2021-05-16T14:30:00+02:00,15.18,EUR,,MWh
Power,Intraday,Continuous,NL,ID1,HH,2021-05-16T14:30:00+02:00,2021-05-16T15:00:00+02:00,15.18,EUR,,MWh
Power,Intraday,Continuous,NL,ID1,HH,2021-05-16T15:00:00+02:00,2021-05-16T15:30:00+02:00,7.99,EUR,,MWh
Power,Intraday,Continuous,NL,ID1,HH,2021-05-16T15:30:00+02:00,2021-05-16T16:00:00+02:00,7.99,EUR,,MWh
Power,Intraday,Continuous,NL,ID1,HH,2021-05-16T16:00:00+02:00,2021-05-16T16:30:00+02:00,22.74,EUR,,MWh
Power,Intraday,Continuous,NL,ID1,HH,2021-05-16T16:30:00+02:00,2021-05-16T17:00:00+02:00,22.74,EUR,,MWh
Power,Intraday,Continuous,NL,ID1,HH,2021-05-16T17:00:00+02:00,2021-05-16T17:30:00+02:00,67.16,EUR,,MWh
Power,Intraday,Continuous,NL,ID1,HH,2021-05-16T17:30:00+02:00,2021-05-16T18:00:00+02:00,67.16,EUR,,MWh
Power,Intraday,Continuous,NL,ID1,HH,2021-05-16T18:00:00+02:00,2021-05-16T18:30:00+02:00,67.93,EUR,,MWh
Power,Intraday,Continuous,NL,ID1,HH,2021-05-16T18:30:00+02:00,2021-05-16T19:00:00+02:00,67.93,EUR,,MWh
Power,Intraday,Continuous,NL,ID1,HH,2021-05-16T19:00:00+02:00,2021-05-16T19:30:00+02:00,82.20,EUR,,MWh
Power,Intraday,Continuous,NL,ID1,HH,2021-05-16T19:30:00+02:00,2021-05-16T20:00:00+02:00,82.20,EUR,,MWh
Power,Intraday,Continuous,NL,ID1,HH,2021-05-16T20:00:00+02:00,2021-05-16T20:30:00+02:00,105.23,EUR,,MWh
Power,Intraday,Continuous,NL,ID1,HH,2021-05-16T20:30:00+02:00,2021-05-16T21:00:00+02:00,105.23,EUR,,MWh
Power,Intraday,Continuous,NL,ID1,HH,2021-05-16T21:00:00+02:00,2021-05-16T21:30:00+02:00,78.13,EUR,,MWh
Power,Intraday,Continuous,NL,ID1,HH,2021-05-16T21:30:00+02:00,2021-05-16T22:00:00+02:00,78.13,EUR,,MWh
Power,Intraday,Continuous,NL,ID1,HH,2021-05-16T22:00:00+02:00,2021-05-16T22:30:00+02:00,75.29,EUR,,MWh
Power,Intraday,Continuous,NL,ID1,HH,2021-05-16T22:30:00+02:00,2021-05-16T23:00:00+02:00,75.29,EUR,,MWh
Power,Intraday,Continuous,NL,ID1,HH,2021-05-16T23:00:00+02:00,2021-05-16T23:30:00+02:00,66.52,EUR,,MWh
Power,Intraday,Continuous,NL,ID1,HH,2021-05-16T23:30:00+02:00,2021-05-17T00:00:00+02:00,66.52,EUR,,MWh
Power,Intraday,Continuous,NL,ID3,HH,2021-05-16T00:00:00+02:00,2021-05-16T00:30:00+02:00,46.33,EUR,,MWh
Power,Intraday,Continuous,NL,ID3,HH,2021-05-16T00:30:00+02:00,2021-05-16T01:00:00+02:00,46.33,EUR,,MWh
Power,Intraday,Continuous,NL,ID3,HH,2021-05-16T01:00:00+02:00,2021-05-16T01:30:00+02:00,47.82,EUR,,MWh
Power,Intraday,Continuous,NL,ID3,HH,2021-05-16T01:30:00+02:00,2021-05-16T02:00:00+02:00,47.82,EUR,,MWh
Power,Intraday,Continuous,NL,ID3,HH,2021-05-16T02:00:00+02:00,2021-05-16T02:30:00+02:00,30.70,EUR,,MWh
Power,Intraday,Continuous,NL,ID3,HH,2021-05-16T02:30:00+02:00,2021-05-16T03:00:00+02:00,30.70,EUR,,MWh
Power,Intraday,Continuous,NL,ID3,HH,2021-05-16T03:00:00+02:00,2021-05-16T03:30:00+02:00,25.82,EUR,,MWh
Power,Intraday,Continuous,NL,ID3,HH,2021-05-16T03:30:00+02:00,2021-05-16T04:00:00+02:00,25.82,EUR,,MWh
Power,Intraday,Continuous,NL,ID3,HH,2021-05-16T04:00:00+02:00,2021-05-16T04:30:00+02:00,21.57,EUR,,MWh
Power,Intraday,Continuous,NL,ID3,HH,2021-05-16T04:30:00+02:00,2021-05-16T05:00:00+02:00,21.57,EUR,,MWh
Power,Intraday,Continuous,NL,ID3,HH,2021-05-16T05:00:00+02:00,2021-05-16T05:30:00+02:00,23.10,EUR,,MWh
Power,Intraday,Continuous,NL,ID3,HH,2021-05-16T05:30:00+02:00,2021-05-16T06:00:00+02:00,23.10,EUR,,MWh
Power,Intraday,Continuous,NL,ID3,HH,2021-05-16T06:00:00+02:00,2021-05-16T06:30:00+02:00,22.71,EUR,,MWh
Power,Intraday,Continuous,NL,ID3,HH,2021-05-16T06:30:00+02:00,2021-05-16T07:00:00+02:00,22.71,EUR,,MWh
Power,Intraday,Continuous,NL,ID3,HH,2021-05-16T07:00:00+02:00,2021-05-16T07:30:00+02:00,24.91,EUR,,MWh
Power,Intraday,Continuous,NL,ID3,HH,2021-05-16T07:30:00+02:00,2021-05-16T08:00:00+02:00,24.91,EUR,,MWh
Power,Intraday,Continuous,NL,ID3,HH,2021-05-16T08:00:00+02:00,2021-05-16T08:30:00+02:00,27.22,EUR,,MWh
Power,Intraday,Continuous,NL,ID3,HH,2021-05-16T08:30:00+02:00,2021-05-16T09:00:00+02:00,27.22,EUR,,MWh
Power,Intraday,Continuous,NL,ID3,HH,2021-05-16T09:00:00+02:00,2021-05-16T09:30:00+02:00,30.74,EUR,,MWh
Power,Intraday,Continuous,NL,ID3,HH,2021-05-16T09:30:00+02:00,2021-05-16T10:00:00+02:00,30.74,EUR,,MWh
Power,Intraday,Continuous,NL,ID3,HH,2021-05-16T10:00:00+02:00,2021-05-16T10:30:00+02:00,24.54,EUR,,MWh
Power,Intraday,Continuous,NL,ID3,HH,2021-05-16T10:30:00+02:00,2021-05-16T11:00:00+02:00,24.54,EUR,,MWh
Power,Intraday,Continuous,NL,ID3,HH,2021-05-16T11:00:00+02:00,2021-05-16T11:30:00+02:00,22.01,EUR,,MWh
Power,Intraday,Continuous,NL,ID3,HH,2021-05-16T11:30:00+02:00,2021-05-16T12:00:00+02:00,22.01,EUR,,MWh
Power,Intraday,Continuous,NL,ID3,HH,2021-05-16T12:00:00+02:00,2021-05-16T12:30:00+02:00,20.46,EUR,,MWh
Power,Intraday,Continuous,NL,ID3,HH,2021-05-16T12:30:00+02:00,2021-05-16T13:00:00+02:00,20.46,EUR,,MWh
Power,Intraday,Continuous,NL,ID3,HH,2021-05-16T13:00:00+02:00,2021-05-16T13:30:00+02:00,7.12,EUR,,MWh
Power,Intraday,Continuous,NL,ID3,HH,2021-05-16T13:30:00+02:00,2021-05-16T14:00:00+02:00,7.12,EUR,,MWh
Power,Intraday,Continuous,NL,ID3,HH,2021-05-16T14:00:00+02:00,2021-05-16T14:30:00+02:00,15.18,EUR,,MWh
Power,Intraday,Continuous,NL,ID3,HH,2021-05-16T14:30:00+02:00,2021-05-16T15:00:00+02:00,15.18,EUR,,MWh
Power,Intraday,Continuous,NL,ID3,HH,2021-05-16T15:00:00+02:00,2021-05-16T15:30:00+02:00,7.99,EUR,,MWh
Power,Intraday,Continuous,NL,ID3,HH,2021-05-16T15:30:00+02:00,2021-05-16T16:00:00+02:00,7.99,EUR,,MWh
Power,Intraday,Continuous,NL,ID3,HH,2021-05-16T16:00:00+02:00,2021-05-16T16:30:00+02:00,22.74,EUR,,MWh
Power,Intraday,Continuous,NL,ID3,HH,2021-05-16T16:30:00+02:00,2021-05-16T17:00:00+02:00,22.74,EUR,,MWh
Power,Intraday,Continuous,NL,ID3,HH,2021-05-16T17:00:00+02:00,2021-05-16T17:30:00+02:00,67.16,EUR,,MWh
Power,Intraday,Continuous,NL,ID3,HH,2021-05-16T17:30:00+02:00,2021-05-16T18:00:00+02:00,67.16,EUR,,MWh
Power,Intraday,Continuous,NL,ID3,HH,2021-05-16T18:00:00+02:00,2021-05-16T18:30:00+02:00,67.93,EUR,,MWh
Power,Intraday,Continuous,NL,ID3,HH,2021-05-16T18:30:00+02:00,2021-05-16T19:00:00+02:00,67.93,EUR,,MWh
Power,Intraday,Continuous,NL,ID3,HH,2021-05-16T19:00:00+02:00,2021-05-16T19:30:00+02:00,82.20,EUR,,MWh
Power,Intraday,Continuous,NL,ID3,HH,2021-05-16T19:30:00+02:00,2021-05-16T20:00:00+02:00,82.20,EUR,,MWh
Power,Intraday,Continuous,NL,ID3,HH,2021-05-16T20:00:00+02:00,2021-05-16T20:30:00+02:00,105.23,EUR,,MWh
Power,Intraday,Continuous,NL,ID3,HH,2021-05-16T20:30:00+02:00,2021-05-16T21:00:00+02:00,105.23,EUR,,MWh
Power,Intraday,Continuous,NL,ID3,HH,2021-05-16T21:00:00+02:00,2021-05-16T21:30:00+02:00,78.13,EUR,,MWh
Power,Intraday,Continuous,NL,ID3,HH,2021-05-16T21:30:00+02:00,2021-05-16T22:00:00+02:00,78.13,EUR,,MWh
Power,Intraday,Continuous,NL,ID3,HH,2021-05-16T22:00:00+02:00,2021-05-16T22:30:00+02:00,75.29,EUR,,MWh
Power,Intraday,Continuous,NL,ID3,HH,2021-05-16T22:30:00+02:00,2021-05-16T23:00:00+02:00,75.29,EUR,,MWh
Power,Intraday,Continuous,NL,ID3,HH,2021-05-16T23:00:00+02:00,2021-05-16T23:30:00+02:00,66.52,EUR,,MWh
Power,Intraday,Continuous,NL,ID3,HH,2021-05-16T23:30:00+02:00,2021-05-17T00:00:00+02:00,66.52,EUR,,MWh
Power,Intraday,Continuous,NL,IDFULL,QH,2021-05-16T00:00:00+02:00,2021-05-16T00:15:00+02:00,63.49,EUR,46.450,MWh
Power,Intraday,Continuous,NL,IDFULL,QH,2021-05-16T00:15:00+02:00,2021-05-16T00:30:00+02:00,56.36,EUR,21.200,MWh
Power,Intraday,Continuous,NL,IDFULL,QH,2021-05-16T00:30:00+02:00,2021-05-16T00:45:00+02:00,38.55,EUR,15.700,MWh
Power,Intraday,Continuous,NL,IDFULL,QH,2021-05-16T00:45:00+02:00,2021-05-16T01:00:00+02:00,21.04,EUR,14.980,MWh
Power,Intraday,Continuous,NL,IDFULL,QH,2021-05-16T01:00:00+02:00,2021-05-16T01:15:00+02:00,61.92,EUR,,MWh
Power,Intraday,Continuous,NL,IDFULL,QH,2021-05-16T01:15:00+02:00,2021-05-16T01:30:00+02:00,61.92,EUR,,MWh
Power,Intraday,Continuous,NL,IDFULL,QH,2021-05-16T01:30:00+02:00,2021-05-16T01:45:00+02:00,61.92,EUR,,MWh
Power,Intraday,Continuous,NL,IDFULL,QH,2021-05-16T01:45:00+02:00,2021-05-16T02:00:00+02:00,5.51,EUR,7.500,MWh
Power,Intraday,Continuous,NL,IDFULL,QH,2021-05-16T02:00:00+02:00,2021-05-16T02:15:00+02:00,42.77,EUR,14.930,MWh
Power,Intraday,Continuous,NL,IDFULL,QH,2021-05-16T02:15:00+02:00,2021-05-16T02:30:00+02:00,30.84,EUR,18.630,MWh
Power,Intraday,Continuous,NL,IDFULL,QH,2021-05-16T02:30:00+02:00,2021-05-16T02:45:00+02:00,21.78,EUR,27.830,MWh
Power,Intraday,Continuous,NL,IDFULL,QH,2021-05-16T02:45:00+02:00,2021-05-16T03:00:00+02:00,14.54,EUR,26.700,MWh
Power,Intraday,Continuous,NL,IDFULL,QH,2021-05-16T03:00:00+02:00,2021-05-16T03:15:00+02:00,25.82,EUR,,MWh
Power,Intraday,Continuous,NL,IDFULL,QH,2021-05-16T03:15:00+02:00,2021-05-16T03:30:00+02:00,25.82,EUR,,MWh
Power,Intraday,Continuous,NL,IDFULL,QH,2021-05-16T03:30:00+02:00,2021-05-16T03:45:00+02:00,25.82,EUR,,MWh
Power,Intraday,Continuous,NL,IDFULL,QH,2021-05-16T03:45:00+02:00,2021-05-16T04:00:00+02:00,25.82,EUR,,MWh
Power,Intraday,Continuous,NL,IDFULL,QH,2021-05-16T04:00:00+02:00,2021-05-16T04:15:00+02:00,21.57,EUR,,MWh
Power,Intraday,Continuous,NL,IDFULL,QH,2021-05-16T04:15:00+02:00,2021-05-16T04:30:00+02:00,21.57,EUR,,MWh
Power,Intraday,Continuous,NL,IDFULL,QH,2021-05-16T04:30:00+02:00,2021-05-16T04:45:00+02:00,21.57,EUR,,MWh
Power,Intraday,Continuous,NL,IDFULL,QH,2021-05-16T04:45:00+02:00,2021-05-16T05:00:00+02:00,21.57,EUR,,MWh
Power,Intraday,Continuous,NL,IDFULL,QH,2021-05-16T05:00:00+02:00,2021-05-16T05:15:00+02:00,23.10,EUR,,MWh
Power,Intraday,Continuous,NL,IDFULL,QH,2021-05-16T05:15:00+02:00,2021-05-16T05:30:00+02:00,23.10,EUR,,MWh
Power,Intraday,Continuous,NL,IDFULL,QH,2021-05-16T05:30:00+02:00,2021-05-16T05:45:00+02:00,23.10,EUR,,MWh
Power,Intraday,Continuous,NL,IDFULL,QH,2021-05-16T05:45:00+02:00,2021-05-16T06:00:00+02:00,23.10,EUR,,MWh
Power,Intraday,Continuous,NL,IDFULL,QH,2021-05-16T06:00:00+02:00,2021-05-16T06:15:00+02:00,25.95,EUR,11.830,MWh
Power,Intraday,Continuous,NL,IDFULL,QH,2021-05-16T06:15:00+02:00,2021-05-16T06:30:00+02:00,21.48,EUR,8.730,MWh
Power,Intraday,Continuous,NL,IDFULL,QH,2021-05-16T06:30:00+02:00,2021-05-16T06:45:00+02:00,25.52,EUR,20.250,MWh
Power,Intraday,Continuous,NL,IDFULL,QH,2021-05-16T06:45:00+02:00,2021-05-16T07:00:00+02:00,13.23,EUR,23.250,MWh
Power,Intraday,Continuous,NL,IDFULL,QH,2021-05-16T07:00:00+02:00,2021-05-16T07:15:00+02:00,20.06,EUR,14.630,MWh
Power,Intraday,Continuous,NL,IDFULL,QH,2021-05-16T07:15:00+02:00,2021-05-16T07:30:00+02:00,19.87,EUR,12.630,MWh
Power,Intraday,Continuous,NL,IDFULL,QH,2021-05-16T07:30:00+02:00,2021-05-16T07:45:00+02:00,23.47,EUR,14.550,MWh
Power,Intraday,Continuous,NL,IDFULL,QH,2021-05-16T07:45:00+02:00,2021-05-16T08:00:00+02:00,28.42,EUR,15.050,MWh
Power,Intraday,Continuous,NL,IDFULL,QH,2021-05-16T08:00:00+02:00,2021-05-16T08:15:00+02:00,28.92,EUR,21.650,MWh
Power,Intraday,Continuous,NL,IDFULL,QH,2021-05-16T08:15:00+02:00,2021-05-16T08:30:00+02:00,30.64,EUR,19.530,MWh
Power,Intraday,Continuous,NL,IDFULL,QH,2021-05-16T08:30:00+02:00,2021-05-16T08:45:00+02:00,26.50,EUR,21.300,MWh
Power,Intraday,Continuous,NL,IDFULL,QH,2021-05-16T08:45:00+02:00,2021-05-16T09:00:00+02:00,27.31,EUR,39.230,MWh
Power,Intraday,Continuous,NL,IDFULL,QH,2021-05-16T09:00:00+02:00,2021-05-16T09:15:00+02:00,40.01,EUR,33.000,MWh
Power,Intraday,Continuous,NL,IDFULL,QH,2021-05-16T09:15:00+02:00,2021-05-16T09:30:00+02:00,38.00,EUR,41.900,MWh
Power,Intraday,Continuous,NL,IDFULL,QH,2021-05-16T09:30:00+02:00,2021-05-16T09:45:00+02:00,29.74,EUR,43.430,MWh
Power,Intraday,Continuous,NL,IDFULL,QH,2021-05-16T09:45:00+02:00,2021-05-16T10:00:00+02:00,14.94,EUR,31.900,MWh
Power,Intraday,Continuous,NL,IDFULL,QH,2021-05-16T10:00:00+02:00,2021-05-16T10:15:00+02:00,48.69,EUR,23.350,MWh
Power,Intraday,Continuous,NL,IDFULL,QH,2021-05-16T10:15:00+02:00,2021-05-16T10:30:00+02:00,26.76,EUR,23.730,MWh
Power,Intraday,Continuous,NL,IDFULL,QH,2021-05-16T10:30:00+02:00,2021-05-16T10:45:00+02:00,6.36,EUR,29.600,MWh
Power,Intraday,Continuous,NL,IDFULL,QH,2021-05-16T10:45:00+02:00,2021-05-16T11:00:00+02:00,-6.01,EUR,42.580,MWh
Power,Intraday,Continuous,NL,IDFULL,QH,2021-05-16T11:00:00+02:00,2021-05-16T11:15:00+02:00,22.62,EUR,44.300,MWh
Power,Intraday,Continuous,NL,IDFULL,QH,2021-05-16T11:15:00+02:00,2021-05-16T11:30:00+02:00,19.57,EUR,57.450,MWh
Power,Intraday,Continuous,NL,IDFULL,QH,2021-05-16T11:30:00+02:00,2021-05-16T11:45:00+02:00,23.32,EUR,48.500,MWh
Power,Intraday,Continuous,NL,IDFULL,QH,2021-05-16T11:45:00+02:00,2021-05-16T12:00:00+02:00,21.05,EUR,70.580,MWh
Power,Intraday,Continuous,NL,IDFULL,QH,2021-05-16T12:00:00+02:00,2021-05-16T12:15:00+02:00,36.23,EUR,43.800,MWh
Power,Intraday,Continuous,NL,IDFULL,QH,2021-05-16T12:15:00+02:00,2021-05-16T12:30:00+02:00,33.95,EUR,35.530,MWh
Power,Intraday,Continuous,NL,IDFULL,QH,2021-05-16T12:30:00+02:00,2021-05-16T12:45:00+02:00,21.84,EUR,56.200,MWh
Power,Intraday,Continuous,NL,IDFULL,QH,2021-05-16T12:45:00+02:00,2021-05-16T13:00:00+02:00,-13.64,EUR,41.980,MWh
Power,Intraday,Continuous,NL,IDFULL,QH,2021-05-16T13:00:00+02:00,2021-05-16T13:15:00+02:00,31.56,EUR,20.250,MWh
Power,Intraday,Continuous,NL,IDFULL,QH,2021-05-16T13:15:00+02:00,2021-05-16T13:30:00+02:00,18.70,EUR,13.650,MWh
Power,Intraday,Continuous,NL,IDFULL,QH,2021-05-16T13:30:00+02:00,2021-05-16T13:45:00+02:00,-8.91,EUR,12.930,MWh
Power,Intraday,Continuous,NL,IDFULL,QH,2021-05-16T13:45:00+02:00,2021-05-16T14:00:00+02:00,-33.66,EUR,25.050,MWh
Power,Intraday,Continuous,NL,IDFULL,QH,2021-05-16T14:00:00+02:00,2021-05-16T14:15:00+02:00,-8.96,EUR,12.700,MWh
Power,Intraday,Continuous,NL,IDFULL,QH,2021-05-16T14:15:00+02:00,2021-05-16T14:30:00+02:00,-37.93,EUR,10.400,MWh
Power,Intraday,Continuous,NL,IDFULL,QH,2021-05-16T14:30:00+02:00,2021-05-16T14:45:00+02:00,17.74,EUR,10.100,MWh
Power,Intraday,Continuous,NL,IDFULL,QH,2021-05-16T14:45:00+02:00,2021-05-16T15:00:00+02:00,27.50,EUR,10.100,MWh
Power,Intraday,Continuous,NL,IDFULL,QH,2021-05-16T15:00:00+02:00,2021-05-16T15:15:00+02:00,-31.43,EUR,,MWh
Power,Intraday,Continuous,NL,IDFULL,QH,2021-05-16T15:15:00+02:00,2021-05-16T15:30:00+02:00,-31.43,EUR,,MWh
Power,Intraday,Continuous,NL,IDFULL,QH,2021-05-16T15:30:00+02:00,2021-05-16T15:45:00+02:00,44.88,EUR,6.130,MWh
Power,Intraday,Continuous,NL,IDFULL,QH,2021-05-16T15:45:00+02:00,2021-05-16T16:00:00+02:00,49.93,EUR,25.580,MWh
Power,Intraday,Continuous,NL,IDFULL,QH,2021-05-16T16:00:00+02:00,2021-05-16T16:15:00+02:00,22.74,EUR,,MWh
Power,Intraday,Continuous,NL,IDFULL,QH,2021-05-16T16:15:00+02:00,2021-05-16T16:30:00+02:00,22.74,EUR,,MWh
Power,Intraday,Continuous,NL,IDFULL,QH,2021-05-16T16:30:00+02:00,2021-05-16T16:45:00+02:00,22.74,EUR,,MWh
Power,Intraday,Continuous,NL,IDFULL,QH,2021-05-16T16:45:00+02:00,2021-05-16T17:00:00+02:00,22.74,EUR,,MWh
Power,Intraday,Continuous,NL,IDFULL,QH,2021-05-16T17:00:00+02:00,2021-05-16T17:15:00+02:00,67.16,EUR,,MWh
Power,Intraday,Continuous,NL,IDFULL,QH,2021-05-16T17:15:00+02:00,2021-05-16T17:30:00+02:00,67.16,EUR,,MWh
Power,Intraday,Continuous,NL,IDFULL,QH,2021-05-16T17:30:00+02:00,2021-05-16T17:45:00+02:00,67.16,EUR,,MWh
Power,Intraday,Continuous,NL,IDFULL,QH,2021-05-16T17:45:00+02:00,2021-05-16T18:00:00+02:00,67.16,EUR,,MWh
Power,Intraday,Continuous,NL,IDFULL,QH,2021-05-16T18:00:00+02:00,2021-05-16T18:15:00+02:00,49.92,EUR,6.300,MWh
Power,Intraday,Continuous,NL,IDFULL,QH,2021-05-16T18:15:00+02:00,2021-05-16T18:30:00+02:00,49.89,EUR,12.050,MWh
Power,Intraday,Continuous,NL,IDFULL,QH,2021-05-16T18:30:00+02:00,2021-05-16T18:45:00+02:00,95.09,EUR,,MWh
Power,Intraday,Continuous,NL,IDFULL,QH,2021-05-16T18:45:00+02:00,2021-05-16T19:00:00+02:00,76.82,EUR,13.750,MWh
Power,Intraday,Continuous,NL,IDFULL,QH,2021-05-16T19:00:00+02:00,2021-05-16T19:15:00+02:00,82.20,EUR,,MWh
Power,Intraday,Continuous,NL,IDFULL,QH,2021-05-16T19:15:00+02:00,2021-05-16T19:30:00+02:00,82.20,EUR,,MWh
Power,Intraday,Continuous,NL,IDFULL,QH,2021-05-16T19:30:00+02:00,2021-05-16T19:45:00+02:00,82.20,EUR,,MWh
Power,Intraday,Continuous,NL,IDFULL,QH,2021-05-16T19:45:00+02:00,2021-05-16T20:00:00+02:00,82.20,EUR,,MWh
Power,Intraday,Continuous,NL,IDFULL,QH,2021-05-16T20:00:00+02:00,2021-05-16T20:15:00+02:00,105.23,EUR,,MWh
Power,Intraday,Continuous,NL,IDFULL,QH,2021-05-16T20:15:00+02:00,2021-05-16T20:30:00+02:00,105.23,EUR,,MWh
Power,Intraday,Continuous,NL,IDFULL,QH,2021-05-16T20:30:00+02:00,2021-05-16T20:45:00+02:00,105.23,EUR,,MWh
Power,Intraday,Continuous,NL,IDFULL,QH,2021-05-16T20:45:00+02:00,2021-05-16T21:00:00+02:00,105.23,EUR,,MWh
Power,Intraday,Continuous,NL,IDFULL,QH,2021-05-16T21:00:00+02:00,2021-05-16T21:15:00+02:00,78.13,EUR,,MWh
Power,Intraday,Continuous,NL,IDFULL,QH,2021-05-16T21:15:00+02:00,2021-05-16T21:30:00+02:00,78.13,EUR,,MWh
Power,Intraday,Continuous,NL,IDFULL,QH,2021-05-16T21:30:00+02:00,2021-05-16T21:45:00+02:00,78.13,EUR,,MWh
Power,Intraday,Continuous,NL,IDFULL,QH,2021-05-16T21:45:00+02:00,2021-05-16T22:00:00+02:00,78.13,EUR,,MWh
Power,Intraday,Continuous,NL,IDFULL,QH,2021-05-16T22:00:00+02:00,2021-05-16T22:15:00+02:00,88.82,EUR,35.600,MWh
Power,Intraday,Continuous,NL,IDFULL,QH,2021-05-16T22:15:00+02:00,2021-05-16T22:30:00+02:00,86.54,EUR,22.000,MWh
Power,Intraday,Continuous,NL,IDFULL,QH,2021-05-16T22:30:00+02:00,2021-05-16T22:45:00+02:00,72.28,EUR,23.050,MWh
Power,Intraday,Continuous,NL,IDFULL,QH,2021-05-16T22:45:00+02:00,2021-05-16T23:00:00+02:00,63.15,EUR,51.250,MWh
Power,Intraday,Continuous,NL,IDFULL,QH,2021-05-16T23:00:00+02:00,2021-05-16T23:15:00+02:00,80.93,EUR,54.530,MWh
Power,Intraday,Continuous,NL,IDFULL,QH,2021-05-16T23:15:00+02:00,2021-05-16T23:30:00+02:00,69.04,EUR,25.300,MWh
Power,Intraday,Continuous,NL,IDFULL,QH,2021-05-16T23:30:00+02:00,2021-05-16T23:45:00+02:00,68.15,EUR,40.500,MWh
Power,Intraday,Continuous,NL,IDFULL,QH,2021-05-16T23:45:00+02:00,2021-05-17T00:00:00+02:00,50.34,EUR,37.480,MWh
Power,Intraday,Continuous,NL,ID1,QH,2021-05-16T00:00:00+02:00,2021-05-16T00:15:00+02:00,65.09,EUR,,MWh
Power,Intraday,Continuous,NL,ID1,QH,2021-05-16T00:15:00+02:00,2021-05-16T00:30:00+02:00,56.62,EUR,,MWh
Power,Intraday,Continuous,NL,ID1,QH,2021-05-16T00:30:00+02:00,2021-05-16T00:45:00+02:00,38.24,EUR,,MWh
Power,Intraday,Continuous,NL,ID1,QH,2021-05-16T00:45:00+02:00,2021-05-16T01:00:00+02:00,19.58,EUR,,MWh
Power,Intraday,Continuous,NL,ID1,QH,2021-05-16T01:00:00+02:00,2021-05-16T01:15:00+02:00,61.92,EUR,,MWh
Power,Intraday,Continuous,NL,ID1,QH,2021-05-16T01:15:00+02:00,2021-05-16T01:30:00+02:00,61.92,EUR,,MWh
Power,Intraday,Continuous,NL,ID1,QH,2021-05-16T01:30:00+02:00,2021-05-16T01:45:00+02:00,61.92,EUR,,MWh
Power,Intraday,Continuous,NL,ID1,QH,2021-05-16T01:45:00+02:00,2021-05-16T02:00:00+02:00,5.51,EUR,,MWh
Power,Intraday,Continuous,NL,ID1,QH,2021-05-16T02:00:00+02:00,2021-05-16T02:15:00+02:00,42.60,EUR,,MWh
Power,Intraday,Continuous,NL,ID1,QH,2021-05-16T02:15:00+02:00,2021-05-16T02:30:00+02:00,30.64,EUR,,MWh
Power,Intraday,Continuous,NL,ID1,QH,2021-05-16T02:30:00+02:00,2021-05-16T02:45:00+02:00,21.01,EUR,,MWh
Power,Intraday,Continuous,NL,ID1,QH,2021-05-16T02:45:00+02:00,2021-05-16T03:00:00+02:00,13.21,EUR,,MWh
Power,Intraday,Continuous,NL,ID1,QH,2021-05-16T03:00:00+02:00,2021-05-16T03:15:00+02:00,25.82,EUR,,MWh
Power,Intraday,Continuous,NL,ID1,QH,2021-05-16T03:15:00+02:00,2021-05-16T03:30:00+02:00,25.82,EUR,,MWh
Power,Intraday,Continuous,NL,ID1,QH,2021-05-16T03:30:00+02:00,2021-05-16T03:45:00+02:00,25.82,EUR,,MWh
Power,Intraday,Continuous,NL,ID1,QH,2021-05-16T03:45:00+02:00,2021-05-16T04:00:00+02:00,25.82,EUR,,MWh
Power,Intraday,Continuous,NL,ID1,QH,2021-05-16T04:00:00+02:00,2021-05-16T04:15:00+02:00,21.57,EUR,,MWh
Power,Intraday,Continuous,NL,ID1,QH,2021-05-16T04:15:00+02:00,2021-05-16T04:30:00+02:00,21.57,EUR,,MWh
Power,Intraday,Continuous,NL,ID1,QH,2021-05-16T04:30:00+02:00,2021-05-16T04:45:00+02:00,21.57,EUR,,MWh
Power,Intraday,Continuous,NL,ID1,QH,2021-05-16T04:45:00+02:00,2021-05-16T05:00:00+02:00,21.57,EUR,,MWh
Power,Intraday,Continuous,NL,ID1,QH,2021-05-16T05:00:00+02:00,2021-05-16T05:15:00+02:00,23.10,EUR,,MWh
Power,Intraday,Continuous,NL,ID1,QH,2021-05-16T05:15:00+02:00,2021-05-16T05:30:00+02:00,23.10,EUR,,MWh
Power,Intraday,Continuous,NL,ID1,QH,2021-05-16T05:30:00+02:00,2021-05-16T05:45:00+02:00,23.10,EUR,,MWh
Power,Intraday,Continuous,NL,ID1,QH,2021-05-16T05:45:00+02:00,2021-05-16T06:00:00+02:00,23.10,EUR,,MWh
Power,Intraday,Continuous,NL,ID1,QH,2021-05-16T06:00:00+02:00,2021-05-16T06:15:00+02:00,27.10,EUR,,MWh
Power,Intraday,Continuous,NL,ID1,QH,2021-05-16T06:15:00+02:00,2021-05-16T06:30:00+02:00,22.60,EUR,,MWh
Power,Intraday,Continuous,NL,ID1,QH,2021-05-16T06:30:00+02:00,2021-05-16T06:45:00+02:00,25.92,EUR,,MWh
Power,Intraday,Continuous,NL,ID1,QH,2021-05-16T06:45:00+02:00,2021-05-16T07:00:00+02:00,13.29,EUR,,MWh
Power,Intraday,Continuous,NL,ID1,QH,2021-05-16T07:00:00+02:00,2021-05-16T07:15:00+02:00,21.78,EUR,,MWh
Power,Intraday,Continuous,NL,ID1,QH,2021-05-16T07:15:00+02:00,2021-05-16T07:30:00+02:00,19.72,EUR,,MWh
Power,Intraday,Continuous,NL,ID1,QH,2021-05-16T07:30:00+02:00,2021-05-16T07:45:00+02:00,25.29,EUR,,MWh
Power,Intraday,Continuous,NL,ID1,QH,2021-05-16T07:45:00+02:00,2021-05-16T08:00:00+02:00,32.35,EUR,,MWh
Power,Intraday,Continuous,NL,ID1,QH,2021-05-16T08:00:00+02:00,2021-05-16T08:15:00+02:00,34.09,EUR,,MWh
Power,Intraday,Continuous,NL,ID1,QH,2021-05-16T08:15:00+02:00,2021-05-16T08:30:00+02:00,31.60,EUR,,MWh
Power,Intraday,Continuous,NL,ID1,QH,2021-05-16T08:30:00+02:00,2021-05-16T08:45:00+02:00,27.39,EUR,,MWh
Power,Intraday,Continuous,NL,ID1,QH,2021-05-16T08:45:00+02:00,2021-05-16T09:00:00+02:00,29.16,EUR,,MWh
Power,Intraday,Continuous,NL,ID1,QH,2021-05-16T09:00:00+02:00,2021-05-16T09:15:00+02:00,43.64,EUR,,MWh
Power,Intraday,Continuous,NL,ID1,QH,2021-05-16T09:15:00+02:00,2021-05-16T09:30:00+02:00,38.65,EUR,,MWh
Power,Intraday,Continuous,NL,ID1,QH,2021-05-16T09:30:00+02:00,2021-05-16T09:45:00+02:00,30.41,EUR,,MWh
Power,Intraday,Continuous,NL,ID1,QH,2021-05-16T09:45:00+02:00,2021-05-16T10:00:00+02:00,14.80,EUR,,MWh
Power,Intraday,Continuous,NL,ID1,QH,2021-05-16T10:00:00+02:00,2021-05-16T10:15:00+02:00,51.34,EUR,,MWh
Power,Intraday,Continuous,NL,ID1,QH,2021-05-16T10:15:00+02:00,2021-05-16T10:30:00+02:00,26.68,EUR,,MWh
Power,Intraday,Continuous,NL,ID1,QH,2021-05-16T10:30:00+02:00,2021-05-16T10:45:00+02:00,4.75,EUR,,MWh
Power,Intraday,Continuous,NL,ID1,QH,2021-05-16T10:45:00+02:00,2021-05-16T11:00:00+02:00,-10.23,EUR,,MWh
Power,Intraday,Continuous,NL,ID1,QH,2021-05-16T11:00:00+02:00,2021-05-16T11:15:00+02:00,23.14,EUR,,MWh
Power,Intraday,Continuous,NL,ID1,QH,2021-05-16T11:15:00+02:00,2021-05-16T11:30:00+02:00,18.03,EUR,,MWh
Power,Intraday,Continuous,NL,ID1,QH,2021-05-16T11:30:00+02:00,2021-05-16T11:45:00+02:00,22.48,EUR,,MWh
Power,Intraday,Continuous,NL,ID1,QH,2021-05-16T11:45:00+02:00,2021-05-16T12:00:00+02:00,14.00,EUR,2.500,MWh
Power,Intraday,Continuous,NL,ID1,QH,2021-05-16T12:00:00+02:00,2021-05-16T12:15:00+02:00,29.01,EUR,,MWh
Power,Intraday,Continuous,NL,ID1,QH,2021-05-16T12:15:00+02:00,2021-05-16T12:30:00+02:00,33.93,EUR,,MWh
Power,Intraday,Continuous,NL,ID1,QH,2021-05-16T12:30:00+02:00,2021-05-16T12:45:00+02:00,20.82,EUR,,MWh
Power,Intraday,Continuous,NL,ID1,QH,2021-05-16T12:45:00+02:00,2021-05-16T13:00:00+02:00,-12.60,EUR,,MWh
Power,Intraday,Continuous,NL,ID1,QH,2021-05-16T13:00:00+02:00,2021-05-16T13:15:00+02:00,15.00,EUR,3.750,MWh
Power,Intraday,Continuous,NL,ID1,QH,2021-05-16T13:15:00+02:00,2021-05-16T13:30:00+02:00,18.71,EUR,,MWh
Power,Intraday,Continuous,NL,ID1,QH,2021-05-16T13:30:00+02:00,2021-05-16T13:45:00+02:00,-8.92,EUR,,MWh
Power,Intraday,Continuous,NL,ID1,QH,2021-05-16T13:45:00+02:00,2021-05-16T14:00:00+02:00,-33.69,EUR,,MWh
Power,Intraday,Continuous,NL,ID1,QH,2021-05-16T14:00:00+02:00,2021-05-16T14:15:00+02:00,-8.96,EUR,,MWh
Power,Intraday,Continuous,NL,ID1,QH,2021-05-16T14:15:00+02:00,2021-05-16T14:30:00+02:00,-37.93,EUR,,MWh
Power,Intraday,Continuous,NL,ID1,QH,2021-05-16T14:30:00+02:00,2021-05-16T14:45:00+02:00,17.74,EUR,,MWh
Power,Intraday,Continuous,NL,ID1,QH,2021-05-16T14:45:00+02:00,2021-05-16T15:00:00+02:00,27.50,EUR,,MWh
Power,Intraday,Continuous,NL,ID1,QH,2021-05-16T15:00:00+02:00,2021-05-16T15:15:00+02:00,-31.43,EUR,,MWh
Power,Intraday,Continuous,NL,ID1,QH,2021-05-16T15:15:00+02:00,2021-05-16T15:30:00+02:00,-31.43,EUR,,MWh
Power,Intraday,Continuous,NL,ID1,QH,2021-05-16T15:30:00+02:00,2021-05-16T15:45:00+02:00,48.67,EUR,,MWh
Power,Intraday,Continuous,NL,ID1,QH,2021-05-16T15:45:00+02:00,2021-05-16T16:00:00+02:00,51.51,EUR,,MWh
Power,Intraday,Continuous,NL,ID1,QH,2021-05-16T16:00:00+02:00,2021-05-16T16:15:00+02:00,22.74,EUR,,MWh
Power,Intraday,Continuous,NL,ID1,QH,2021-05-16T16:15:00+02:00,2021-05-16T16:30:00+02:00,22.74,EUR,,MWh
Power,Intraday,Continuous,NL,ID1,QH,2021-05-16T16:30:00+02:00,2021-05-16T16:45:00+02:00,22.74,EUR,,MWh
Power,Intraday,Continuous,NL,ID1,QH,2021-05-16T16:45:00+02:00,2021-05-16T17:00:00+02:00,22.74,EUR,,MWh
Power,Intraday,Continuous,NL,ID1,QH,2021-05-16T17:00:00+02:00,2021-05-16T17:15:00+02:00,67.16,EUR,,MWh
Power,Intraday,Continuous,NL,ID1,QH,2021-05-16T17:15:00+02:00,2021-05-16T17:30:00+02:00,67.16,EUR,,MWh
Power,Intraday,Continuous,NL,ID1,QH,2021-05-16T17:30:00+02:00,2021-05-16T17:45:00+02:00,67.16,EUR,,MWh
Power,Intraday,Continuous,NL,ID1,QH,2021-05-16T17:45:00+02:00,2021-05-16T18:00:00+02:00,67.16,EUR,,MWh
Power,Intraday,Continuous,NL,ID1,QH,2021-05-16T18:00:00+02:00,2021-05-16T18:15:00+02:00,49.92,EUR,,MWh
Power,Intraday,Continuous,NL,ID1,QH,2021-05-16T18:15:00+02:00,2021-05-16T18:30:00+02:00,49.65,EUR,3.800,MWh
Power,Intraday,Continuous,NL,ID1,QH,2021-05-16T18:30:00+02:00,2021-05-16T18:45:00+02:00,95.09,EUR,,MWh
Power,Intraday,Continuous,NL,ID1,QH,2021-05-16T18:45:00+02:00,2021-05-16T19:00:00+02:00,85.00,EUR,2.500,MWh
Power,Intraday,Continuous,NL,ID1,QH,2021-05-16T19:00:00+02:00,2021-05-16T19:15:00+02:00,82.20,EUR,,MWh
Power,Intraday,Continuous,NL,ID1,QH,2021-05-16T19:15:00+02:00,2021-05-16T19:30:00+02:00,82.20,EUR,,MWh
Power,Intraday,Continuous,NL,ID1,QH,2021-05-16T19:30:00+02:00,2021-05-16T19:45:00+02:00,82.20,EUR,,MWh
Power,Intraday,Continuous,NL,ID1,QH,2021-05-16T19:45:00+02:00,2021-05-16T20:00:00+02:00,82.20,EUR,,MWh
Power,Intraday,Continuous,NL,ID1,QH,2021-05-16T20:00:00+02:00,2021-05-16T20:15:00+02:00,105.23,EUR,,MWh
Power,Intraday,Continuous,NL,ID1,QH,2021-05-16T20:15:00+02:00,2021-05-16T20:30:00+02:00,105.23,EUR,,MWh
Power,Intraday,Continuous,NL,ID1,QH,2021-05-16T20:30:00+02:00,2021-05-16T20:45:00+02:00,105.23,EUR,,MWh
Power,Intraday,Continuous,NL,ID1,QH,2021-05-16T20:45:00+02:00,2021-05-16T21:00:00+02:00,105.23,EUR,,MWh
Power,Intraday,Continuous,NL,ID1,QH,2021-05-16T21:00:00+02:00,2021-05-16T21:15:00+02:00,78.13,EUR,,MWh
Power,Intraday,Continuous,NL,ID1,QH,2021-05-16T21:15:00+02:00,2021-05-16T21:30:00+02:00,78.13,EUR,,MWh
Power,Intraday,Continuous,NL,ID1,QH,2021-05-16T21:30:00+02:00,2021-05-16T21:45:00+02:00,78.13,EUR,,MWh
Power,Intraday,Continuous,NL,ID1,QH,2021-05-16T21:45:00+02:00,2021-05-16T22:00:00+02:00,78.13,EUR,,MWh
Power,Intraday,Continuous,NL,ID1,QH,2021-05-16T22:00:00+02:00,2021-05-16T22:15:00+02:00,88.38,EUR,,MWh
Power,Intraday,Continuous,NL,ID1,QH,2021-05-16T22:15:00+02:00,2021-05-16T22:30:00+02:00,87.44,EUR,,MWh
Power,Intraday,Continuous,NL,ID1,QH,2021-05-16T22:30:00+02:00,2021-05-16T22:45:00+02:00,73.39,EUR,,MWh
Power,Intraday,Continuous,NL,ID1,QH,2021-05-16T22:45:00+02:00,2021-05-16T23:00:00+02:00,64.70,EUR,,MWh
Power,Intraday,Continuous,NL,ID1,QH,2021-05-16T23:00:00+02:00,2021-05-16T23:15:00+02:00,77.73,EUR,,MWh
Power,Intraday,Continuous,NL,ID1,QH,2021-05-16T23:15:00+02:00,2021-05-16T23:30:00+02:00,64.31,EUR,,MWh
Power,Intraday,Continuous,NL,ID1,QH,2021-05-16T23:30:00+02:00,2021-05-16T23:45:00+02:00,70.81,EUR,,MWh
Power,Intraday,Continuous,NL,ID1,QH,2021-05-16T23:45:00+02:00,2021-05-17T00:00:00+02:00,52.98,EUR,,MWh
Power,Intraday,Continuous,NL,ID3,QH,2021-05-16T00:00:00+02:00,2021-05-16T00:15:00+02:00,65.09,EUR,33.600,MWh
Power,Intraday,Continuous,NL,ID3,QH,2021-05-16T00:15:00+02:00,2021-05-16T00:30:00+02:00,56.62,EUR,16.680,MWh
Power,Intraday,Continuous,NL,ID3,QH,2021-05-16T00:30:00+02:00,2021-05-16T00:45:00+02:00,38.24,EUR,13.080,MWh
Power,Intraday,Continuous,NL,ID3,QH,2021-05-16T00:45:00+02:00,2021-05-16T01:00:00+02:00,19.58,EUR,10.350,MWh
Power,Intraday,Continuous,NL,ID3,QH,2021-05-16T01:00:00+02:00,2021-05-16T01:15:00+02:00,61.92,EUR,,MWh
Power,Intraday,Continuous,NL,ID3,QH,2021-05-16T01:15:00+02:00,2021-05-16T01:30:00+02:00,61.92,EUR,,MWh
Power,Intraday,Continuous,NL,ID3,QH,2021-05-16T01:30:00+02:00,2021-05-16T01:45:00+02:00,61.92,EUR,,MWh
Power,Intraday,Continuous,NL,ID3,QH,2021-05-16T01:45:00+02:00,2021-05-16T02:00:00+02:00,5.51,EUR,7.500,MWh
Power,Intraday,Continuous,NL,ID3,QH,2021-05-16T02:00:00+02:00,2021-05-16T02:15:00+02:00,42.60,EUR,13.800,MWh
Power,Intraday,Continuous,NL,ID3,QH,2021-05-16T02:15:00+02:00,2021-05-16T02:30:00+02:00,30.64,EUR,16.980,MWh
Power,Intraday,Continuous,NL,ID3,QH,2021-05-16T02:30:00+02:00,2021-05-16T02:45:00+02:00,21.01,EUR,24.230,MWh
Power,Intraday,Continuous,NL,ID3,QH,2021-05-16T02:45:00+02:00,2021-05-16T03:00:00+02:00,13.21,EUR,22.750,MWh
Power,Intraday,Continuous,NL,ID3,QH,2021-05-16T03:00:00+02:00,2021-05-16T03:15:00+02:00,25.82,EUR,,MWh
Power,Intraday,Continuous,NL,ID3,QH,2021-05-16T03:15:00+02:00,2021-05-16T03:30:00+02:00,25.82,EUR,,MWh
Power,Intraday,Continuous,NL,ID3,QH,2021-05-16T03:30:00+02:00,2021-05-16T03:45:00+02:00,25.82,EUR,,MWh
Power,Intraday,Continuous,NL,ID3,QH,2021-05-16T03:45:00+02:00,2021-05-16T04:00:00+02:00,25.82,EUR,,MWh
Power,Intraday,Continuous,NL,ID3,QH,2021-05-16T04:00:00+02:00,2021-05-16T04:15:00+02:00,21.57,EUR,,MWh
Power,Intraday,Continuous,NL,ID3,QH,2021-05-16T04:15:00+02:00,2021-05-16T04:30:00+02:00,21.57,EUR,,MWh
Power,Intraday,Continuous,NL,ID3,QH,2021-05-16T04:30:00+02:00,2021-05-16T04:45:00+02:00,21.57,EUR,,MWh
Power,Intraday,Continuous,NL,ID3,QH,2021-05-16T04:45:00+02:00,2021-05-16T05:00:00+02:00,21.57,EUR,,MWh
Power,Intraday,Continuous,NL,ID3,QH,2021-05-16T05:00:00+02:00,2021-05-16T05:15:00+02:00,23.10,EUR,,MWh
Power,Intraday,Continuous,NL,ID3,QH,2021-05-16T05:15:00+02:00,2021-05-16T05:30:00+02:00,23.10,EUR,,MWh
Power,Intraday,Continuous,NL,ID3,QH,2021-05-16T05:30:00+02:00,2021-05-16T05:45:00+02:00,23.10,EUR,,MWh
Power,Intraday,Continuous,NL,ID3,QH,2021-05-16T05:45:00+02:00,2021-05-16T06:00:00+02:00,23.10,EUR,,MWh
Power,Intraday,Continuous,NL,ID3,QH,2021-05-16T06:00:00+02:00,2021-05-16T06:15:00+02:00,27.10,EUR,8.180,MWh
Power,Intraday,Continuous,NL,ID3,QH,2021-05-16T06:15:00+02:00,2021-05-16T06:30:00+02:00,22.60,EUR,5.950,MWh
Power,Intraday,Continuous,NL,ID3,QH,2021-05-16T06:30:00+02:00,2021-05-16T06:45:00+02:00,25.92,EUR,14.200,MWh
Power,Intraday,Continuous,NL,ID3,QH,2021-05-16T06:45:00+02:00,2021-05-16T07:00:00+02:00,13.29,EUR,18.750,MWh
Power,Intraday,Continuous,NL,ID3,QH,2021-05-16T07:00:00+02:00,2021-05-16T07:15:00+02:00,21.78,EUR,6.000,MWh
Power,Intraday,Continuous,NL,ID3,QH,2021-05-16T07:15:00+02:00,2021-05-16T07:30:00+02:00,19.72,EUR,5.650,MWh
Power,Intraday,Continuous,NL,ID3,QH,2021-05-16T07:30:00+02:00,2021-05-16T07:45:00+02:00,25.29,EUR,8.100,MWh
Power,Intraday,Continuous,NL,ID3,QH,2021-05-16T07:45:00+02:00,2021-05-16T08:00:00+02:00,32.35,EUR,8.500,MWh
Power,Intraday,Continuous,NL,ID3,QH,2021-05-16T08:00:00+02:00,2021-05-16T08:15:00+02:00,34.09,EUR,10.730,MWh
Power,Intraday,Continuous,NL,ID3,QH,2021-05-16T08:15:00+02:00,2021-05-16T08:30:00+02:00,31.60,EUR,12.100,MWh
Power,Intraday,Continuous,NL,ID3,QH,2021-05-16T08:30:00+02:00,2021-05-16T08:45:00+02:00,27.39,EUR,15.280,MWh
Power,Intraday,Continuous,NL,ID3,QH,2021-05-16T08:45:00+02:00,2021-05-16T09:00:00+02:00,29.16,EUR,32.400,MWh
Power,Intraday,Continuous,NL,ID3,QH,2021-05-16T09:00:00+02:00,2021-05-16T09:15:00+02:00,43.64,EUR,23.500,MWh
Power,Intraday,Continuous,NL,ID3,QH,2021-05-16T09:15:00+02:00,2021-05-16T09:30:00+02:00,38.65,EUR,34.550,MWh
Power,Intraday,Continuous,NL,ID3,QH,2021-05-16T09:30:00+02:00,2021-05-16T09:45:00+02:00,30.41,EUR,34.700,MWh
Power,Intraday,Continuous,NL,ID3,QH,2021-05-16T09:45:00+02:00,2021-05-16T10:00:00+02:00,14.80,EUR,23.680,MWh
Power,Intraday,Continuous,NL,ID3,QH,2021-05-16T10:00:00+02:00,2021-05-16T10:15:00+02:00,51.34,EUR,18.280,MWh
Power,Intraday,Continuous,NL,ID3,QH,2021-05-16T10:15:00+02:00,2021-05-16T10:30:00+02:00,26.68,EUR,21.530,MWh
Power,Intraday,Continuous,NL,ID3,QH,2021-05-16T10:30:00+02:00,2021-05-16T10:45:00+02:00,4.75,EUR,24.050,MWh
Power,Intraday,Continuous,NL,ID3,QH,2021-05-16T10:45:00+02:00,2021-05-16T11:00:00+02:00,-10.23,EUR,34.450,MWh
Power,Intraday,Continuous,NL,ID3,QH,2021-05-16T11:00:00+02:00,2021-05-16T11:15:00+02:00,23.14,EUR,37.800,MWh
Power,Intraday,Continuous,NL,ID3,QH,2021-05-16T11:15:00+02:00,2021-05-16T11:30:00+02:00,18.03,EUR,49.300,MWh
Power,Intraday,Continuous,NL,ID3,QH,2021-05-16T11:30:00+02:00,2021-05-16T11:45:00+02:00,22.48,EUR,37.330,MWh
Power,Intraday,Continuous,NL,ID3,QH,2021-05-16T11:45:00+02:00,2021-05-16T12:00:00+02:00,19.61,EUR,57.400,MWh
Power,Intraday,Continuous,NL,ID3,QH,2021-05-16T12:00:00+02:00,2021-05-16T12:15:00+02:00,29.01,EUR,29.730,MWh
Power,Intraday,Continuous,NL,ID3,QH,2021-05-16T12:15:00+02:00,2021-05-16T12:30:00+02:00,33.93,EUR,25.550,MWh
Power,Intraday,Continuous,NL,ID3,QH,2021-05-16T12:30:00+02:00,2021-05-16T12:45:00+02:00,20.82,EUR,42.400,MWh
Power,Intraday,Continuous,NL,ID3,QH,2021-05-16T12:45:00+02:00,2021-05-16T13:00:00+02:00,-12.60,EUR,31.080,MWh
Power,Intraday,Continuous,NL,ID3,QH,2021-05-16T13:00:00+02:00,2021-05-16T13:15:00+02:00,31.54,EUR,20.230,MWh
Power,Intraday,Continuous,NL,ID3,QH,2021-05-16T13:15:00+02:00,2021-05-16T13:30:00+02:00,18.71,EUR,13.630,MWh
Power,Intraday,Continuous,NL,ID3,QH,2021-05-16T13:30:00+02:00,2021-05-16T13:45:00+02:00,-8.92,EUR,12.900,MWh
Power,Intraday,Continuous,NL,ID3,QH,2021-05-16T13:45:00+02:00,2021-05-16T14:00:00+02:00,-33.69,EUR,25.030,MWh
Power,Intraday,Continuous,NL,ID3,QH,2021-05-16T14:00:00+02:00,2021-05-16T14:15:00+02:00,-8.96,EUR,12.700,MWh
Power,Intraday,Continuous,NL,ID3,QH,2021-05-16T14:15:00+02:00,2021-05-16T14:30:00+02:00,-37.93,EUR,10.400,MWh
Power,Intraday,Continuous,NL,ID3,QH,2021-05-16T14:30:00+02:00,2021-05-16T14:45:00+02:00,17.74,EUR,10.100,MWh
Power,Intraday,Continuous,NL,ID3,QH,2021-05-16T14:45:00+02:00,2021-05-16T15:00:00+02:00,27.50,EUR,10.100,MWh
Power,Intraday,Continuous,NL,ID3,QH,2021-05-16T15:00:00+02:00,2021-05-16T15:15:00+02:00,-31.43,EUR,,MWh
Power,Intraday,Continuous,NL,ID3,QH,2021-05-16T15:15:00+02:00,2021-05-16T15:30:00+02:00,-31.43,EUR,,MWh
Power,Intraday,Continuous,NL,ID3,QH,2021-05-16T15:30:00+02:00,2021-05-16T15:45:00+02:00,48.67,EUR,5.200,MWh
Power,Intraday,Continuous,NL,ID3,QH,2021-05-16T15:45:00+02:00,2021-05-16T16:00:00+02:00,51.51,EUR,23.300,MWh
Power,Intraday,Continuous,NL,ID3,QH,2021-05-16T16:00:00+02:00,2021-05-16T16:15:00+02:00,22.74,EUR,,MWh
Power,Intraday,Continuous,NL,ID3,QH,2021-05-16T16:15:00+02:00,2021-05-16T16:30:00+02:00,22.74,EUR,,MWh
Power,Intraday,Continuous,NL,ID3,QH,2021-05-16T16:30:00+02:00,2021-05-16T16:45:00+02:00,22.74,EUR,,MWh
Power,Intraday,Continuous,NL,ID3,QH,2021-05-16T16:45:00+02:00,2021-05-16T17:00:00+02:00,22.74,EUR,,MWh
Power,Intraday,Continuous,NL,ID3,QH,2021-05-16T17:00:00+02:00,2021-05-16T17:15:00+02:00,67.16,EUR,,MWh
Power,Intraday,Continuous,NL,ID3,QH,2021-05-16T17:15:00+02:00,2021-05-16T17:30:00+02:00,67.16,EUR,,MWh
Power,Intraday,Continuous,NL,ID3,QH,2021-05-16T17:30:00+02:00,2021-05-16T17:45:00+02:00,67.16,EUR,,MWh
Power,Intraday,Continuous,NL,ID3,QH,2021-05-16T17:45:00+02:00,2021-05-16T18:00:00+02:00,67.16,EUR,,MWh
Power,Intraday,Continuous,NL,ID3,QH,2021-05-16T18:00:00+02:00,2021-05-16T18:15:00+02:00,49.92,EUR,6.300,MWh
Power,Intraday,Continuous,NL,ID3,QH,2021-05-16T18:15:00+02:00,2021-05-16T18:30:00+02:00,49.89,EUR,12.050,MWh
Power,Intraday,Continuous,NL,ID3,QH,2021-05-16T18:30:00+02:00,2021-05-16T18:45:00+02:00,95.09,EUR,,MWh
Power,Intraday,Continuous,NL,ID3,QH,2021-05-16T18:45:00+02:00,2021-05-16T19:00:00+02:00,76.82,EUR,13.750,MWh
Power,Intraday,Continuous,NL,ID3,QH,2021-05-16T19:00:00+02:00,2021-05-16T19:15:00+02:00,82.20,EUR,,MWh
Power,Intraday,Continuous,NL,ID3,QH,2021-05-16T19:15:00+02:00,2021-05-16T19:30:00+02:00,82.20,EUR,,MWh
Power,Intraday,Continuous,NL,ID3,QH,2021-05-16T19:30:00+02:00,2021-05-16T19:45:00+02:00,82.20,EUR,,MWh
Power,Intraday,Continuous,NL,ID3,QH,2021-05-16T19:45:00+02:00,2021-05-16T20:00:00+02:00,82.20,EUR,,MWh
Power,Intraday,Continuous,NL,ID3,QH,2021-05-16T20:00:00+02:00,2021-05-16T20:15:00+02:00,105.23,EUR,,MWh
Power,Intraday,Continuous,NL,ID3,QH,2021-05-16T20:15:00+02:00,2021-05-16T20:30:00+02:00,105.23,EUR,,MWh
Power,Intraday,Continuous,NL,ID3,QH,2021-05-16T20:30:00+02:00,2021-05-16T20:45:00+02:00,105.23,EUR,,MWh
Power,Intraday,Continuous,NL,ID3,QH,2021-05-16T20:45:00+02:00,2021-05-16T21:00:00+02:00,105.23,EUR,,MWh
Power,Intraday,Continuous,NL,ID3,QH,2021-05-16T21:00:00+02:00,2021-05-16T21:15:00+02:00,78.13,EUR,,MWh
Power,Intraday,Continuous,NL,ID3,QH,2021-05-16T21:15:00+02:00,2021-05-16T21:30:00+02:00,78.13,EUR,,MWh
Power,Intraday,Continuous,NL,ID3,QH,2021-05-16T21:30:00+02:00,2021-05-16T21:45:00+02:00,78.13,EUR,,MWh
Power,Intraday,Continuous,NL,ID3,QH,2021-05-16T21:45:00+02:00,2021-05-16T22:00:00+02:00,78.13,EUR,,MWh
Power,Intraday,Continuous,NL,ID3,QH,2021-05-16T22:00:00+02:00,2021-05-16T22:15:00+02:00,88.38,EUR,25.780,MWh
Power,Intraday,Continuous,NL,ID3,QH,2021-05-16T22:15:00+02:00,2021-05-16T22:30:00+02:00,87.44,EUR,14.100,MWh
Power,Intraday,Continuous,NL,ID3,QH,2021-05-16T22:30:00+02:00,2021-05-16T22:45:00+02:00,73.39,EUR,15.630,MWh
Power,Intraday,Continuous,NL,ID3,QH,2021-05-16T22:45:00+02:00,2021-05-16T23:00:00+02:00,64.70,EUR,34.150,MWh
Power,Intraday,Continuous,NL,ID3,QH,2021-05-16T23:00:00+02:00,2021-05-16T23:15:00+02:00,77.73,EUR,36.130,MWh
Power,Intraday,Continuous,NL,ID3,QH,2021-05-16T23:15:00+02:00,2021-05-16T23:30:00+02:00,64.31,EUR,12.800,MWh
Power,Intraday,Continuous,NL,ID3,QH,2021-05-16T23:30:00+02:00,2021-05-16T23:45:00+02:00,70.81,EUR,25.780,MWh
Power,Intraday,Continuous,NL,ID3,QH,2021-05-16T23:45:00+02:00,2021-05-17T00:00:00+02:00,52.98,EUR,25.550,MWh
Power,Intraday,Continuous,NL,IDFULL,BASE,2021-05-16T00:00:00+02:00,2021-05-17T00:00:00+02:00,40.14,EUR,13378.100,MWh
Power,Intraday,Continuous,NL,IDFULL,PEAK,2021-05-16T08:00:00+02:00,2021-05-16T20:00:00+02:00,32.94,EUR,8446.900,MWh
