Commodity,NominationModality,TradingModality,MarketArea,IndexName,TimeResolution,DeliveryStart,DeliveryEnd,IndexPrice,Currency,Volume,VolumeUnit
Power,Intraday,Continuous,NL,IDFULL,H,2021-02-20T00:00:00+01:00,2021-02-20T01:00:00+01:00,41.00,EUR,316.800,MWh
Power,Intraday,Continuous,NL,IDFULL,H,2021-02-20T01:00:00+01:00,2021-02-20T02:00:00+01:00,37.90,EUR,176.400,MWh
Power,Intraday,Continuous,NL,IDFULL,H,2021-02-20T02:00:00+01:00,2021-02-20T03:00:00+01:00,37.03,EUR,214.400,MWh
Power,Intraday,Continuous,NL,IDFULL,H,2021-02-20T03:00:00+01:00,2021-02-20T04:00:00+01:00,35.10,EUR,381.500,MWh
Power,Intraday,Continuous,NL,IDFULL,H,2021-02-20T04:00:00+01:00,2021-02-20T05:00:00+01:00,36.41,EUR,654.200,MWh
Power,Intraday,Continuous,NL,IDFULL,H,2021-02-20T05:00:00+01:00,2021-02-20T06:00:00+01:00,35.94,EUR,468.400,MWh
Power,Intraday,Continuous,NL,IDFULL,H,2021-02-20T06:00:00+01:00,2021-02-20T07:00:00+01:00,38.25,EUR,436.100,MWh
Power,Intraday,Continuous,NL,IDFULL,H,2021-02-20T07:00:00+01:00,2021-02-20T08:00:00+01:00,45.17,EUR,194.900,MWh
Power,Intraday,Continuous,NL,IDFULL,H,2021-02-20T08:00:00+01:00,2021-02-20T09:00:00+01:00,33.50,EUR,526.500,MWh
Power,Intraday,Continuous,NL,IDFULL,H,2021-02-20T09:00:00+01:00,2021-02-20T10:00:00+01:00,28.77,EUR,489.300,MWh
Power,Intraday,Continuous,NL,IDFULL,H,2021-02-20T10:00:00+01:00,2021-02-20T11:00:00+01:00,28.14,EUR,525.900,MWh
Power,Intraday,Continuous,NL,IDFULL,H,2021-02-20T11:00:00+01:00,2021-02-20T12:00:00+01:00,17.94,EUR,546.700,MWh
Power,Intraday,Continuous,NL,IDFULL,H,2021-02-20T12:00:00+01:00,2021-02-20T13:00:00+01:00,17.63,EUR,542.300,MWh
Power,Intraday,Continuous,NL,IDFULL,H,2021-02-20T13:00:00+01:00,2021-02-20T14:00:00+01:00,12.58,EUR,614.900,MWh
Power,Intraday,Continuous,NL,IDFULL,H,2021-02-20T14:00:00+01:00,2021-02-20T15:00:00+01:00,13.14,EUR,579.200,MWh
Power,Intraday,Continuous,NL,IDFULL,H,2021-02-20T15:00:00+01:00,2021-02-20T16:00:00+01:00,11.83,EUR,566.100,MWh
Power,Intraday,Continuous,NL,IDFULL,H,2021-02-20T16:00:00+01:00,2021-02-20T17:00:00+01:00,1.16,EUR,236.000,MWh
Power,Intraday,Continuous,NL,IDFULL,H,2021-02-20T17:00:00+01:00,2021-02-20T18:00:00+01:00,12.22,EUR,364.100,MWh
Power,Intraday,Continuous,NL,IDFULL,H,2021-02-20T18:00:00+01:00,2021-02-20T19:00:00+01:00,57.31,EUR,350.600,MWh
Power,Intraday,Continuous,NL,IDFULL,H,2021-02-20T19:00:00+01:00,2021-02-20T20:00:00+01:00,58.88,EUR,192.500,MWh
Power,Intraday,Continuous,NL,IDFULL,H,2021-02-20T20:00:00+01:00,2021-02-20T21:00:00+01:00,39.61,EUR,482.500,MWh
Power,Intraday,Continuous,NL,IDFULL,H,2021-02-20T21:00:00+01:00,2021-02-20T22:00:00+01:00,28.93,EUR,711.400,MWh
Power,Intraday,Continuous,NL,IDFULL,H,2021-02-20T22:00:00+01:00,2021-02-20T23:00:00+01:00,32.78,EUR,875.600,MWh
Power,Intraday,Continuous,NL,IDFULL,H,2021-02-20T23:00:00+01:00,2021-02-21T00:00:00+01:00,26.85,EUR,1150.500,MWh
Power,Intraday,Continuous,NL,ID1,H,2021-02-20T00:00:00+01:00,2021-02-20T01:00:00+01:00,41.04,EUR,,MWh
Power,Intraday,Continuous,NL,ID1,H,2021-02-20T01:00:00+01:00,2021-02-20T02:00:00+01:00,37.88,EUR,,MWh
Power,Intraday,Continuous,NL,ID1,H,2021-02-20T02:00:00+01:00,2021-02-20T03:00:00+01:00,37.27,EUR,,MWh
Power,Intraday,Continuous,NL,ID1,H,2021-02-20T03:00:00+01:00,2021-02-20T04:00:00+01:00,20.00,EUR,10.000,MWh
Power,Intraday,Continuous,NL,ID1,H,2021-02-20T04:00:00+01:00,2021-02-20T05:00:00+01:00,39.79,EUR,45.000,MWh
Power,Intraday,Continuous,NL,ID1,H,2021-02-20T05:00:00+01:00,2021-02-20T06:00:00+01:00,38.26,EUR,,MWh
Power,Intraday,Continuous,NL,ID1,H,2021-02-20T06:00:00+01:00,2021-02-20T07:00:00+01:00,38.96,EUR,,MWh
Power,Intraday,Continuous,NL,ID1,H,2021-02-20T07:00:00+01:00,2021-02-20T08:00:00+01:00,50.63,EUR,,MWh
Power,Intraday,Continuous,NL,ID1,H,2021-02-20T08:00:00+01:00,2021-02-20T09:00:00+01:00,30.56,EUR,,MWh
Power,Intraday,Continuous,NL,ID1,H,2021-02-20T09:00:00+01:00,2021-02-20T10:00:00+01:00,22.75,EUR,16.500,MWh
Power,Intraday,Continuous,NL,ID1,H,2021-02-20T10:00:00+01:00,2021-02-20T11:00:00+01:00,36.71,EUR,199.200,MWh
Power,Intraday,Continuous,NL,ID1,H,2021-02-20T11:00:00+01:00,2021-02-20T12:00:00+01:00,8.41,EUR,141.800,MWh
Power,Intraday,Continuous,NL,ID1,H,2021-02-20T12:00:00+01:00,2021-02-20T13:00:00+01:00,25.68,EUR,77.500,MWh
Power,Intraday,Continuous,NL,ID1,H,2021-02-20T13:00:00+01:00,2021-02-20T14:00:00+01:00,23.44,EUR,58.100,MWh
Power,Intraday,Continuous,NL,ID1,H,2021-02-20T14:00:00+01:00,2021-02-20T15:00:00+01:00,16.50,EUR,73.100,MWh
Power,Intraday,Continuous,NL,ID1,H,2021-02-20T15:00:00+01:00,2021-02-20T16:00:00+01:00,-18.40,EUR,14.400,MWh
Power,Intraday,Continuous,NL,ID1,H,2021-02-20T16:00:00+01:00,2021-02-20T17:00:00+01:00,-28.85,EUR,26.200,MWh
Power,Intraday,Continuous,NL,ID1,H,2021-02-20T17:00:00+01:00,2021-02-20T18:00:00+01:00,18.97,EUR,188.600,MWh
Power,Intraday,Continuous,NL,ID1,H,2021-02-20T18:00:00+01:00,2021-02-20T19:00:00+01:00,52.25,EUR,73.600,MWh
Power,Intraday,Continuous,NL,ID1,H,2021-02-20T19:00:00+01:00,2021-02-20T20:00:00+01:00,53.66,EUR,23.700,MWh
Power,Intraday,Continuous,NL,ID1,H,2021-02-20T20:00:00+01:00,2021-02-20T21:00:00+01:00,39.18,EUR,,MWh
Power,Intraday,Continuous,NL,ID1,H,2021-02-20T21:00:00+01:00,2021-02-20T22:00:00+01:00,26.81,EUR,,MWh
Power,Intraday,Continuous,NL,ID1,H,2021-02-20T22:00:00+01:00,2021-02-20T23:00:00+01:00,49.67,EUR,133.800,MWh
Power,Intraday,Continuous,NL,ID1,H,2021-02-20T23:00:00+01:00,2021-02-21T00:00:00+01:00,22.79,EUR,17.000,MWh
Power,Intraday,Continuous,NL,ID3,H,2021-02-20T00:00:00+01:00,2021-02-20T01:00:00+01:00,41.04,EUR,286.400,MWh
Power,Intraday,Continuous,NL,ID3,H,2021-02-20T01:00:00+01:00,2021-02-20T02:00:00+01:00,37.88,EUR,160.000,MWh
Power,Intraday,Continuous,NL,ID3,H,2021-02-20T02:00:00+01:00,2021-02-20T03:00:00+01:00,37.27,EUR,174.600,MWh
Power,Intraday,Continuous,NL,ID3,H,2021-02-20T03:00:00+01:00,2021-02-20T04:00:00+01:00,36.54,EUR,228.000,MWh
Power,Intraday,Continuous,NL,ID3,H,2021-02-20T04:00:00+01:00,2021-02-20T05:00:00+01:00,38.79,EUR,349.200,MWh
Power,Intraday,Continuous,NL,ID3,H,2021-02-20T05:00:00+01:00,2021-02-20T06:00:00+01:00,38.26,EUR,271.900,MWh
Power,Intraday,Continuous,NL,ID3,H,2021-02-20T06:00:00+01:00,2021-02-20T07:00:00+01:00,38.96,EUR,371.000,MWh
Power,Intraday,Continuous,NL,ID3,H,2021-02-20T07:00:00+01:00,2021-02-20T08:00:00+01:00,50.63,EUR,135.000,MWh
Power,Intraday,Continuous,NL,ID3,H,2021-02-20T08:00:00+01:00,2021-02-20T09:00:00+01:00,30.56,EUR,284.200,MWh
Power,Intraday,Continuous,NL,ID3,H,2021-02-20T09:00:00+01:00,2021-02-20T10:00:00+01:00,27.39,EUR,363.400,MWh
Power,Intraday,Continuous,NL,ID3,H,2021-02-20T10:00:00+01:00,2021-02-20T11:00:00+01:00,28.92,EUR,386.300,MWh
Power,Intraday,Continuous,NL,ID3,H,2021-02-20T11:00:00+01:00,2021-02-20T12:00:00+01:00,18.55,EUR,469.400,MWh
Power,Intraday,Continuous,NL,ID3,H,2021-02-20T12:00:00+01:00,2021-02-20T13:00:00+01:00,19.63,EUR,413.600,MWh
Power,Intraday,Continuous,NL,ID3,H,2021-02-20T13:00:00+01:00,2021-02-20T14:00:00+01:00,11.56,EUR,467.900,MWh
Power,Intraday,Continuous,NL,ID3,H,2021-02-20T14:00:00+01:00,2021-02-20T15:00:00+01:00,16.59,EUR,188.600,MWh
Power,Intraday,Continuous,NL,ID3,H,2021-02-20T15:00:00+01:00,2021-02-20T16:00:00+01:00,10.91,EUR,380.900,MWh
Power,Intraday,Continuous,NL,ID3,H,2021-02-20T16:00:00+01:00,2021-02-20T17:00:00+01:00,0.22,EUR,221.000,MWh
Power,Intraday,Continuous,NL,ID3,H,2021-02-20T17:00:00+01:00,2021-02-20T18:00:00+01:00,7.53,EUR,258.900,MWh
Power,Intraday,Continuous,NL,ID3,H,2021-02-20T18:00:00+01:00,2021-02-20T19:00:00+01:00,57.31,EUR,350.600,MWh
Power,Intraday,Continuous,NL,ID3,H,2021-02-20T19:00:00+01:00,2021-02-20T20:00:00+01:00,60.42,EUR,172.500,MWh
Power,Intraday,Continuous,NL,ID3,H,2021-02-20T20:00:00+01:00,2021-02-20T21:00:00+01:00,39.18,EUR,445.500,MWh
Power,Intraday,Continuous,NL,ID3,H,2021-02-20T21:00:00+01:00,2021-02-20T22:00:00+01:00,26.81,EUR,533.200,MWh
Power,Intraday,Continuous,NL,ID3,H,2021-02-20T22:00:00+01:00,2021-02-20T23:00:00+01:00,32.62,EUR,739.800,MWh
Power,Intraday,Continuous,NL,ID3,H,2021-02-20T23:00:00+01:00,2021-02-21T00:00:00+01:00,25.64,EUR,901.800,MWh
Power,Intraday,Continuous,NL,IDFULL,HH,2021-02-20T00:00:00+01:00,2021-02-20T00:30:00+01:00,41.00,EUR,,MWh
Power,Intraday,Continuous,NL,IDFULL,HH,2021-02-20T00:30:00+01:00,2021-02-20T01:00:00+01:00,41.00,EUR,,MWh
Power,Intraday,Continuous,NL,IDFULL,HH,2021-02-20T01:00:00+01:00,2021-02-20T01:30:00+01:00,37.90,EUR,,MWh
Power,Intraday,Continuous,NL,IDFULL,HH,2021-02-20T01:30:00+01:00,2021-02-20T02:00:00+01:00,37.90,EUR,,MWh
Power,Intraday,Continuous,NL,IDFULL,HH,2021-02-20T02:00:00+01:00,2021-02-20T02:30:00+01:00,37.03,EUR,,MWh
Power,Intraday,Continuous,NL,IDFULL,HH,2021-02-20T02:30:00+01:00,2021-02-20T03:00:00+01:00,37.03,EUR,,MWh
Power,Intraday,Continuous,NL,IDFULL,HH,2021-02-20T03:00:00+01:00,2021-02-20T03:30:00+01:00,35.10,EUR,,MWh
Power,Intraday,Continuous,NL,IDFULL,HH,2021-02-20T03:30:00+01:00,2021-02-20T04:00:00+01:00,35.10,EUR,,MWh
Power,Intraday,Continuous,NL,IDFULL,HH,2021-02-20T04:00:00+01:00,2021-02-20T04:30:00+01:00,36.41,EUR,,MWh
Power,Intraday,Continuous,NL,IDFULL,HH,2021-02-20T04:30:00+01:00,2021-02-20T05:00:00+01:00,36.41,EUR,,MWh
Power,Intraday,Continuous,NL,IDFULL,HH,2021-02-20T05:00:00+01:00,2021-02-20T05:30:00+01:00,35.94,EUR,,MWh
Power,Intraday,Continuous,NL,IDFULL,HH,2021-02-20T05:30:00+01:00,2021-02-20T06:00:00+01:00,35.94,EUR,,MWh
Power,Intraday,Continuous,NL,IDFULL,HH,2021-02-20T06:00:00+01:00,2021-02-20T06:30:00+01:00,38.25,EUR,,MWh
Power,Intraday,Continuous,NL,IDFULL,HH,2021-02-20T06:30:00+01:00,2021-02-20T07:00:00+01:00,38.25,EUR,,MWh
Power,Intraday,Continuous,NL,IDFULL,HH,2021-02-20T07:00:00+01:00,2021-02-20T07:30:00+01:00,45.17,EUR,,MWh
Power,Intraday,Continuous,NL,IDFULL,HH,2021-02-20T07:30:00+01:00,2021-02-20T08:00:00+01:00,45.17,EUR,,MWh
Power,Intraday,Continuous,NL,IDFULL,HH,2021-02-20T08:00:00+01:00,2021-02-20T08:30:00+01:00,33.50,EUR,,MWh
Power,Intraday,Continuous,NL,IDFULL,HH,2021-02-20T08:30:00+01:00,2021-02-20T09:00:00+01:00,33.50,EUR,,MWh
Power,Intraday,Continuous,NL,IDFULL,HH,2021-02-20T09:00:00+01:00,2021-02-20T09:30:00+01:00,28.77,EUR,,MWh
Power,Intraday,Continuous,NL,IDFULL,HH,2021-02-20T09:30:00+01:00,2021-02-20T10:00:00+01:00,28.77,EUR,,MWh
Power,Intraday,Continuous,NL,IDFULL,HH,2021-02-20T10:00:00+01:00,2021-02-20T10:30:00+01:00,28.14,EUR,,MWh
Power,Intraday,Continuous,NL,IDFULL,HH,2021-02-20T10:30:00+01:00,2021-02-20T11:00:00+01:00,28.14,EUR,,MWh
Power,Intraday,Continuous,NL,IDFULL,HH,2021-02-20T11:00:00+01:00,2021-02-20T11:30:00+01:00,17.94,EUR,,MWh
Power,Intraday,Continuous,NL,IDFULL,HH,2021-02-20T11:30:00+01:00,2021-02-20T12:00:00+01:00,17.94,EUR,,MWh
Power,Intraday,Continuous,NL,IDFULL,HH,2021-02-20T12:00:00+01:00,2021-02-20T12:30:00+01:00,17.63,EUR,,MWh
Power,Intraday,Continuous,NL,IDFULL,HH,2021-02-20T12:30:00+01:00,2021-02-20T13:00:00+01:00,17.63,EUR,,MWh
Power,Intraday,Continuous,NL,IDFULL,HH,2021-02-20T13:00:00+01:00,2021-02-20T13:30:00+01:00,12.58,EUR,,MWh
Power,Intraday,Continuous,NL,IDFULL,HH,2021-02-20T13:30:00+01:00,2021-02-20T14:00:00+01:00,12.58,EUR,,MWh
Power,Intraday,Continuous,NL,IDFULL,HH,2021-02-20T14:00:00+01:00,2021-02-20T14:30:00+01:00,6.42,EUR,40.000,MWh
Power,Intraday,Continuous,NL,IDFULL,HH,2021-02-20T14:30:00+01:00,2021-02-20T15:00:00+01:00,19.86,EUR,,MWh
Power,Intraday,Continuous,NL,IDFULL,HH,2021-02-20T15:00:00+01:00,2021-02-20T15:30:00+01:00,-1.47,EUR,12.000,MWh
Power,Intraday,Continuous,NL,IDFULL,HH,2021-02-20T15:30:00+01:00,2021-02-20T16:00:00+01:00,11.83,EUR,,MWh
Power,Intraday,Continuous,NL,IDFULL,HH,2021-02-20T16:00:00+01:00,2021-02-20T16:30:00+01:00,1.16,EUR,,MWh
Power,Intraday,Continuous,NL,IDFULL,HH,2021-02-20T16:30:00+01:00,2021-02-20T17:00:00+01:00,1.16,EUR,,MWh
Power,Intraday,Continuous,NL,IDFULL,HH,2021-02-20T17:00:00+01:00,2021-02-20T17:30:00+01:00,12.22,EUR,,MWh
Power,Intraday,Continuous,NL,IDFULL,HH,2021-02-20T17:30:00+01:00,2021-02-20T18:00:00+01:00,12.22,EUR,,MWh
Power,Intraday,Continuous,NL,IDFULL,HH,2021-02-20T18:00:00+01:00,2021-02-20T18:30:00+01:00,71.52,EUR,,MWh
Power,Intraday,Continuous,NL,IDFULL,HH,2021-02-20T18:30:00+01:00,2021-02-20T19:00:00+01:00,43.10,EUR,11.250,MWh
Power,Intraday,Continuous,NL,IDFULL,HH,2021-02-20T19:00:00+01:00,2021-02-20T19:30:00+01:00,58.88,EUR,,MWh
Power,Intraday,Continuous,NL,IDFULL,HH,2021-02-20T19:30:00+01:00,2021-02-20T20:00:00+01:00,58.88,EUR,,MWh
Power,Intraday,Continuous,NL,IDFULL,HH,2021-02-20T20:00:00+01:00,2021-02-20T20:30:00+01:00,39.61,EUR,,MWh
Power,Intraday,Continuous,NL,IDFULL,HH,2021-02-20T20:30:00+01:00,2021-02-20T21:00:00+01:00,39.61,EUR,,MWh
Power,Intraday,Continuous,NL,IDFULL,HH,2021-02-20T21:00:00+01:00,2021-02-20T21:30:00+01:00,41.86,EUR,,MWh
Power,Intraday,Continuous,NL,IDFULL,HH,2021-02-20T21:30:00+01:00,2021-02-20T22:00:00+01:00,16.00,EUR,5.800,MWh
Power,Intraday,Continuous,NL,IDFULL,HH,2021-02-20T22:00:00+01:00,2021-02-20T22:30:00+01:00,32.78,EUR,,MWh
Power,Intraday,Continuous,NL,IDFULL,HH,2021-02-20T22:30:00+01:00,2021-02-20T23:00:00+01:00,32.78,EUR,,MWh
Power,Intraday,Continuous,NL,IDFULL,HH,2021-02-20T23:00:00+01:00,2021-02-20T23:30:00+01:00,26.85,EUR,,MWh
Power,Intraday,Continuous,NL,IDFULL,HH,2021-02-20T23:30:00+01:00,2021-02-21T00:00:00+01:00,26.85,EUR,,MWh
Power,Intraday,Continuous,NL,ID1,HH,2021-02-20T00:00:00+01:00,2021-02-20T00:30:00+01:00,41.00,EUR,,MWh
Power,Intraday,Continuous,NL,ID1,HH,2021-02-20T00:30:00+01:00,2021-02-20T01:00:00+01:00,41.00,EUR,,MWh
Power,Intraday,Continuous,NL,ID1,HH,2021-02-20T01:00:00+01:00,2021-02-20T01:30:00+01:00,37.90,EUR,,MWh
Power,Intraday,Continuous,NL,ID1,HH,2021-02-20T01:30:00+01:00,2021-02-20T02:00:00+01:00,37.90,EUR,,MWh
Power,Intraday,Continuous,NL,ID1,HH,2021-02-20T02:00:00+01:00,2021-02-20T02:30:00+01:00,37.03,EUR,,MWh
Power,Intraday,Continuous,NL,ID1,HH,2021-02-20T02:30:00+01:00,2021-02-20T03:00:00+01:00,37.03,EUR,,MWh
Power,Intraday,Continuous,NL,ID1,HH,2021-02-20T03:00:00+01:00,2021-02-20T03:30:00+01:00,35.10,EUR,,MWh
Power,Intraday,Continuous,NL,ID1,HH,2021-02-20T03:30:00+01:00,2021-02-20T04:00:00+01:00,35.10,EUR,,MWh
Power,Intraday,Continuous,NL,ID1,HH,2021-02-20T04:00:00+01:00,2021-02-20T04:30:00+01:00,36.41,EUR,,MWh
Power,Intraday,Continuous,NL,ID1,HH,2021-02-20T04:30:00+01:00,2021-02-20T05:00:00+01:00,36.41,EUR,,MWh
Power,Intraday,Continuous,NL,ID1,HH,2021-02-20T05:00:00+01:00,2021-02-20T05:30:00+01:00,35.94,EUR,,MWh
Power,Intraday,Continuous,NL,ID1,HH,2021-02-20T05:30:00+01:00,2021-02-20T06:00:00+01:00,35.94,EUR,,MWh
Power,Intraday,Continuous,NL,ID1,HH,2021-02-20T06:00:00+01:00,2021-02-20T06:30:00+01:00,38.25,EUR,,MWh
Power,Intraday,Continuous,NL,ID1,HH,2021-02-20T06:30:00+01:00,2021-02-20T07:00:00+01:00,38.25,EUR,,MWh
Power,Intraday,Continuous,NL,ID1,HH,2021-02-20T07:00:00+01:00,2021-02-20T07:30:00+01:00,45.17,EUR,,MWh
Power,Intraday,Continuous,NL,ID1,HH,2021-02-20T07:30:00+01:00,2021-02-20T08:00:00+01:00,45.17,EUR,,MWh
Power,Intraday,Continuous,NL,ID1,HH,2021-02-20T08:00:00+01:00,2021-02-20T08:30:00+01:00,33.50,EUR,,MWh
Power,Intraday,Continuous,NL,ID1,HH,2021-02-20T08:30:00+01:00,2021-02-20T09:00:00+01:00,33.50,EUR,,MWh
Power,Intraday,Continuous,NL,ID1,HH,2021-02-20T09:00:00+01:00,2021-02-20T09:30:00+01:00,28.77,EUR,,MWh
Power,Intraday,Continuous,NL,ID1,HH,2021-02-20T09:30:00+01:00,2021-02-20T10:00:00+01:00,28.77,EUR,,MWh
Power,Intraday,Continuous,NL,ID1,HH,2021-02-20T10:00:00+01:00,2021-02-20T10:30:00+01:00,28.14,EUR,,MWh
Power,Intraday,Continuous,NL,ID1,HH,2021-02-20T10:30:00+01:00,2021-02-20T11:00:00+01:00,28.14,EUR,,MWh
Power,Intraday,Continuous,NL,ID1,HH,2021-02-20T11:00:00+01:00,2021-02-20T11:30:00+01:00,17.94,EUR,,MWh
Power,Intraday,Continuous,NL,ID1,HH,2021-02-20T11:30:00+01:00,2021-02-20T12:00:00+01:00,17.94,EUR,,MWh
Power,Intraday,Continuous,NL,ID1,HH,2021-02-20T12:00:00+01:00,2021-02-20T12:30:00+01:00,17.63,EUR,,MWh
Power,Intraday,Continuous,NL,ID1,HH,2021-02-20T12:30:00+01:00,2021-02-20T13:00:00+01:00,17.63,EUR,,MWh
Power,Intraday,Continuous,NL,ID1,HH,2021-02-20T13:00:00+01:00,2021-02-20T13:30:00+01:00,12.58,EUR,,MWh
Power,Intraday,Continuous,NL,ID1,HH,2021-02-20T13:30:00+01:00,2021-02-20T14:00:00+01:00,12.58,EUR,,MWh
Power,Intraday,Continuous,NL,ID1,HH,2021-02-20T14:00:00+01:00,2021-02-20T14:30:00+01:00,6.42,EUR,,MWh
Power,Intraday,Continuous,NL,ID1,HH,2021-02-20T14:30:00+01:00,2021-02-20T15:00:00+01:00,19.86,EUR,,MWh
Power,Intraday,Continuous,NL,ID1,HH,2021-02-20T15:00:00+01:00,2021-02-20T15:30:00+01:00,-1.47,EUR,,MWh
Power,Intraday,Continuous,NL,ID1,HH,2021-02-20T15:30:00+01:00,2021-02-20T16:00:00+01:00,11.83,EUR,,MWh
Power,Intraday,Continuous,NL,ID1,HH,2021-02-20T16:00:00+01:00,2021-02-20T16:30:00+01:00,1.16,EUR,,MWh
Power,Intraday,Continuous,NL,ID1,HH,2021-02-20T16:30:00+01:00,2021-02-20T17:00:00+01:00,1.16,EUR,,MWh
Power,Intraday,Continuous,NL,ID1,HH,2021-02-20T17:00:00+01:00,2021-02-20T17:30:00+01:00,12.22,EUR,,MWh
Power,Intraday,Continuous,NL,ID1,HH,2021-02-20T17:30:00+01:00,2021-02-20T18:00:00+01:00,12.22,EUR,,MWh
Power,Intraday,Continuous,NL,ID1,HH,2021-02-20T18:00:00+01:00,2021-02-20T18:30:00+01:00,71.52,EUR,,MWh
Power,Intraday,Continuous,NL,ID1,HH,2021-02-20T18:30:00+01:00,2021-02-20T19:00:00+01:00,43.10,EUR,,MWh
Power,Intraday,Continuous,NL,ID1,HH,2021-02-20T19:00:00+01:00,2021-02-20T19:30:00+01:00,58.88,EUR,,MWh
Power,Intraday,Continuous,NL,ID1,HH,2021-02-20T19:30:00+01:00,2021-02-20T20:00:00+01:00,58.88,EUR,,MWh
Power,Intraday,Continuous,NL,ID1,HH,2021-02-20T20:00:00+01:00,2021-02-20T20:30:00+01:00,39.61,EUR,,MWh
Power,Intraday,Continuous,NL,ID1,HH,2021-02-20T20:30:00+01:00,2021-02-20T21:00:00+01:00,39.61,EUR,,MWh
Power,Intraday,Continuous,NL,ID1,HH,2021-02-20T21:00:00+01:00,2021-02-20T21:30:00+01:00,41.86,EUR,,MWh
Power,Intraday,Continuous,NL,ID1,HH,2021-02-20T21:30:00+01:00,2021-02-20T22:00:00+01:00,16.00,EUR,,MWh
Power,Intraday,Continuous,NL,ID1,HH,2021-02-20T22:00:00+01:00,2021-02-20T22:30:00+01:00,32.78,EUR,,MWh
Power,Intraday,Continuous,NL,ID1,HH,2021-02-20T22:30:00+01:00,2021-02-20T23:00:00+01:00,32.78,EUR,,MWh
Power,Intraday,Continuous,NL,ID1,HH,2021-02-20T23:00:00+01:00,2021-02-20T23:30:00+01:00,26.85,EUR,,MWh
Power,Intraday,Continuous,NL,ID1,HH,2021-02-20T23:30:00+01:00,2021-02-21T00:00:00+01:00,26.85,EUR,,MWh
Power,Intraday,Continuous,NL,ID3,HH,2021-02-20T00:00:00+01:00,2021-02-20T00:30:00+01:00,41.00,EUR,,MWh
Power,Intraday,Continuous,NL,ID3,HH,2021-02-20T00:30:00+01:00,2021-02-20T01:00:00+01:00,41.00,EUR,,MWh
Power,Intraday,Continuous,NL,ID3,HH,2021-02-20T01:00:00+01:00,2021-02-20T01:30:00+01:00,37.90,EUR,,MWh
Power,Intraday,Continuous,NL,ID3,HH,2021-02-20T01:30:00+01:00,2021-02-20T02:00:00+01:00,37.90,EUR,,MWh
Power,Intraday,Continuous,NL,ID3,HH,2021-02-20T02:00:00+01:00,2021-02-20T02:30:00+01:00,37.03,EUR,,MWh
Power,Intraday,Continuous,NL,ID3,HH,2021-02-20T02:30:00+01:00,2021-02-20T03:00:00+01:00,37.03,EUR,,MWh
Power,Intraday,Continuous,NL,ID3,HH,2021-02-20T03:00:00+01:00,2021-02-20T03:30:00+01:00,35.10,EUR,,MWh
Power,Intraday,Continuous,NL,ID3,HH,2021-02-20T03:30:00+01:00,2021-02-20T04:00:00+01:00,35.10,EUR,,MWh
Power,Intraday,Continuous,NL,ID3,HH,2021-02-20T04:00:00+01:00,2021-02-20T04:30:00+01:00,36.41,EUR,,MWh
Power,Intraday,Continuous,NL,ID3,HH,2021-02-20T04:30:00+01:00,2021-02-20T05:00:00+01:00,36.41,EUR,,MWh
Power,Intraday,Continuous,NL,ID3,HH,2021-02-20T05:00:00+01:00,2021-02-20T05:30:00+01:00,35.94,EUR,,MWh
Power,Intraday,Continuous,NL,ID3,HH,2021-02-20T05:30:00+01:00,2021-02-20T06:00:00+01:00,35.94,EUR,,MWh
Power,Intraday,Continuous,NL,ID3,HH,2021-02-20T06:00:00+01:00,2021-02-20T06:30:00+01:00,38.25,EUR,,MWh
Power,Intraday,Continuous,NL,ID3,HH,2021-02-20T06:30:00+01:00,2021-02-20T07:00:00+01:00,38.25,EUR,,MWh
Power,Intraday,Continuous,NL,ID3,HH,2021-02-20T07:00:00+01:00,2021-02-20T07:30:00+01:00,45.17,EUR,,MWh
Power,Intraday,Continuous,NL,ID3,HH,2021-02-20T07:30:00+01:00,2021-02-20T08:00:00+01:00,45.17,EUR,,MWh
Power,Intraday,Continuous,NL,ID3,HH,2021-02-20T08:00:00+01:00,2021-02-20T08:30:00+01:00,33.50,EUR,,MWh
Power,Intraday,Continuous,NL,ID3,HH,2021-02-20T08:30:00+01:00,2021-02-20T09:00:00+01:00,33.50,EUR,,MWh
Power,Intraday,Continuous,NL,ID3,HH,2021-02-20T09:00:00+01:00,2021-02-20T09:30:00+01:00,28.77,EUR,,MWh
Power,Intraday,Continuous,NL,ID3,HH,2021-02-20T09:30:00+01:00,2021-02-20T10:00:00+01:00,28.77,EUR,,MWh
Power,Intraday,Continuous,NL,ID3,HH,2021-02-20T10:00:00+01:00,2021-02-20T10:30:00+01:00,28.14,EUR,,MWh
Power,Intraday,Continuous,NL,ID3,HH,2021-02-20T10:30:00+01:00,2021-02-20T11:00:00+01:00,28.14,EUR,,MWh
Power,Intraday,Continuous,NL,ID3,HH,2021-02-20T11:00:00+01:00,2021-02-20T11:30:00+01:00,17.94,EUR,,MWh
Power,Intraday,Continuous,NL,ID3,HH,2021-02-20T11:30:00+01:00,2021-02-20T12:00:00+01:00,17.94,EUR,,MWh
Power,Intraday,Continuous,NL,ID3,HH,2021-02-20T12:00:00+01:00,2021-02-20T12:30:00+01:00,17.63,EUR,,MWh
Power,Intraday,Continuous,NL,ID3,HH,2021-02-20T12:30:00+01:00,2021-02-20T13:00:00+01:00,17.63,EUR,,MWh
Power,Intraday,Continuous,NL,ID3,HH,2021-02-20T13:00:00+01:00,2021-02-20T13:30:00+01:00,12.58,EUR,,MWh
Power,Intraday,Continuous,NL,ID3,HH,2021-02-20T13:30:00+01:00,2021-02-20T14:00:00+01:00,12.58,EUR,,MWh
Power,Intraday,Continuous,NL,ID3,HH,2021-02-20T14:00:00+01:00,2021-02-20T14:30:00+01:00,6.42,EUR,,MWh
Power,Intraday,Continuous,NL,ID3,HH,2021-02-20T14:30:00+01:00,2021-02-20T15:00:00+01:00,19.86,EUR,,MWh
Power,Intraday,Continuous,NL,ID3,HH,2021-02-20T15:00:00+01:00,2021-02-20T15:30:00+01:00,-1.47,EUR,,MWh
Power,Intraday,Continuous,NL,ID3,HH,2021-02-20T15:30:00+01:00,2021-02-20T16:00:00+01:00,11.83,EUR,,MWh
Power,Intraday,Continuous,NL,ID3,HH,2021-02-20T16:00:00+01:00,2021-02-20T16:30:00+01:00,1.16,EUR,,MWh
Power,Intraday,Continuous,NL,ID3,HH,2021-02-20T16:30:00+01:00,2021-02-20T17:00:00+01:00,1.16,EUR,,MWh
Power,Intraday,Continuous,NL,ID3,HH,2021-02-20T17:00:00+01:00,2021-02-20T17:30:00+01:00,12.22,EUR,,MWh
Power,Intraday,Continuous,NL,ID3,HH,2021-02-20T17:30:00+01:00,2021-02-20T18:00:00+01:00,12.22,EUR,,MWh
Power,Intraday,Continuous,NL,ID3,HH,2021-02-20T18:00:00+01:00,2021-02-20T18:30:00+01:00,71.52,EUR,,MWh
Power,Intraday,Continuous,NL,ID3,HH,2021-02-20T18:30:00+01:00,2021-02-20T19:00:00+01:00,43.10,EUR,11.250,MWh
Power,Intraday,Continuous,NL,ID3,HH,2021-02-20T19:00:00+01:00,2021-02-20T19:30:00+01:00,58.88,EUR,,MWh
Power,Intraday,Continuous,NL,ID3,HH,2021-02-20T19:30:00+01:00,2021-02-20T20:00:00+01:00,58.88,EUR,,MWh
Power,Intraday,Continuous,NL,ID3,HH,2021-02-20T20:00:00+01:00,2021-02-20T20:30:00+01:00,39.61,EUR,,MWh
Power,Intraday,Continuous,NL,ID3,HH,2021-02-20T20:30:00+01:00,2021-02-20T21:00:00+01:00,39.61,EUR,,MWh
Power,Intraday,Continuous,NL,ID3,HH,2021-02-20T21:00:00+01:00,2021-02-20T21:30:00+01:00,41.86,EUR,,MWh
Power,Intraday,Continuous,NL,ID3,HH,2021-02-20T21:30:00+01:00,2021-02-20T22:00:00+01:00,16.00,EUR,5.800,MWh
Power,Intraday,Continuous,NL,ID3,HH,2021-02-20T22:00:00+01:00,2021-02-20T22:30:00+01:00,32.78,EUR,,MWh
Power,Intraday,Continuous,NL,ID3,HH,2021-02-20T22:30:00+01:00,2021-02-20T23:00:00+01:00,32.78,EUR,,MWh
Power,Intraday,Continuous,NL,ID3,HH,2021-02-20T23:00:00+01:00,2021-02-20T23:30:00+01:00,26.85,EUR,,MWh
Power,Intraday,Continuous,NL,ID3,HH,2021-02-20T23:30:00+01:00,2021-02-21T00:00:00+01:00,26.85,EUR,,MWh
Power,Intraday,Continuous,NL,IDFULL,QH,2021-02-20T00:00:00+01:00,2021-02-20T00:15:00+01:00,45.99,EUR,7.230,MWh
Power,Intraday,Continuous,NL,IDFULL,QH,2021-02-20T00:15:00+01:00,2021-02-20T00:30:00+01:00,45.21,EUR,2.800,MWh
Power,Intraday,Continuous,NL,IDFULL,QH,2021-02-20T00:30:00+01:00,2021-02-20T00:45:00+01:00,39.84,EUR,17.400,MWh
Power,Intraday,Continuous,NL,IDFULL,QH,2021-02-20T00:45:00+01:00,2021-02-20T01:00:00+01:00,30.80,EUR,17.800,MWh
Power,Intraday,Continuous,NL,IDFULL,QH,2021-02-20T01:00:00+01:00,2021-02-20T01:15:00+01:00,46.34,EUR,2.630,MWh
Power,Intraday,Continuous,NL,IDFULL,QH,2021-02-20T01:15:00+01:00,2021-02-20T01:30:00+01:00,42.59,EUR,3.180,MWh
Power,Intraday,Continuous,NL,IDFULL,QH,2021-02-20T01:30:00+01:00,2021-02-20T01:45:00+01:00,35.67,EUR,9.400,MWh
Power,Intraday,Continuous,NL,IDFULL,QH,2021-02-20T01:45:00+01:00,2021-02-20T02:00:00+01:00,27.00,EUR,,MWh
Power,Intraday,Continuous,NL,IDFULL,QH,2021-02-20T02:00:00+01:00,2021-02-20T02:15:00+01:00,40.34,EUR,12.450,MWh
Power,Intraday,Continuous,NL,IDFULL,QH,2021-02-20T02:15:00+01:00,2021-02-20T02:30:00+01:00,36.06,EUR,5.050,MWh
Power,Intraday,Continuous,NL,IDFULL,QH,2021-02-20T02:30:00+01:00,2021-02-20T02:45:00+01:00,40.56,EUR,12.200,MWh
Power,Intraday,Continuous,NL,IDFULL,QH,2021-02-20T02:45:00+01:00,2021-02-20T03:00:00+01:00,33.77,EUR,15.350,MWh
Power,Intraday,Continuous,NL,IDFULL,QH,2021-02-20T03:00:00+01:00,2021-02-20T03:15:00+01:00,38.76,EUR,6.200,MWh
Power,Intraday,Continuous,NL,IDFULL,QH,2021-02-20T03:15:00+01:00,2021-02-20T03:30:00+01:00,35.92,EUR,5.000,MWh
Power,Intraday,Continuous,NL,IDFULL,QH,2021-02-20T03:30:00+01:00,2021-02-20T03:45:00+01:00,38.85,EUR,5.880,MWh
Power,Intraday,Continuous,NL,IDFULL,QH,2021-02-20T03:45:00+01:00,2021-02-20T04:00:00+01:00,34.07,EUR,7.580,MWh
Power,Intraday,Continuous,NL,IDFULL,QH,2021-02-20T04:00:00+01:00,2021-02-20T04:15:00+01:00,36.44,EUR,11.950,MWh
Power,Intraday,Continuous,NL,IDFULL,QH,2021-02-20T04:15:00+01:00,2021-02-20T04:30:00+01:00,37.24,EUR,8.880,MWh
Power,Intraday,Continuous,NL,IDFULL,QH,2021-02-20T04:30:00+01:00,2021-02-20T04:45:00+01:00,37.78,EUR,9.550,MWh
Power,Intraday,Continuous,NL,IDFULL,QH,2021-02-20T04:45:00+01:00,2021-02-20T05:00:00+01:00,35.79,EUR,8.730,MWh
Power,Intraday,Continuous,NL,IDFULL,QH,2021-02-20T05:00:00+01:00,2021-02-20T05:15:00+01:00,35.94,EUR,,MWh
Power,Intraday,Continuous,NL,IDFULL,QH,2021-02-20T05:15:00+01:00,2021-02-20T05:30:00+01:00,35.94,EUR,,MWh
Power,Intraday,Continuous,NL,IDFULL,QH,2021-02-20T05:30:00+01:00,2021-02-20T05:45:00+01:00,35.94,EUR,,MWh
Power,Intraday,Continuous,NL,IDFULL,QH,2021-02-20T05:45:00+01:00,2021-02-20T06:00:00+01:00,35.94,EUR,,MWh
Power,Intraday,Continuous,NL,IDFULL,QH,2021-02-20T06:00:00+01:00,2021-02-20T06:15:00+01:00,15.87,EUR,12.230,MWh
Power,Intraday,Continuous,NL,IDFULL,QH,2021-02-20T06:15:00+01:00,2021-02-20T06:30:00+01:00,35.27,EUR,12.330,MWh
Power,Intraday,Continuous,NL,IDFULL,QH,2021-02-20T06:30:00+01:00,2021-02-20T06:45:00+01:00,47.64,EUR,12.480,MWh
Power,Intraday,Continuous,NL,IDFULL,QH,2021-02-20T06:45:00+01:00,2021-02-20T07:00:00+01:00,52.69,EUR,12.530,MWh
Power,Intraday,Continuous,NL,IDFULL,QH,2021-02-20T07:00:00+01:00,2021-02-20T07:15:00+01:00,23.44,EUR,4.230,MWh
Power,Intraday,Continuous,NL,IDFULL,QH,2021-02-20T07:15:00+01:00,2021-02-20T07:30:00+01:00,30.44,EUR,2.800,MWh
Power,Intraday,Continuous,NL,IDFULL,QH,2021-02-20T07:30:00+01:00,2021-02-20T07:45:00+01:00,42.41,EUR,12.030,MWh
Power,Intraday,Continuous,NL,IDFULL,QH,2021-02-20T07:45:00+01:00,2021-02-20T08:00:00+01:00,48.43,EUR,13.380,MWh
Power,Intraday,Continuous,NL,IDFULL,QH,2021-02-20T08:00:00+01:00,2021-02-20T08:15:00+01:00,33.50,EUR,,MWh
Power,Intraday,Continuous,NL,IDFULL,QH,2021-02-20T08:15:00+01:00,2021-02-20T08:30:00+01:00,33.50,EUR,,MWh
Power,Intraday,Continuous,NL,IDFULL,QH,2021-02-20T08:30:00+01:00,2021-02-20T08:45:00+01:00,33.50,EUR,,MWh
Power,Intraday,Continuous,NL,IDFULL,QH,2021-02-20T08:45:00+01:00,2021-02-20T09:00:00+01:00,33.50,EUR,,MWh
Power,Intraday,Continuous,NL,IDFULL,QH,2021-02-20T09:00:00+01:00,2021-02-20T09:15:00+01:00,28.77,EUR,,MWh
Power,Intraday,Continuous,NL,IDFULL,QH,2021-02-20T09:15:00+01:00,2021-02-20T09:30:00+01:00,28.77,EUR,,MWh
Power,Intraday,Continuous,NL,IDFULL,QH,2021-02-20T09:30:00+01:00,2021-02-20T09:45:00+01:00,28.77,EUR,,MWh
Power,Intraday,Continuous,NL,IDFULL,QH,2021-02-20T09:45:00+01:00,2021-02-20T10:00:00+01:00,28.77,EUR,,MWh
Power,Intraday,Continuous,NL,IDFULL,QH,2021-02-20T10:00:00+01:00,2021-02-20T10:15:00+01:00,33.06,EUR,,MWh
Power,Intraday,Continuous,NL,IDFULL,QH,2021-02-20T10:15:00+01:00,2021-02-20T10:30:00+01:00,33.06,EUR,,MWh
Power,Intraday,Continuous,NL,IDFULL,QH,2021-02-20T10:30:00+01:00,2021-02-20T10:45:00+01:00,13.37,EUR,8.150,MWh
Power,Intraday,Continuous,NL,IDFULL,QH,2021-02-20T10:45:00+01:00,2021-02-20T11:00:00+01:00,-2.03,EUR,21.250,MWh
Power,Intraday,Continuous,NL,IDFULL,QH,2021-02-20T11:00:00+01:00,2021-02-20T11:15:00+01:00,17.94,EUR,,MWh
Power,Intraday,Continuous,NL,IDFULL,QH,2021-02-20T11:15:00+01:00,2021-02-20T11:30:00+01:00,17.94,EUR,,MWh
Power,Intraday,Continuous,NL,IDFULL,QH,2021-02-20T11:30:00+01:00,2021-02-20T11:45:00+01:00,17.94,EUR,,MWh
Power,Intraday,Continuous,NL,IDFULL,QH,2021-02-20T11:45:00+01:00,2021-02-20T12:00:00+01:00,17.94,EUR,,MWh
Power,Intraday,Continuous,NL,IDFULL,QH,2021-02-20T12:00:00+01:00,2021-02-20T12:15:00+01:00,-6.51,EUR,,MWh
Power,Intraday,Continuous,NL,IDFULL,QH,2021-02-20T12:15:00+01:00,2021-02-20T12:30:00+01:00,-6.51,EUR,,MWh
Power,Intraday,Continuous,NL,IDFULL,QH,2021-02-20T12:30:00+01:00,2021-02-20T12:45:00+01:00,43.54,EUR,16.250,MWh
Power,Intraday,Continuous,NL,IDFULL,QH,2021-02-20T12:45:00+01:00,2021-02-20T13:00:00+01:00,40.00,EUR,11.250,MWh
Power,Intraday,Continuous,NL,IDFULL,QH,2021-02-20T13:00:00+01:00,2021-02-20T13:15:00+01:00,2.32,EUR,,MWh
Power,Intraday,Continuous,NL,IDFULL,QH,2021-02-20T13:15:00+01:00,2021-02-20T13:30:00+01:00,2.32,EUR,,MWh
Power,Intraday,Continuous,NL,IDFULL,QH,2021-02-20T13:30:00+01:00,2021-02-20T13:45:00+01:00,2.32,EUR,,MWh
Power,Intraday,Continuous,NL,IDFULL,QH,2021-02-20T13:45:00+01:00,2021-02-20T14:00:00+01:00,43.36,EUR,20.780,MWh
Power,Intraday,Continuous,NL,IDFULL,QH,2021-02-20T14:00:00+01:00,2021-02-20T14:15:00+01:00,-29.03,EUR,2.880,MWh
Power,Intraday,Continuous,NL,IDFULL,QH,2021-02-20T14:15:00+01:00,2021-02-20T14:30:00+01:00,7.04,EUR,,MWh
Power,Intraday,Continuous,NL,IDFULL,QH,2021-02-20T14:30:00+01:00,2021-02-20T14:45:00+01:00,7.04,EUR,,MWh
Power,Intraday,Continuous,NL,IDFULL,QH,2021-02-20T14:45:00+01:00,2021-02-20T15:00:00+01:00,31.45,EUR,16.650,MWh
Power,Intraday,Continuous,NL,IDFULL,QH,2021-02-20T15:00:00+01:00,2021-02-20T15:15:00+01:00,11.83,EUR,,MWh
Power,Intraday,Continuous,NL,IDFULL,QH,2021-02-20T15:15:00+01:00,2021-02-20T15:30:00+01:00,11.83,EUR,,MWh
Power,Intraday,Continuous,NL,IDFULL,QH,2021-02-20T15:30:00+01:00,2021-02-20T15:45:00+01:00,11.83,EUR,,MWh
Power,Intraday,Continuous,NL,IDFULL,QH,2021-02-20T15:45:00+01:00,2021-02-20T16:00:00+01:00,11.83,EUR,,MWh
Power,Intraday,Continuous,NL,IDFULL,QH,2021-02-20T16:00:00+01:00,2021-02-20T16:15:00+01:00,-11.52,EUR,,MWh
Power,Intraday,Continuous,NL,IDFULL,QH,2021-02-20T16:15:00+01:00,2021-02-20T16:30:00+01:00,-11.52,EUR,,MWh
Power,Intraday,Continuous,NL,IDFULL,QH,2021-02-20T16:30:00+01:00,2021-02-20T16:45:00+01:00,-11.52,EUR,,MWh
Power,Intraday,Continuous,NL,IDFULL,QH,2021-02-20T16:45:00+01:00,2021-02-20T17:00:00+01:00,39.19,EUR,11.830,MWh
Power,Intraday,Continuous,NL,IDFULL,QH,2021-02-20T17:00:00+01:00,2021-02-20T17:15:00+01:00,1.96,EUR,,MWh
Power,Intraday,Continuous,NL,IDFULL,QH,2021-02-20T17:15:00+01:00,2021-02-20T17:30:00+01:00,1.96,EUR,,MWh
Power,Intraday,Continuous,NL,IDFULL,QH,2021-02-20T17:30:00+01:00,2021-02-20T17:45:00+01:00,1.96,EUR,,MWh
Power,Intraday,Continuous,NL,IDFULL,QH,2021-02-20T17:45:00+01:00,2021-02-20T18:00:00+01:00,43.01,EUR,2.880,MWh
Power,Intraday,Continuous,NL,IDFULL,QH,2021-02-20T18:00:00+01:00,2021-02-20T18:15:00+01:00,60.93,EUR,8.250,MWh
Power,Intraday,Continuous,NL,IDFULL,QH,2021-02-20T18:15:00+01:00,2021-02-20T18:30:00+01:00,54.81,EUR,2.830,MWh
Power,Intraday,Continuous,NL,IDFULL,QH,2021-02-20T18:30:00+01:00,2021-02-20T18:45:00+01:00,61.04,EUR,7.700,MWh
Power,Intraday,Continuous,NL,IDFULL,QH,2021-02-20T18:45:00+01:00,2021-02-20T19:00:00+01:00,51.69,EUR,13.430,MWh
Power,Intraday,Continuous,NL,IDFULL,QH,2021-02-20T19:00:00+01:00,2021-02-20T19:15:00+01:00,61.77,EUR,12.480,MWh
Power,Intraday,Continuous,NL,IDFULL,QH,2021-02-20T19:15:00+01:00,2021-02-20T19:30:00+01:00,100.77,EUR,,MWh
Power,Intraday,Continuous,NL,IDFULL,QH,2021-02-20T19:30:00+01:00,2021-02-20T19:45:00+01:00,44.42,EUR,22.850,MWh
Power,Intraday,Continuous,NL,IDFULL,QH,2021-02-20T19:45:00+01:00,2021-02-20T20:00:00+01:00,28.56,EUR,10.380,MWh
Power,Intraday,Continuous,NL,IDFULL,QH,2021-02-20T20:00:00+01:00,2021-02-20T20:15:00+01:00,50.72,EUR,22.730,MWh
Power,Intraday,Continuous,NL,IDFULL,QH,2021-02-20T20:15:00+01:00,2021-02-20T20:30:00+01:00,49.76,EUR,4.700,MWh
Power,Intraday,Continuous,NL,IDFULL,QH,2021-02-20T20:30:00+01:00,2021-02-20T20:45:00+01:00,30.97,EUR,13.030,MWh
Power,Intraday,Continuous,NL,IDFULL,QH,2021-02-20T20:45:00+01:00,2021-02-20T21:00:00+01:00,8.21,EUR,4.980,MWh
Power,Intraday,Continuous,NL,IDFULL,QH,2021-02-20T21:00:00+01:00,2021-02-20T21:15:00+01:00,47.02,EUR,27.700,MWh
Power,Intraday,Continuous,NL,IDFULL,QH,2021-02-20T21:15:00+01:00,2021-02-20T21:30:00+01:00,34.55,EUR,14.900,MWh
Power,Intraday,Continuous,NL,IDFULL,QH,2021-02-20T21:30:00+01:00,2021-02-20T21:45:00+01:00,23.77,EUR,15.000,MWh
Power,Intraday,Continuous,NL,IDFULL,QH,2021-02-20T21:45:00+01:00,2021-02-20T22:00:00+01:00,17.81,EUR,11.830,MWh
Power,Intraday,Continuous,NL,IDFULL,QH,2021-02-20T22:00:00+01:00,2021-02-20T22:15:00+01:00,52.83,EUR,34.350,MWh
Power,Intraday,Continuous,NL,IDFULL,QH,2021-02-20T22:15:00+01:00,2021-02-20T22:30:00+01:00,25.34,EUR,9.050,MWh
Power,Intraday,Continuous,NL,IDFULL,QH,2021-02-20T22:30:00+01:00,2021-02-20T22:45:00+01:00,26.01,EUR,10.250,MWh
Power,Intraday,Continuous,NL,IDFULL,QH,2021-02-20T22:45:00+01:00,2021-02-20T23:00:00+01:00,17.82,EUR,16.080,MWh
Power,Intraday,Continuous,NL,IDFULL,QH,2021-02-20T23:00:00+01:00,2021-02-20T23:15:00+01:00,47.78,EUR,33.380,MWh
Power,Intraday,Continuous,NL,IDFULL,QH,2021-02-20T23:15:00+01:00,2021-02-20T23:30:00+01:00,24.73,EUR,22.430,MWh
Power,Intraday,Continuous,NL,IDFULL,QH,2021-02-20T23:30:00+01:00,2021-02-20T23:45:00+01:00,24.96,EUR,15.700,MWh
Power,Intraday,Continuous,NL,IDFULL,QH,2021-02-20T23:45:00+01:00,2021-02-21T00:00:00+01:00,10.06,EUR,24.730,MWh
Power,Intraday,Continuous,NL,ID1,QH,2021-02-20T00:00:00+01:00,2021-02-20T00:15:00+01:00,45.99,EUR,,MWh
Power,Intraday,Continuous,NL,ID1,QH,2021-02-20T00:15:00+01:00,2021-02-20T00:30:00+01:00,45.21,EUR,,MWh
Power,Intraday,Continuous,NL,ID1,QH,2021-02-20T00:30:00+01:00,2021-02-20T00:45:00+01:00,39.97,EUR,,MWh
Power,Intraday,Continuous,NL,ID1,QH,2021-02-20T00:45:00+01:00,2021-02-20T01:00:00+01:00,30.71,EUR,,MWh
Power,Intraday,Continuous,NL,ID1,QH,2021-02-20T01:00:00+01:00,2021-02-20T01:15:00+01:00,46.34,EUR,,MWh
Power,Intraday,Continuous,NL,ID1,QH,2021-02-20T01:15:00+01:00,2021-02-20T01:30:00+01:00,42.59,EUR,,MWh
Power,Intraday,Continuous,NL,ID1,QH,2021-02-20T01:30:00+01:00,2021-02-20T01:45:00+01:00,35.75,EUR,,MWh
Power,Intraday,Continuous,NL,ID1,QH,2021-02-20T01:45:00+01:00,2021-02-20T02:00:00+01:00,27.00,EUR,,MWh
Power,Intraday,Continuous,NL,ID1,QH,2021-02-20T02:00:00+01:00,2021-02-20T02:15:00+01:00,40.37,EUR,,MWh
Power,Intraday,Continuous,NL,ID1,QH,2021-02-20T02:15:00+01:00,2021-02-20T02:30:00+01:00,35.92,EUR,,MWh
Power,Intraday,Continuous,NL,ID1,QH,2021-02-20T02:30:00+01:00,2021-02-20T02:45:00+01:00,40.90,EUR,,MWh
Power,Intraday,Continuous,NL,ID1,QH,2021-02-20T02:45:00+01:00,2021-02-20T03:00:00+01:00,33.88,EUR,,MWh
Power,Intraday,Continuous,NL,ID1,QH,2021-02-20T03:00:00+01:00,2021-02-20T03:15:00+01:00,39.06,EUR,,MWh
Power,Intraday,Continuous,NL,ID1,QH,2021-02-20T03:15:00+01:00,2021-02-20T03:30:00+01:00,36.35,EUR,,MWh
Power,Intraday,Continuous,NL,ID1,QH,2021-02-20T03:30:00+01:00,2021-02-20T03:45:00+01:00,40.79,EUR,,MWh
Power,Intraday,Continuous,NL,ID1,QH,2021-02-20T03:45:00+01:00,2021-02-20T04:00:00+01:00,35.43,EUR,,MWh
Power,Intraday,Continuous,NL,ID1,QH,2021-02-20T04:00:00+01:00,2021-02-20T04:15:00+01:00,37.70,EUR,,MWh
Power,Intraday,Continuous,NL,ID1,QH,2021-02-20T04:15:00+01:00,2021-02-20T04:30:00+01:00,40.03,EUR,,MWh
Power,Intraday,Continuous,NL,ID1,QH,2021-02-20T04:30:00+01:00,2021-02-20T04:45:00+01:00,39.99,EUR,,MWh
Power,Intraday,Continuous,NL,ID1,QH,2021-02-20T04:45:00+01:00,2021-02-20T05:00:00+01:00,38.23,EUR,,MWh
Power,Intraday,Continuous,NL,ID1,QH,2021-02-20T05:00:00+01:00,2021-02-20T05:15:00+01:00,35.94,EUR,,MWh
Power,Intraday,Continuous,NL,ID1,QH,2021-02-20T05:15:00+01:00,2021-02-20T05:30:00+01:00,35.94,EUR,,MWh
Power,Intraday,Continuous,NL,ID1,QH,2021-02-20T05:30:00+01:00,2021-02-20T05:45:00+01:00,35.94,EUR,,MWh
Power,Intraday,Continuous,NL,ID1,QH,2021-02-20T05:45:00+01:00,2021-02-20T06:00:00+01:00,35.94,EUR,,MWh
Power,Intraday,Continuous,NL,ID1,QH,2021-02-20T06:00:00+01:00,2021-02-20T06:15:00+01:00,14.11,EUR,,MWh
Power,Intraday,Continuous,NL,ID1,QH,2021-02-20T06:15:00+01:00,2021-02-20T06:30:00+01:00,36.74,EUR,,MWh
Power,Intraday,Continuous,NL,ID1,QH,2021-02-20T06:30:00+01:00,2021-02-20T06:45:00+01:00,49.31,EUR,,MWh
Power,Intraday,Continuous,NL,ID1,QH,2021-02-20T06:45:00+01:00,2021-02-20T07:00:00+01:00,54.58,EUR,,MWh
Power,Intraday,Continuous,NL,ID1,QH,2021-02-20T07:00:00+01:00,2021-02-20T07:15:00+01:00,23.44,EUR,,MWh
Power,Intraday,Continuous,NL,ID1,QH,2021-02-20T07:15:00+01:00,2021-02-20T07:30:00+01:00,30.44,EUR,,MWh
Power,Intraday,Continuous,NL,ID1,QH,2021-02-20T07:30:00+01:00,2021-02-20T07:45:00+01:00,42.41,EUR,,MWh
Power,Intraday,Continuous,NL,ID1,QH,2021-02-20T07:45:00+01:00,2021-02-20T08:00:00+01:00,51.50,EUR,3.400,MWh
Power,Intraday,Continuous,NL,ID1,QH,2021-02-20T08:00:00+01:00,2021-02-20T08:15:00+01:00,33.50,EUR,,MWh
Power,Intraday,Continuous,NL,ID1,QH,2021-02-20T08:15:00+01:00,2021-02-20T08:30:00+01:00,33.50,EUR,,MWh
Power,Intraday,Continuous,NL,ID1,QH,2021-02-20T08:30:00+01:00,2021-02-20T08:45:00+01:00,33.50,EUR,,MWh
Power,Intraday,Continuous,NL,ID1,QH,2021-02-20T08:45:00+01:00,2021-02-20T09:00:00+01:00,33.50,EUR,,MWh
Power,Intraday,Continuous,NL,ID1,QH,2021-02-20T09:00:00+01:00,2021-02-20T09:15:00+01:00,28.77,EUR,,MWh
Power,Intraday,Continuous,NL,ID1,QH,2021-02-20T09:15:00+01:00,2021-02-20T09:30:00+01:00,28.77,EUR,,MWh
Power,Intraday,Continuous,NL,ID1,QH,2021-02-20T09:30:00+01:00,2021-02-20T09:45:00+01:00,28.77,EUR,,MWh
Power,Intraday,Continuous,NL,ID1,QH,2021-02-20T09:45:00+01:00,2021-02-20T10:00:00+01:00,28.77,EUR,,MWh
Power,Intraday,Continuous,NL,ID1,QH,2021-02-20T10:00:00+01:00,2021-02-20T10:15:00+01:00,33.06,EUR,,MWh
Power,Intraday,Continuous,NL,ID1,QH,2021-02-20T10:15:00+01:00,2021-02-20T10:30:00+01:00,33.06,EUR,,MWh
Power,Intraday,Continuous,NL,ID1,QH,2021-02-20T10:30:00+01:00,2021-02-20T10:45:00+01:00,13.37,EUR,8.150,MWh
Power,Intraday,Continuous,NL,ID1,QH,2021-02-20T10:45:00+01:00,2021-02-20T11:00:00+01:00,-2.03,EUR,21.250,MWh
Power,Intraday,Continuous,NL,ID1,QH,2021-02-20T11:00:00+01:00,2021-02-20T11:15:00+01:00,17.94,EUR,,MWh
Power,Intraday,Continuous,NL,ID1,QH,2021-02-20T11:15:00+01:00,2021-02-20T11:30:00+01:00,17.94,EUR,,MWh
Power,Intraday,Continuous,NL,ID1,QH,2021-02-20T11:30:00+01:00,2021-02-20T11:45:00+01:00,17.94,EUR,,MWh
Power,Intraday,Continuous,NL,ID1,QH,2021-02-20T11:45:00+01:00,2021-02-20T12:00:00+01:00,17.94,EUR,,MWh
Power,Intraday,Continuous,NL,ID1,QH,2021-02-20T12:00:00+01:00,2021-02-20T12:15:00+01:00,-6.51,EUR,,MWh
Power,Intraday,Continuous,NL,ID1,QH,2021-02-20T12:15:00+01:00,2021-02-20T12:30:00+01:00,-6.51,EUR,,MWh
Power,Intraday,Continuous,NL,ID1,QH,2021-02-20T12:30:00+01:00,2021-02-20T12:45:00+01:00,43.54,EUR,16.250,MWh
Power,Intraday,Continuous,NL,ID1,QH,2021-02-20T12:45:00+01:00,2021-02-20T13:00:00+01:00,40.00,EUR,11.250,MWh
Power,Intraday,Continuous,NL,ID1,QH,2021-02-20T13:00:00+01:00,2021-02-20T13:15:00+01:00,2.32,EUR,,MWh
Power,Intraday,Continuous,NL,ID1,QH,2021-02-20T13:15:00+01:00,2021-02-20T13:30:00+01:00,2.32,EUR,,MWh
Power,Intraday,Continuous,NL,ID1,QH,2021-02-20T13:30:00+01:00,2021-02-20T13:45:00+01:00,2.32,EUR,,MWh
Power,Intraday,Continuous,NL,ID1,QH,2021-02-20T13:45:00+01:00,2021-02-20T14:00:00+01:00,43.36,EUR,,MWh
Power,Intraday,Continuous,NL,ID1,QH,2021-02-20T14:00:00+01:00,2021-02-20T14:15:00+01:00,-29.03,EUR,,MWh
Power,Intraday,Continuous,NL,ID1,QH,2021-02-20T14:15:00+01:00,2021-02-20T14:30:00+01:00,7.04,EUR,,MWh
Power,Intraday,Continuous,NL,ID1,QH,2021-02-20T14:30:00+01:00,2021-02-20T14:45:00+01:00,7.04,EUR,,MWh
Power,Intraday,Continuous,NL,ID1,QH,2021-02-20T14:45:00+01:00,2021-02-20T15:00:00+01:00,10.68,EUR,6.250,MWh
Power,Intraday,Continuous,NL,ID1,QH,2021-02-20T15:00:00+01:00,2021-02-20T15:15:00+01:00,11.83,EUR,,MWh
Power,Intraday,Continuous,NL,ID1,QH,2021-02-20T15:15:00+01:00,2021-02-20T15:30:00+01:00,11.83,EUR,,MWh
Power,Intraday,Continuous,NL,ID1,QH,2021-02-20T15:30:00+01:00,2021-02-20T15:45:00+01:00,11.83,EUR,,MWh
Power,Intraday,Continuous,NL,ID1,QH,2021-02-20T15:45:00+01:00,2021-02-20T16:00:00+01:00,11.83,EUR,,MWh
Power,Intraday,Continuous,NL,ID1,QH,2021-02-20T16:00:00+01:00,2021-02-20T16:15:00+01:00,-11.52,EUR,,MWh
Power,Intraday,Continuous,NL,ID1,QH,2021-02-20T16:15:00+01:00,2021-02-20T16:30:00+01:00,-11.52,EUR,,MWh
Power,Intraday,Continuous,NL,ID1,QH,2021-02-20T16:30:00+01:00,2021-02-20T16:45:00+01:00,-11.52,EUR,,MWh
Power,Intraday,Continuous,NL,ID1,QH,2021-02-20T16:45:00+01:00,2021-02-20T17:00:00+01:00,39.19,EUR,11.830,MWh
Power,Intraday,Continuous,NL,ID1,QH,2021-02-20T17:00:00+01:00,2021-02-20T17:15:00+01:00,1.96,EUR,,MWh
Power,Intraday,Continuous,NL,ID1,QH,2021-02-20T17:15:00+01:00,2021-02-20T17:30:00+01:00,1.96,EUR,,MWh
Power,Intraday,Continuous,NL,ID1,QH,2021-02-20T17:30:00+01:00,2021-02-20T17:45:00+01:00,1.96,EUR,,MWh
Power,Intraday,Continuous,NL,ID1,QH,2021-02-20T17:45:00+01:00,2021-02-20T18:00:00+01:00,43.01,EUR,2.880,MWh
Power,Intraday,Continuous,NL,ID1,QH,2021-02-20T18:00:00+01:00,2021-02-20T18:15:00+01:00,60.93,EUR,,MWh
Power,Intraday,Continuous,NL,ID1,QH,2021-02-20T18:15:00+01:00,2021-02-20T18:30:00+01:00,54.81,EUR,,MWh
Power,Intraday,Continuous,NL,ID1,QH,2021-02-20T18:30:00+01:00,2021-02-20T18:45:00+01:00,62.59,EUR,,MWh
Power,Intraday,Continuous,NL,ID1,QH,2021-02-20T18:45:00+01:00,2021-02-20T19:00:00+01:00,51.69,EUR,,MWh
Power,Intraday,Continuous,NL,ID1,QH,2021-02-20T19:00:00+01:00,2021-02-20T19:15:00+01:00,61.77,EUR,,MWh
Power,Intraday,Continuous,NL,ID1,QH,2021-02-20T19:15:00+01:00,2021-02-20T19:30:00+01:00,100.77,EUR,,MWh
Power,Intraday,Continuous,NL,ID1,QH,2021-02-20T19:30:00+01:00,2021-02-20T19:45:00+01:00,48.53,EUR,,MWh
Power,Intraday,Continuous,NL,ID1,QH,2021-02-20T19:45:00+01:00,2021-02-20T20:00:00+01:00,31.24,EUR,,MWh
Power,Intraday,Continuous,NL,ID1,QH,2021-02-20T20:00:00+01:00,2021-02-20T20:15:00+01:00,50.72,EUR,,MWh
Power,Intraday,Continuous,NL,ID1,QH,2021-02-20T20:15:00+01:00,2021-02-20T20:30:00+01:00,49.76,EUR,,MWh
Power,Intraday,Continuous,NL,ID1,QH,2021-02-20T20:30:00+01:00,2021-02-20T20:45:00+01:00,30.97,EUR,,MWh
Power,Intraday,Continuous,NL,ID1,QH,2021-02-20T20:45:00+01:00,2021-02-20T21:00:00+01:00,8.21,EUR,,MWh
Power,Intraday,Continuous,NL,ID1,QH,2021-02-20T21:00:00+01:00,2021-02-20T21:15:00+01:00,46.32,EUR,,MWh
Power,Intraday,Continuous,NL,ID1,QH,2021-02-20T21:15:00+01:00,2021-02-20T21:30:00+01:00,34.09,EUR,,MWh
Power,Intraday,Continuous,NL,ID1,QH,2021-02-20T21:30:00+01:00,2021-02-20T21:45:00+01:00,23.77,EUR,,MWh
Power,Intraday,Continuous,NL,ID1,QH,2021-02-20T21:45:00+01:00,2021-02-20T22:00:00+01:00,14.84,EUR,,MWh
Power,Intraday,Continuous,NL,ID1,QH,2021-02-20T22:00:00+01:00,2021-02-20T22:15:00+01:00,47.39,EUR,,MWh
Power,Intraday,Continuous,NL,ID1,QH,2021-02-20T22:15:00+01:00,2021-02-20T22:30:00+01:00,21.15,EUR,,MWh
Power,Intraday,Continuous,NL,ID1,QH,2021-02-20T22:30:00+01:00,2021-02-20T22:45:00+01:00,26.11,EUR,,MWh
Power,Intraday,Continuous,NL,ID1,QH,2021-02-20T22:45:00+01:00,2021-02-20T23:00:00+01:00,16.91,EUR,,MWh
Power,Intraday,Continuous,NL,ID1,QH,2021-02-20T23:00:00+01:00,2021-02-20T23:15:00+01:00,44.68,EUR,,MWh
Power,Intraday,Continuous,NL,ID1,QH,2021-02-20T23:15:00+01:00,2021-02-20T23:30:00+01:00,23.96,EUR,,MWh
Power,Intraday,Continuous,NL,ID1,QH,2021-02-20T23:30:00+01:00,2021-02-20T23:45:00+01:00,24.60,EUR,,MWh
Power,Intraday,Continuous,NL,ID1,QH,2021-02-20T23:45:00+01:00,2021-02-21T00:00:00+01:00,8.13,EUR,,MWh
Power,Intraday,Continuous,NL,ID3,QH,2021-02-20T00:00:00+01:00,2021-02-20T00:15:00+01:00,45.99,EUR,7.230,MWh
Power,Intraday,Continuous,NL,ID3,QH,2021-02-20T00:15:00+01:00,2021-02-20T00:30:00+01:00,45.21,EUR,,MWh
Power,Intraday,Continuous,NL,ID3,QH,2021-02-20T00:30:00+01:00,2021-02-20T00:45:00+01:00,39.97,EUR,15.680,MWh
Power,Intraday,Continuous,NL,ID3,QH,2021-02-20T00:45:00+01:00,2021-02-20T01:00:00+01:00,30.71,EUR,17.050,MWh
Power,Intraday,Continuous,NL,ID3,QH,2021-02-20T01:00:00+01:00,2021-02-20T01:15:00+01:00,46.34,EUR,,MWh
Power,Intraday,Continuous,NL,ID3,QH,2021-02-20T01:15:00+01:00,2021-02-20T01:30:00+01:00,42.59,EUR,,MWh
Power,Intraday,Continuous,NL,ID3,QH,2021-02-20T01:30:00+01:00,2021-02-20T01:45:00+01:00,35.75,EUR,7.400,MWh
Power,Intraday,Continuous,NL,ID3,QH,2021-02-20T01:45:00+01:00,2021-02-20T02:00:00+01:00,27.00,EUR,,MWh
Power,Intraday,Continuous,NL,ID3,QH,2021-02-20T02:00:00+01:00,2021-02-20T02:15:00+01:00,40.37,EUR,12.080,MWh
Power,Intraday,Continuous,NL,ID3,QH,2021-02-20T02:15:00+01:00,2021-02-20T02:30:00+01:00,35.92,EUR,4.500,MWh
Power,Intraday,Continuous,NL,ID3,QH,2021-02-20T02:30:00+01:00,2021-02-20T02:45:00+01:00,40.90,EUR,11.630,MWh
Power,Intraday,Continuous,NL,ID3,QH,2021-02-20T02:45:00+01:00,2021-02-20T03:00:00+01:00,33.88,EUR,14.600,MWh
Power,Intraday,Continuous,NL,ID3,QH,2021-02-20T03:00:00+01:00,2021-02-20T03:15:00+01:00,39.06,EUR,4.930,MWh
Power,Intraday,Continuous,NL,ID3,QH,2021-02-20T03:15:00+01:00,2021-02-20T03:30:00+01:00,36.35,EUR,4.500,MWh
Power,Intraday,Continuous,NL,ID3,QH,2021-02-20T03:30:00+01:00,2021-02-20T03:45:00+01:00,40.79,EUR,3.900,MWh
Power,Intraday,Continuous,NL,ID3,QH,2021-02-20T03:45:00+01:00,2021-02-20T04:00:00+01:00,35.43,EUR,4.080,MWh
Power,Intraday,Continuous,NL,ID3,QH,2021-02-20T04:00:00+01:00,2021-02-20T04:15:00+01:00,37.70,EUR,6.730,MWh
Power,Intraday,Continuous,NL,ID3,QH,2021-02-20T04:15:00+01:00,2021-02-20T04:30:00+01:00,40.03,EUR,3.100,MWh
Power,Intraday,Continuous,NL,ID3,QH,2021-02-20T04:30:00+01:00,2021-02-20T04:45:00+01:00,39.99,EUR,3.830,MWh
Power,Intraday,Continuous,NL,ID3,QH,2021-02-20T04:45:00+01:00,2021-02-20T05:00:00+01:00,38.23,EUR,3.400,MWh
Power,Intraday,Continuous,NL,ID3,QH,2021-02-20T05:00:00+01:00,2021-02-20T05:15:00+01:00,35.94,EUR,,MWh
Power,Intraday,Continuous,NL,ID3,QH,2021-02-20T05:15:00+01:00,2021-02-20T05:30:00+01:00,35.94,EUR,,MWh
Power,Intraday,Continuous,NL,ID3,QH,2021-02-20T05:30:00+01:00,2021-02-20T05:45:00+01:00,35.94,EUR,,MWh
Power,Intraday,Continuous,NL,ID3,QH,2021-02-20T05:45:00+01:00,2021-02-20T06:00:00+01:00,35.94,EUR,,MWh
Power,Intraday,Continuous,NL,ID3,QH,2021-02-20T06:00:00+01:00,2021-02-20T06:15:00+01:00,14.11,EUR,8.150,MWh
Power,Intraday,Continuous,NL,ID3,QH,2021-02-20T06:15:00+01:00,2021-02-20T06:30:00+01:00,36.74,EUR,7.680,MWh
Power,Intraday,Continuous,NL,ID3,QH,2021-02-20T06:30:00+01:00,2021-02-20T06:45:00+01:00,49.31,EUR,6.930,MWh
Power,Intraday,Continuous,NL,ID3,QH,2021-02-20T06:45:00+01:00,2021-02-20T07:00:00+01:00,54.58,EUR,8.350,MWh
Power,Intraday,Continuous,NL,ID3,QH,2021-02-20T07:00:00+01:00,2021-02-20T07:15:00+01:00,23.44,EUR,,MWh
Power,Intraday,Continuous,NL,ID3,QH,2021-02-20T07:15:00+01:00,2021-02-20T07:30:00+01:00,30.44,EUR,,MWh
Power,Intraday,Continuous,NL,ID3,QH,2021-02-20T07:30:00+01:00,2021-02-20T07:45:00+01:00,42.41,EUR,,MWh
Power,Intraday,Continuous,NL,ID3,QH,2021-02-20T07:45:00+01:00,2021-02-20T08:00:00+01:00,51.50,EUR,3.400,MWh
Power,Intraday,Continuous,NL,ID3,QH,2021-02-20T08:00:00+01:00,2021-02-20T08:15:00+01:00,33.50,EUR,,MWh
Power,Intraday,Continuous,NL,ID3,QH,2021-02-20T08:15:00+01:00,2021-02-20T08:30:00+01:00,33.50,EUR,,MWh
Power,Intraday,Continuous,NL,ID3,QH,2021-02-20T08:30:00+01:00,2021-02-20T08:45:00+01:00,33.50,EUR,,MWh
Power,Intraday,Continuous,NL,ID3,QH,2021-02-20T08:45:00+01:00,2021-02-20T09:00:00+01:00,33.50,EUR,,MWh
Power,Intraday,Continuous,NL,ID3,QH,2021-02-20T09:00:00+01:00,2021-02-20T09:15:00+01:00,28.77,EUR,,MWh
Power,Intraday,Continuous,NL,ID3,QH,2021-02-20T09:15:00+01:00,2021-02-20T09:30:00+01:00,28.77,EUR,,MWh
Power,Intraday,Continuous,NL,ID3,QH,2021-02-20T09:30:00+01:00,2021-02-20T09:45:00+01:00,28.77,EUR,,MWh
Power,Intraday,Continuous,NL,ID3,QH,2021-02-20T09:45:00+01:00,2021-02-20T10:00:00+01:00,28.77,EUR,,MWh
Power,Intraday,Continuous,NL,ID3,QH,2021-02-20T10:00:00+01:00,2021-02-20T10:15:00+01:00,33.06,EUR,,MWh
Power,Intraday,Continuous,NL,ID3,QH,2021-02-20T10:15:00+01:00,2021-02-20T10:30:00+01:00,33.06,EUR,,MWh
Power,Intraday,Continuous,NL,ID3,QH,2021-02-20T10:30:00+01:00,2021-02-20T10:45:00+01:00,13.37,EUR,8.150,MWh
Power,Intraday,Continuous,NL,ID3,QH,2021-02-20T10:45:00+01:00,2021-02-20T11:00:00+01:00,-2.03,EUR,21.250,MWh
Power,Intraday,Continuous,NL,ID3,QH,2021-02-20T11:00:00+01:00,2021-02-20T11:15:00+01:00,17.94,EUR,,MWh
Power,Intraday,Continuous,NL,ID3,QH,2021-02-20T11:15:00+01:00,2021-02-20T11:30:00+01:00,17.94,EUR,,MWh
Power,Intraday,Continuous,NL,ID3,QH,2021-02-20T11:30:00+01:00,2021-02-20T11:45:00+01:00,17.94,EUR,,MWh
Power,Intraday,Continuous,NL,ID3,QH,2021-02-20T11:45:00+01:00,2021-02-20T12:00:00+01:00,17.94,EUR,,MWh
Power,Intraday,Continuous,NL,ID3,QH,2021-02-20T12:00:00+01:00,2021-02-20T12:15:00+01:00,-6.51,EUR,,MWh
Power,Intraday,Continuous,NL,ID3,QH,2021-02-20T12:15:00+01:00,2021-02-20T12:30:00+01:00,-6.51,EUR,,MWh
Power,Intraday,Continuous,NL,ID3,QH,2021-02-20T12:30:00+01:00,2021-02-20T12:45:00+01:00,43.54,EUR,16.250,MWh
Power,Intraday,Continuous,NL,ID3,QH,2021-02-20T12:45:00+01:00,2021-02-20T13:00:00+01:00,40.00,EUR,11.250,MWh
Power,Intraday,Continuous,NL,ID3,QH,2021-02-20T13:00:00+01:00,2021-02-20T13:15:00+01:00,2.32,EUR,,MWh
Power,Intraday,Continuous,NL,ID3,QH,2021-02-20T13:15:00+01:00,2021-02-20T13:30:00+01:00,2.32,EUR,,MWh
Power,Intraday,Continuous,NL,ID3,QH,2021-02-20T13:30:00+01:00,2021-02-20T13:45:00+01:00,2.32,EUR,,MWh
Power,Intraday,Continuous,NL,ID3,QH,2021-02-20T13:45:00+01:00,2021-02-20T14:00:00+01:00,43.36,EUR,20.780,MWh
Power,Intraday,Continuous,NL,ID3,QH,2021-02-20T14:00:00+01:00,2021-02-20T14:15:00+01:00,-29.03,EUR,2.880,MWh
Power,Intraday,Continuous,NL,ID3,QH,2021-02-20T14:15:00+01:00,2021-02-20T14:30:00+01:00,7.04,EUR,,MWh
Power,Intraday,Continuous,NL,ID3,QH,2021-02-20T14:30:00+01:00,2021-02-20T14:45:00+01:00,7.04,EUR,,MWh
Power,Intraday,Continuous,NL,ID3,QH,2021-02-20T14:45:00+01:00,2021-02-20T15:00:00+01:00,31.45,EUR,16.650,MWh
Power,Intraday,Continuous,NL,ID3,QH,2021-02-20T15:00:00+01:00,2021-02-20T15:15:00+01:00,11.83,EUR,,MWh
Power,Intraday,Continuous,NL,ID3,QH,2021-02-20T15:15:00+01:00,2021-02-20T15:30:00+01:00,11.83,EUR,,MWh
Power,Intraday,Continuous,NL,ID3,QH,2021-02-20T15:30:00+01:00,2021-02-20T15:45:00+01:00,11.83,EUR,,MWh
Power,Intraday,Continuous,NL,ID3,QH,2021-02-20T15:45:00+01:00,2021-02-20T16:00:00+01:00,11.83,EUR,,MWh
Power,Intraday,Continuous,NL,ID3,QH,2021-02-20T16:00:00+01:00,2021-02-20T16:15:00+01:00,-11.52,EUR,,MWh
Power,Intraday,Continuous,NL,ID3,QH,2021-02-20T16:15:00+01:00,2021-02-20T16:30:00+01:00,-11.52,EUR,,MWh
Power,Intraday,Continuous,NL,ID3,QH,2021-02-20T16:30:00+01:00,2021-02-20T16:45:00+01:00,-11.52,EUR,,MWh
Power,Intraday,Continuous,NL,ID3,QH,2021-02-20T16:45:00+01:00,2021-02-20T17:00:00+01:00,39.19,EUR,11.830,MWh
Power,Intraday,Continuous,NL,ID3,QH,2021-02-20T17:00:00+01:00,2021-02-20T17:15:00+01:00,1.96,EUR,,MWh
Power,Intraday,Continuous,NL,ID3,QH,2021-02-20T17:15:00+01:00,2021-02-20T17:30:00+01:00,1.96,EUR,,MWh
Power,Intraday,Continuous,NL,ID3,QH,2021-02-20T17:30:00+01:00,2021-02-20T17:45:00+01:00,1.96,EUR,,MWh
Power,Intraday,Continuous,NL,ID3,QH,2021-02-20T17:45:00+01:00,2021-02-20T18:00:00+01:00,43.01,EUR,2.880,MWh
Power,Intraday,Continuous,NL,ID3,QH,2021-02-20T18:00:00+01:00,2021-02-20T18:15:00+01:00,60.93,EUR,8.250,MWh
Power,Intraday,Continuous,NL,ID3,QH,2021-02-20T18:15:00+01:00,2021-02-20T18:30:00+01:00,54.81,EUR,2.830,MWh
Power,Intraday,Continuous,NL,ID3,QH,2021-02-20T18:30:00+01:00,2021-02-20T18:45:00+01:00,62.59,EUR,6.680,MWh
Power,Intraday,Continuous,NL,ID3,QH,2021-02-20T18:45:00+01:00,2021-02-20T19:00:00+01:00,51.69,EUR,13.430,MWh
Power,Intraday,Continuous,NL,ID3,QH,2021-02-20T19:00:00+01:00,2021-02-20T19:15:00+01:00,61.77,EUR,12.480,MWh
Power,Intraday,Continuous,NL,ID3,QH,2021-02-20T19:15:00+01:00,2021-02-20T19:30:00+01:00,100.77,EUR,,MWh
Power,Intraday,Continuous,NL,ID3,QH,2021-02-20T19:30:00+01:00,2021-02-20T19:45:00+01:00,48.53,EUR,15.450,MWh
Power,Intraday,Continuous,NL,ID3,QH,2021-02-20T19:45:00+01:00,2021-02-20T20:00:00+01:00,31.24,EUR,5.380,MWh
Power,Intraday,Continuous,NL,ID3,QH,2021-02-20T20:00:00+01:00,2021-02-20T20:15:00+01:00,50.72,EUR,22.730,MWh
Power,Intraday,Continuous,NL,ID3,QH,2021-02-20T20:15:00+01:00,2021-02-20T20:30:00+01:00,49.76,EUR,4.700,MWh
Power,Intraday,Continuous,NL,ID3,QH,2021-02-20T20:30:00+01:00,2021-02-20T20:45:00+01:00,30.97,EUR,13.030,MWh
Power,Intraday,Continuous,NL,ID3,QH,2021-02-20T20:45:00+01:00,2021-02-20T21:00:00+01:00,8.21,EUR,4.980,MWh
Power,Intraday,Continuous,NL,ID3,QH,2021-02-20T21:00:00+01:00,2021-02-20T21:15:00+01:00,46.32,EUR,20.200,MWh
Power,Intraday,Continuous,NL,ID3,QH,2021-02-20T21:15:00+01:00,2021-02-20T21:30:00+01:00,34.09,EUR,13.680,MWh
Power,Intraday,Continuous,NL,ID3,QH,2021-02-20T21:30:00+01:00,2021-02-20T21:45:00+01:00,23.77,EUR,15.000,MWh
Power,Intraday,Continuous,NL,ID3,QH,2021-02-20T21:45:00+01:00,2021-02-20T22:00:00+01:00,14.84,EUR,8.680,MWh
Power,Intraday,Continuous,NL,ID3,QH,2021-02-20T22:00:00+01:00,2021-02-20T22:15:00+01:00,47.39,EUR,10.930,MWh
Power,Intraday,Continuous,NL,ID3,QH,2021-02-20T22:15:00+01:00,2021-02-20T22:30:00+01:00,21.15,EUR,5.730,MWh
Power,Intraday,Continuous,NL,ID3,QH,2021-02-20T22:30:00+01:00,2021-02-20T22:45:00+01:00,26.11,EUR,8.280,MWh
Power,Intraday,Continuous,NL,ID3,QH,2021-02-20T22:45:00+01:00,2021-02-20T23:00:00+01:00,16.91,EUR,12.500,MWh
Power,Intraday,Continuous,NL,ID3,QH,2021-02-20T23:00:00+01:00,2021-02-20T23:15:00+01:00,44.68,EUR,19.500,MWh
Power,Intraday,Continuous,NL,ID3,QH,2021-02-20T23:15:00+01:00,2021-02-20T23:30:00+01:00,23.96,EUR,20.550,MWh
Power,Intraday,Continuous,NL,ID3,QH,2021-02-20T23:30:00+01:00,2021-02-20T23:45:00+01:00,24.60,EUR,12.100,MWh
Power,Intraday,Continuous,NL,ID3,QH,2021-02-20T23:45:00+01:00,2021-02-21T00:00:00+01:00,8.13,EUR,9.530,MWh
Power,Intraday,Continuous,NL,IDFULL,BASE,2021-02-20T00:00:00+01:00,2021-02-21T00:00:00+01:00,30.34,EUR,11596.800,MWh
Power,Intraday,Continuous,NL,IDFULL,PEAK,2021-02-20T08:00:00+01:00,2021-02-20T20:00:00+01:00,24.43,EUR,5534.100,MWh
