Commodity,NominationModality,TradingModality,MarketArea,IndexName,TimeResolution,DeliveryStart,DeliveryEnd,IndexPrice,Currency,Volume,VolumeUnit
Power,Intraday,Continuous,NL,IDFULL,H,2021-01-07T00:00:00+01:00,2021-01-07T01:00:00+01:00,47.00,EUR,504.800,MWh
Power,Intraday,Continuous,NL,IDFULL,H,2021-01-07T01:00:00+01:00,2021-01-07T02:00:00+01:00,48.29,EUR,276.400,MWh
Power,Intraday,Continuous,NL,IDFULL,H,2021-01-07T02:00:00+01:00,2021-01-07T03:00:00+01:00,45.88,EUR,445.500,MWh
Power,Intraday,Continuous,NL,IDFULL,H,2021-01-07T03:00:00+01:00,2021-01-07T04:00:00+01:00,43.65,EUR,644.900,MWh
Power,Intraday,Continuous,NL,IDFULL,H,2021-01-07T04:00:00+01:00,2021-01-07T05:00:00+01:00,43.49,EUR,674.500,MWh
Power,Intraday,Continuous,NL,IDFULL,H,2021-01-07T05:00:00+01:00,2021-01-07T06:00:00+01:00,44.53,EUR,456.700,MWh
Power,Intraday,Continuous,NL,IDFULL,H,2021-01-07T06:00:00+01:00,2021-01-07T07:00:00+01:00,35.42,EUR,196.100,MWh
Power,Intraday,Continuous,NL,IDFULL,H,2021-01-07T07:00:00+01:00,2021-01-07T08:00:00+01:00,45.79,EUR,223.300,MWh
Power,Intraday,Continuous,NL,IDFULL,H,2021-01-07T08:00:00+01:00,2021-01-07T09:00:00+01:00,63.13,EUR,272.600,MWh
Power,Intraday,Continuous,NL,IDFULL,H,2021-01-07T09:00:00+01:00,2021-01-07T10:00:00+01:00,82.90,EUR,459.500,MWh
Power,Intraday,Continuous,NL,IDFULL,H,2021-01-07T10:00:00+01:00,2021-01-07T11:00:00+01:00,80.68,EUR,490.600,MWh
Power,Intraday,Continuous,NL,IDFULL,H,2021-01-07T11:00:00+01:00,2021-01-07T12:00:00+01:00,61.32,EUR,732.800,MWh
Power,Intraday,Continuous,NL,IDFULL,H,2021-01-07T12:00:00+01:00,2021-01-07T13:00:00+01:00,67.22,EUR,721.000,MWh
Power,Intraday,Continuous,NL,IDFULL,H,2021-01-07T13:00:00+01:00,2021-01-07T14:00:00+01:00,57.17,EUR,632.400,MWh
Power,Intraday,Continuous,NL,IDFULL,H,2021-01-07T14:00:00+01:00,2021-01-07T15:00:00+01:00,78.23,EUR,1434.600,MWh
Power,Intraday,Continuous,NL,IDFULL,H,2021-01-07T15:00:00+01:00,2021-01-07T16:00:00+01:00,78.53,EUR,1114.800,MWh
Power,Intraday,Continuous,NL,IDFULL,H,2021-01-07T16:00:00+01:00,2021-01-07T17:00:00+01:00,83.48,EUR,922.500,MWh
Power,Intraday,Continuous,NL,IDFULL,H,2021-01-07T17:00:00+01:00,2021-01-07T18:00:00+01:00,87.14,EUR,979.500,MWh
Power,Intraday,Continuous,NL,IDFULL,H,2021-01-07T18:00:00+01:00,2021-01-07T19:00:00+01:00,46.84,EUR,468.000,MWh
Power,Intraday,Continuous,NL,IDFULL,H,2021-01-07T19:00:00+01:00,2021-01-07T20:00:00+01:00,39.87,EUR,451.600,MWh
Power,Intraday,Continuous,NL,IDFULL,H,2021-01-07T20:00:00+01:00,2021-01-07T21:00:00+01:00,39.15,EUR,254.800,MWh
Power,Intraday,Continuous,NL,IDFULL,H,2021-01-07T21:00:00+01:00,2021-01-07T22:00:00+01:00,40.79,EUR,463.000,MWh
Power,Intraday,Continuous,NL,IDFULL,H,2021-01-07T22:00:00+01:00,2021-01-07T23:00:00+01:00,42.95,EUR,470.900,MWh
Power,Intraday,Continuous,NL,IDFULL,H,2021-01-07T23:00:00+01:00,2021-01-08T00:00:00+01:00,39.84,EUR,254.800,MWh
Power,Intraday,Continuous,NL,ID1,H,2021-01-07T00:00:00+01:00,2021-01-07T01:00:00+01:00,48.00,EUR,25.000,MWh
Power,Intraday,Continuous,NL,ID1,H,2021-01-07T01:00:00+01:00,2021-01-07T02:00:00+01:00,46.66,EUR,19.700,MWh
Power,Intraday,Continuous,NL,ID1,H,2021-01-07T02:00:00+01:00,2021-01-07T03:00:00+01:00,45.87,EUR,,MWh
Power,Intraday,Continuous,NL,ID1,H,2021-01-07T03:00:00+01:00,2021-01-07T04:00:00+01:00,43.65,EUR,,MWh
Power,Intraday,Continuous,NL,ID1,H,2021-01-07T04:00:00+01:00,2021-01-07T05:00:00+01:00,43.31,EUR,,MWh
Power,Intraday,Continuous,NL,ID1,H,2021-01-07T05:00:00+01:00,2021-01-07T06:00:00+01:00,43.80,EUR,,MWh
Power,Intraday,Continuous,NL,ID1,H,2021-01-07T06:00:00+01:00,2021-01-07T07:00:00+01:00,30.33,EUR,128.200,MWh
Power,Intraday,Continuous,NL,ID1,H,2021-01-07T07:00:00+01:00,2021-01-07T08:00:00+01:00,41.00,EUR,140.000,MWh
Power,Intraday,Continuous,NL,ID1,H,2021-01-07T08:00:00+01:00,2021-01-07T09:00:00+01:00,58.24,EUR,89.800,MWh
Power,Intraday,Continuous,NL,ID1,H,2021-01-07T09:00:00+01:00,2021-01-07T10:00:00+01:00,80.91,EUR,205.000,MWh
Power,Intraday,Continuous,NL,ID1,H,2021-01-07T10:00:00+01:00,2021-01-07T11:00:00+01:00,71.21,EUR,40.800,MWh
Power,Intraday,Continuous,NL,ID1,H,2021-01-07T11:00:00+01:00,2021-01-07T12:00:00+01:00,40.97,EUR,337.300,MWh
Power,Intraday,Continuous,NL,ID1,H,2021-01-07T12:00:00+01:00,2021-01-07T13:00:00+01:00,60.08,EUR,179.700,MWh
Power,Intraday,Continuous,NL,ID1,H,2021-01-07T13:00:00+01:00,2021-01-07T14:00:00+01:00,41.86,EUR,140.000,MWh
Power,Intraday,Continuous,NL,ID1,H,2021-01-07T14:00:00+01:00,2021-01-07T15:00:00+01:00,67.03,EUR,123.100,MWh
Power,Intraday,Continuous,NL,ID1,H,2021-01-07T15:00:00+01:00,2021-01-07T16:00:00+01:00,50.50,EUR,25.000,MWh
Power,Intraday,Continuous,NL,ID1,H,2021-01-07T16:00:00+01:00,2021-01-07T17:00:00+01:00,68.74,EUR,68.700,MWh
Power,Intraday,Continuous,NL,ID1,H,2021-01-07T17:00:00+01:00,2021-01-07T18:00:00+01:00,54.35,EUR,78.400,MWh
Power,Intraday,Continuous,NL,ID1,H,2021-01-07T18:00:00+01:00,2021-01-07T19:00:00+01:00,43.03,EUR,127.200,MWh
Power,Intraday,Continuous,NL,ID1,H,2021-01-07T19:00:00+01:00,2021-01-07T20:00:00+01:00,39.91,EUR,155.500,MWh
Power,Intraday,Continuous,NL,ID1,H,2021-01-07T20:00:00+01:00,2021-01-07T21:00:00+01:00,39.85,EUR,41.000,MWh
Power,Intraday,Continuous,NL,ID1,H,2021-01-07T21:00:00+01:00,2021-01-07T22:00:00+01:00,40.89,EUR,200.000,MWh
Power,Intraday,Continuous,NL,ID1,H,2021-01-07T22:00:00+01:00,2021-01-07T23:00:00+01:00,46.94,EUR,170.000,MWh
Power,Intraday,Continuous,NL,ID1,H,2021-01-07T23:00:00+01:00,2021-01-08T00:00:00+01:00,45.30,EUR,73.400,MWh
Power,Intraday,Continuous,NL,ID3,H,2021-01-07T00:00:00+01:00,2021-01-07T01:00:00+01:00,46.96,EUR,495.100,MWh
Power,Intraday,Continuous,NL,ID3,H,2021-01-07T01:00:00+01:00,2021-01-07T02:00:00+01:00,48.28,EUR,276.200,MWh
Power,Intraday,Continuous,NL,ID3,H,2021-01-07T02:00:00+01:00,2021-01-07T03:00:00+01:00,45.87,EUR,445.300,MWh
Power,Intraday,Continuous,NL,ID3,H,2021-01-07T03:00:00+01:00,2021-01-07T04:00:00+01:00,43.65,EUR,642.800,MWh
Power,Intraday,Continuous,NL,ID3,H,2021-01-07T04:00:00+01:00,2021-01-07T05:00:00+01:00,43.31,EUR,625.100,MWh
Power,Intraday,Continuous,NL,ID3,H,2021-01-07T05:00:00+01:00,2021-01-07T06:00:00+01:00,43.80,EUR,258.400,MWh
Power,Intraday,Continuous,NL,ID3,H,2021-01-07T06:00:00+01:00,2021-01-07T07:00:00+01:00,31.48,EUR,144.700,MWh
Power,Intraday,Continuous,NL,ID3,H,2021-01-07T07:00:00+01:00,2021-01-07T08:00:00+01:00,45.65,EUR,220.800,MWh
Power,Intraday,Continuous,NL,ID3,H,2021-01-07T08:00:00+01:00,2021-01-07T09:00:00+01:00,61.18,EUR,251.100,MWh
Power,Intraday,Continuous,NL,ID3,H,2021-01-07T09:00:00+01:00,2021-01-07T10:00:00+01:00,81.22,EUR,335.400,MWh
Power,Intraday,Continuous,NL,ID3,H,2021-01-07T10:00:00+01:00,2021-01-07T11:00:00+01:00,79.45,EUR,383.500,MWh
Power,Intraday,Continuous,NL,ID3,H,2021-01-07T11:00:00+01:00,2021-01-07T12:00:00+01:00,56.76,EUR,629.500,MWh
Power,Intraday,Continuous,NL,ID3,H,2021-01-07T12:00:00+01:00,2021-01-07T13:00:00+01:00,61.49,EUR,558.700,MWh
Power,Intraday,Continuous,NL,ID3,H,2021-01-07T13:00:00+01:00,2021-01-07T14:00:00+01:00,49.20,EUR,461.900,MWh
Power,Intraday,Continuous,NL,ID3,H,2021-01-07T14:00:00+01:00,2021-01-07T15:00:00+01:00,77.61,EUR,823.800,MWh
Power,Intraday,Continuous,NL,ID3,H,2021-01-07T15:00:00+01:00,2021-01-07T16:00:00+01:00,76.60,EUR,599.400,MWh
Power,Intraday,Continuous,NL,ID3,H,2021-01-07T16:00:00+01:00,2021-01-07T17:00:00+01:00,74.97,EUR,469.200,MWh
Power,Intraday,Continuous,NL,ID3,H,2021-01-07T17:00:00+01:00,2021-01-07T18:00:00+01:00,78.55,EUR,626.600,MWh
Power,Intraday,Continuous,NL,ID3,H,2021-01-07T18:00:00+01:00,2021-01-07T19:00:00+01:00,42.04,EUR,405.500,MWh
Power,Intraday,Continuous,NL,ID3,H,2021-01-07T19:00:00+01:00,2021-01-07T20:00:00+01:00,39.67,EUR,420.500,MWh
Power,Intraday,Continuous,NL,ID3,H,2021-01-07T20:00:00+01:00,2021-01-07T21:00:00+01:00,38.66,EUR,206.800,MWh
Power,Intraday,Continuous,NL,ID3,H,2021-01-07T21:00:00+01:00,2021-01-07T22:00:00+01:00,40.45,EUR,421.400,MWh
Power,Intraday,Continuous,NL,ID3,H,2021-01-07T22:00:00+01:00,2021-01-07T23:00:00+01:00,42.73,EUR,387.900,MWh
Power,Intraday,Continuous,NL,ID3,H,2021-01-07T23:00:00+01:00,2021-01-08T00:00:00+01:00,41.00,EUR,179.500,MWh
Power,Intraday,Continuous,NL,IDFULL,HH,2021-01-07T00:00:00+01:00,2021-01-07T00:30:00+01:00,47.00,EUR,,MWh
Power,Intraday,Continuous,NL,IDFULL,HH,2021-01-07T00:30:00+01:00,2021-01-07T01:00:00+01:00,47.00,EUR,,MWh
Power,Intraday,Continuous,NL,IDFULL,HH,2021-01-07T01:00:00+01:00,2021-01-07T01:30:00+01:00,48.29,EUR,,MWh
Power,Intraday,Continuous,NL,IDFULL,HH,2021-01-07T01:30:00+01:00,2021-01-07T02:00:00+01:00,48.29,EUR,,MWh
Power,Intraday,Continuous,NL,IDFULL,HH,2021-01-07T02:00:00+01:00,2021-01-07T02:30:00+01:00,45.88,EUR,,MWh
Power,Intraday,Continuous,NL,IDFULL,HH,2021-01-07T02:30:00+01:00,2021-01-07T03:00:00+01:00,45.88,EUR,,MWh
Power,Intraday,Continuous,NL,IDFULL,HH,2021-01-07T03:00:00+01:00,2021-01-07T03:30:00+01:00,43.65,EUR,,MWh
Power,Intraday,Continuous,NL,IDFULL,HH,2021-01-07T03:30:00+01:00,2021-01-07T04:00:00+01:00,43.65,EUR,,MWh
Power,Intraday,Continuous,NL,IDFULL,HH,2021-01-07T04:00:00+01:00,2021-01-07T04:30:00+01:00,43.49,EUR,,MWh
Power,Intraday,Continuous,NL,IDFULL,HH,2021-01-07T04:30:00+01:00,2021-01-07T05:00:00+01:00,43.49,EUR,,MWh
Power,Intraday,Continuous,NL,IDFULL,HH,2021-01-07T05:00:00+01:00,2021-01-07T05:30:00+01:00,44.53,EUR,,MWh
Power,Intraday,Continuous,NL,IDFULL,HH,2021-01-07T05:30:00+01:00,2021-01-07T06:00:00+01:00,44.53,EUR,,MWh
Power,Intraday,Continuous,NL,IDFULL,HH,2021-01-07T06:00:00+01:00,2021-01-07T06:30:00+01:00,35.42,EUR,,MWh
Power,Intraday,Continuous,NL,IDFULL,HH,2021-01-07T06:30:00+01:00,2021-01-07T07:00:00+01:00,35.42,EUR,,MWh
Power,Intraday,Continuous,NL,IDFULL,HH,2021-01-07T07:00:00+01:00,2021-01-07T07:30:00+01:00,45.79,EUR,,MWh
Power,Intraday,Continuous,NL,IDFULL,HH,2021-01-07T07:30:00+01:00,2021-01-07T08:00:00+01:00,45.79,EUR,,MWh
Power,Intraday,Continuous,NL,IDFULL,HH,2021-01-07T08:00:00+01:00,2021-01-07T08:30:00+01:00,63.13,EUR,,MWh
Power,Intraday,Continuous,NL,IDFULL,HH,2021-01-07T08:30:00+01:00,2021-01-07T09:00:00+01:00,63.13,EUR,,MWh
Power,Intraday,Continuous,NL,IDFULL,HH,2021-01-07T09:00:00+01:00,2021-01-07T09:30:00+01:00,82.90,EUR,,MWh
Power,Intraday,Continuous,NL,IDFULL,HH,2021-01-07T09:30:00+01:00,2021-01-07T10:00:00+01:00,82.90,EUR,,MWh
Power,Intraday,Continuous,NL,IDFULL,HH,2021-01-07T10:00:00+01:00,2021-01-07T10:30:00+01:00,80.68,EUR,,MWh
Power,Intraday,Continuous,NL,IDFULL,HH,2021-01-07T10:30:00+01:00,2021-01-07T11:00:00+01:00,80.68,EUR,,MWh
Power,Intraday,Continuous,NL,IDFULL,HH,2021-01-07T11:00:00+01:00,2021-01-07T11:30:00+01:00,61.32,EUR,,MWh
Power,Intraday,Continuous,NL,IDFULL,HH,2021-01-07T11:30:00+01:00,2021-01-07T12:00:00+01:00,61.32,EUR,,MWh
Power,Intraday,Continuous,NL,IDFULL,HH,2021-01-07T12:00:00+01:00,2021-01-07T12:30:00+01:00,67.22,EUR,,MWh
Power,Intraday,Continuous,NL,IDFULL,HH,2021-01-07T12:30:00+01:00,2021-01-07T13:00:00+01:00,67.22,EUR,,MWh
Power,Intraday,Continuous,NL,IDFULL,HH,2021-01-07T13:00:00+01:00,2021-01-07T13:30:00+01:00,57.17,EUR,,MWh
Power,Intraday,Continuous,NL,IDFULL,HH,2021-01-07T13:30:00+01:00,2021-01-07T14:00:00+01:00,57.17,EUR,,MWh
Power,Intraday,Continuous,NL,IDFULL,HH,2021-01-07T14:00:00+01:00,2021-01-07T14:30:00+01:00,78.23,EUR,,MWh
Power,Intraday,Continuous,NL,IDFULL,HH,2021-01-07T14:30:00+01:00,2021-01-07T15:00:00+01:00,78.23,EUR,,MWh
Power,Intraday,Continuous,NL,IDFULL,HH,2021-01-07T15:00:00+01:00,2021-01-07T15:30:00+01:00,78.53,EUR,,MWh
Power,Intraday,Continuous,NL,IDFULL,HH,2021-01-07T15:30:00+01:00,2021-01-07T16:00:00+01:00,78.53,EUR,,MWh
Power,Intraday,Continuous,NL,IDFULL,HH,2021-01-07T16:00:00+01:00,2021-01-07T16:30:00+01:00,83.48,EUR,,MWh
Power,Intraday,Continuous,NL,IDFULL,HH,2021-01-07T16:30:00+01:00,2021-01-07T17:00:00+01:00,83.48,EUR,,MWh
Power,Intraday,Continuous,NL,IDFULL,HH,2021-01-07T17:00:00+01:00,2021-01-07T17:30:00+01:00,87.14,EUR,,MWh
Power,Intraday,Continuous,NL,IDFULL,HH,2021-01-07T17:30:00+01:00,2021-01-07T18:00:00+01:00,87.14,EUR,,MWh
Power,Intraday,Continuous,NL,IDFULL,HH,2021-01-07T18:00:00+01:00,2021-01-07T18:30:00+01:00,46.84,EUR,,MWh
Power,Intraday,Continuous,NL,IDFULL,HH,2021-01-07T18:30:00+01:00,2021-01-07T19:00:00+01:00,46.84,EUR,,MWh
Power,Intraday,Continuous,NL,IDFULL,HH,2021-01-07T19:00:00+01:00,2021-01-07T19:30:00+01:00,39.87,EUR,,MWh
Power,Intraday,Continuous,NL,IDFULL,HH,2021-01-07T19:30:00+01:00,2021-01-07T20:00:00+01:00,39.87,EUR,,MWh
Power,Intraday,Continuous,NL,IDFULL,HH,2021-01-07T20:00:00+01:00,2021-01-07T20:30:00+01:00,39.15,EUR,,MWh
Power,Intraday,Continuous,NL,IDFULL,HH,2021-01-07T20:30:00+01:00,2021-01-07T21:00:00+01:00,39.15,EUR,,MWh
Power,Intraday,Continuous,NL,IDFULL,HH,2021-01-07T21:00:00+01:00,2021-01-07T21:30:00+01:00,40.79,EUR,,MWh
Power,Intraday,Continuous,NL,IDFULL,HH,2021-01-07T21:30:00+01:00,2021-01-07T22:00:00+01:00,40.79,EUR,,MWh
Power,Intraday,Continuous,NL,IDFULL,HH,2021-01-07T22:00:00+01:00,2021-01-07T22:30:00+01:00,42.95,EUR,,MWh
Power,Intraday,Continuous,NL,IDFULL,HH,2021-01-07T22:30:00+01:00,2021-01-07T23:00:00+01:00,42.95,EUR,,MWh
Power,Intraday,Continuous,NL,IDFULL,HH,2021-01-07T23:00:00+01:00,2021-01-07T23:30:00+01:00,39.84,EUR,,MWh
Power,Intraday,Continuous,NL,IDFULL,HH,2021-01-07T23:30:00+01:00,2021-01-08T00:00:00+01:00,39.84,EUR,,MWh
Power,Intraday,Continuous,NL,ID1,HH,2021-01-07T00:00:00+01:00,2021-01-07T00:30:00+01:00,47.00,EUR,,MWh
Power,Intraday,Continuous,NL,ID1,HH,2021-01-07T00:30:00+01:00,2021-01-07T01:00:00+01:00,47.00,EUR,,MWh
Power,Intraday,Continuous,NL,ID1,HH,2021-01-07T01:00:00+01:00,2021-01-07T01:30:00+01:00,48.29,EUR,,MWh
Power,Intraday,Continuous,NL,ID1,HH,2021-01-07T01:30:00+01:00,2021-01-07T02:00:00+01:00,48.29,EUR,,MWh
Power,Intraday,Continuous,NL,ID1,HH,2021-01-07T02:00:00+01:00,2021-01-07T02:30:00+01:00,45.88,EUR,,MWh
Power,Intraday,Continuous,NL,ID1,HH,2021-01-07T02:30:00+01:00,2021-01-07T03:00:00+01:00,45.88,EUR,,MWh
Power,Intraday,Continuous,NL,ID1,HH,2021-01-07T03:00:00+01:00,2021-01-07T03:30:00+01:00,43.65,EUR,,MWh
Power,Intraday,Continuous,NL,ID1,HH,2021-01-07T03:30:00+01:00,2021-01-07T04:00:00+01:00,43.65,EUR,,MWh
Power,Intraday,Continuous,NL,ID1,HH,2021-01-07T04:00:00+01:00,2021-01-07T04:30:00+01:00,43.49,EUR,,MWh
Power,Intraday,Continuous,NL,ID1,HH,2021-01-07T04:30:00+01:00,2021-01-07T05:00:00+01:00,43.49,EUR,,MWh
Power,Intraday,Continuous,NL,ID1,HH,2021-01-07T05:00:00+01:00,2021-01-07T05:30:00+01:00,44.53,EUR,,MWh
Power,Intraday,Continuous,NL,ID1,HH,2021-01-07T05:30:00+01:00,2021-01-07T06:00:00+01:00,44.53,EUR,,MWh
Power,Intraday,Continuous,NL,ID1,HH,2021-01-07T06:00:00+01:00,2021-01-07T06:30:00+01:00,35.42,EUR,,MWh
Power,Intraday,Continuous,NL,ID1,HH,2021-01-07T06:30:00+01:00,2021-01-07T07:00:00+01:00,35.42,EUR,,MWh
Power,Intraday,Continuous,NL,ID1,HH,2021-01-07T07:00:00+01:00,2021-01-07T07:30:00+01:00,45.79,EUR,,MWh
Power,Intraday,Continuous,NL,ID1,HH,2021-01-07T07:30:00+01:00,2021-01-07T08:00:00+01:00,45.79,EUR,,MWh
Power,Intraday,Continuous,NL,ID1,HH,2021-01-07T08:00:00+01:00,2021-01-07T08:30:00+01:00,63.13,EUR,,MWh
Power,Intraday,Continuous,NL,ID1,HH,2021-01-07T08:30:00+01:00,2021-01-07T09:00:00+01:00,63.13,EUR,,MWh
Power,Intraday,Continuous,NL,ID1,HH,2021-01-07T09:00:00+01:00,2021-01-07T09:30:00+01:00,82.90,EUR,,MWh
Power,Intraday,Continuous,NL,ID1,HH,2021-01-07T09:30:00+01:00,2021-01-07T10:00:00+01:00,82.90,EUR,,MWh
Power,Intraday,Continuous,NL,ID1,HH,2021-01-07T10:00:00+01:00,2021-01-07T10:30:00+01:00,80.68,EUR,,MWh
Power,Intraday,Continuous,NL,ID1,HH,2021-01-07T10:30:00+01:00,2021-01-07T11:00:00+01:00,80.68,EUR,,MWh
Power,Intraday,Continuous,NL,ID1,HH,2021-01-07T11:00:00+01:00,2021-01-07T11:30:00+01:00,61.32,EUR,,MWh
Power,Intraday,Continuous,NL,ID1,HH,2021-01-07T11:30:00+01:00,2021-01-07T12:00:00+01:00,61.32,EUR,,MWh
Power,Intraday,Continuous,NL,ID1,HH,2021-01-07T12:00:00+01:00,2021-01-07T12:30:00+01:00,67.22,EUR,,MWh
Power,Intraday,Continuous,NL,ID1,HH,2021-01-07T12:30:00+01:00,2021-01-07T13:00:00+01:00,67.22,EUR,,MWh
Power,Intraday,Continuous,NL,ID1,HH,2021-01-07T13:00:00+01:00,2021-01-07T13:30:00+01:00,57.17,EUR,,MWh
Power,Intraday,Continuous,NL,ID1,HH,2021-01-07T13:30:00+01:00,2021-01-07T14:00:00+01:00,57.17,EUR,,MWh
Power,Intraday,Continuous,NL,ID1,HH,2021-01-07T14:00:00+01:00,2021-01-07T14:30:00+01:00,78.23,EUR,,MWh
Power,Intraday,Continuous,NL,ID1,HH,2021-01-07T14:30:00+01:00,2021-01-07T15:00:00+01:00,78.23,EUR,,MWh
Power,Intraday,Continuous,NL,ID1,HH,2021-01-07T15:00:00+01:00,2021-01-07T15:30:00+01:00,78.53,EUR,,MWh
Power,Intraday,Continuous,NL,ID1,HH,2021-01-07T15:30:00+01:00,2021-01-07T16:00:00+01:00,78.53,EUR,,MWh
Power,Intraday,Continuous,NL,ID1,HH,2021-01-07T16:00:00+01:00,2021-01-07T16:30:00+01:00,83.48,EUR,,MWh
Power,Intraday,Continuous,NL,ID1,HH,2021-01-07T16:30:00+01:00,2021-01-07T17:00:00+01:00,83.48,EUR,,MWh
Power,Intraday,Continuous,NL,ID1,HH,2021-01-07T17:00:00+01:00,2021-01-07T17:30:00+01:00,87.14,EUR,,MWh
Power,Intraday,Continuous,NL,ID1,HH,2021-01-07T17:30:00+01:00,2021-01-07T18:00:00+01:00,87.14,EUR,,MWh
Power,Intraday,Continuous,NL,ID1,HH,2021-01-07T18:00:00+01:00,2021-01-07T18:30:00+01:00,46.84,EUR,,MWh
Power,Intraday,Continuous,NL,ID1,HH,2021-01-07T18:30:00+01:00,2021-01-07T19:00:00+01:00,46.84,EUR,,MWh
Power,Intraday,Continuous,NL,ID1,HH,2021-01-07T19:00:00+01:00,2021-01-07T19:30:00+01:00,39.87,EUR,,MWh
Power,Intraday,Continuous,NL,ID1,HH,2021-01-07T19:30:00+01:00,2021-01-07T20:00:00+01:00,39.87,EUR,,MWh
Power,Intraday,Continuous,NL,ID1,HH,2021-01-07T20:00:00+01:00,2021-01-07T20:30:00+01:00,39.15,EUR,,MWh
Power,Intraday,Continuous,NL,ID1,HH,2021-01-07T20:30:00+01:00,2021-01-07T21:00:00+01:00,39.15,EUR,,MWh
Power,Intraday,Continuous,NL,ID1,HH,2021-01-07T21:00:00+01:00,2021-01-07T21:30:00+01:00,40.79,EUR,,MWh
Power,Intraday,Continuous,NL,ID1,HH,2021-01-07T21:30:00+01:00,2021-01-07T22:00:00+01:00,40.79,EUR,,MWh
Power,Intraday,Continuous,NL,ID1,HH,2021-01-07T22:00:00+01:00,2021-01-07T22:30:00+01:00,42.95,EUR,,MWh
Power,Intraday,Continuous,NL,ID1,HH,2021-01-07T22:30:00+01:00,2021-01-07T23:00:00+01:00,42.95,EUR,,MWh
Power,Intraday,Continuous,NL,ID1,HH,2021-01-07T23:00:00+01:00,2021-01-07T23:30:00+01:00,39.84,EUR,,MWh
Power,Intraday,Continuous,NL,ID1,HH,2021-01-07T23:30:00+01:00,2021-01-08T00:00:00+01:00,39.84,EUR,,MWh
Power,Intraday,Continuous,NL,ID3,HH,2021-01-07T00:00:00+01:00,2021-01-07T00:30:00+01:00,47.00,EUR,,MWh
Power,Intraday,Continuous,NL,ID3,HH,2021-01-07T00:30:00+01:00,2021-01-07T01:00:00+01:00,47.00,EUR,,MWh
Power,Intraday,Continuous,NL,ID3,HH,2021-01-07T01:00:00+01:00,2021-01-07T01:30:00+01:00,48.29,EUR,,MWh
Power,Intraday,Continuous,NL,ID3,HH,2021-01-07T01:30:00+01:00,2021-01-07T02:00:00+01:00,48.29,EUR,,MWh
Power,Intraday,Continuous,NL,ID3,HH,2021-01-07T02:00:00+01:00,2021-01-07T02:30:00+01:00,45.88,EUR,,MWh
Power,Intraday,Continuous,NL,ID3,HH,2021-01-07T02:30:00+01:00,2021-01-07T03:00:00+01:00,45.88,EUR,,MWh
Power,Intraday,Continuous,NL,ID3,HH,2021-01-07T03:00:00+01:00,2021-01-07T03:30:00+01:00,43.65,EUR,,MWh
Power,Intraday,Continuous,NL,ID3,HH,2021-01-07T03:30:00+01:00,2021-01-07T04:00:00+01:00,43.65,EUR,,MWh
Power,Intraday,Continuous,NL,ID3,HH,2021-01-07T04:00:00+01:00,2021-01-07T04:30:00+01:00,43.49,EUR,,MWh
Power,Intraday,Continuous,NL,ID3,HH,2021-01-07T04:30:00+01:00,2021-01-07T05:00:00+01:00,43.49,EUR,,MWh
Power,Intraday,Continuous,NL,ID3,HH,2021-01-07T05:00:00+01:00,2021-01-07T05:30:00+01:00,44.53,EUR,,MWh
Power,Intraday,Continuous,NL,ID3,HH,2021-01-07T05:30:00+01:00,2021-01-07T06:00:00+01:00,44.53,EUR,,MWh
Power,Intraday,Continuous,NL,ID3,HH,2021-01-07T06:00:00+01:00,2021-01-07T06:30:00+01:00,35.42,EUR,,MWh
Power,Intraday,Continuous,NL,ID3,HH,2021-01-07T06:30:00+01:00,2021-01-07T07:00:00+01:00,35.42,EUR,,MWh
Power,Intraday,Continuous,NL,ID3,HH,2021-01-07T07:00:00+01:00,2021-01-07T07:30:00+01:00,45.79,EUR,,MWh
Power,Intraday,Continuous,NL,ID3,HH,2021-01-07T07:30:00+01:00,2021-01-07T08:00:00+01:00,45.79,EUR,,MWh
Power,Intraday,Continuous,NL,ID3,HH,2021-01-07T08:00:00+01:00,2021-01-07T08:30:00+01:00,63.13,EUR,,MWh
Power,Intraday,Continuous,NL,ID3,HH,2021-01-07T08:30:00+01:00,2021-01-07T09:00:00+01:00,63.13,EUR,,MWh
Power,Intraday,Continuous,NL,ID3,HH,2021-01-07T09:00:00+01:00,2021-01-07T09:30:00+01:00,82.90,EUR,,MWh
Power,Intraday,Continuous,NL,ID3,HH,2021-01-07T09:30:00+01:00,2021-01-07T10:00:00+01:00,82.90,EUR,,MWh
Power,Intraday,Continuous,NL,ID3,HH,2021-01-07T10:00:00+01:00,2021-01-07T10:30:00+01:00,80.68,EUR,,MWh
Power,Intraday,Continuous,NL,ID3,HH,2021-01-07T10:30:00+01:00,2021-01-07T11:00:00+01:00,80.68,EUR,,MWh
Power,Intraday,Continuous,NL,ID3,HH,2021-01-07T11:00:00+01:00,2021-01-07T11:30:00+01:00,61.32,EUR,,MWh
Power,Intraday,Continuous,NL,ID3,HH,2021-01-07T11:30:00+01:00,2021-01-07T12:00:00+01:00,61.32,EUR,,MWh
Power,Intraday,Continuous,NL,ID3,HH,2021-01-07T12:00:00+01:00,2021-01-07T12:30:00+01:00,67.22,EUR,,MWh
Power,Intraday,Continuous,NL,ID3,HH,2021-01-07T12:30:00+01:00,2021-01-07T13:00:00+01:00,67.22,EUR,,MWh
Power,Intraday,Continuous,NL,ID3,HH,2021-01-07T13:00:00+01:00,2021-01-07T13:30:00+01:00,57.17,EUR,,MWh
Power,Intraday,Continuous,NL,ID3,HH,2021-01-07T13:30:00+01:00,2021-01-07T14:00:00+01:00,57.17,EUR,,MWh
Power,Intraday,Continuous,NL,ID3,HH,2021-01-07T14:00:00+01:00,2021-01-07T14:30:00+01:00,78.23,EUR,,MWh
Power,Intraday,Continuous,NL,ID3,HH,2021-01-07T14:30:00+01:00,2021-01-07T15:00:00+01:00,78.23,EUR,,MWh
Power,Intraday,Continuous,NL,ID3,HH,2021-01-07T15:00:00+01:00,2021-01-07T15:30:00+01:00,78.53,EUR,,MWh
Power,Intraday,Continuous,NL,ID3,HH,2021-01-07T15:30:00+01:00,2021-01-07T16:00:00+01:00,78.53,EUR,,MWh
Power,Intraday,Continuous,NL,ID3,HH,2021-01-07T16:00:00+01:00,2021-01-07T16:30:00+01:00,83.48,EUR,,MWh
Power,Intraday,Continuous,NL,ID3,HH,2021-01-07T16:30:00+01:00,2021-01-07T17:00:00+01:00,83.48,EUR,,MWh
Power,Intraday,Continuous,NL,ID3,HH,2021-01-07T17:00:00+01:00,2021-01-07T17:30:00+01:00,87.14,EUR,,MWh
Power,Intraday,Continuous,NL,ID3,HH,2021-01-07T17:30:00+01:00,2021-01-07T18:00:00+01:00,87.14,EUR,,MWh
Power,Intraday,Continuous,NL,ID3,HH,2021-01-07T18:00:00+01:00,2021-01-07T18:30:00+01:00,46.84,EUR,,MWh
Power,Intraday,Continuous,NL,ID3,HH,2021-01-07T18:30:00+01:00,2021-01-07T19:00:00+01:00,46.84,EUR,,MWh
Power,Intraday,Continuous,NL,ID3,HH,2021-01-07T19:00:00+01:00,2021-01-07T19:30:00+01:00,39.87,EUR,,MWh
Power,Intraday,Continuous,NL,ID3,HH,2021-01-07T19:30:00+01:00,2021-01-07T20:00:00+01:00,39.87,EUR,,MWh
Power,Intraday,Continuous,NL,ID3,HH,2021-01-07T20:00:00+01:00,2021-01-07T20:30:00+01:00,39.15,EUR,,MWh
Power,Intraday,Continuous,NL,ID3,HH,2021-01-07T20:30:00+01:00,2021-01-07T21:00:00+01:00,39.15,EUR,,MWh
Power,Intraday,Continuous,NL,ID3,HH,2021-01-07T21:00:00+01:00,2021-01-07T21:30:00+01:00,40.79,EUR,,MWh
Power,Intraday,Continuous,NL,ID3,HH,2021-01-07T21:30:00+01:00,2021-01-07T22:00:00+01:00,40.79,EUR,,MWh
Power,Intraday,Continuous,NL,ID3,HH,2021-01-07T22:00:00+01:00,2021-01-07T22:30:00+01:00,42.95,EUR,,MWh
Power,Intraday,Continuous,NL,ID3,HH,2021-01-07T22:30:00+01:00,2021-01-07T23:00:00+01:00,42.95,EUR,,MWh
Power,Intraday,Continuous,NL,ID3,HH,2021-01-07T23:00:00+01:00,2021-01-07T23:30:00+01:00,39.84,EUR,,MWh
Power,Intraday,Continuous,NL,ID3,HH,2021-01-07T23:30:00+01:00,2021-01-08T00:00:00+01:00,39.84,EUR,,MWh
Power,Intraday,Continuous,NL,IDFULL,QH,2021-01-07T00:00:00+01:00,2021-01-07T00:15:00+01:00,47.00,EUR,,MWh
Power,Intraday,Continuous,NL,IDFULL,QH,2021-01-07T00:15:00+01:00,2021-01-07T00:30:00+01:00,47.00,EUR,,MWh
Power,Intraday,Continuous,NL,IDFULL,QH,2021-01-07T00:30:00+01:00,2021-01-07T00:45:00+01:00,47.00,EUR,,MWh
Power,Intraday,Continuous,NL,IDFULL,QH,2021-01-07T00:45:00+01:00,2021-01-07T01:00:00+01:00,47.00,EUR,,MWh
Power,Intraday,Continuous,NL,IDFULL,QH,2021-01-07T01:00:00+01:00,2021-01-07T01:15:00+01:00,48.29,EUR,,MWh
Power,Intraday,Continuous,NL,IDFULL,QH,2021-01-07T01:15:00+01:00,2021-01-07T01:30:00+01:00,48.29,EUR,,MWh
Power,Intraday,Continuous,NL,IDFULL,QH,2021-01-07T01:30:00+01:00,2021-01-07T01:45:00+01:00,48.29,EUR,,MWh
Power,Intraday,Continuous,NL,IDFULL,QH,2021-01-07T01:45:00+01:00,2021-01-07T02:00:00+01:00,48.29,EUR,,MWh
Power,Intraday,Continuous,NL,IDFULL,QH,2021-01-07T02:00:00+01:00,2021-01-07T02:15:00+01:00,45.88,EUR,,MWh
Power,Intraday,Continuous,NL,IDFULL,QH,2021-01-07T02:15:00+01:00,2021-01-07T02:30:00+01:00,45.88,EUR,,MWh
Power,Intraday,Continuous,NL,IDFULL,QH,2021-01-07T02:30:00+01:00,2021-01-07T02:45:00+01:00,45.88,EUR,,MWh
Power,Intraday,Continuous,NL,IDFULL,QH,2021-01-07T02:45:00+01:00,2021-01-07T03:00:00+01:00,45.88,EUR,,MWh
Power,Intraday,Continuous,NL,IDFULL,QH,2021-01-07T03:00:00+01:00,2021-01-07T03:15:00+01:00,43.65,EUR,,MWh
Power,Intraday,Continuous,NL,IDFULL,QH,2021-01-07T03:15:00+01:00,2021-01-07T03:30:00+01:00,43.65,EUR,,MWh
Power,Intraday,Continuous,NL,IDFULL,QH,2021-01-07T03:30:00+01:00,2021-01-07T03:45:00+01:00,43.65,EUR,,MWh
Power,Intraday,Continuous,NL,IDFULL,QH,2021-01-07T03:45:00+01:00,2021-01-07T04:00:00+01:00,43.65,EUR,,MWh
Power,Intraday,Continuous,NL,IDFULL,QH,2021-01-07T04:00:00+01:00,2021-01-07T04:15:00+01:00,43.49,EUR,,MWh
Power,Intraday,Continuous,NL,IDFULL,QH,2021-01-07T04:15:00+01:00,2021-01-07T04:30:00+01:00,43.49,EUR,,MWh
Power,Intraday,Continuous,NL,IDFULL,QH,2021-01-07T04:30:00+01:00,2021-01-07T04:45:00+01:00,43.49,EUR,,MWh
Power,Intraday,Continuous,NL,IDFULL,QH,2021-01-07T04:45:00+01:00,2021-01-07T05:00:00+01:00,43.49,EUR,,MWh
Power,Intraday,Continuous,NL,IDFULL,QH,2021-01-07T05:00:00+01:00,2021-01-07T05:15:00+01:00,44.53,EUR,,MWh
Power,Intraday,Continuous,NL,IDFULL,QH,2021-01-07T05:15:00+01:00,2021-01-07T05:30:00+01:00,44.53,EUR,,MWh
Power,Intraday,Continuous,NL,IDFULL,QH,2021-01-07T05:30:00+01:00,2021-01-07T05:45:00+01:00,44.53,EUR,,MWh
Power,Intraday,Continuous,NL,IDFULL,QH,2021-01-07T05:45:00+01:00,2021-01-07T06:00:00+01:00,44.53,EUR,,MWh
Power,Intraday,Continuous,NL,IDFULL,QH,2021-01-07T06:00:00+01:00,2021-01-07T06:15:00+01:00,26.65,EUR,,MWh
Power,Intraday,Continuous,NL,IDFULL,QH,2021-01-07T06:15:00+01:00,2021-01-07T06:30:00+01:00,26.65,EUR,,MWh
Power,Intraday,Continuous,NL,IDFULL,QH,2021-01-07T06:30:00+01:00,2021-01-07T06:45:00+01:00,26.65,EUR,,MWh
Power,Intraday,Continuous,NL,IDFULL,QH,2021-01-07T06:45:00+01:00,2021-01-07T07:00:00+01:00,61.73,EUR,10.600,MWh
Power,Intraday,Continuous,NL,IDFULL,QH,2021-01-07T07:00:00+01:00,2021-01-07T07:15:00+01:00,30.76,EUR,,MWh
Power,Intraday,Continuous,NL,IDFULL,QH,2021-01-07T07:15:00+01:00,2021-01-07T07:30:00+01:00,30.76,EUR,,MWh
Power,Intraday,Continuous,NL,IDFULL,QH,2021-01-07T07:30:00+01:00,2021-01-07T07:45:00+01:00,30.76,EUR,,MWh
Power,Intraday,Continuous,NL,IDFULL,QH,2021-01-07T07:45:00+01:00,2021-01-07T08:00:00+01:00,90.89,EUR,18.680,MWh
Power,Intraday,Continuous,NL,IDFULL,QH,2021-01-07T08:00:00+01:00,2021-01-07T08:15:00+01:00,54.37,EUR,,MWh
Power,Intraday,Continuous,NL,IDFULL,QH,2021-01-07T08:15:00+01:00,2021-01-07T08:30:00+01:00,54.37,EUR,,MWh
Power,Intraday,Continuous,NL,IDFULL,QH,2021-01-07T08:30:00+01:00,2021-01-07T08:45:00+01:00,54.37,EUR,,MWh
Power,Intraday,Continuous,NL,IDFULL,QH,2021-01-07T08:45:00+01:00,2021-01-07T09:00:00+01:00,89.40,EUR,2.880,MWh
Power,Intraday,Continuous,NL,IDFULL,QH,2021-01-07T09:00:00+01:00,2021-01-07T09:15:00+01:00,80.14,EUR,,MWh
Power,Intraday,Continuous,NL,IDFULL,QH,2021-01-07T09:15:00+01:00,2021-01-07T09:30:00+01:00,91.17,EUR,2.500,MWh
Power,Intraday,Continuous,NL,IDFULL,QH,2021-01-07T09:30:00+01:00,2021-01-07T09:45:00+01:00,80.14,EUR,,MWh
Power,Intraday,Continuous,NL,IDFULL,QH,2021-01-07T09:45:00+01:00,2021-01-07T10:00:00+01:00,80.14,EUR,,MWh
Power,Intraday,Continuous,NL,IDFULL,QH,2021-01-07T10:00:00+01:00,2021-01-07T10:15:00+01:00,98.21,EUR,4.000,MWh
Power,Intraday,Continuous,NL,IDFULL,QH,2021-01-07T10:15:00+01:00,2021-01-07T10:30:00+01:00,74.84,EUR,,MWh
Power,Intraday,Continuous,NL,IDFULL,QH,2021-01-07T10:30:00+01:00,2021-01-07T10:45:00+01:00,74.84,EUR,,MWh
Power,Intraday,Continuous,NL,IDFULL,QH,2021-01-07T10:45:00+01:00,2021-01-07T11:00:00+01:00,74.84,EUR,,MWh
Power,Intraday,Continuous,NL,IDFULL,QH,2021-01-07T11:00:00+01:00,2021-01-07T11:15:00+01:00,61.32,EUR,,MWh
Power,Intraday,Continuous,NL,IDFULL,QH,2021-01-07T11:15:00+01:00,2021-01-07T11:30:00+01:00,61.32,EUR,,MWh
Power,Intraday,Continuous,NL,IDFULL,QH,2021-01-07T11:30:00+01:00,2021-01-07T11:45:00+01:00,61.32,EUR,,MWh
Power,Intraday,Continuous,NL,IDFULL,QH,2021-01-07T11:45:00+01:00,2021-01-07T12:00:00+01:00,61.32,EUR,,MWh
Power,Intraday,Continuous,NL,IDFULL,QH,2021-01-07T12:00:00+01:00,2021-01-07T12:15:00+01:00,67.22,EUR,,MWh
Power,Intraday,Continuous,NL,IDFULL,QH,2021-01-07T12:15:00+01:00,2021-01-07T12:30:00+01:00,67.22,EUR,,MWh
Power,Intraday,Continuous,NL,IDFULL,QH,2021-01-07T12:30:00+01:00,2021-01-07T12:45:00+01:00,67.22,EUR,,MWh
Power,Intraday,Continuous,NL,IDFULL,QH,2021-01-07T12:45:00+01:00,2021-01-07T13:00:00+01:00,67.22,EUR,,MWh
Power,Intraday,Continuous,NL,IDFULL,QH,2021-01-07T13:00:00+01:00,2021-01-07T13:15:00+01:00,57.17,EUR,,MWh
Power,Intraday,Continuous,NL,IDFULL,QH,2021-01-07T13:15:00+01:00,2021-01-07T13:30:00+01:00,57.17,EUR,,MWh
Power,Intraday,Continuous,NL,IDFULL,QH,2021-01-07T13:30:00+01:00,2021-01-07T13:45:00+01:00,57.17,EUR,,MWh
Power,Intraday,Continuous,NL,IDFULL,QH,2021-01-07T13:45:00+01:00,2021-01-07T14:00:00+01:00,57.17,EUR,,MWh
Power,Intraday,Continuous,NL,IDFULL,QH,2021-01-07T14:00:00+01:00,2021-01-07T14:15:00+01:00,76.84,EUR,9.300,MWh
Power,Intraday,Continuous,NL,IDFULL,QH,2021-01-07T14:15:00+01:00,2021-01-07T14:30:00+01:00,76.86,EUR,9.730,MWh
Power,Intraday,Continuous,NL,IDFULL,QH,2021-01-07T14:30:00+01:00,2021-01-07T14:45:00+01:00,76.57,EUR,10.750,MWh
Power,Intraday,Continuous,NL,IDFULL,QH,2021-01-07T14:45:00+01:00,2021-01-07T15:00:00+01:00,76.09,EUR,10.800,MWh
Power,Intraday,Continuous,NL,IDFULL,QH,2021-01-07T15:00:00+01:00,2021-01-07T15:15:00+01:00,73.09,EUR,22.200,MWh
Power,Intraday,Continuous,NL,IDFULL,QH,2021-01-07T15:15:00+01:00,2021-01-07T15:30:00+01:00,78.28,EUR,9.400,MWh
Power,Intraday,Continuous,NL,IDFULL,QH,2021-01-07T15:30:00+01:00,2021-01-07T15:45:00+01:00,76.62,EUR,18.000,MWh
Power,Intraday,Continuous,NL,IDFULL,QH,2021-01-07T15:45:00+01:00,2021-01-07T16:00:00+01:00,79.54,EUR,20.280,MWh
Power,Intraday,Continuous,NL,IDFULL,QH,2021-01-07T16:00:00+01:00,2021-01-07T16:15:00+01:00,63.11,EUR,93.850,MWh
Power,Intraday,Continuous,NL,IDFULL,QH,2021-01-07T16:15:00+01:00,2021-01-07T16:30:00+01:00,70.76,EUR,60.200,MWh
Power,Intraday,Continuous,NL,IDFULL,QH,2021-01-07T16:30:00+01:00,2021-01-07T16:45:00+01:00,71.54,EUR,33.500,MWh
Power,Intraday,Continuous,NL,IDFULL,QH,2021-01-07T16:45:00+01:00,2021-01-07T17:00:00+01:00,117.87,EUR,37.300,MWh
Power,Intraday,Continuous,NL,IDFULL,QH,2021-01-07T17:00:00+01:00,2021-01-07T17:15:00+01:00,72.50,EUR,10.500,MWh
Power,Intraday,Continuous,NL,IDFULL,QH,2021-01-07T17:15:00+01:00,2021-01-07T17:30:00+01:00,91.79,EUR,9.500,MWh
Power,Intraday,Continuous,NL,IDFULL,QH,2021-01-07T17:30:00+01:00,2021-01-07T17:45:00+01:00,89.99,EUR,7.330,MWh
Power,Intraday,Continuous,NL,IDFULL,QH,2021-01-07T17:45:00+01:00,2021-01-07T18:00:00+01:00,94.59,EUR,22.630,MWh
Power,Intraday,Continuous,NL,IDFULL,QH,2021-01-07T18:00:00+01:00,2021-01-07T18:15:00+01:00,46.84,EUR,,MWh
Power,Intraday,Continuous,NL,IDFULL,QH,2021-01-07T18:15:00+01:00,2021-01-07T18:30:00+01:00,46.84,EUR,,MWh
Power,Intraday,Continuous,NL,IDFULL,QH,2021-01-07T18:30:00+01:00,2021-01-07T18:45:00+01:00,46.84,EUR,,MWh
Power,Intraday,Continuous,NL,IDFULL,QH,2021-01-07T18:45:00+01:00,2021-01-07T19:00:00+01:00,46.84,EUR,,MWh
Power,Intraday,Continuous,NL,IDFULL,QH,2021-01-07T19:00:00+01:00,2021-01-07T19:15:00+01:00,39.87,EUR,,MWh
Power,Intraday,Continuous,NL,IDFULL,QH,2021-01-07T19:15:00+01:00,2021-01-07T19:30:00+01:00,39.87,EUR,,MWh
Power,Intraday,Continuous,NL,IDFULL,QH,2021-01-07T19:30:00+01:00,2021-01-07T19:45:00+01:00,39.87,EUR,,MWh
Power,Intraday,Continuous,NL,IDFULL,QH,2021-01-07T19:45:00+01:00,2021-01-07T20:00:00+01:00,39.87,EUR,,MWh
Power,Intraday,Continuous,NL,IDFULL,QH,2021-01-07T20:00:00+01:00,2021-01-07T20:15:00+01:00,39.15,EUR,,MWh
Power,Intraday,Continuous,NL,IDFULL,QH,2021-01-07T20:15:00+01:00,2021-01-07T20:30:00+01:00,39.15,EUR,,MWh
Power,Intraday,Continuous,NL,IDFULL,QH,2021-01-07T20:30:00+01:00,2021-01-07T20:45:00+01:00,39.15,EUR,,MWh
Power,Intraday,Continuous,NL,IDFULL,QH,2021-01-07T20:45:00+01:00,2021-01-07T21:00:00+01:00,39.15,EUR,,MWh
Power,Intraday,Continuous,NL,IDFULL,QH,2021-01-07T21:00:00+01:00,2021-01-07T21:15:00+01:00,43.51,EUR,,MWh
Power,Intraday,Continuous,NL,IDFULL,QH,2021-01-07T21:15:00+01:00,2021-01-07T21:30:00+01:00,43.51,EUR,,MWh
Power,Intraday,Continuous,NL,IDFULL,QH,2021-01-07T21:30:00+01:00,2021-01-07T21:45:00+01:00,43.51,EUR,,MWh
Power,Intraday,Continuous,NL,IDFULL,QH,2021-01-07T21:45:00+01:00,2021-01-07T22:00:00+01:00,32.62,EUR,19.150,MWh
Power,Intraday,Continuous,NL,IDFULL,QH,2021-01-07T22:00:00+01:00,2021-01-07T22:15:00+01:00,44.85,EUR,,MWh
Power,Intraday,Continuous,NL,IDFULL,QH,2021-01-07T22:15:00+01:00,2021-01-07T22:30:00+01:00,44.85,EUR,,MWh
Power,Intraday,Continuous,NL,IDFULL,QH,2021-01-07T22:30:00+01:00,2021-01-07T22:45:00+01:00,44.85,EUR,,MWh
Power,Intraday,Continuous,NL,IDFULL,QH,2021-01-07T22:45:00+01:00,2021-01-07T23:00:00+01:00,37.25,EUR,15.080,MWh
Power,Intraday,Continuous,NL,IDFULL,QH,2021-01-07T23:00:00+01:00,2021-01-07T23:15:00+01:00,39.84,EUR,,MWh
Power,Intraday,Continuous,NL,IDFULL,QH,2021-01-07T23:15:00+01:00,2021-01-07T23:30:00+01:00,39.84,EUR,,MWh
Power,Intraday,Continuous,NL,IDFULL,QH,2021-01-07T23:30:00+01:00,2021-01-07T23:45:00+01:00,39.84,EUR,,MWh
Power,Intraday,Continuous,NL,IDFULL,QH,2021-01-07T23:45:00+01:00,2021-01-08T00:00:00+01:00,39.84,EUR,,MWh
Power,Intraday,Continuous,NL,ID1,QH,2021-01-07T00:00:00+01:00,2021-01-07T00:15:00+01:00,47.00,EUR,,MWh
Power,Intraday,Continuous,NL,ID1,QH,2021-01-07T00:15:00+01:00,2021-01-07T00:30:00+01:00,47.00,EUR,,MWh
Power,Intraday,Continuous,NL,ID1,QH,2021-01-07T00:30:00+01:00,2021-01-07T00:45:00+01:00,47.00,EUR,,MWh
Power,Intraday,Continuous,NL,ID1,QH,2021-01-07T00:45:00+01:00,2021-01-07T01:00:00+01:00,47.00,EUR,,MWh
Power,Intraday,Continuous,NL,ID1,QH,2021-01-07T01:00:00+01:00,2021-01-07T01:15:00+01:00,48.29,EUR,,MWh
Power,Intraday,Continuous,NL,ID1,QH,2021-01-07T01:15:00+01:00,2021-01-07T01:30:00+01:00,48.29,EUR,,MWh
Power,Intraday,Continuous,NL,ID1,QH,2021-01-07T01:30:00+01:00,2021-01-07T01:45:00+01:00,48.29,EUR,,MWh
Power,Intraday,Continuous,NL,ID1,QH,2021-01-07T01:45:00+01:00,2021-01-07T02:00:00+01:00,48.29,EUR,,MWh
Power,Intraday,Continuous,NL,ID1,QH,2021-01-07T02:00:00+01:00,2021-01-07T02:15:00+01:00,45.88,EUR,,MWh
Power,Intraday,Continuous,NL,ID1,QH,2021-01-07T02:15:00+01:00,2021-01-07T02:30:00+01:00,45.88,EUR,,MWh
Power,Intraday,Continuous,NL,ID1,QH,2021-01-07T02:30:00+01:00,2021-01-07T02:45:00+01:00,45.88,EUR,,MWh
Power,Intraday,Continuous,NL,ID1,QH,2021-01-07T02:45:00+01:00,2021-01-07T03:00:00+01:00,45.88,EUR,,MWh
Power,Intraday,Continuous,NL,ID1,QH,2021-01-07T03:00:00+01:00,2021-01-07T03:15:00+01:00,43.65,EUR,,MWh
Power,Intraday,Continuous,NL,ID1,QH,2021-01-07T03:15:00+01:00,2021-01-07T03:30:00+01:00,43.65,EUR,,MWh
Power,Intraday,Continuous,NL,ID1,QH,2021-01-07T03:30:00+01:00,2021-01-07T03:45:00+01:00,43.65,EUR,,MWh
Power,Intraday,Continuous,NL,ID1,QH,2021-01-07T03:45:00+01:00,2021-01-07T04:00:00+01:00,43.65,EUR,,MWh
Power,Intraday,Continuous,NL,ID1,QH,2021-01-07T04:00:00+01:00,2021-01-07T04:15:00+01:00,43.49,EUR,,MWh
Power,Intraday,Continuous,NL,ID1,QH,2021-01-07T04:15:00+01:00,2021-01-07T04:30:00+01:00,43.49,EUR,,MWh
Power,Intraday,Continuous,NL,ID1,QH,2021-01-07T04:30:00+01:00,2021-01-07T04:45:00+01:00,43.49,EUR,,MWh
Power,Intraday,Continuous,NL,ID1,QH,2021-01-07T04:45:00+01:00,2021-01-07T05:00:00+01:00,43.49,EUR,,MWh
Power,Intraday,Continuous,NL,ID1,QH,2021-01-07T05:00:00+01:00,2021-01-07T05:15:00+01:00,44.53,EUR,,MWh
Power,Intraday,Continuous,NL,ID1,QH,2021-01-07T05:15:00+01:00,2021-01-07T05:30:00+01:00,44.53,EUR,,MWh
Power,Intraday,Continuous,NL,ID1,QH,2021-01-07T05:30:00+01:00,2021-01-07T05:45:00+01:00,44.53,EUR,,MWh
Power,Intraday,Continuous,NL,ID1,QH,2021-01-07T05:45:00+01:00,2021-01-07T06:00:00+01:00,44.53,EUR,,MWh
Power,Intraday,Continuous,NL,ID1,QH,2021-01-07T06:00:00+01:00,2021-01-07T06:15:00+01:00,26.65,EUR,,MWh
Power,Intraday,Continuous,NL,ID1,QH,2021-01-07T06:15:00+01:00,2021-01-07T06:30:00+01:00,26.65,EUR,,MWh
Power,Intraday,Continuous,NL,ID1,QH,2021-01-07T06:30:00+01:00,2021-01-07T06:45:00+01:00,26.65,EUR,,MWh
Power,Intraday,Continuous,NL,ID1,QH,2021-01-07T06:45:00+01:00,2021-01-07T07:00:00+01:00,49.94,EUR,4.350,MWh
Power,Intraday,Continuous,NL,ID1,QH,2021-01-07T07:00:00+01:00,2021-01-07T07:15:00+01:00,30.76,EUR,,MWh
Power,Intraday,Continuous,NL,ID1,QH,2021-01-07T07:15:00+01:00,2021-01-07T07:30:00+01:00,30.76,EUR,,MWh
Power,Intraday,Continuous,NL,ID1,QH,2021-01-07T07:30:00+01:00,2021-01-07T07:45:00+01:00,30.76,EUR,,MWh
Power,Intraday,Continuous,NL,ID1,QH,2021-01-07T07:45:00+01:00,2021-01-07T08:00:00+01:00,75.19,EUR,,MWh
Power,Intraday,Continuous,NL,ID1,QH,2021-01-07T08:00:00+01:00,2021-01-07T08:15:00+01:00,54.37,EUR,,MWh
Power,Intraday,Continuous,NL,ID1,QH,2021-01-07T08:15:00+01:00,2021-01-07T08:30:00+01:00,54.37,EUR,,MWh
Power,Intraday,Continuous,NL,ID1,QH,2021-01-07T08:30:00+01:00,2021-01-07T08:45:00+01:00,54.37,EUR,,MWh
Power,Intraday,Continuous,NL,ID1,QH,2021-01-07T08:45:00+01:00,2021-01-07T09:00:00+01:00,89.39,EUR,,MWh
Power,Intraday,Continuous,NL,ID1,QH,2021-01-07T09:00:00+01:00,2021-01-07T09:15:00+01:00,80.14,EUR,,MWh
Power,Intraday,Continuous,NL,ID1,QH,2021-01-07T09:15:00+01:00,2021-01-07T09:30:00+01:00,91.17,EUR,2.500,MWh
Power,Intraday,Continuous,NL,ID1,QH,2021-01-07T09:30:00+01:00,2021-01-07T09:45:00+01:00,80.14,EUR,,MWh
Power,Intraday,Continuous,NL,ID1,QH,2021-01-07T09:45:00+01:00,2021-01-07T10:00:00+01:00,80.14,EUR,,MWh
Power,Intraday,Continuous,NL,ID1,QH,2021-01-07T10:00:00+01:00,2021-01-07T10:15:00+01:00,98.42,EUR,,MWh
Power,Intraday,Continuous,NL,ID1,QH,2021-01-07T10:15:00+01:00,2021-01-07T10:30:00+01:00,74.84,EUR,,MWh
Power,Intraday,Continuous,NL,ID1,QH,2021-01-07T10:30:00+01:00,2021-01-07T10:45:00+01:00,74.84,EUR,,MWh
Power,Intraday,Continuous,NL,ID1,QH,2021-01-07T10:45:00+01:00,2021-01-07T11:00:00+01:00,74.84,EUR,,MWh
Power,Intraday,Continuous,NL,ID1,QH,2021-01-07T11:00:00+01:00,2021-01-07T11:15:00+01:00,61.32,EUR,,MWh
Power,Intraday,Continuous,NL,ID1,QH,2021-01-07T11:15:00+01:00,2021-01-07T11:30:00+01:00,61.32,EUR,,MWh
Power,Intraday,Continuous,NL,ID1,QH,2021-01-07T11:30:00+01:00,2021-01-07T11:45:00+01:00,61.32,EUR,,MWh
Power,Intraday,Continuous,NL,ID1,QH,2021-01-07T11:45:00+01:00,2021-01-07T12:00:00+01:00,61.32,EUR,,MWh
Power,Intraday,Continuous,NL,ID1,QH,2021-01-07T12:00:00+01:00,2021-01-07T12:15:00+01:00,67.22,EUR,,MWh
Power,Intraday,Continuous,NL,ID1,QH,2021-01-07T12:15:00+01:00,2021-01-07T12:30:00+01:00,67.22,EUR,,MWh
Power,Intraday,Continuous,NL,ID1,QH,2021-01-07T12:30:00+01:00,2021-01-07T12:45:00+01:00,67.22,EUR,,MWh
Power,Intraday,Continuous,NL,ID1,QH,2021-01-07T12:45:00+01:00,2021-01-07T13:00:00+01:00,67.22,EUR,,MWh
Power,Intraday,Continuous,NL,ID1,QH,2021-01-07T13:00:00+01:00,2021-01-07T13:15:00+01:00,57.17,EUR,,MWh
Power,Intraday,Continuous,NL,ID1,QH,2021-01-07T13:15:00+01:00,2021-01-07T13:30:00+01:00,57.17,EUR,,MWh
Power,Intraday,Continuous,NL,ID1,QH,2021-01-07T13:30:00+01:00,2021-01-07T13:45:00+01:00,57.17,EUR,,MWh
Power,Intraday,Continuous,NL,ID1,QH,2021-01-07T13:45:00+01:00,2021-01-07T14:00:00+01:00,57.17,EUR,,MWh
Power,Intraday,Continuous,NL,ID1,QH,2021-01-07T14:00:00+01:00,2021-01-07T14:15:00+01:00,76.84,EUR,,MWh
Power,Intraday,Continuous,NL,ID1,QH,2021-01-07T14:15:00+01:00,2021-01-07T14:30:00+01:00,76.86,EUR,,MWh
Power,Intraday,Continuous,NL,ID1,QH,2021-01-07T14:30:00+01:00,2021-01-07T14:45:00+01:00,76.57,EUR,,MWh
Power,Intraday,Continuous,NL,ID1,QH,2021-01-07T14:45:00+01:00,2021-01-07T15:00:00+01:00,76.09,EUR,,MWh
Power,Intraday,Continuous,NL,ID1,QH,2021-01-07T15:00:00+01:00,2021-01-07T15:15:00+01:00,73.08,EUR,,MWh
Power,Intraday,Continuous,NL,ID1,QH,2021-01-07T15:15:00+01:00,2021-01-07T15:30:00+01:00,78.25,EUR,,MWh
Power,Intraday,Continuous,NL,ID1,QH,2021-01-07T15:30:00+01:00,2021-01-07T15:45:00+01:00,76.56,EUR,,MWh
Power,Intraday,Continuous,NL,ID1,QH,2021-01-07T15:45:00+01:00,2021-01-07T16:00:00+01:00,79.43,EUR,,MWh
Power,Intraday,Continuous,NL,ID1,QH,2021-01-07T16:00:00+01:00,2021-01-07T16:15:00+01:00,61.26,EUR,,MWh
Power,Intraday,Continuous,NL,ID1,QH,2021-01-07T16:15:00+01:00,2021-01-07T16:30:00+01:00,71.99,EUR,,MWh
Power,Intraday,Continuous,NL,ID1,QH,2021-01-07T16:30:00+01:00,2021-01-07T16:45:00+01:00,65.50,EUR,,MWh
Power,Intraday,Continuous,NL,ID1,QH,2021-01-07T16:45:00+01:00,2021-01-07T17:00:00+01:00,87.17,EUR,,MWh
Power,Intraday,Continuous,NL,ID1,QH,2021-01-07T17:00:00+01:00,2021-01-07T17:15:00+01:00,64.43,EUR,,MWh
Power,Intraday,Continuous,NL,ID1,QH,2021-01-07T17:15:00+01:00,2021-01-07T17:30:00+01:00,86.28,EUR,,MWh
Power,Intraday,Continuous,NL,ID1,QH,2021-01-07T17:30:00+01:00,2021-01-07T17:45:00+01:00,76.64,EUR,,MWh
Power,Intraday,Continuous,NL,ID1,QH,2021-01-07T17:45:00+01:00,2021-01-07T18:00:00+01:00,77.96,EUR,,MWh
Power,Intraday,Continuous,NL,ID1,QH,2021-01-07T18:00:00+01:00,2021-01-07T18:15:00+01:00,46.84,EUR,,MWh
Power,Intraday,Continuous,NL,ID1,QH,2021-01-07T18:15:00+01:00,2021-01-07T18:30:00+01:00,46.84,EUR,,MWh
Power,Intraday,Continuous,NL,ID1,QH,2021-01-07T18:30:00+01:00,2021-01-07T18:45:00+01:00,46.84,EUR,,MWh
Power,Intraday,Continuous,NL,ID1,QH,2021-01-07T18:45:00+01:00,2021-01-07T19:00:00+01:00,46.84,EUR,,MWh
Power,Intraday,Continuous,NL,ID1,QH,2021-01-07T19:00:00+01:00,2021-01-07T19:15:00+01:00,39.87,EUR,,MWh
Power,Intraday,Continuous,NL,ID1,QH,2021-01-07T19:15:00+01:00,2021-01-07T19:30:00+01:00,39.87,EUR,,MWh
Power,Intraday,Continuous,NL,ID1,QH,2021-01-07T19:30:00+01:00,2021-01-07T19:45:00+01:00,39.87,EUR,,MWh
Power,Intraday,Continuous,NL,ID1,QH,2021-01-07T19:45:00+01:00,2021-01-07T20:00:00+01:00,39.87,EUR,,MWh
Power,Intraday,Continuous,NL,ID1,QH,2021-01-07T20:00:00+01:00,2021-01-07T20:15:00+01:00,39.15,EUR,,MWh
Power,Intraday,Continuous,NL,ID1,QH,2021-01-07T20:15:00+01:00,2021-01-07T20:30:00+01:00,39.15,EUR,,MWh
Power,Intraday,Continuous,NL,ID1,QH,2021-01-07T20:30:00+01:00,2021-01-07T20:45:00+01:00,39.15,EUR,,MWh
Power,Intraday,Continuous,NL,ID1,QH,2021-01-07T20:45:00+01:00,2021-01-07T21:00:00+01:00,39.15,EUR,,MWh
Power,Intraday,Continuous,NL,ID1,QH,2021-01-07T21:00:00+01:00,2021-01-07T21:15:00+01:00,43.51,EUR,,MWh
Power,Intraday,Continuous,NL,ID1,QH,2021-01-07T21:15:00+01:00,2021-01-07T21:30:00+01:00,43.51,EUR,,MWh
Power,Intraday,Continuous,NL,ID1,QH,2021-01-07T21:30:00+01:00,2021-01-07T21:45:00+01:00,43.51,EUR,,MWh
Power,Intraday,Continuous,NL,ID1,QH,2021-01-07T21:45:00+01:00,2021-01-07T22:00:00+01:00,32.62,EUR,,MWh
Power,Intraday,Continuous,NL,ID1,QH,2021-01-07T22:00:00+01:00,2021-01-07T22:15:00+01:00,44.85,EUR,,MWh
Power,Intraday,Continuous,NL,ID1,QH,2021-01-07T22:15:00+01:00,2021-01-07T22:30:00+01:00,44.85,EUR,,MWh
Power,Intraday,Continuous,NL,ID1,QH,2021-01-07T22:30:00+01:00,2021-01-07T22:45:00+01:00,44.85,EUR,,MWh
Power,Intraday,Continuous,NL,ID1,QH,2021-01-07T22:45:00+01:00,2021-01-07T23:00:00+01:00,37.25,EUR,,MWh
Power,Intraday,Continuous,NL,ID1,QH,2021-01-07T23:00:00+01:00,2021-01-07T23:15:00+01:00,39.84,EUR,,MWh
Power,Intraday,Continuous,NL,ID1,QH,2021-01-07T23:15:00+01:00,2021-01-07T23:30:00+01:00,39.84,EUR,,MWh
Power,Intraday,Continuous,NL,ID1,QH,2021-01-07T23:30:00+01:00,2021-01-07T23:45:00+01:00,39.84,EUR,,MWh
Power,Intraday,Continuous,NL,ID1,QH,2021-01-07T23:45:00+01:00,2021-01-08T00:00:00+01:00,39.84,EUR,,MWh
Power,Intraday,Continuous,NL,ID3,QH,2021-01-07T00:00:00+01:00,2021-01-07T00:15:00+01:00,47.00,EUR,,MWh
Power,Intraday,Continuous,NL,ID3,QH,2021-01-07T00:15:00+01:00,2021-01-07T00:30:00+01:00,47.00,EUR,,MWh
Power,Intraday,Continuous,NL,ID3,QH,2021-01-07T00:30:00+01:00,2021-01-07T00:45:00+01:00,47.00,EUR,,MWh
Power,Intraday,Continuous,NL,ID3,QH,2021-01-07T00:45:00+01:00,2021-01-07T01:00:00+01:00,47.00,EUR,,MWh
Power,Intraday,Continuous,NL,ID3,QH,2021-01-07T01:00:00+01:00,2021-01-07T01:15:00+01:00,48.29,EUR,,MWh
Power,Intraday,Continuous,NL,ID3,QH,2021-01-07T01:15:00+01:00,2021-01-07T01:30:00+01:00,48.29,EUR,,MWh
Power,Intraday,Continuous,NL,ID3,QH,2021-01-07T01:30:00+01:00,2021-01-07T01:45:00+01:00,48.29,EUR,,MWh
Power,Intraday,Continuous,NL,ID3,QH,2021-01-07T01:45:00+01:00,2021-01-07T02:00:00+01:00,48.29,EUR,,MWh
Power,Intraday,Continuous,NL,ID3,QH,2021-01-07T02:00:00+01:00,2021-01-07T02:15:00+01:00,45.88,EUR,,MWh
Power,Intraday,Continuous,NL,ID3,QH,2021-01-07T02:15:00+01:00,2021-01-07T02:30:00+01:00,45.88,EUR,,MWh
Power,Intraday,Continuous,NL,ID3,QH,2021-01-07T02:30:00+01:00,2021-01-07T02:45:00+01:00,45.88,EUR,,MWh
Power,Intraday,Continuous,NL,ID3,QH,2021-01-07T02:45:00+01:00,2021-01-07T03:00:00+01:00,45.88,EUR,,MWh
Power,Intraday,Continuous,NL,ID3,QH,2021-01-07T03:00:00+01:00,2021-01-07T03:15:00+01:00,43.65,EUR,,MWh
Power,Intraday,Continuous,NL,ID3,QH,2021-01-07T03:15:00+01:00,2021-01-07T03:30:00+01:00,43.65,EUR,,MWh
Power,Intraday,Continuous,NL,ID3,QH,2021-01-07T03:30:00+01:00,2021-01-07T03:45:00+01:00,43.65,EUR,,MWh
Power,Intraday,Continuous,NL,ID3,QH,2021-01-07T03:45:00+01:00,2021-01-07T04:00:00+01:00,43.65,EUR,,MWh
Power,Intraday,Continuous,NL,ID3,QH,2021-01-07T04:00:00+01:00,2021-01-07T04:15:00+01:00,43.49,EUR,,MWh
Power,Intraday,Continuous,NL,ID3,QH,2021-01-07T04:15:00+01:00,2021-01-07T04:30:00+01:00,43.49,EUR,,MWh
Power,Intraday,Continuous,NL,ID3,QH,2021-01-07T04:30:00+01:00,2021-01-07T04:45:00+01:00,43.49,EUR,,MWh
Power,Intraday,Continuous,NL,ID3,QH,2021-01-07T04:45:00+01:00,2021-01-07T05:00:00+01:00,43.49,EUR,,MWh
Power,Intraday,Continuous,NL,ID3,QH,2021-01-07T05:00:00+01:00,2021-01-07T05:15:00+01:00,44.53,EUR,,MWh
Power,Intraday,Continuous,NL,ID3,QH,2021-01-07T05:15:00+01:00,2021-01-07T05:30:00+01:00,44.53,EUR,,MWh
Power,Intraday,Continuous,NL,ID3,QH,2021-01-07T05:30:00+01:00,2021-01-07T05:45:00+01:00,44.53,EUR,,MWh
Power,Intraday,Continuous,NL,ID3,QH,2021-01-07T05:45:00+01:00,2021-01-07T06:00:00+01:00,44.53,EUR,,MWh
Power,Intraday,Continuous,NL,ID3,QH,2021-01-07T06:00:00+01:00,2021-01-07T06:15:00+01:00,26.65,EUR,,MWh
Power,Intraday,Continuous,NL,ID3,QH,2021-01-07T06:15:00+01:00,2021-01-07T06:30:00+01:00,26.65,EUR,,MWh
Power,Intraday,Continuous,NL,ID3,QH,2021-01-07T06:30:00+01:00,2021-01-07T06:45:00+01:00,26.65,EUR,,MWh
Power,Intraday,Continuous,NL,ID3,QH,2021-01-07T06:45:00+01:00,2021-01-07T07:00:00+01:00,61.73,EUR,10.600,MWh
Power,Intraday,Continuous,NL,ID3,QH,2021-01-07T07:00:00+01:00,2021-01-07T07:15:00+01:00,30.76,EUR,,MWh
Power,Intraday,Continuous,NL,ID3,QH,2021-01-07T07:15:00+01:00,2021-01-07T07:30:00+01:00,30.76,EUR,,MWh
Power,Intraday,Continuous,NL,ID3,QH,2021-01-07T07:30:00+01:00,2021-01-07T07:45:00+01:00,30.76,EUR,,MWh
Power,Intraday,Continuous,NL,ID3,QH,2021-01-07T07:45:00+01:00,2021-01-07T08:00:00+01:00,75.19,EUR,12.430,MWh
Power,Intraday,Continuous,NL,ID3,QH,2021-01-07T08:00:00+01:00,2021-01-07T08:15:00+01:00,54.37,EUR,,MWh
Power,Intraday,Continuous,NL,ID3,QH,2021-01-07T08:15:00+01:00,2021-01-07T08:30:00+01:00,54.37,EUR,,MWh
Power,Intraday,Continuous,NL,ID3,QH,2021-01-07T08:30:00+01:00,2021-01-07T08:45:00+01:00,54.37,EUR,,MWh
Power,Intraday,Continuous,NL,ID3,QH,2021-01-07T08:45:00+01:00,2021-01-07T09:00:00+01:00,89.39,EUR,2.830,MWh
Power,Intraday,Continuous,NL,ID3,QH,2021-01-07T09:00:00+01:00,2021-01-07T09:15:00+01:00,80.14,EUR,,MWh
Power,Intraday,Continuous,NL,ID3,QH,2021-01-07T09:15:00+01:00,2021-01-07T09:30:00+01:00,91.17,EUR,2.500,MWh
Power,Intraday,Continuous,NL,ID3,QH,2021-01-07T09:30:00+01:00,2021-01-07T09:45:00+01:00,80.14,EUR,,MWh
Power,Intraday,Continuous,NL,ID3,QH,2021-01-07T09:45:00+01:00,2021-01-07T10:00:00+01:00,80.14,EUR,,MWh
Power,Intraday,Continuous,NL,ID3,QH,2021-01-07T10:00:00+01:00,2021-01-07T10:15:00+01:00,98.42,EUR,3.950,MWh
Power,Intraday,Continuous,NL,ID3,QH,2021-01-07T10:15:00+01:00,2021-01-07T10:30:00+01:00,74.84,EUR,,MWh
Power,Intraday,Continuous,NL,ID3,QH,2021-01-07T10:30:00+01:00,2021-01-07T10:45:00+01:00,74.84,EUR,,MWh
Power,Intraday,Continuous,NL,ID3,QH,2021-01-07T10:45:00+01:00,2021-01-07T11:00:00+01:00,74.84,EUR,,MWh
Power,Intraday,Continuous,NL,ID3,QH,2021-01-07T11:00:00+01:00,2021-01-07T11:15:00+01:00,61.32,EUR,,MWh
Power,Intraday,Continuous,NL,ID3,QH,2021-01-07T11:15:00+01:00,2021-01-07T11:30:00+01:00,61.32,EUR,,MWh
Power,Intraday,Continuous,NL,ID3,QH,2021-01-07T11:30:00+01:00,2021-01-07T11:45:00+01:00,61.32,EUR,,MWh
Power,Intraday,Continuous,NL,ID3,QH,2021-01-07T11:45:00+01:00,2021-01-07T12:00:00+01:00,61.32,EUR,,MWh
Power,Intraday,Continuous,NL,ID3,QH,2021-01-07T12:00:00+01:00,2021-01-07T12:15:00+01:00,67.22,EUR,,MWh
Power,Intraday,Continuous,NL,ID3,QH,2021-01-07T12:15:00+01:00,2021-01-07T12:30:00+01:00,67.22,EUR,,MWh
Power,Intraday,Continuous,NL,ID3,QH,2021-01-07T12:30:00+01:00,2021-01-07T12:45:00+01:00,67.22,EUR,,MWh
Power,Intraday,Continuous,NL,ID3,QH,2021-01-07T12:45:00+01:00,2021-01-07T13:00:00+01:00,67.22,EUR,,MWh
Power,Intraday,Continuous,NL,ID3,QH,2021-01-07T13:00:00+01:00,2021-01-07T13:15:00+01:00,57.17,EUR,,MWh
Power,Intraday,Continuous,NL,ID3,QH,2021-01-07T13:15:00+01:00,2021-01-07T13:30:00+01:00,57.17,EUR,,MWh
Power,Intraday,Continuous,NL,ID3,QH,2021-01-07T13:30:00+01:00,2021-01-07T13:45:00+01:00,57.17,EUR,,MWh
Power,Intraday,Continuous,NL,ID3,QH,2021-01-07T13:45:00+01:00,2021-01-07T14:00:00+01:00,57.17,EUR,,MWh
Power,Intraday,Continuous,NL,ID3,QH,2021-01-07T14:00:00+01:00,2021-01-07T14:15:00+01:00,76.84,EUR,9.300,MWh
Power,Intraday,Continuous,NL,ID3,QH,2021-01-07T14:15:00+01:00,2021-01-07T14:30:00+01:00,76.86,EUR,9.730,MWh
Power,Intraday,Continuous,NL,ID3,QH,2021-01-07T14:30:00+01:00,2021-01-07T14:45:00+01:00,76.57,EUR,10.750,MWh
Power,Intraday,Continuous,NL,ID3,QH,2021-01-07T14:45:00+01:00,2021-01-07T15:00:00+01:00,76.09,EUR,10.800,MWh
Power,Intraday,Continuous,NL,ID3,QH,2021-01-07T15:00:00+01:00,2021-01-07T15:15:00+01:00,73.08,EUR,22.150,MWh
Power,Intraday,Continuous,NL,ID3,QH,2021-01-07T15:15:00+01:00,2021-01-07T15:30:00+01:00,78.25,EUR,9.350,MWh
Power,Intraday,Continuous,NL,ID3,QH,2021-01-07T15:30:00+01:00,2021-01-07T15:45:00+01:00,76.56,EUR,17.950,MWh
Power,Intraday,Continuous,NL,ID3,QH,2021-01-07T15:45:00+01:00,2021-01-07T16:00:00+01:00,79.43,EUR,20.130,MWh
Power,Intraday,Continuous,NL,ID3,QH,2021-01-07T16:00:00+01:00,2021-01-07T16:15:00+01:00,61.26,EUR,66.300,MWh
Power,Intraday,Continuous,NL,ID3,QH,2021-01-07T16:15:00+01:00,2021-01-07T16:30:00+01:00,71.99,EUR,19.750,MWh
Power,Intraday,Continuous,NL,ID3,QH,2021-01-07T16:30:00+01:00,2021-01-07T16:45:00+01:00,65.50,EUR,23.680,MWh
Power,Intraday,Continuous,NL,ID3,QH,2021-01-07T16:45:00+01:00,2021-01-07T17:00:00+01:00,87.17,EUR,7.580,MWh
Power,Intraday,Continuous,NL,ID3,QH,2021-01-07T17:00:00+01:00,2021-01-07T17:15:00+01:00,64.43,EUR,7.850,MWh
Power,Intraday,Continuous,NL,ID3,QH,2021-01-07T17:15:00+01:00,2021-01-07T17:30:00+01:00,86.28,EUR,6.350,MWh
Power,Intraday,Continuous,NL,ID3,QH,2021-01-07T17:30:00+01:00,2021-01-07T17:45:00+01:00,76.64,EUR,2.900,MWh
Power,Intraday,Continuous,NL,ID3,QH,2021-01-07T17:45:00+01:00,2021-01-07T18:00:00+01:00,77.96,EUR,11.230,MWh
Power,Intraday,Continuous,NL,ID3,QH,2021-01-07T18:00:00+01:00,2021-01-07T18:15:00+01:00,46.84,EUR,,MWh
Power,Intraday,Continuous,NL,ID3,QH,2021-01-07T18:15:00+01:00,2021-01-07T18:30:00+01:00,46.84,EUR,,MWh
Power,Intraday,Continuous,NL,ID3,QH,2021-01-07T18:30:00+01:00,2021-01-07T18:45:00+01:00,46.84,EUR,,MWh
Power,Intraday,Continuous,NL,ID3,QH,2021-01-07T18:45:00+01:00,2021-01-07T19:00:00+01:00,46.84,EUR,,MWh
Power,Intraday,Continuous,NL,ID3,QH,2021-01-07T19:00:00+01:00,2021-01-07T19:15:00+01:00,39.87,EUR,,MWh
Power,Intraday,Continuous,NL,ID3,QH,2021-01-07T19:15:00+01:00,2021-01-07T19:30:00+01:00,39.87,EUR,,MWh
Power,Intraday,Continuous,NL,ID3,QH,2021-01-07T19:30:00+01:00,2021-01-07T19:45:00+01:00,39.87,EUR,,MWh
Power,Intraday,Continuous,NL,ID3,QH,2021-01-07T19:45:00+01:00,2021-01-07T20:00:00+01:00,39.87,EUR,,MWh
Power,Intraday,Continuous,NL,ID3,QH,2021-01-07T20:00:00+01:00,2021-01-07T20:15:00+01:00,39.15,EUR,,MWh
Power,Intraday,Continuous,NL,ID3,QH,2021-01-07T20:15:00+01:00,2021-01-07T20:30:00+01:00,39.15,EUR,,MWh
Power,Intraday,Continuous,NL,ID3,QH,2021-01-07T20:30:00+01:00,2021-01-07T20:45:00+01:00,39.15,EUR,,MWh
Power,Intraday,Continuous,NL,ID3,QH,2021-01-07T20:45:00+01:00,2021-01-07T21:00:00+01:00,39.15,EUR,,MWh
Power,Intraday,Continuous,NL,ID3,QH,2021-01-07T21:00:00+01:00,2021-01-07T21:15:00+01:00,43.51,EUR,,MWh
Power,Intraday,Continuous,NL,ID3,QH,2021-01-07T21:15:00+01:00,2021-01-07T21:30:00+01:00,43.51,EUR,,MWh
Power,Intraday,Continuous,NL,ID3,QH,2021-01-07T21:30:00+01:00,2021-01-07T21:45:00+01:00,43.51,EUR,,MWh
Power,Intraday,Continuous,NL,ID3,QH,2021-01-07T21:45:00+01:00,2021-01-07T22:00:00+01:00,32.62,EUR,19.150,MWh
Power,Intraday,Continuous,NL,ID3,QH,2021-01-07T22:00:00+01:00,2021-01-07T22:15:00+01:00,44.85,EUR,,MWh
Power,Intraday,Continuous,NL,ID3,QH,2021-01-07T22:15:00+01:00,2021-01-07T22:30:00+01:00,44.85,EUR,,MWh
Power,Intraday,Continuous,NL,ID3,QH,2021-01-07T22:30:00+01:00,2021-01-07T22:45:00+01:00,44.85,EUR,,MWh
Power,Intraday,Continuous,NL,ID3,QH,2021-01-07T22:45:00+01:00,2021-01-07T23:00:00+01:00,37.25,EUR,15.080,MWh
Power,Intraday,Continuous,NL,ID3,QH,2021-01-07T23:00:00+01:00,2021-01-07T23:15:00+01:00,39.84,EUR,,MWh
Power,Intraday,Continuous,NL,ID3,QH,2021-01-07T23:15:00+01:00,2021-01-07T23:30:00+01:00,39.84,EUR,,MWh
Power,Intraday,Continuous,NL,ID3,QH,2021-01-07T23:30:00+01:00,2021-01-07T23:45:00+01:00,39.84,EUR,,MWh
Power,Intraday,Continuous,NL,ID3,QH,2021-01-07T23:45:00+01:00,2021-01-08T00:00:00+01:00,39.84,EUR,,MWh
Power,Intraday,Continuous,NL,IDFULL,BASE,2021-01-07T00:00:00+01:00,2021-01-08T00:00:00+01:00,55.97,EUR,13545.600,MWh
Power,Intraday,Continuous,NL,IDFULL,PEAK,2021-01-07T08:00:00+01:00,2021-01-07T20:00:00+01:00,68.88,EUR,8679.900,MWh
