Commodity,NominationModality,TradingModality,MarketArea,IndexName,TimeResolution,DeliveryStart,DeliveryEnd,IndexPrice,Currency,Volume,VolumeUnit
Power,Intraday,Continuous,NL,IDFULL,H,2021-11-17T00:00:00+01:00,2021-11-17T01:00:00+01:00,187.35,EUR,219.400,MWh
Power,Intraday,Continuous,NL,IDFULL,H,2021-11-17T01:00:00+01:00,2021-11-17T02:00:00+01:00,201.21,EUR,464.000,MWh
Power,Intraday,Continuous,NL,IDFULL,H,2021-11-17T02:00:00+01:00,2021-11-17T03:00:00+01:00,179.97,EUR,419.800,MWh
Power,Intraday,Continuous,NL,IDFULL,H,2021-11-17T03:00:00+01:00,2021-11-17T04:00:00+01:00,183.07,EUR,283.500,MWh
Power,Intraday,Continuous,NL,IDFULL,H,2021-11-17T04:00:00+01:00,2021-11-17T05:00:00+01:00,172.70,EUR,321.100,MWh
Power,Intraday,Continuous,NL,IDFULL,H,2021-11-17T05:00:00+01:00,2021-11-17T06:00:00+01:00,172.37,EUR,387.800,MWh
Power,Intraday,Continuous,NL,IDFULL,H,2021-11-17T06:00:00+01:00,2021-11-17T07:00:00+01:00,189.04,EUR,361.000,MWh
Power,Intraday,Continuous,NL,IDFULL,H,2021-11-17T07:00:00+01:00,2021-11-17T08:00:00+01:00,227.35,EUR,1404.100,MWh
Power,Intraday,Continuous,NL,IDFULL,H,2021-11-17T08:00:00+01:00,2021-11-17T09:00:00+01:00,218.21,EUR,427.400,MWh
Power,Intraday,Continuous,NL,IDFULL,H,2021-11-17T09:00:00+01:00,2021-11-17T10:00:00+01:00,230.10,EUR,540.700,MWh
Power,Intraday,Continuous,NL,IDFULL,H,2021-11-17T10:00:00+01:00,2021-11-17T11:00:00+01:00,207.51,EUR,717.700,MWh
Power,Intraday,Continuous,NL,IDFULL,H,2021-11-17T11:00:00+01:00,2021-11-17T12:00:00+01:00,223.73,EUR,609.700,MWh
Power,Intraday,Continuous,NL,IDFULL,H,2021-11-17T12:00:00+01:00,2021-11-17T13:00:00+01:00,205.09,EUR,702.200,MWh
Power,Intraday,Continuous,NL,IDFULL,H,2021-11-17T13:00:00+01:00,2021-11-17T14:00:00+01:00,194.60,EUR,811.600,MWh
Power,Intraday,Continuous,NL,IDFULL,H,2021-11-17T14:00:00+01:00,2021-11-17T15:00:00+01:00,180.42,EUR,620.300,MWh
Power,Intraday,Continuous,NL,IDFULL,H,2021-11-17T15:00:00+01:00,2021-11-17T16:00:00+01:00,199.40,EUR,853.200,MWh
Power,Intraday,Continuous,NL,IDFULL,H,2021-11-17T16:00:00+01:00,2021-11-17T17:00:00+01:00,223.27,EUR,852.500,MWh
Power,Intraday,Continuous,NL,IDFULL,H,2021-11-17T17:00:00+01:00,2021-11-17T18:00:00+01:00,236.97,EUR,233.000,MWh
Power,Intraday,Continuous,NL,IDFULL,H,2021-11-17T18:00:00+01:00,2021-11-17T19:00:00+01:00,188.64,EUR,302.500,MWh
Power,Intraday,Continuous,NL,IDFULL,H,2021-11-17T19:00:00+01:00,2021-11-17T20:00:00+01:00,194.42,EUR,257.300,MWh
Power,Intraday,Continuous,NL,IDFULL,H,2021-11-17T20:00:00+01:00,2021-11-17T21:00:00+01:00,204.62,EUR,185.700,MWh
Power,Intraday,Continuous,NL,IDFULL,H,2021-11-17T21:00:00+01:00,2021-11-17T22:00:00+01:00,208.96,EUR,190.900,MWh
Power,Intraday,Continuous,NL,IDFULL,H,2021-11-17T22:00:00+01:00,2021-11-17T23:00:00+01:00,188.76,EUR,373.700,MWh
Power,Intraday,Continuous,NL,IDFULL,H,2021-11-17T23:00:00+01:00,2021-11-18T00:00:00+01:00,174.42,EUR,254.800,MWh
Power,Intraday,Continuous,NL,ID1,H,2021-11-17T00:00:00+01:00,2021-11-17T01:00:00+01:00,187.37,EUR,,MWh
Power,Intraday,Continuous,NL,ID1,H,2021-11-17T01:00:00+01:00,2021-11-17T02:00:00+01:00,196.64,EUR,44.400,MWh
Power,Intraday,Continuous,NL,ID1,H,2021-11-17T02:00:00+01:00,2021-11-17T03:00:00+01:00,184.02,EUR,,MWh
Power,Intraday,Continuous,NL,ID1,H,2021-11-17T03:00:00+01:00,2021-11-17T04:00:00+01:00,191.48,EUR,,MWh
Power,Intraday,Continuous,NL,ID1,H,2021-11-17T04:00:00+01:00,2021-11-17T05:00:00+01:00,185.00,EUR,15.000,MWh
Power,Intraday,Continuous,NL,ID1,H,2021-11-17T05:00:00+01:00,2021-11-17T06:00:00+01:00,175.90,EUR,56.600,MWh
Power,Intraday,Continuous,NL,ID1,H,2021-11-17T06:00:00+01:00,2021-11-17T07:00:00+01:00,200.01,EUR,30.000,MWh
Power,Intraday,Continuous,NL,ID1,H,2021-11-17T07:00:00+01:00,2021-11-17T08:00:00+01:00,225.49,EUR,53.900,MWh
Power,Intraday,Continuous,NL,ID1,H,2021-11-17T08:00:00+01:00,2021-11-17T09:00:00+01:00,255.02,EUR,69.100,MWh
Power,Intraday,Continuous,NL,ID1,H,2021-11-17T09:00:00+01:00,2021-11-17T10:00:00+01:00,217.81,EUR,108.500,MWh
Power,Intraday,Continuous,NL,ID1,H,2021-11-17T10:00:00+01:00,2021-11-17T11:00:00+01:00,199.36,EUR,177.700,MWh
Power,Intraday,Continuous,NL,ID1,H,2021-11-17T11:00:00+01:00,2021-11-17T12:00:00+01:00,240.94,EUR,147.900,MWh
Power,Intraday,Continuous,NL,ID1,H,2021-11-17T12:00:00+01:00,2021-11-17T13:00:00+01:00,207.73,EUR,98.700,MWh
Power,Intraday,Continuous,NL,ID1,H,2021-11-17T13:00:00+01:00,2021-11-17T14:00:00+01:00,184.57,EUR,69.000,MWh
Power,Intraday,Continuous,NL,ID1,H,2021-11-17T14:00:00+01:00,2021-11-17T15:00:00+01:00,147.56,EUR,30.000,MWh
Power,Intraday,Continuous,NL,ID1,H,2021-11-17T15:00:00+01:00,2021-11-17T16:00:00+01:00,211.71,EUR,180.100,MWh
Power,Intraday,Continuous,NL,ID1,H,2021-11-17T16:00:00+01:00,2021-11-17T17:00:00+01:00,214.80,EUR,30.800,MWh
Power,Intraday,Continuous,NL,ID1,H,2021-11-17T17:00:00+01:00,2021-11-17T18:00:00+01:00,235.52,EUR,69.900,MWh
Power,Intraday,Continuous,NL,ID1,H,2021-11-17T18:00:00+01:00,2021-11-17T19:00:00+01:00,186.84,EUR,113.200,MWh
Power,Intraday,Continuous,NL,ID1,H,2021-11-17T19:00:00+01:00,2021-11-17T20:00:00+01:00,181.22,EUR,57.300,MWh
Power,Intraday,Continuous,NL,ID1,H,2021-11-17T20:00:00+01:00,2021-11-17T21:00:00+01:00,191.42,EUR,57.100,MWh
Power,Intraday,Continuous,NL,ID1,H,2021-11-17T21:00:00+01:00,2021-11-17T22:00:00+01:00,205.63,EUR,66.100,MWh
Power,Intraday,Continuous,NL,ID1,H,2021-11-17T22:00:00+01:00,2021-11-17T23:00:00+01:00,180.05,EUR,118.900,MWh
Power,Intraday,Continuous,NL,ID1,H,2021-11-17T23:00:00+01:00,2021-11-18T00:00:00+01:00,173.46,EUR,,MWh
Power,Intraday,Continuous,NL,ID3,H,2021-11-17T00:00:00+01:00,2021-11-17T01:00:00+01:00,187.37,EUR,219.300,MWh
Power,Intraday,Continuous,NL,ID3,H,2021-11-17T01:00:00+01:00,2021-11-17T02:00:00+01:00,201.22,EUR,463.900,MWh
Power,Intraday,Continuous,NL,ID3,H,2021-11-17T02:00:00+01:00,2021-11-17T03:00:00+01:00,184.02,EUR,363.500,MWh
Power,Intraday,Continuous,NL,ID3,H,2021-11-17T03:00:00+01:00,2021-11-17T04:00:00+01:00,191.48,EUR,229.300,MWh
Power,Intraday,Continuous,NL,ID3,H,2021-11-17T04:00:00+01:00,2021-11-17T05:00:00+01:00,174.89,EUR,207.700,MWh
Power,Intraday,Continuous,NL,ID3,H,2021-11-17T05:00:00+01:00,2021-11-17T06:00:00+01:00,170.83,EUR,321.200,MWh
Power,Intraday,Continuous,NL,ID3,H,2021-11-17T06:00:00+01:00,2021-11-17T07:00:00+01:00,188.44,EUR,293.200,MWh
Power,Intraday,Continuous,NL,ID3,H,2021-11-17T07:00:00+01:00,2021-11-17T08:00:00+01:00,215.95,EUR,507.900,MWh
Power,Intraday,Continuous,NL,ID3,H,2021-11-17T08:00:00+01:00,2021-11-17T09:00:00+01:00,217.48,EUR,402.900,MWh
Power,Intraday,Continuous,NL,ID3,H,2021-11-17T09:00:00+01:00,2021-11-17T10:00:00+01:00,230.12,EUR,540.600,MWh
Power,Intraday,Continuous,NL,ID3,H,2021-11-17T10:00:00+01:00,2021-11-17T11:00:00+01:00,208.57,EUR,697.600,MWh
Power,Intraday,Continuous,NL,ID3,H,2021-11-17T11:00:00+01:00,2021-11-17T12:00:00+01:00,226.02,EUR,499.800,MWh
Power,Intraday,Continuous,NL,ID3,H,2021-11-17T12:00:00+01:00,2021-11-17T13:00:00+01:00,207.03,EUR,612.400,MWh
Power,Intraday,Continuous,NL,ID3,H,2021-11-17T13:00:00+01:00,2021-11-17T14:00:00+01:00,194.02,EUR,657.900,MWh
Power,Intraday,Continuous,NL,ID3,H,2021-11-17T14:00:00+01:00,2021-11-17T15:00:00+01:00,177.01,EUR,470.400,MWh
Power,Intraday,Continuous,NL,ID3,H,2021-11-17T15:00:00+01:00,2021-11-17T16:00:00+01:00,195.92,EUR,646.100,MWh
Power,Intraday,Continuous,NL,ID3,H,2021-11-17T16:00:00+01:00,2021-11-17T17:00:00+01:00,218.42,EUR,611.200,MWh
Power,Intraday,Continuous,NL,ID3,H,2021-11-17T17:00:00+01:00,2021-11-17T18:00:00+01:00,237.74,EUR,224.100,MWh
Power,Intraday,Continuous,NL,ID3,H,2021-11-17T18:00:00+01:00,2021-11-17T19:00:00+01:00,185.97,EUR,284.700,MWh
Power,Intraday,Continuous,NL,ID3,H,2021-11-17T19:00:00+01:00,2021-11-17T20:00:00+01:00,194.29,EUR,224.900,MWh
Power,Intraday,Continuous,NL,ID3,H,2021-11-17T20:00:00+01:00,2021-11-17T21:00:00+01:00,206.54,EUR,162.500,MWh
Power,Intraday,Continuous,NL,ID3,H,2021-11-17T21:00:00+01:00,2021-11-17T22:00:00+01:00,208.75,EUR,174.800,MWh
Power,Intraday,Continuous,NL,ID3,H,2021-11-17T22:00:00+01:00,2021-11-17T23:00:00+01:00,188.19,EUR,322.800,MWh
Power,Intraday,Continuous,NL,ID3,H,2021-11-17T23:00:00+01:00,2021-11-18T00:00:00+01:00,173.46,EUR,194.700,MWh
Power,Intraday,Continuous,NL,IDFULL,HH,2021-11-17T00:00:00+01:00,2021-11-17T00:30:00+01:00,187.35,EUR,,MWh
Power,Intraday,Continuous,NL,IDFULL,HH,2021-11-17T00:30:00+01:00,2021-11-17T01:00:00+01:00,187.35,EUR,,MWh
Power,Intraday,Continuous,NL,IDFULL,HH,2021-11-17T01:00:00+01:00,2021-11-17T01:30:00+01:00,201.21,EUR,,MWh
Power,Intraday,Continuous,NL,IDFULL,HH,2021-11-17T01:30:00+01:00,2021-11-17T02:00:00+01:00,201.21,EUR,,MWh
Power,Intraday,Continuous,NL,IDFULL,HH,2021-11-17T02:00:00+01:00,2021-11-17T02:30:00+01:00,179.97,EUR,,MWh
Power,Intraday,Continuous,NL,IDFULL,HH,2021-11-17T02:30:00+01:00,2021-11-17T03:00:00+01:00,179.97,EUR,,MWh
Power,Intraday,Continuous,NL,IDFULL,HH,2021-11-17T03:00:00+01:00,2021-11-17T03:30:00+01:00,183.07,EUR,,MWh
Power,Intraday,Continuous,NL,IDFULL,HH,2021-11-17T03:30:00+01:00,2021-11-17T04:00:00+01:00,183.07,EUR,,MWh
Power,Intraday,Continuous,NL,IDFULL,HH,2021-11-17T04:00:00+01:00,2021-11-17T04:30:00+01:00,172.70,EUR,,MWh
Power,Intraday,Continuous,NL,IDFULL,HH,2021-11-17T04:30:00+01:00,2021-11-17T05:00:00+01:00,172.70,EUR,,MWh
Power,Intraday,Continuous,NL,IDFULL,HH,2021-11-17T05:00:00+01:00,2021-11-17T05:30:00+01:00,172.37,EUR,,MWh
Power,Intraday,Continuous,NL,IDFULL,HH,2021-11-17T05:30:00+01:00,2021-11-17T06:00:00+01:00,172.37,EUR,,MWh
Power,Intraday,Continuous,NL,IDFULL,HH,2021-11-17T06:00:00+01:00,2021-11-17T06:30:00+01:00,189.04,EUR,,MWh
Power,Intraday,Continuous,NL,IDFULL,HH,2021-11-17T06:30:00+01:00,2021-11-17T07:00:00+01:00,189.04,EUR,,MWh
Power,Intraday,Continuous,NL,IDFULL,HH,2021-11-17T07:00:00+01:00,2021-11-17T07:30:00+01:00,227.35,EUR,,MWh
Power,Intraday,Continuous,NL,IDFULL,HH,2021-11-17T07:30:00+01:00,2021-11-17T08:00:00+01:00,227.35,EUR,,MWh
Power,Intraday,Continuous,NL,IDFULL,HH,2021-11-17T08:00:00+01:00,2021-11-17T08:30:00+01:00,218.21,EUR,,MWh
Power,Intraday,Continuous,NL,IDFULL,HH,2021-11-17T08:30:00+01:00,2021-11-17T09:00:00+01:00,218.21,EUR,,MWh
Power,Intraday,Continuous,NL,IDFULL,HH,2021-11-17T09:00:00+01:00,2021-11-17T09:30:00+01:00,230.10,EUR,,MWh
Power,Intraday,Continuous,NL,IDFULL,HH,2021-11-17T09:30:00+01:00,2021-11-17T10:00:00+01:00,230.10,EUR,,MWh
Power,Intraday,Continuous,NL,IDFULL,HH,2021-11-17T10:00:00+01:00,2021-11-17T10:30:00+01:00,207.51,EUR,,MWh
Power,Intraday,Continuous,NL,IDFULL,HH,2021-11-17T10:30:00+01:00,2021-11-17T11:00:00+01:00,207.51,EUR,,MWh
Power,Intraday,Continuous,NL,IDFULL,HH,2021-11-17T11:00:00+01:00,2021-11-17T11:30:00+01:00,223.73,EUR,,MWh
Power,Intraday,Continuous,NL,IDFULL,HH,2021-11-17T11:30:00+01:00,2021-11-17T12:00:00+01:00,223.73,EUR,,MWh
Power,Intraday,Continuous,NL,IDFULL,HH,2021-11-17T12:00:00+01:00,2021-11-17T12:30:00+01:00,205.09,EUR,,MWh
Power,Intraday,Continuous,NL,IDFULL,HH,2021-11-17T12:30:00+01:00,2021-11-17T13:00:00+01:00,205.09,EUR,,MWh
Power,Intraday,Continuous,NL,IDFULL,HH,2021-11-17T13:00:00+01:00,2021-11-17T13:30:00+01:00,194.60,EUR,,MWh
Power,Intraday,Continuous,NL,IDFULL,HH,2021-11-17T13:30:00+01:00,2021-11-17T14:00:00+01:00,194.60,EUR,,MWh
Power,Intraday,Continuous,NL,IDFULL,HH,2021-11-17T14:00:00+01:00,2021-11-17T14:30:00+01:00,180.42,EUR,,MWh
Power,Intraday,Continuous,NL,IDFULL,HH,2021-11-17T14:30:00+01:00,2021-11-17T15:00:00+01:00,180.42,EUR,,MWh
Power,Intraday,Continuous,NL,IDFULL,HH,2021-11-17T15:00:00+01:00,2021-11-17T15:30:00+01:00,199.40,EUR,,MWh
Power,Intraday,Continuous,NL,IDFULL,HH,2021-11-17T15:30:00+01:00,2021-11-17T16:00:00+01:00,199.40,EUR,,MWh
Power,Intraday,Continuous,NL,IDFULL,HH,2021-11-17T16:00:00+01:00,2021-11-17T16:30:00+01:00,223.27,EUR,,MWh
Power,Intraday,Continuous,NL,IDFULL,HH,2021-11-17T16:30:00+01:00,2021-11-17T17:00:00+01:00,223.27,EUR,,MWh
Power,Intraday,Continuous,NL,IDFULL,HH,2021-11-17T17:00:00+01:00,2021-11-17T17:30:00+01:00,236.97,EUR,,MWh
Power,Intraday,Continuous,NL,IDFULL,HH,2021-11-17T17:30:00+01:00,2021-11-17T18:00:00+01:00,236.97,EUR,,MWh
Power,Intraday,Continuous,NL,IDFULL,HH,2021-11-17T18:00:00+01:00,2021-11-17T18:30:00+01:00,188.64,EUR,,MWh
Power,Intraday,Continuous,NL,IDFULL,HH,2021-11-17T18:30:00+01:00,2021-11-17T19:00:00+01:00,188.64,EUR,,MWh
Power,Intraday,Continuous,NL,IDFULL,HH,2021-11-17T19:00:00+01:00,2021-11-17T19:30:00+01:00,194.42,EUR,,MWh
Power,Intraday,Continuous,NL,IDFULL,HH,2021-11-17T19:30:00+01:00,2021-11-17T20:00:00+01:00,194.42,EUR,,MWh
Power,Intraday,Continuous,NL,IDFULL,HH,2021-11-17T20:00:00+01:00,2021-11-17T20:30:00+01:00,204.62,EUR,,MWh
Power,Intraday,Continuous,NL,IDFULL,HH,2021-11-17T20:30:00+01:00,2021-11-17T21:00:00+01:00,204.62,EUR,,MWh
Power,Intraday,Continuous,NL,IDFULL,HH,2021-11-17T21:00:00+01:00,2021-11-17T21:30:00+01:00,208.96,EUR,,MWh
Power,Intraday,Continuous,NL,IDFULL,HH,2021-11-17T21:30:00+01:00,2021-11-17T22:00:00+01:00,208.96,EUR,,MWh
Power,Intraday,Continuous,NL,IDFULL,HH,2021-11-17T22:00:00+01:00,2021-11-17T22:30:00+01:00,188.76,EUR,,MWh
Power,Intraday,Continuous,NL,IDFULL,HH,2021-11-17T22:30:00+01:00,2021-11-17T23:00:00+01:00,188.76,EUR,,MWh
Power,Intraday,Continuous,NL,IDFULL,HH,2021-11-17T23:00:00+01:00,2021-11-17T23:30:00+01:00,174.42,EUR,,MWh
Power,Intraday,Continuous,NL,IDFULL,HH,2021-11-17T23:30:00+01:00,2021-11-18T00:00:00+01:00,174.42,EUR,,MWh
Power,Intraday,Continuous,NL,ID1,HH,2021-11-17T00:00:00+01:00,2021-11-17T00:30:00+01:00,187.35,EUR,,MWh
Power,Intraday,Continuous,NL,ID1,HH,2021-11-17T00:30:00+01:00,2021-11-17T01:00:00+01:00,187.35,EUR,,MWh
Power,Intraday,Continuous,NL,ID1,HH,2021-11-17T01:00:00+01:00,2021-11-17T01:30:00+01:00,201.21,EUR,,MWh
Power,Intraday,Continuous,NL,ID1,HH,2021-11-17T01:30:00+01:00,2021-11-17T02:00:00+01:00,201.21,EUR,,MWh
Power,Intraday,Continuous,NL,ID1,HH,2021-11-17T02:00:00+01:00,2021-11-17T02:30:00+01:00,179.97,EUR,,MWh
Power,Intraday,Continuous,NL,ID1,HH,2021-11-17T02:30:00+01:00,2021-11-17T03:00:00+01:00,179.97,EUR,,MWh
Power,Intraday,Continuous,NL,ID1,HH,2021-11-17T03:00:00+01:00,2021-11-17T03:30:00+01:00,183.07,EUR,,MWh
Power,Intraday,Continuous,NL,ID1,HH,2021-11-17T03:30:00+01:00,2021-11-17T04:00:00+01:00,183.07,EUR,,MWh
Power,Intraday,Continuous,NL,ID1,HH,2021-11-17T04:00:00+01:00,2021-11-17T04:30:00+01:00,172.70,EUR,,MWh
Power,Intraday,Continuous,NL,ID1,HH,2021-11-17T04:30:00+01:00,2021-11-17T05:00:00+01:00,172.70,EUR,,MWh
Power,Intraday,Continuous,NL,ID1,HH,2021-11-17T05:00:00+01:00,2021-11-17T05:30:00+01:00,172.37,EUR,,MWh
Power,Intraday,Continuous,NL,ID1,HH,2021-11-17T05:30:00+01:00,2021-11-17T06:00:00+01:00,172.37,EUR,,MWh
Power,Intraday,Continuous,NL,ID1,HH,2021-11-17T06:00:00+01:00,2021-11-17T06:30:00+01:00,189.04,EUR,,MWh
Power,Intraday,Continuous,NL,ID1,HH,2021-11-17T06:30:00+01:00,2021-11-17T07:00:00+01:00,189.04,EUR,,MWh
Power,Intraday,Continuous,NL,ID1,HH,2021-11-17T07:00:00+01:00,2021-11-17T07:30:00+01:00,227.35,EUR,,MWh
Power,Intraday,Continuous,NL,ID1,HH,2021-11-17T07:30:00+01:00,2021-11-17T08:00:00+01:00,227.35,EUR,,MWh
Power,Intraday,Continuous,NL,ID1,HH,2021-11-17T08:00:00+01:00,2021-11-17T08:30:00+01:00,218.21,EUR,,MWh
Power,Intraday,Continuous,NL,ID1,HH,2021-11-17T08:30:00+01:00,2021-11-17T09:00:00+01:00,218.21,EUR,,MWh
Power,Intraday,Continuous,NL,ID1,HH,2021-11-17T09:00:00+01:00,2021-11-17T09:30:00+01:00,230.10,EUR,,MWh
Power,Intraday,Continuous,NL,ID1,HH,2021-11-17T09:30:00+01:00,2021-11-17T10:00:00+01:00,230.10,EUR,,MWh
Power,Intraday,Continuous,NL,ID1,HH,2021-11-17T10:00:00+01:00,2021-11-17T10:30:00+01:00,207.51,EUR,,MWh
Power,Intraday,Continuous,NL,ID1,HH,2021-11-17T10:30:00+01:00,2021-11-17T11:00:00+01:00,207.51,EUR,,MWh
Power,Intraday,Continuous,NL,ID1,HH,2021-11-17T11:00:00+01:00,2021-11-17T11:30:00+01:00,223.73,EUR,,MWh
Power,Intraday,Continuous,NL,ID1,HH,2021-11-17T11:30:00+01:00,2021-11-17T12:00:00+01:00,223.73,EUR,,MWh
Power,Intraday,Continuous,NL,ID1,HH,2021-11-17T12:00:00+01:00,2021-11-17T12:30:00+01:00,205.09,EUR,,MWh
Power,Intraday,Continuous,NL,ID1,HH,2021-11-17T12:30:00+01:00,2021-11-17T13:00:00+01:00,205.09,EUR,,MWh
Power,Intraday,Continuous,NL,ID1,HH,2021-11-17T13:00:00+01:00,2021-11-17T13:30:00+01:00,194.60,EUR,,MWh
Power,Intraday,Continuous,NL,ID1,HH,2021-11-17T13:30:00+01:00,2021-11-17T14:00:00+01:00,194.60,EUR,,MWh
Power,Intraday,Continuous,NL,ID1,HH,2021-11-17T14:00:00+01:00,2021-11-17T14:30:00+01:00,180.42,EUR,,MWh
Power,Intraday,Continuous,NL,ID1,HH,2021-11-17T14:30:00+01:00,2021-11-17T15:00:00+01:00,180.42,EUR,,MWh
Power,Intraday,Continuous,NL,ID1,HH,2021-11-17T15:00:00+01:00,2021-11-17T15:30:00+01:00,199.40,EUR,,MWh
Power,Intraday,Continuous,NL,ID1,HH,2021-11-17T15:30:00+01:00,2021-11-17T16:00:00+01:00,199.40,EUR,,MWh
Power,Intraday,Continuous,NL,ID1,HH,2021-11-17T16:00:00+01:00,2021-11-17T16:30:00+01:00,223.27,EUR,,MWh
Power,Intraday,Continuous,NL,ID1,HH,2021-11-17T16:30:00+01:00,2021-11-17T17:00:00+01:00,223.27,EUR,,MWh
Power,Intraday,Continuous,NL,ID1,HH,2021-11-17T17:00:00+01:00,2021-11-17T17:30:00+01:00,236.97,EUR,,MWh
Power,Intraday,Continuous,NL,ID1,HH,2021-11-17T17:30:00+01:00,2021-11-17T18:00:00+01:00,236.97,EUR,,MWh
Power,Intraday,Continuous,NL,ID1,HH,2021-11-17T18:00:00+01:00,2021-11-17T18:30:00+01:00,188.64,EUR,,MWh
Power,Intraday,Continuous,NL,ID1,HH,2021-11-17T18:30:00+01:00,2021-11-17T19:00:00+01:00,188.64,EUR,,MWh
Power,Intraday,Continuous,NL,ID1,HH,2021-11-17T19:00:00+01:00,2021-11-17T19:30:00+01:00,194.42,EUR,,MWh
Power,Intraday,Continuous,NL,ID1,HH,2021-11-17T19:30:00+01:00,2021-11-17T20:00:00+01:00,194.42,EUR,,MWh
Power,Intraday,Continuous,NL,ID1,HH,2021-11-17T20:00:00+01:00,2021-11-17T20:30:00+01:00,204.62,EUR,,MWh
Power,Intraday,Continuous,NL,ID1,HH,2021-11-17T20:30:00+01:00,2021-11-17T21:00:00+01:00,204.62,EUR,,MWh
Power,Intraday,Continuous,NL,ID1,HH,2021-11-17T21:00:00+01:00,2021-11-17T21:30:00+01:00,208.96,EUR,,MWh
Power,Intraday,Continuous,NL,ID1,HH,2021-11-17T21:30:00+01:00,2021-11-17T22:00:00+01:00,208.96,EUR,,MWh
Power,Intraday,Continuous,NL,ID1,HH,2021-11-17T22:00:00+01:00,2021-11-17T22:30:00+01:00,188.76,EUR,,MWh
Power,Intraday,Continuous,NL,ID1,HH,2021-11-17T22:30:00+01:00,2021-11-17T23:00:00+01:00,188.76,EUR,,MWh
Power,Intraday,Continuous,NL,ID1,HH,2021-11-17T23:00:00+01:00,2021-11-17T23:30:00+01:00,174.42,EUR,,MWh
Power,Intraday,Continuous,NL,ID1,HH,2021-11-17T23:30:00+01:00,2021-11-18T00:00:00+01:00,174.42,EUR,,MWh
Power,Intraday,Continuous,NL,ID3,HH,2021-11-17T00:00:00+01:00,2021-11-17T00:30:00+01:00,187.35,EUR,,MWh
Power,Intraday,Continuous,NL,ID3,HH,2021-11-17T00:30:00+01:00,2021-11-17T01:00:00+01:00,187.35,EUR,,MWh
Power,Intraday,Continuous,NL,ID3,HH,2021-11-17T01:00:00+01:00,2021-11-17T01:30:00+01:00,201.21,EUR,,MWh
Power,Intraday,Continuous,NL,ID3,HH,2021-11-17T01:30:00+01:00,2021-11-17T02:00:00+01:00,201.21,EUR,,MWh
Power,Intraday,Continuous,NL,ID3,HH,2021-11-17T02:00:00+01:00,2021-11-17T02:30:00+01:00,179.97,EUR,,MWh
Power,Intraday,Continuous,NL,ID3,HH,2021-11-17T02:30:00+01:00,2021-11-17T03:00:00+01:00,179.97,EUR,,MWh
Power,Intraday,Continuous,NL,ID3,HH,2021-11-17T03:00:00+01:00,2021-11-17T03:30:00+01:00,183.07,EUR,,MWh
Power,Intraday,Continuous,NL,ID3,HH,2021-11-17T03:30:00+01:00,2021-11-17T04:00:00+01:00,183.07,EUR,,MWh
Power,Intraday,Continuous,NL,ID3,HH,2021-11-17T04:00:00+01:00,2021-11-17T04:30:00+01:00,172.70,EUR,,MWh
Power,Intraday,Continuous,NL,ID3,HH,2021-11-17T04:30:00+01:00,2021-11-17T05:00:00+01:00,172.70,EUR,,MWh
Power,Intraday,Continuous,NL,ID3,HH,2021-11-17T05:00:00+01:00,2021-11-17T05:30:00+01:00,172.37,EUR,,MWh
Power,Intraday,Continuous,NL,ID3,HH,2021-11-17T05:30:00+01:00,2021-11-17T06:00:00+01:00,172.37,EUR,,MWh
Power,Intraday,Continuous,NL,ID3,HH,2021-11-17T06:00:00+01:00,2021-11-17T06:30:00+01:00,189.04,EUR,,MWh
Power,Intraday,Continuous,NL,ID3,HH,2021-11-17T06:30:00+01:00,2021-11-17T07:00:00+01:00,189.04,EUR,,MWh
Power,Intraday,Continuous,NL,ID3,HH,2021-11-17T07:00:00+01:00,2021-11-17T07:30:00+01:00,227.35,EUR,,MWh
Power,Intraday,Continuous,NL,ID3,HH,2021-11-17T07:30:00+01:00,2021-11-17T08:00:00+01:00,227.35,EUR,,MWh
Power,Intraday,Continuous,NL,ID3,HH,2021-11-17T08:00:00+01:00,2021-11-17T08:30:00+01:00,218.21,EUR,,MWh
Power,Intraday,Continuous,NL,ID3,HH,2021-11-17T08:30:00+01:00,2021-11-17T09:00:00+01:00,218.21,EUR,,MWh
Power,Intraday,Continuous,NL,ID3,HH,2021-11-17T09:00:00+01:00,2021-11-17T09:30:00+01:00,230.10,EUR,,MWh
Power,Intraday,Continuous,NL,ID3,HH,2021-11-17T09:30:00+01:00,2021-11-17T10:00:00+01:00,230.10,EUR,,MWh
Power,Intraday,Continuous,NL,ID3,HH,2021-11-17T10:00:00+01:00,2021-11-17T10:30:00+01:00,207.51,EUR,,MWh
Power,Intraday,Continuous,NL,ID3,HH,2021-11-17T10:30:00+01:00,2021-11-17T11:00:00+01:00,207.51,EUR,,MWh
Power,Intraday,Continuous,NL,ID3,HH,2021-11-17T11:00:00+01:00,2021-11-17T11:30:00+01:00,223.73,EUR,,MWh
Power,Intraday,Continuous,NL,ID3,HH,2021-11-17T11:30:00+01:00,2021-11-17T12:00:00+01:00,223.73,EUR,,MWh
Power,Intraday,Continuous,NL,ID3,HH,2021-11-17T12:00:00+01:00,2021-11-17T12:30:00+01:00,205.09,EUR,,MWh
Power,Intraday,Continuous,NL,ID3,HH,2021-11-17T12:30:00+01:00,2021-11-17T13:00:00+01:00,205.09,EUR,,MWh
Power,Intraday,Continuous,NL,ID3,HH,2021-11-17T13:00:00+01:00,2021-11-17T13:30:00+01:00,194.60,EUR,,MWh
Power,Intraday,Continuous,NL,ID3,HH,2021-11-17T13:30:00+01:00,2021-11-17T14:00:00+01:00,194.60,EUR,,MWh
Power,Intraday,Continuous,NL,ID3,HH,2021-11-17T14:00:00+01:00,2021-11-17T14:30:00+01:00,180.42,EUR,,MWh
Power,Intraday,Continuous,NL,ID3,HH,2021-11-17T14:30:00+01:00,2021-11-17T15:00:00+01:00,180.42,EUR,,MWh
Power,Intraday,Continuous,NL,ID3,HH,2021-11-17T15:00:00+01:00,2021-11-17T15:30:00+01:00,199.40,EUR,,MWh
Power,Intraday,Continuous,NL,ID3,HH,2021-11-17T15:30:00+01:00,2021-11-17T16:00:00+01:00,199.40,EUR,,MWh
Power,Intraday,Continuous,NL,ID3,HH,2021-11-17T16:00:00+01:00,2021-11-17T16:30:00+01:00,223.27,EUR,,MWh
Power,Intraday,Continuous,NL,ID3,HH,2021-11-17T16:30:00+01:00,2021-11-17T17:00:00+01:00,223.27,EUR,,MWh
Power,Intraday,Continuous,NL,ID3,HH,2021-11-17T17:00:00+01:00,2021-11-17T17:30:00+01:00,236.97,EUR,,MWh
Power,Intraday,Continuous,NL,ID3,HH,2021-11-17T17:30:00+01:00,2021-11-17T18:00:00+01:00,236.97,EUR,,MWh
Power,Intraday,Continuous,NL,ID3,HH,2021-11-17T18:00:00+01:00,2021-11-17T18:30:00+01:00,188.64,EUR,,MWh
Power,Intraday,Continuous,NL,ID3,HH,2021-11-17T18:30:00+01:00,2021-11-17T19:00:00+01:00,188.64,EUR,,MWh
Power,Intraday,Continuous,NL,ID3,HH,2021-11-17T19:00:00+01:00,2021-11-17T19:30:00+01:00,194.42,EUR,,MWh
Power,Intraday,Continuous,NL,ID3,HH,2021-11-17T19:30:00+01:00,2021-11-17T20:00:00+01:00,194.42,EUR,,MWh
Power,Intraday,Continuous,NL,ID3,HH,2021-11-17T20:00:00+01:00,2021-11-17T20:30:00+01:00,204.62,EUR,,MWh
Power,Intraday,Continuous,NL,ID3,HH,2021-11-17T20:30:00+01:00,2021-11-17T21:00:00+01:00,204.62,EUR,,MWh
Power,Intraday,Continuous,NL,ID3,HH,2021-11-17T21:00:00+01:00,2021-11-17T21:30:00+01:00,208.96,EUR,,MWh
Power,Intraday,Continuous,NL,ID3,HH,2021-11-17T21:30:00+01:00,2021-11-17T22:00:00+01:00,208.96,EUR,,MWh
Power,Intraday,Continuous,NL,ID3,HH,2021-11-17T22:00:00+01:00,2021-11-17T22:30:00+01:00,188.76,EUR,,MWh
Power,Intraday,Continuous,NL,ID3,HH,2021-11-17T22:30:00+01:00,2021-11-17T23:00:00+01:00,188.76,EUR,,MWh
Power,Intraday,Continuous,NL,ID3,HH,2021-11-17T23:00:00+01:00,2021-11-17T23:30:00+01:00,174.42,EUR,,MWh
Power,Intraday,Continuous,NL,ID3,HH,2021-11-17T23:30:00+01:00,2021-11-18T00:00:00+01:00,174.42,EUR,,MWh
Power,Intraday,Continuous,NL,IDFULL,QH,2021-11-17T00:00:00+01:00,2021-11-17T00:15:00+01:00,187.35,EUR,,MWh
Power,Intraday,Continuous,NL,IDFULL,QH,2021-11-17T00:15:00+01:00,2021-11-17T00:30:00+01:00,187.35,EUR,,MWh
Power,Intraday,Continuous,NL,IDFULL,QH,2021-11-17T00:30:00+01:00,2021-11-17T00:45:00+01:00,187.35,EUR,,MWh
Power,Intraday,Continuous,NL,IDFULL,QH,2021-11-17T00:45:00+01:00,2021-11-17T01:00:00+01:00,187.35,EUR,,MWh
Power,Intraday,Continuous,NL,IDFULL,QH,2021-11-17T01:00:00+01:00,2021-11-17T01:15:00+01:00,201.21,EUR,,MWh
Power,Intraday,Continuous,NL,IDFULL,QH,2021-11-17T01:15:00+01:00,2021-11-17T01:30:00+01:00,201.21,EUR,,MWh
Power,Intraday,Continuous,NL,IDFULL,QH,2021-11-17T01:30:00+01:00,2021-11-17T01:45:00+01:00,201.21,EUR,,MWh
Power,Intraday,Continuous,NL,IDFULL,QH,2021-11-17T01:45:00+01:00,2021-11-17T02:00:00+01:00,201.21,EUR,,MWh
Power,Intraday,Continuous,NL,IDFULL,QH,2021-11-17T02:00:00+01:00,2021-11-17T02:15:00+01:00,186.77,EUR,,MWh
Power,Intraday,Continuous,NL,IDFULL,QH,2021-11-17T02:15:00+01:00,2021-11-17T02:30:00+01:00,186.77,EUR,,MWh
Power,Intraday,Continuous,NL,IDFULL,QH,2021-11-17T02:30:00+01:00,2021-11-17T02:45:00+01:00,186.77,EUR,,MWh
Power,Intraday,Continuous,NL,IDFULL,QH,2021-11-17T02:45:00+01:00,2021-11-17T03:00:00+01:00,159.58,EUR,4.330,MWh
Power,Intraday,Continuous,NL,IDFULL,QH,2021-11-17T03:00:00+01:00,2021-11-17T03:15:00+01:00,183.07,EUR,,MWh
Power,Intraday,Continuous,NL,IDFULL,QH,2021-11-17T03:15:00+01:00,2021-11-17T03:30:00+01:00,183.07,EUR,,MWh
Power,Intraday,Continuous,NL,IDFULL,QH,2021-11-17T03:30:00+01:00,2021-11-17T03:45:00+01:00,183.07,EUR,,MWh
Power,Intraday,Continuous,NL,IDFULL,QH,2021-11-17T03:45:00+01:00,2021-11-17T04:00:00+01:00,183.07,EUR,,MWh
Power,Intraday,Continuous,NL,IDFULL,QH,2021-11-17T04:00:00+01:00,2021-11-17T04:15:00+01:00,172.70,EUR,,MWh
Power,Intraday,Continuous,NL,IDFULL,QH,2021-11-17T04:15:00+01:00,2021-11-17T04:30:00+01:00,172.70,EUR,,MWh
Power,Intraday,Continuous,NL,IDFULL,QH,2021-11-17T04:30:00+01:00,2021-11-17T04:45:00+01:00,172.70,EUR,,MWh
Power,Intraday,Continuous,NL,IDFULL,QH,2021-11-17T04:45:00+01:00,2021-11-17T05:00:00+01:00,172.70,EUR,,MWh
Power,Intraday,Continuous,NL,IDFULL,QH,2021-11-17T05:00:00+01:00,2021-11-17T05:15:00+01:00,152.23,EUR,5.150,MWh
Power,Intraday,Continuous,NL,IDFULL,QH,2021-11-17T05:15:00+01:00,2021-11-17T05:30:00+01:00,160.17,EUR,24.550,MWh
Power,Intraday,Continuous,NL,IDFULL,QH,2021-11-17T05:30:00+01:00,2021-11-17T05:45:00+01:00,165.38,EUR,14.830,MWh
Power,Intraday,Continuous,NL,IDFULL,QH,2021-11-17T05:45:00+01:00,2021-11-17T06:00:00+01:00,189.46,EUR,33.150,MWh
Power,Intraday,Continuous,NL,IDFULL,QH,2021-11-17T06:00:00+01:00,2021-11-17T06:15:00+01:00,102.59,EUR,42.900,MWh
Power,Intraday,Continuous,NL,IDFULL,QH,2021-11-17T06:15:00+01:00,2021-11-17T06:30:00+01:00,392.44,EUR,,MWh
Power,Intraday,Continuous,NL,IDFULL,QH,2021-11-17T06:30:00+01:00,2021-11-17T06:45:00+01:00,120.01,EUR,5.530,MWh
Power,Intraday,Continuous,NL,IDFULL,QH,2021-11-17T06:45:00+01:00,2021-11-17T07:00:00+01:00,141.12,EUR,4.650,MWh
Power,Intraday,Continuous,NL,IDFULL,QH,2021-11-17T07:00:00+01:00,2021-11-17T07:15:00+01:00,181.50,EUR,79.500,MWh
Power,Intraday,Continuous,NL,IDFULL,QH,2021-11-17T07:15:00+01:00,2021-11-17T07:30:00+01:00,215.83,EUR,56.370,MWh
Power,Intraday,Continuous,NL,IDFULL,QH,2021-11-17T07:30:00+01:00,2021-11-17T07:45:00+01:00,237.70,EUR,60.500,MWh
Power,Intraday,Continuous,NL,IDFULL,QH,2021-11-17T07:45:00+01:00,2021-11-17T08:00:00+01:00,259.35,EUR,57.730,MWh
Power,Intraday,Continuous,NL,IDFULL,QH,2021-11-17T08:00:00+01:00,2021-11-17T08:15:00+01:00,211.20,EUR,,MWh
Power,Intraday,Continuous,NL,IDFULL,QH,2021-11-17T08:15:00+01:00,2021-11-17T08:30:00+01:00,211.20,EUR,,MWh
Power,Intraday,Continuous,NL,IDFULL,QH,2021-11-17T08:30:00+01:00,2021-11-17T08:45:00+01:00,211.20,EUR,,MWh
Power,Intraday,Continuous,NL,IDFULL,QH,2021-11-17T08:45:00+01:00,2021-11-17T09:00:00+01:00,239.25,EUR,18.130,MWh
Power,Intraday,Continuous,NL,IDFULL,QH,2021-11-17T09:00:00+01:00,2021-11-17T09:15:00+01:00,230.10,EUR,,MWh
Power,Intraday,Continuous,NL,IDFULL,QH,2021-11-17T09:15:00+01:00,2021-11-17T09:30:00+01:00,230.10,EUR,,MWh
Power,Intraday,Continuous,NL,IDFULL,QH,2021-11-17T09:30:00+01:00,2021-11-17T09:45:00+01:00,230.10,EUR,,MWh
Power,Intraday,Continuous,NL,IDFULL,QH,2021-11-17T09:45:00+01:00,2021-11-17T10:00:00+01:00,230.10,EUR,,MWh
Power,Intraday,Continuous,NL,IDFULL,QH,2021-11-17T10:00:00+01:00,2021-11-17T10:15:00+01:00,175.00,EUR,3.750,MWh
Power,Intraday,Continuous,NL,IDFULL,QH,2021-11-17T10:15:00+01:00,2021-11-17T10:30:00+01:00,160.12,EUR,8.900,MWh
Power,Intraday,Continuous,NL,IDFULL,QH,2021-11-17T10:30:00+01:00,2021-11-17T10:45:00+01:00,163.20,EUR,14.250,MWh
Power,Intraday,Continuous,NL,IDFULL,QH,2021-11-17T10:45:00+01:00,2021-11-17T11:00:00+01:00,161.11,EUR,31.630,MWh
Power,Intraday,Continuous,NL,IDFULL,QH,2021-11-17T11:00:00+01:00,2021-11-17T11:15:00+01:00,263.87,EUR,41.700,MWh
Power,Intraday,Continuous,NL,IDFULL,QH,2021-11-17T11:15:00+01:00,2021-11-17T11:30:00+01:00,185.00,EUR,5.950,MWh
Power,Intraday,Continuous,NL,IDFULL,QH,2021-11-17T11:30:00+01:00,2021-11-17T11:45:00+01:00,204.61,EUR,13.750,MWh
Power,Intraday,Continuous,NL,IDFULL,QH,2021-11-17T11:45:00+01:00,2021-11-17T12:00:00+01:00,194.80,EUR,23.630,MWh
Power,Intraday,Continuous,NL,IDFULL,QH,2021-11-17T12:00:00+01:00,2021-11-17T12:15:00+01:00,301.95,EUR,38.150,MWh
Power,Intraday,Continuous,NL,IDFULL,QH,2021-11-17T12:15:00+01:00,2021-11-17T12:30:00+01:00,264.84,EUR,12.580,MWh
Power,Intraday,Continuous,NL,IDFULL,QH,2021-11-17T12:30:00+01:00,2021-11-17T12:45:00+01:00,182.31,EUR,21.200,MWh
Power,Intraday,Continuous,NL,IDFULL,QH,2021-11-17T12:45:00+01:00,2021-11-17T13:00:00+01:00,170.16,EUR,24.650,MWh
Power,Intraday,Continuous,NL,IDFULL,QH,2021-11-17T13:00:00+01:00,2021-11-17T13:15:00+01:00,214.11,EUR,5.000,MWh
Power,Intraday,Continuous,NL,IDFULL,QH,2021-11-17T13:15:00+01:00,2021-11-17T13:30:00+01:00,147.08,EUR,12.500,MWh
Power,Intraday,Continuous,NL,IDFULL,QH,2021-11-17T13:30:00+01:00,2021-11-17T13:45:00+01:00,155.11,EUR,14.150,MWh
Power,Intraday,Continuous,NL,IDFULL,QH,2021-11-17T13:45:00+01:00,2021-11-17T14:00:00+01:00,150.92,EUR,12.130,MWh
Power,Intraday,Continuous,NL,IDFULL,QH,2021-11-17T14:00:00+01:00,2021-11-17T14:15:00+01:00,145.00,EUR,12.500,MWh
Power,Intraday,Continuous,NL,IDFULL,QH,2021-11-17T14:15:00+01:00,2021-11-17T14:30:00+01:00,145.00,EUR,12.500,MWh
Power,Intraday,Continuous,NL,IDFULL,QH,2021-11-17T14:30:00+01:00,2021-11-17T14:45:00+01:00,172.12,EUR,8.830,MWh
Power,Intraday,Continuous,NL,IDFULL,QH,2021-11-17T14:45:00+01:00,2021-11-17T15:00:00+01:00,201.51,EUR,23.080,MWh
Power,Intraday,Continuous,NL,IDFULL,QH,2021-11-17T15:00:00+01:00,2021-11-17T15:15:00+01:00,151.92,EUR,12.500,MWh
Power,Intraday,Continuous,NL,IDFULL,QH,2021-11-17T15:15:00+01:00,2021-11-17T15:30:00+01:00,161.55,EUR,9.750,MWh
Power,Intraday,Continuous,NL,IDFULL,QH,2021-11-17T15:30:00+01:00,2021-11-17T15:45:00+01:00,242.07,EUR,,MWh
Power,Intraday,Continuous,NL,IDFULL,QH,2021-11-17T15:45:00+01:00,2021-11-17T16:00:00+01:00,242.07,EUR,,MWh
Power,Intraday,Continuous,NL,IDFULL,QH,2021-11-17T16:00:00+01:00,2021-11-17T16:15:00+01:00,178.46,EUR,58.300,MWh
Power,Intraday,Continuous,NL,IDFULL,QH,2021-11-17T16:15:00+01:00,2021-11-17T16:30:00+01:00,219.79,EUR,40.250,MWh
Power,Intraday,Continuous,NL,IDFULL,QH,2021-11-17T16:30:00+01:00,2021-11-17T16:45:00+01:00,234.43,EUR,59.030,MWh
Power,Intraday,Continuous,NL,IDFULL,QH,2021-11-17T16:45:00+01:00,2021-11-17T17:00:00+01:00,279.62,EUR,48.880,MWh
Power,Intraday,Continuous,NL,IDFULL,QH,2021-11-17T17:00:00+01:00,2021-11-17T17:15:00+01:00,240.19,EUR,,MWh
Power,Intraday,Continuous,NL,IDFULL,QH,2021-11-17T17:15:00+01:00,2021-11-17T17:30:00+01:00,227.30,EUR,4.250,MWh
Power,Intraday,Continuous,NL,IDFULL,QH,2021-11-17T17:30:00+01:00,2021-11-17T17:45:00+01:00,240.19,EUR,,MWh
Power,Intraday,Continuous,NL,IDFULL,QH,2021-11-17T17:45:00+01:00,2021-11-17T18:00:00+01:00,240.19,EUR,,MWh
Power,Intraday,Continuous,NL,IDFULL,QH,2021-11-17T18:00:00+01:00,2021-11-17T18:15:00+01:00,294.66,EUR,2.530,MWh
Power,Intraday,Continuous,NL,IDFULL,QH,2021-11-17T18:15:00+01:00,2021-11-17T18:30:00+01:00,153.30,EUR,,MWh
Power,Intraday,Continuous,NL,IDFULL,QH,2021-11-17T18:30:00+01:00,2021-11-17T18:45:00+01:00,153.30,EUR,,MWh
Power,Intraday,Continuous,NL,IDFULL,QH,2021-11-17T18:45:00+01:00,2021-11-17T19:00:00+01:00,153.30,EUR,,MWh
Power,Intraday,Continuous,NL,IDFULL,QH,2021-11-17T19:00:00+01:00,2021-11-17T19:15:00+01:00,177.98,EUR,,MWh
Power,Intraday,Continuous,NL,IDFULL,QH,2021-11-17T19:15:00+01:00,2021-11-17T19:30:00+01:00,243.74,EUR,2.830,MWh
Power,Intraday,Continuous,NL,IDFULL,QH,2021-11-17T19:30:00+01:00,2021-11-17T19:45:00+01:00,177.98,EUR,,MWh
Power,Intraday,Continuous,NL,IDFULL,QH,2021-11-17T19:45:00+01:00,2021-11-17T20:00:00+01:00,177.98,EUR,,MWh
Power,Intraday,Continuous,NL,IDFULL,QH,2021-11-17T20:00:00+01:00,2021-11-17T20:15:00+01:00,267.92,EUR,2.530,MWh
Power,Intraday,Continuous,NL,IDFULL,QH,2021-11-17T20:15:00+01:00,2021-11-17T20:30:00+01:00,229.54,EUR,3.600,MWh
Power,Intraday,Continuous,NL,IDFULL,QH,2021-11-17T20:30:00+01:00,2021-11-17T20:45:00+01:00,160.51,EUR,,MWh
Power,Intraday,Continuous,NL,IDFULL,QH,2021-11-17T20:45:00+01:00,2021-11-17T21:00:00+01:00,160.51,EUR,,MWh
Power,Intraday,Continuous,NL,IDFULL,QH,2021-11-17T21:00:00+01:00,2021-11-17T21:15:00+01:00,306.70,EUR,12.150,MWh
Power,Intraday,Continuous,NL,IDFULL,QH,2021-11-17T21:15:00+01:00,2021-11-17T21:30:00+01:00,240.00,EUR,12.500,MWh
Power,Intraday,Continuous,NL,IDFULL,QH,2021-11-17T21:30:00+01:00,2021-11-17T21:45:00+01:00,240.00,EUR,2.500,MWh
Power,Intraday,Continuous,NL,IDFULL,QH,2021-11-17T21:45:00+01:00,2021-11-17T22:00:00+01:00,170.88,EUR,5.130,MWh
Power,Intraday,Continuous,NL,IDFULL,QH,2021-11-17T22:00:00+01:00,2021-11-17T22:15:00+01:00,202.58,EUR,3.080,MWh
Power,Intraday,Continuous,NL,IDFULL,QH,2021-11-17T22:15:00+01:00,2021-11-17T22:30:00+01:00,184.15,EUR,,MWh
Power,Intraday,Continuous,NL,IDFULL,QH,2021-11-17T22:30:00+01:00,2021-11-17T22:45:00+01:00,184.15,EUR,,MWh
Power,Intraday,Continuous,NL,IDFULL,QH,2021-11-17T22:45:00+01:00,2021-11-17T23:00:00+01:00,184.15,EUR,,MWh
Power,Intraday,Continuous,NL,IDFULL,QH,2021-11-17T23:00:00+01:00,2021-11-17T23:15:00+01:00,174.42,EUR,,MWh
Power,Intraday,Continuous,NL,IDFULL,QH,2021-11-17T23:15:00+01:00,2021-11-17T23:30:00+01:00,174.42,EUR,,MWh
Power,Intraday,Continuous,NL,IDFULL,QH,2021-11-17T23:30:00+01:00,2021-11-17T23:45:00+01:00,174.42,EUR,,MWh
Power,Intraday,Continuous,NL,IDFULL,QH,2021-11-17T23:45:00+01:00,2021-11-18T00:00:00+01:00,174.42,EUR,,MWh
Power,Intraday,Continuous,NL,ID1,QH,2021-11-17T00:00:00+01:00,2021-11-17T00:15:00+01:00,187.35,EUR,,MWh
Power,Intraday,Continuous,NL,ID1,QH,2021-11-17T00:15:00+01:00,2021-11-17T00:30:00+01:00,187.35,EUR,,MWh
Power,Intraday,Continuous,NL,ID1,QH,2021-11-17T00:30:00+01:00,2021-11-17T00:45:00+01:00,187.35,EUR,,MWh
Power,Intraday,Continuous,NL,ID1,QH,2021-11-17T00:45:00+01:00,2021-11-17T01:00:00+01:00,187.35,EUR,,MWh
Power,Intraday,Continuous,NL,ID1,QH,2021-11-17T01:00:00+01:00,2021-11-17T01:15:00+01:00,201.21,EUR,,MWh
Power,Intraday,Continuous,NL,ID1,QH,2021-11-17T01:15:00+01:00,2021-11-17T01:30:00+01:00,201.21,EUR,,MWh
Power,Intraday,Continuous,NL,ID1,QH,2021-11-17T01:30:00+01:00,2021-11-17T01:45:00+01:00,201.21,EUR,,MWh
Power,Intraday,Continuous,NL,ID1,QH,2021-11-17T01:45:00+01:00,2021-11-17T02:00:00+01:00,201.21,EUR,,MWh
Power,Intraday,Continuous,NL,ID1,QH,2021-11-17T02:00:00+01:00,2021-11-17T02:15:00+01:00,186.77,EUR,,MWh
Power,Intraday,Continuous,NL,ID1,QH,2021-11-17T02:15:00+01:00,2021-11-17T02:30:00+01:00,186.77,EUR,,MWh
Power,Intraday,Continuous,NL,ID1,QH,2021-11-17T02:30:00+01:00,2021-11-17T02:45:00+01:00,186.77,EUR,,MWh
Power,Intraday,Continuous,NL,ID1,QH,2021-11-17T02:45:00+01:00,2021-11-17T03:00:00+01:00,159.10,EUR,2.730,MWh
Power,Intraday,Continuous,NL,ID1,QH,2021-11-17T03:00:00+01:00,2021-11-17T03:15:00+01:00,183.07,EUR,,MWh
Power,Intraday,Continuous,NL,ID1,QH,2021-11-17T03:15:00+01:00,2021-11-17T03:30:00+01:00,183.07,EUR,,MWh
Power,Intraday,Continuous,NL,ID1,QH,2021-11-17T03:30:00+01:00,2021-11-17T03:45:00+01:00,183.07,EUR,,MWh
Power,Intraday,Continuous,NL,ID1,QH,2021-11-17T03:45:00+01:00,2021-11-17T04:00:00+01:00,183.07,EUR,,MWh
Power,Intraday,Continuous,NL,ID1,QH,2021-11-17T04:00:00+01:00,2021-11-17T04:15:00+01:00,172.70,EUR,,MWh
Power,Intraday,Continuous,NL,ID1,QH,2021-11-17T04:15:00+01:00,2021-11-17T04:30:00+01:00,172.70,EUR,,MWh
Power,Intraday,Continuous,NL,ID1,QH,2021-11-17T04:30:00+01:00,2021-11-17T04:45:00+01:00,172.70,EUR,,MWh
Power,Intraday,Continuous,NL,ID1,QH,2021-11-17T04:45:00+01:00,2021-11-17T05:00:00+01:00,172.70,EUR,,MWh
Power,Intraday,Continuous,NL,ID1,QH,2021-11-17T05:00:00+01:00,2021-11-17T05:15:00+01:00,152.23,EUR,,MWh
Power,Intraday,Continuous,NL,ID1,QH,2021-11-17T05:15:00+01:00,2021-11-17T05:30:00+01:00,160.17,EUR,,MWh
Power,Intraday,Continuous,NL,ID1,QH,2021-11-17T05:30:00+01:00,2021-11-17T05:45:00+01:00,165.38,EUR,,MWh
Power,Intraday,Continuous,NL,ID1,QH,2021-11-17T05:45:00+01:00,2021-11-17T06:00:00+01:00,159.65,EUR,,MWh
Power,Intraday,Continuous,NL,ID1,QH,2021-11-17T06:00:00+01:00,2021-11-17T06:15:00+01:00,102.47,EUR,,MWh
Power,Intraday,Continuous,NL,ID1,QH,2021-11-17T06:15:00+01:00,2021-11-17T06:30:00+01:00,392.44,EUR,,MWh
Power,Intraday,Continuous,NL,ID1,QH,2021-11-17T06:30:00+01:00,2021-11-17T06:45:00+01:00,120.01,EUR,5.530,MWh
Power,Intraday,Continuous,NL,ID1,QH,2021-11-17T06:45:00+01:00,2021-11-17T07:00:00+01:00,120.02,EUR,4.000,MWh
Power,Intraday,Continuous,NL,ID1,QH,2021-11-17T07:00:00+01:00,2021-11-17T07:15:00+01:00,120.00,EUR,4.200,MWh
Power,Intraday,Continuous,NL,ID1,QH,2021-11-17T07:15:00+01:00,2021-11-17T07:30:00+01:00,191.19,EUR,2.500,MWh
Power,Intraday,Continuous,NL,ID1,QH,2021-11-17T07:30:00+01:00,2021-11-17T07:45:00+01:00,240.00,EUR,8.750,MWh
Power,Intraday,Continuous,NL,ID1,QH,2021-11-17T07:45:00+01:00,2021-11-17T08:00:00+01:00,254.01,EUR,,MWh
Power,Intraday,Continuous,NL,ID1,QH,2021-11-17T08:00:00+01:00,2021-11-17T08:15:00+01:00,211.20,EUR,,MWh
Power,Intraday,Continuous,NL,ID1,QH,2021-11-17T08:15:00+01:00,2021-11-17T08:30:00+01:00,211.20,EUR,,MWh
Power,Intraday,Continuous,NL,ID1,QH,2021-11-17T08:30:00+01:00,2021-11-17T08:45:00+01:00,211.20,EUR,,MWh
Power,Intraday,Continuous,NL,ID1,QH,2021-11-17T08:45:00+01:00,2021-11-17T09:00:00+01:00,239.25,EUR,,MWh
Power,Intraday,Continuous,NL,ID1,QH,2021-11-17T09:00:00+01:00,2021-11-17T09:15:00+01:00,230.10,EUR,,MWh
Power,Intraday,Continuous,NL,ID1,QH,2021-11-17T09:15:00+01:00,2021-11-17T09:30:00+01:00,230.10,EUR,,MWh
Power,Intraday,Continuous,NL,ID1,QH,2021-11-17T09:30:00+01:00,2021-11-17T09:45:00+01:00,230.10,EUR,,MWh
Power,Intraday,Continuous,NL,ID1,QH,2021-11-17T09:45:00+01:00,2021-11-17T10:00:00+01:00,230.10,EUR,,MWh
Power,Intraday,Continuous,NL,ID1,QH,2021-11-17T10:00:00+01:00,2021-11-17T10:15:00+01:00,175.00,EUR,3.750,MWh
Power,Intraday,Continuous,NL,ID1,QH,2021-11-17T10:15:00+01:00,2021-11-17T10:30:00+01:00,160.12,EUR,8.900,MWh
Power,Intraday,Continuous,NL,ID1,QH,2021-11-17T10:30:00+01:00,2021-11-17T10:45:00+01:00,163.20,EUR,14.250,MWh
Power,Intraday,Continuous,NL,ID1,QH,2021-11-17T10:45:00+01:00,2021-11-17T11:00:00+01:00,166.04,EUR,22.800,MWh
Power,Intraday,Continuous,NL,ID1,QH,2021-11-17T11:00:00+01:00,2021-11-17T11:15:00+01:00,263.87,EUR,,MWh
Power,Intraday,Continuous,NL,ID1,QH,2021-11-17T11:15:00+01:00,2021-11-17T11:30:00+01:00,185.00,EUR,4.700,MWh
Power,Intraday,Continuous,NL,ID1,QH,2021-11-17T11:30:00+01:00,2021-11-17T11:45:00+01:00,204.61,EUR,,MWh
Power,Intraday,Continuous,NL,ID1,QH,2021-11-17T11:45:00+01:00,2021-11-17T12:00:00+01:00,159.31,EUR,7.880,MWh
Power,Intraday,Continuous,NL,ID1,QH,2021-11-17T12:00:00+01:00,2021-11-17T12:15:00+01:00,301.95,EUR,,MWh
Power,Intraday,Continuous,NL,ID1,QH,2021-11-17T12:15:00+01:00,2021-11-17T12:30:00+01:00,264.84,EUR,,MWh
Power,Intraday,Continuous,NL,ID1,QH,2021-11-17T12:30:00+01:00,2021-11-17T12:45:00+01:00,154.55,EUR,5.500,MWh
Power,Intraday,Continuous,NL,ID1,QH,2021-11-17T12:45:00+01:00,2021-11-17T13:00:00+01:00,153.58,EUR,7.000,MWh
Power,Intraday,Continuous,NL,ID1,QH,2021-11-17T13:00:00+01:00,2021-11-17T13:15:00+01:00,214.11,EUR,,MWh
Power,Intraday,Continuous,NL,ID1,QH,2021-11-17T13:15:00+01:00,2021-11-17T13:30:00+01:00,147.08,EUR,12.500,MWh
Power,Intraday,Continuous,NL,ID1,QH,2021-11-17T13:30:00+01:00,2021-11-17T13:45:00+01:00,147.25,EUR,12.700,MWh
Power,Intraday,Continuous,NL,ID1,QH,2021-11-17T13:45:00+01:00,2021-11-17T14:00:00+01:00,145.00,EUR,10.000,MWh
Power,Intraday,Continuous,NL,ID1,QH,2021-11-17T14:00:00+01:00,2021-11-17T14:15:00+01:00,145.00,EUR,,MWh
Power,Intraday,Continuous,NL,ID1,QH,2021-11-17T14:15:00+01:00,2021-11-17T14:30:00+01:00,145.00,EUR,11.500,MWh
Power,Intraday,Continuous,NL,ID1,QH,2021-11-17T14:30:00+01:00,2021-11-17T14:45:00+01:00,157.07,EUR,3.500,MWh
Power,Intraday,Continuous,NL,ID1,QH,2021-11-17T14:45:00+01:00,2021-11-17T15:00:00+01:00,201.51,EUR,,MWh
Power,Intraday,Continuous,NL,ID1,QH,2021-11-17T15:00:00+01:00,2021-11-17T15:15:00+01:00,151.92,EUR,,MWh
Power,Intraday,Continuous,NL,ID1,QH,2021-11-17T15:15:00+01:00,2021-11-17T15:30:00+01:00,170.68,EUR,3.750,MWh
Power,Intraday,Continuous,NL,ID1,QH,2021-11-17T15:30:00+01:00,2021-11-17T15:45:00+01:00,242.07,EUR,,MWh
Power,Intraday,Continuous,NL,ID1,QH,2021-11-17T15:45:00+01:00,2021-11-17T16:00:00+01:00,242.07,EUR,,MWh
Power,Intraday,Continuous,NL,ID1,QH,2021-11-17T16:00:00+01:00,2021-11-17T16:15:00+01:00,180.15,EUR,,MWh
Power,Intraday,Continuous,NL,ID1,QH,2021-11-17T16:15:00+01:00,2021-11-17T16:30:00+01:00,187.26,EUR,,MWh
Power,Intraday,Continuous,NL,ID1,QH,2021-11-17T16:30:00+01:00,2021-11-17T16:45:00+01:00,223.21,EUR,,MWh
Power,Intraday,Continuous,NL,ID1,QH,2021-11-17T16:45:00+01:00,2021-11-17T17:00:00+01:00,268.09,EUR,,MWh
Power,Intraday,Continuous,NL,ID1,QH,2021-11-17T17:00:00+01:00,2021-11-17T17:15:00+01:00,240.19,EUR,,MWh
Power,Intraday,Continuous,NL,ID1,QH,2021-11-17T17:15:00+01:00,2021-11-17T17:30:00+01:00,227.30,EUR,,MWh
Power,Intraday,Continuous,NL,ID1,QH,2021-11-17T17:30:00+01:00,2021-11-17T17:45:00+01:00,240.19,EUR,,MWh
Power,Intraday,Continuous,NL,ID1,QH,2021-11-17T17:45:00+01:00,2021-11-17T18:00:00+01:00,240.19,EUR,,MWh
Power,Intraday,Continuous,NL,ID1,QH,2021-11-17T18:00:00+01:00,2021-11-17T18:15:00+01:00,294.66,EUR,,MWh
Power,Intraday,Continuous,NL,ID1,QH,2021-11-17T18:15:00+01:00,2021-11-17T18:30:00+01:00,153.30,EUR,,MWh
Power,Intraday,Continuous,NL,ID1,QH,2021-11-17T18:30:00+01:00,2021-11-17T18:45:00+01:00,153.30,EUR,,MWh
Power,Intraday,Continuous,NL,ID1,QH,2021-11-17T18:45:00+01:00,2021-11-17T19:00:00+01:00,153.30,EUR,,MWh
Power,Intraday,Continuous,NL,ID1,QH,2021-11-17T19:00:00+01:00,2021-11-17T19:15:00+01:00,177.98,EUR,,MWh
Power,Intraday,Continuous,NL,ID1,QH,2021-11-17T19:15:00+01:00,2021-11-17T19:30:00+01:00,243.74,EUR,,MWh
Power,Intraday,Continuous,NL,ID1,QH,2021-11-17T19:30:00+01:00,2021-11-17T19:45:00+01:00,177.98,EUR,,MWh
Power,Intraday,Continuous,NL,ID1,QH,2021-11-17T19:45:00+01:00,2021-11-17T20:00:00+01:00,177.98,EUR,,MWh
Power,Intraday,Continuous,NL,ID1,QH,2021-11-17T20:00:00+01:00,2021-11-17T20:15:00+01:00,267.92,EUR,,MWh
Power,Intraday,Continuous,NL,ID1,QH,2021-11-17T20:15:00+01:00,2021-11-17T20:30:00+01:00,229.54,EUR,,MWh
Power,Intraday,Continuous,NL,ID1,QH,2021-11-17T20:30:00+01:00,2021-11-17T20:45:00+01:00,160.51,EUR,,MWh
Power,Intraday,Continuous,NL,ID1,QH,2021-11-17T20:45:00+01:00,2021-11-17T21:00:00+01:00,160.51,EUR,,MWh
Power,Intraday,Continuous,NL,ID1,QH,2021-11-17T21:00:00+01:00,2021-11-17T21:15:00+01:00,346.45,EUR,7.750,MWh
Power,Intraday,Continuous,NL,ID1,QH,2021-11-17T21:15:00+01:00,2021-11-17T21:30:00+01:00,240.00,EUR,12.500,MWh
Power,Intraday,Continuous,NL,ID1,QH,2021-11-17T21:30:00+01:00,2021-11-17T21:45:00+01:00,240.00,EUR,2.500,MWh
Power,Intraday,Continuous,NL,ID1,QH,2021-11-17T21:45:00+01:00,2021-11-17T22:00:00+01:00,170.88,EUR,,MWh
Power,Intraday,Continuous,NL,ID1,QH,2021-11-17T22:00:00+01:00,2021-11-17T22:15:00+01:00,202.58,EUR,,MWh
Power,Intraday,Continuous,NL,ID1,QH,2021-11-17T22:15:00+01:00,2021-11-17T22:30:00+01:00,184.15,EUR,,MWh
Power,Intraday,Continuous,NL,ID1,QH,2021-11-17T22:30:00+01:00,2021-11-17T22:45:00+01:00,184.15,EUR,,MWh
Power,Intraday,Continuous,NL,ID1,QH,2021-11-17T22:45:00+01:00,2021-11-17T23:00:00+01:00,184.15,EUR,,MWh
Power,Intraday,Continuous,NL,ID1,QH,2021-11-17T23:00:00+01:00,2021-11-17T23:15:00+01:00,174.42,EUR,,MWh
Power,Intraday,Continuous,NL,ID1,QH,2021-11-17T23:15:00+01:00,2021-11-17T23:30:00+01:00,174.42,EUR,,MWh
Power,Intraday,Continuous,NL,ID1,QH,2021-11-17T23:30:00+01:00,2021-11-17T23:45:00+01:00,174.42,EUR,,MWh
Power,Intraday,Continuous,NL,ID1,QH,2021-11-17T23:45:00+01:00,2021-11-18T00:00:00+01:00,174.42,EUR,,MWh
Power,Intraday,Continuous,NL,ID3,QH,2021-11-17T00:00:00+01:00,2021-11-17T00:15:00+01:00,187.35,EUR,,MWh
Power,Intraday,Continuous,NL,ID3,QH,2021-11-17T00:15:00+01:00,2021-11-17T00:30:00+01:00,187.35,EUR,,MWh
Power,Intraday,Continuous,NL,ID3,QH,2021-11-17T00:30:00+01:00,2021-11-17T00:45:00+01:00,187.35,EUR,,MWh
Power,Intraday,Continuous,NL,ID3,QH,2021-11-17T00:45:00+01:00,2021-11-17T01:00:00+01:00,187.35,EUR,,MWh
Power,Intraday,Continuous,NL,ID3,QH,2021-11-17T01:00:00+01:00,2021-11-17T01:15:00+01:00,201.21,EUR,,MWh
Power,Intraday,Continuous,NL,ID3,QH,2021-11-17T01:15:00+01:00,2021-11-17T01:30:00+01:00,201.21,EUR,,MWh
Power,Intraday,Continuous,NL,ID3,QH,2021-11-17T01:30:00+01:00,2021-11-17T01:45:00+01:00,201.21,EUR,,MWh
Power,Intraday,Continuous,NL,ID3,QH,2021-11-17T01:45:00+01:00,2021-11-17T02:00:00+01:00,201.21,EUR,,MWh
Power,Intraday,Continuous,NL,ID3,QH,2021-11-17T02:00:00+01:00,2021-11-17T02:15:00+01:00,186.77,EUR,,MWh
Power,Intraday,Continuous,NL,ID3,QH,2021-11-17T02:15:00+01:00,2021-11-17T02:30:00+01:00,186.77,EUR,,MWh
Power,Intraday,Continuous,NL,ID3,QH,2021-11-17T02:30:00+01:00,2021-11-17T02:45:00+01:00,186.77,EUR,,MWh
Power,Intraday,Continuous,NL,ID3,QH,2021-11-17T02:45:00+01:00,2021-11-17T03:00:00+01:00,159.58,EUR,4.330,MWh
Power,Intraday,Continuous,NL,ID3,QH,2021-11-17T03:00:00+01:00,2021-11-17T03:15:00+01:00,183.07,EUR,,MWh
Power,Intraday,Continuous,NL,ID3,QH,2021-11-17T03:15:00+01:00,2021-11-17T03:30:00+01:00,183.07,EUR,,MWh
Power,Intraday,Continuous,NL,ID3,QH,2021-11-17T03:30:00+01:00,2021-11-17T03:45:00+01:00,183.07,EUR,,MWh
Power,Intraday,Continuous,NL,ID3,QH,2021-11-17T03:45:00+01:00,2021-11-17T04:00:00+01:00,183.07,EUR,,MWh
Power,Intraday,Continuous,NL,ID3,QH,2021-11-17T04:00:00+01:00,2021-11-17T04:15:00+01:00,172.70,EUR,,MWh
Power,Intraday,Continuous,NL,ID3,QH,2021-11-17T04:15:00+01:00,2021-11-17T04:30:00+01:00,172.70,EUR,,MWh
Power,Intraday,Continuous,NL,ID3,QH,2021-11-17T04:30:00+01:00,2021-11-17T04:45:00+01:00,172.70,EUR,,MWh
Power,Intraday,Continuous,NL,ID3,QH,2021-11-17T04:45:00+01:00,2021-11-17T05:00:00+01:00,172.70,EUR,,MWh
Power,Intraday,Continuous,NL,ID3,QH,2021-11-17T05:00:00+01:00,2021-11-17T05:15:00+01:00,152.23,EUR,,MWh
Power,Intraday,Continuous,NL,ID3,QH,2021-11-17T05:15:00+01:00,2021-11-17T05:30:00+01:00,160.17,EUR,,MWh
Power,Intraday,Continuous,NL,ID3,QH,2021-11-17T05:30:00+01:00,2021-11-17T05:45:00+01:00,165.38,EUR,,MWh
Power,Intraday,Continuous,NL,ID3,QH,2021-11-17T05:45:00+01:00,2021-11-17T06:00:00+01:00,159.65,EUR,6.980,MWh
Power,Intraday,Continuous,NL,ID3,QH,2021-11-17T06:00:00+01:00,2021-11-17T06:15:00+01:00,102.47,EUR,42.600,MWh
Power,Intraday,Continuous,NL,ID3,QH,2021-11-17T06:15:00+01:00,2021-11-17T06:30:00+01:00,392.44,EUR,,MWh
Power,Intraday,Continuous,NL,ID3,QH,2021-11-17T06:30:00+01:00,2021-11-17T06:45:00+01:00,120.01,EUR,5.530,MWh
Power,Intraday,Continuous,NL,ID3,QH,2021-11-17T06:45:00+01:00,2021-11-17T07:00:00+01:00,141.12,EUR,4.650,MWh
Power,Intraday,Continuous,NL,ID3,QH,2021-11-17T07:00:00+01:00,2021-11-17T07:15:00+01:00,164.49,EUR,28.600,MWh
Power,Intraday,Continuous,NL,ID3,QH,2021-11-17T07:15:00+01:00,2021-11-17T07:30:00+01:00,206.10,EUR,15.580,MWh
Power,Intraday,Continuous,NL,ID3,QH,2021-11-17T07:30:00+01:00,2021-11-17T07:45:00+01:00,234.50,EUR,29.050,MWh
Power,Intraday,Continuous,NL,ID3,QH,2021-11-17T07:45:00+01:00,2021-11-17T08:00:00+01:00,254.01,EUR,25.930,MWh
Power,Intraday,Continuous,NL,ID3,QH,2021-11-17T08:00:00+01:00,2021-11-17T08:15:00+01:00,211.20,EUR,,MWh
Power,Intraday,Continuous,NL,ID3,QH,2021-11-17T08:15:00+01:00,2021-11-17T08:30:00+01:00,211.20,EUR,,MWh
Power,Intraday,Continuous,NL,ID3,QH,2021-11-17T08:30:00+01:00,2021-11-17T08:45:00+01:00,211.20,EUR,,MWh
Power,Intraday,Continuous,NL,ID3,QH,2021-11-17T08:45:00+01:00,2021-11-17T09:00:00+01:00,239.25,EUR,18.130,MWh
Power,Intraday,Continuous,NL,ID3,QH,2021-11-17T09:00:00+01:00,2021-11-17T09:15:00+01:00,230.10,EUR,,MWh
Power,Intraday,Continuous,NL,ID3,QH,2021-11-17T09:15:00+01:00,2021-11-17T09:30:00+01:00,230.10,EUR,,MWh
Power,Intraday,Continuous,NL,ID3,QH,2021-11-17T09:30:00+01:00,2021-11-17T09:45:00+01:00,230.10,EUR,,MWh
Power,Intraday,Continuous,NL,ID3,QH,2021-11-17T09:45:00+01:00,2021-11-17T10:00:00+01:00,230.10,EUR,,MWh
Power,Intraday,Continuous,NL,ID3,QH,2021-11-17T10:00:00+01:00,2021-11-17T10:15:00+01:00,175.00,EUR,3.750,MWh
Power,Intraday,Continuous,NL,ID3,QH,2021-11-17T10:15:00+01:00,2021-11-17T10:30:00+01:00,160.12,EUR,8.900,MWh
Power,Intraday,Continuous,NL,ID3,QH,2021-11-17T10:30:00+01:00,2021-11-17T10:45:00+01:00,163.20,EUR,14.250,MWh
Power,Intraday,Continuous,NL,ID3,QH,2021-11-17T10:45:00+01:00,2021-11-17T11:00:00+01:00,161.11,EUR,31.630,MWh
Power,Intraday,Continuous,NL,ID3,QH,2021-11-17T11:00:00+01:00,2021-11-17T11:15:00+01:00,263.87,EUR,41.700,MWh
Power,Intraday,Continuous,NL,ID3,QH,2021-11-17T11:15:00+01:00,2021-11-17T11:30:00+01:00,185.00,EUR,5.950,MWh
Power,Intraday,Continuous,NL,ID3,QH,2021-11-17T11:30:00+01:00,2021-11-17T11:45:00+01:00,204.61,EUR,13.750,MWh
Power,Intraday,Continuous,NL,ID3,QH,2021-11-17T11:45:00+01:00,2021-11-17T12:00:00+01:00,194.80,EUR,23.630,MWh
Power,Intraday,Continuous,NL,ID3,QH,2021-11-17T12:00:00+01:00,2021-11-17T12:15:00+01:00,301.95,EUR,38.150,MWh
Power,Intraday,Continuous,NL,ID3,QH,2021-11-17T12:15:00+01:00,2021-11-17T12:30:00+01:00,264.84,EUR,12.580,MWh
Power,Intraday,Continuous,NL,ID3,QH,2021-11-17T12:30:00+01:00,2021-11-17T12:45:00+01:00,182.31,EUR,21.200,MWh
Power,Intraday,Continuous,NL,ID3,QH,2021-11-17T12:45:00+01:00,2021-11-17T13:00:00+01:00,170.16,EUR,24.650,MWh
Power,Intraday,Continuous,NL,ID3,QH,2021-11-17T13:00:00+01:00,2021-11-17T13:15:00+01:00,214.11,EUR,5.000,MWh
Power,Intraday,Continuous,NL,ID3,QH,2021-11-17T13:15:00+01:00,2021-11-17T13:30:00+01:00,147.08,EUR,12.500,MWh
Power,Intraday,Continuous,NL,ID3,QH,2021-11-17T13:30:00+01:00,2021-11-17T13:45:00+01:00,155.11,EUR,14.150,MWh
Power,Intraday,Continuous,NL,ID3,QH,2021-11-17T13:45:00+01:00,2021-11-17T14:00:00+01:00,150.92,EUR,12.130,MWh
Power,Intraday,Continuous,NL,ID3,QH,2021-11-17T14:00:00+01:00,2021-11-17T14:15:00+01:00,145.00,EUR,12.500,MWh
Power,Intraday,Continuous,NL,ID3,QH,2021-11-17T14:15:00+01:00,2021-11-17T14:30:00+01:00,145.00,EUR,12.500,MWh
Power,Intraday,Continuous,NL,ID3,QH,2021-11-17T14:30:00+01:00,2021-11-17T14:45:00+01:00,172.12,EUR,8.830,MWh
Power,Intraday,Continuous,NL,ID3,QH,2021-11-17T14:45:00+01:00,2021-11-17T15:00:00+01:00,201.51,EUR,23.080,MWh
Power,Intraday,Continuous,NL,ID3,QH,2021-11-17T15:00:00+01:00,2021-11-17T15:15:00+01:00,151.92,EUR,12.500,MWh
Power,Intraday,Continuous,NL,ID3,QH,2021-11-17T15:15:00+01:00,2021-11-17T15:30:00+01:00,161.55,EUR,9.750,MWh
Power,Intraday,Continuous,NL,ID3,QH,2021-11-17T15:30:00+01:00,2021-11-17T15:45:00+01:00,242.07,EUR,,MWh
Power,Intraday,Continuous,NL,ID3,QH,2021-11-17T15:45:00+01:00,2021-11-17T16:00:00+01:00,242.07,EUR,,MWh
Power,Intraday,Continuous,NL,ID3,QH,2021-11-17T16:00:00+01:00,2021-11-17T16:15:00+01:00,180.15,EUR,21.530,MWh
Power,Intraday,Continuous,NL,ID3,QH,2021-11-17T16:15:00+01:00,2021-11-17T16:30:00+01:00,187.26,EUR,17.580,MWh
Power,Intraday,Continuous,NL,ID3,QH,2021-11-17T16:30:00+01:00,2021-11-17T16:45:00+01:00,223.21,EUR,32.200,MWh
Power,Intraday,Continuous,NL,ID3,QH,2021-11-17T16:45:00+01:00,2021-11-17T17:00:00+01:00,268.09,EUR,7.680,MWh
Power,Intraday,Continuous,NL,ID3,QH,2021-11-17T17:00:00+01:00,2021-11-17T17:15:00+01:00,240.19,EUR,,MWh
Power,Intraday,Continuous,NL,ID3,QH,2021-11-17T17:15:00+01:00,2021-11-17T17:30:00+01:00,227.30,EUR,4.250,MWh
Power,Intraday,Continuous,NL,ID3,QH,2021-11-17T17:30:00+01:00,2021-11-17T17:45:00+01:00,240.19,EUR,,MWh
Power,Intraday,Continuous,NL,ID3,QH,2021-11-17T17:45:00+01:00,2021-11-17T18:00:00+01:00,240.19,EUR,,MWh
Power,Intraday,Continuous,NL,ID3,QH,2021-11-17T18:00:00+01:00,2021-11-17T18:15:00+01:00,294.66,EUR,2.530,MWh
Power,Intraday,Continuous,NL,ID3,QH,2021-11-17T18:15:00+01:00,2021-11-17T18:30:00+01:00,153.30,EUR,,MWh
Power,Intraday,Continuous,NL,ID3,QH,2021-11-17T18:30:00+01:00,2021-11-17T18:45:00+01:00,153.30,EUR,,MWh
Power,Intraday,Continuous,NL,ID3,QH,2021-11-17T18:45:00+01:00,2021-11-17T19:00:00+01:00,153.30,EUR,,MWh
Power,Intraday,Continuous,NL,ID3,QH,2021-11-17T19:00:00+01:00,2021-11-17T19:15:00+01:00,177.98,EUR,,MWh
Power,Intraday,Continuous,NL,ID3,QH,2021-11-17T19:15:00+01:00,2021-11-17T19:30:00+01:00,243.74,EUR,2.830,MWh
Power,Intraday,Continuous,NL,ID3,QH,2021-11-17T19:30:00+01:00,2021-11-17T19:45:00+01:00,177.98,EUR,,MWh
Power,Intraday,Continuous,NL,ID3,QH,2021-11-17T19:45:00+01:00,2021-11-17T20:00:00+01:00,177.98,EUR,,MWh
Power,Intraday,Continuous,NL,ID3,QH,2021-11-17T20:00:00+01:00,2021-11-17T20:15:00+01:00,267.92,EUR,2.530,MWh
Power,Intraday,Continuous,NL,ID3,QH,2021-11-17T20:15:00+01:00,2021-11-17T20:30:00+01:00,229.54,EUR,3.600,MWh
Power,Intraday,Continuous,NL,ID3,QH,2021-11-17T20:30:00+01:00,2021-11-17T20:45:00+01:00,160.51,EUR,,MWh
Power,Intraday,Continuous,NL,ID3,QH,2021-11-17T20:45:00+01:00,2021-11-17T21:00:00+01:00,160.51,EUR,,MWh
Power,Intraday,Continuous,NL,ID3,QH,2021-11-17T21:00:00+01:00,2021-11-17T21:15:00+01:00,306.70,EUR,12.150,MWh
Power,Intraday,Continuous,NL,ID3,QH,2021-11-17T21:15:00+01:00,2021-11-17T21:30:00+01:00,240.00,EUR,12.500,MWh
Power,Intraday,Continuous,NL,ID3,QH,2021-11-17T21:30:00+01:00,2021-11-17T21:45:00+01:00,240.00,EUR,2.500,MWh
Power,Intraday,Continuous,NL,ID3,QH,2021-11-17T21:45:00+01:00,2021-11-17T22:00:00+01:00,170.88,EUR,5.130,MWh
Power,Intraday,Continuous,NL,ID3,QH,2021-11-17T22:00:00+01:00,2021-11-17T22:15:00+01:00,202.58,EUR,3.080,MWh
Power,Intraday,Continuous,NL,ID3,QH,2021-11-17T22:15:00+01:00,2021-11-17T22:30:00+01:00,184.15,EUR,,MWh
Power,Intraday,Continuous,NL,ID3,QH,2021-11-17T22:30:00+01:00,2021-11-17T22:45:00+01:00,184.15,EUR,,MWh
Power,Intraday,Continuous,NL,ID3,QH,2021-11-17T22:45:00+01:00,2021-11-17T23:00:00+01:00,184.15,EUR,,MWh
Power,Intraday,Continuous,NL,ID3,QH,2021-11-17T23:00:00+01:00,2021-11-17T23:15:00+01:00,174.42,EUR,,MWh
Power,Intraday,Continuous,NL,ID3,QH,2021-11-17T23:15:00+01:00,2021-11-17T23:30:00+01:00,174.42,EUR,,MWh
Power,Intraday,Continuous,NL,ID3,QH,2021-11-17T23:30:00+01:00,2021-11-17T23:45:00+01:00,174.42,EUR,,MWh
Power,Intraday,Continuous,NL,ID3,QH,2021-11-17T23:45:00+01:00,2021-11-18T00:00:00+01:00,174.42,EUR,,MWh
Power,Intraday,Continuous,NL,IDFULL,BASE,2021-11-17T00:00:00+01:00,2021-11-18T00:00:00+01:00,199.67,EUR,11793.900,MWh
Power,Intraday,Continuous,NL,IDFULL,PEAK,2021-11-17T08:00:00+01:00,2021-11-17T20:00:00+01:00,208.53,EUR,6928.100,MWh
