Commodity,NominationModality,TradingModality,MarketArea,IndexName,TimeResolution,DeliveryStart,DeliveryEnd,IndexPrice,Currency,Volume,VolumeUnit
Power,Intraday,Continuous,NL,IDFULL,H,2021-04-09T00:00:00+02:00,2021-04-09T01:00:00+02:00,41.61,EUR,466.800,MWh
Power,Intraday,Continuous,NL,IDFULL,H,2021-04-09T01:00:00+02:00,2021-04-09T02:00:00+02:00,36.67,EUR,126.400,MWh
Power,Intraday,Continuous,NL,IDFULL,H,2021-04-09T02:00:00+02:00,2021-04-09T03:00:00+02:00,34.65,EUR,167.700,MWh
Power,Intraday,Continuous,NL,IDFULL,H,2021-04-09T03:00:00+02:00,2021-04-09T04:00:00+02:00,33.02,EUR,235.900,MWh
Power,Intraday,Continuous,NL,IDFULL,H,2021-04-09T04:00:00+02:00,2021-04-09T05:00:00+02:00,18.86,EUR,283.500,MWh
Power,Intraday,Continuous,NL,IDFULL,H,2021-04-09T05:00:00+02:00,2021-04-09T06:00:00+02:00,18.20,EUR,327.000,MWh
Power,Intraday,Continuous,NL,IDFULL,H,2021-04-09T06:00:00+02:00,2021-04-09T07:00:00+02:00,28.10,EUR,341.400,MWh
Power,Intraday,Continuous,NL,IDFULL,H,2021-04-09T07:00:00+02:00,2021-04-09T08:00:00+02:00,36.75,EUR,346.200,MWh
Power,Intraday,Continuous,NL,IDFULL,H,2021-04-09T08:00:00+02:00,2021-04-09T09:00:00+02:00,49.94,EUR,156.300,MWh
Power,Intraday,Continuous,NL,IDFULL,H,2021-04-09T09:00:00+02:00,2021-04-09T10:00:00+02:00,32.27,EUR,337.600,MWh
Power,Intraday,Continuous,NL,IDFULL,H,2021-04-09T10:00:00+02:00,2021-04-09T11:00:00+02:00,27.87,EUR,767.300,MWh
Power,Intraday,Continuous,NL,IDFULL,H,2021-04-09T11:00:00+02:00,2021-04-09T12:00:00+02:00,21.35,EUR,948.200,MWh
Power,Intraday,Continuous,NL,IDFULL,H,2021-04-09T12:00:00+02:00,2021-04-09T13:00:00+02:00,25.12,EUR,1415.900,MWh
Power,Intraday,Continuous,NL,IDFULL,H,2021-04-09T13:00:00+02:00,2021-04-09T14:00:00+02:00,24.49,EUR,1204.400,MWh
Power,Intraday,Continuous,NL,IDFULL,H,2021-04-09T14:00:00+02:00,2021-04-09T15:00:00+02:00,23.51,EUR,1308.200,MWh
Power,Intraday,Continuous,NL,IDFULL,H,2021-04-09T15:00:00+02:00,2021-04-09T16:00:00+02:00,27.50,EUR,1327.500,MWh
Power,Intraday,Continuous,NL,IDFULL,H,2021-04-09T16:00:00+02:00,2021-04-09T17:00:00+02:00,37.88,EUR,1237.800,MWh
Power,Intraday,Continuous,NL,IDFULL,H,2021-04-09T17:00:00+02:00,2021-04-09T18:00:00+02:00,50.17,EUR,1316.900,MWh
Power,Intraday,Continuous,NL,IDFULL,H,2021-04-09T18:00:00+02:00,2021-04-09T19:00:00+02:00,51.97,EUR,639.300,MWh
Power,Intraday,Continuous,NL,IDFULL,H,2021-04-09T19:00:00+02:00,2021-04-09T20:00:00+02:00,71.93,EUR,709.400,MWh
Power,Intraday,Continuous,NL,IDFULL,H,2021-04-09T20:00:00+02:00,2021-04-09T21:00:00+02:00,75.59,EUR,982.300,MWh
Power,Intraday,Continuous,NL,IDFULL,H,2021-04-09T21:00:00+02:00,2021-04-09T22:00:00+02:00,53.25,EUR,474.400,MWh
Power,Intraday,Continuous,NL,IDFULL,H,2021-04-09T22:00:00+02:00,2021-04-09T23:00:00+02:00,55.49,EUR,339.200,MWh
Power,Intraday,Continuous,NL,IDFULL,H,2021-04-09T23:00:00+02:00,2021-04-10T00:00:00+02:00,59.59,EUR,279.600,MWh
Power,Intraday,Continuous,NL,ID1,H,2021-04-09T00:00:00+02:00,2021-04-09T01:00:00+02:00,44.38,EUR,43.000,MWh
Power,Intraday,Continuous,NL,ID1,H,2021-04-09T01:00:00+02:00,2021-04-09T02:00:00+02:00,35.22,EUR,62.800,MWh
Power,Intraday,Continuous,NL,ID1,H,2021-04-09T02:00:00+02:00,2021-04-09T03:00:00+02:00,20.00,EUR,10.000,MWh
Power,Intraday,Continuous,NL,ID1,H,2021-04-09T03:00:00+02:00,2021-04-09T04:00:00+02:00,20.00,EUR,10.000,MWh
Power,Intraday,Continuous,NL,ID1,H,2021-04-09T04:00:00+02:00,2021-04-09T05:00:00+02:00,18.60,EUR,,MWh
Power,Intraday,Continuous,NL,ID1,H,2021-04-09T05:00:00+02:00,2021-04-09T06:00:00+02:00,15.67,EUR,,MWh
Power,Intraday,Continuous,NL,ID1,H,2021-04-09T06:00:00+02:00,2021-04-09T07:00:00+02:00,24.65,EUR,,MWh
Power,Intraday,Continuous,NL,ID1,H,2021-04-09T07:00:00+02:00,2021-04-09T08:00:00+02:00,39.33,EUR,190.100,MWh
Power,Intraday,Continuous,NL,ID1,H,2021-04-09T08:00:00+02:00,2021-04-09T09:00:00+02:00,49.75,EUR,130.900,MWh
Power,Intraday,Continuous,NL,ID1,H,2021-04-09T09:00:00+02:00,2021-04-09T10:00:00+02:00,27.66,EUR,145.400,MWh
Power,Intraday,Continuous,NL,ID1,H,2021-04-09T10:00:00+02:00,2021-04-09T11:00:00+02:00,26.98,EUR,213.400,MWh
Power,Intraday,Continuous,NL,ID1,H,2021-04-09T11:00:00+02:00,2021-04-09T12:00:00+02:00,7.69,EUR,181.500,MWh
Power,Intraday,Continuous,NL,ID1,H,2021-04-09T12:00:00+02:00,2021-04-09T13:00:00+02:00,23.76,EUR,188.300,MWh
Power,Intraday,Continuous,NL,ID1,H,2021-04-09T13:00:00+02:00,2021-04-09T14:00:00+02:00,11.47,EUR,167.100,MWh
Power,Intraday,Continuous,NL,ID1,H,2021-04-09T14:00:00+02:00,2021-04-09T15:00:00+02:00,26.04,EUR,24.100,MWh
Power,Intraday,Continuous,NL,ID1,H,2021-04-09T15:00:00+02:00,2021-04-09T16:00:00+02:00,29.54,EUR,230.200,MWh
Power,Intraday,Continuous,NL,ID1,H,2021-04-09T16:00:00+02:00,2021-04-09T17:00:00+02:00,37.78,EUR,294.400,MWh
Power,Intraday,Continuous,NL,ID1,H,2021-04-09T17:00:00+02:00,2021-04-09T18:00:00+02:00,48.08,EUR,14.600,MWh
Power,Intraday,Continuous,NL,ID1,H,2021-04-09T18:00:00+02:00,2021-04-09T19:00:00+02:00,46.24,EUR,137.300,MWh
Power,Intraday,Continuous,NL,ID1,H,2021-04-09T19:00:00+02:00,2021-04-09T20:00:00+02:00,60.37,EUR,25.100,MWh
Power,Intraday,Continuous,NL,ID1,H,2021-04-09T20:00:00+02:00,2021-04-09T21:00:00+02:00,83.00,EUR,29.000,MWh
Power,Intraday,Continuous,NL,ID1,H,2021-04-09T21:00:00+02:00,2021-04-09T22:00:00+02:00,48.02,EUR,45.600,MWh
Power,Intraday,Continuous,NL,ID1,H,2021-04-09T22:00:00+02:00,2021-04-09T23:00:00+02:00,65.20,EUR,24.400,MWh
Power,Intraday,Continuous,NL,ID1,H,2021-04-09T23:00:00+02:00,2021-04-10T00:00:00+02:00,59.59,EUR,,MWh
Power,Intraday,Continuous,NL,ID3,H,2021-04-09T00:00:00+02:00,2021-04-09T01:00:00+02:00,41.89,EUR,446.100,MWh
Power,Intraday,Continuous,NL,ID3,H,2021-04-09T01:00:00+02:00,2021-04-09T02:00:00+02:00,36.50,EUR,119.300,MWh
Power,Intraday,Continuous,NL,ID3,H,2021-04-09T02:00:00+02:00,2021-04-09T03:00:00+02:00,30.97,EUR,80.600,MWh
Power,Intraday,Continuous,NL,ID3,H,2021-04-09T03:00:00+02:00,2021-04-09T04:00:00+02:00,25.73,EUR,99.900,MWh
Power,Intraday,Continuous,NL,ID3,H,2021-04-09T04:00:00+02:00,2021-04-09T05:00:00+02:00,18.60,EUR,278.900,MWh
Power,Intraday,Continuous,NL,ID3,H,2021-04-09T05:00:00+02:00,2021-04-09T06:00:00+02:00,15.67,EUR,257.400,MWh
Power,Intraday,Continuous,NL,ID3,H,2021-04-09T06:00:00+02:00,2021-04-09T07:00:00+02:00,24.65,EUR,136.700,MWh
Power,Intraday,Continuous,NL,ID3,H,2021-04-09T07:00:00+02:00,2021-04-09T08:00:00+02:00,36.86,EUR,326.100,MWh
Power,Intraday,Continuous,NL,ID3,H,2021-04-09T08:00:00+02:00,2021-04-09T09:00:00+02:00,49.63,EUR,151.500,MWh
Power,Intraday,Continuous,NL,ID3,H,2021-04-09T09:00:00+02:00,2021-04-09T10:00:00+02:00,32.27,EUR,337.500,MWh
Power,Intraday,Continuous,NL,ID3,H,2021-04-09T10:00:00+02:00,2021-04-09T11:00:00+02:00,27.38,EUR,751.100,MWh
Power,Intraday,Continuous,NL,ID3,H,2021-04-09T11:00:00+02:00,2021-04-09T12:00:00+02:00,21.12,EUR,932.900,MWh
Power,Intraday,Continuous,NL,ID3,H,2021-04-09T12:00:00+02:00,2021-04-09T13:00:00+02:00,24.31,EUR,1151.300,MWh
Power,Intraday,Continuous,NL,ID3,H,2021-04-09T13:00:00+02:00,2021-04-09T14:00:00+02:00,24.00,EUR,1007.800,MWh
Power,Intraday,Continuous,NL,ID3,H,2021-04-09T14:00:00+02:00,2021-04-09T15:00:00+02:00,22.50,EUR,1089.800,MWh
Power,Intraday,Continuous,NL,ID3,H,2021-04-09T15:00:00+02:00,2021-04-09T16:00:00+02:00,27.37,EUR,1185.200,MWh
Power,Intraday,Continuous,NL,ID3,H,2021-04-09T16:00:00+02:00,2021-04-09T17:00:00+02:00,39.39,EUR,1013.100,MWh
Power,Intraday,Continuous,NL,ID3,H,2021-04-09T17:00:00+02:00,2021-04-09T18:00:00+02:00,47.77,EUR,544.300,MWh
Power,Intraday,Continuous,NL,ID3,H,2021-04-09T18:00:00+02:00,2021-04-09T19:00:00+02:00,46.96,EUR,452.900,MWh
Power,Intraday,Continuous,NL,ID3,H,2021-04-09T19:00:00+02:00,2021-04-09T20:00:00+02:00,70.95,EUR,354.800,MWh
Power,Intraday,Continuous,NL,ID3,H,2021-04-09T20:00:00+02:00,2021-04-09T21:00:00+02:00,75.76,EUR,505.600,MWh
Power,Intraday,Continuous,NL,ID3,H,2021-04-09T21:00:00+02:00,2021-04-09T22:00:00+02:00,52.83,EUR,409.600,MWh
Power,Intraday,Continuous,NL,ID3,H,2021-04-09T22:00:00+02:00,2021-04-09T23:00:00+02:00,55.87,EUR,252.100,MWh
Power,Intraday,Continuous,NL,ID3,H,2021-04-09T23:00:00+02:00,2021-04-10T00:00:00+02:00,59.59,EUR,278.300,MWh
Power,Intraday,Continuous,NL,IDFULL,HH,2021-04-09T00:00:00+02:00,2021-04-09T00:30:00+02:00,41.61,EUR,,MWh
Power,Intraday,Continuous,NL,IDFULL,HH,2021-04-09T00:30:00+02:00,2021-04-09T01:00:00+02:00,41.61,EUR,,MWh
Power,Intraday,Continuous,NL,IDFULL,HH,2021-04-09T01:00:00+02:00,2021-04-09T01:30:00+02:00,36.67,EUR,,MWh
Power,Intraday,Continuous,NL,IDFULL,HH,2021-04-09T01:30:00+02:00,2021-04-09T02:00:00+02:00,36.67,EUR,,MWh
Power,Intraday,Continuous,NL,IDFULL,HH,2021-04-09T02:00:00+02:00,2021-04-09T02:30:00+02:00,34.65,EUR,,MWh
Power,Intraday,Continuous,NL,IDFULL,HH,2021-04-09T02:30:00+02:00,2021-04-09T03:00:00+02:00,34.65,EUR,,MWh
Power,Intraday,Continuous,NL,IDFULL,HH,2021-04-09T03:00:00+02:00,2021-04-09T03:30:00+02:00,33.02,EUR,,MWh
Power,Intraday,Continuous,NL,IDFULL,HH,2021-04-09T03:30:00+02:00,2021-04-09T04:00:00+02:00,33.02,EUR,,MWh
Power,Intraday,Continuous,NL,IDFULL,HH,2021-04-09T04:00:00+02:00,2021-04-09T04:30:00+02:00,18.86,EUR,,MWh
Power,Intraday,Continuous,NL,IDFULL,HH,2021-04-09T04:30:00+02:00,2021-04-09T05:00:00+02:00,18.86,EUR,,MWh
Power,Intraday,Continuous,NL,IDFULL,HH,2021-04-09T05:00:00+02:00,2021-04-09T05:30:00+02:00,18.20,EUR,,MWh
Power,Intraday,Continuous,NL,IDFULL,HH,2021-04-09T05:30:00+02:00,2021-04-09T06:00:00+02:00,18.20,EUR,,MWh
Power,Intraday,Continuous,NL,IDFULL,HH,2021-04-09T06:00:00+02:00,2021-04-09T06:30:00+02:00,28.10,EUR,,MWh
Power,Intraday,Continuous,NL,IDFULL,HH,2021-04-09T06:30:00+02:00,2021-04-09T07:00:00+02:00,28.10,EUR,,MWh
Power,Intraday,Continuous,NL,IDFULL,HH,2021-04-09T07:00:00+02:00,2021-04-09T07:30:00+02:00,36.75,EUR,,MWh
Power,Intraday,Continuous,NL,IDFULL,HH,2021-04-09T07:30:00+02:00,2021-04-09T08:00:00+02:00,36.75,EUR,,MWh
Power,Intraday,Continuous,NL,IDFULL,HH,2021-04-09T08:00:00+02:00,2021-04-09T08:30:00+02:00,49.94,EUR,,MWh
Power,Intraday,Continuous,NL,IDFULL,HH,2021-04-09T08:30:00+02:00,2021-04-09T09:00:00+02:00,49.94,EUR,,MWh
Power,Intraday,Continuous,NL,IDFULL,HH,2021-04-09T09:00:00+02:00,2021-04-09T09:30:00+02:00,32.27,EUR,,MWh
Power,Intraday,Continuous,NL,IDFULL,HH,2021-04-09T09:30:00+02:00,2021-04-09T10:00:00+02:00,32.27,EUR,,MWh
Power,Intraday,Continuous,NL,IDFULL,HH,2021-04-09T10:00:00+02:00,2021-04-09T10:30:00+02:00,27.87,EUR,,MWh
Power,Intraday,Continuous,NL,IDFULL,HH,2021-04-09T10:30:00+02:00,2021-04-09T11:00:00+02:00,27.87,EUR,,MWh
Power,Intraday,Continuous,NL,IDFULL,HH,2021-04-09T11:00:00+02:00,2021-04-09T11:30:00+02:00,21.35,EUR,,MWh
Power,Intraday,Continuous,NL,IDFULL,HH,2021-04-09T11:30:00+02:00,2021-04-09T12:00:00+02:00,21.35,EUR,,MWh
Power,Intraday,Continuous,NL,IDFULL,HH,2021-04-09T12:00:00+02:00,2021-04-09T12:30:00+02:00,25.12,EUR,,MWh
Power,Intraday,Continuous,NL,IDFULL,HH,2021-04-09T12:30:00+02:00,2021-04-09T13:00:00+02:00,25.12,EUR,,MWh
Power,Intraday,Continuous,NL,IDFULL,HH,2021-04-09T13:00:00+02:00,2021-04-09T13:30:00+02:00,24.49,EUR,,MWh
Power,Intraday,Continuous,NL,IDFULL,HH,2021-04-09T13:30:00+02:00,2021-04-09T14:00:00+02:00,24.49,EUR,,MWh
Power,Intraday,Continuous,NL,IDFULL,HH,2021-04-09T14:00:00+02:00,2021-04-09T14:30:00+02:00,23.51,EUR,,MWh
Power,Intraday,Continuous,NL,IDFULL,HH,2021-04-09T14:30:00+02:00,2021-04-09T15:00:00+02:00,23.51,EUR,,MWh
Power,Intraday,Continuous,NL,IDFULL,HH,2021-04-09T15:00:00+02:00,2021-04-09T15:30:00+02:00,27.50,EUR,,MWh
Power,Intraday,Continuous,NL,IDFULL,HH,2021-04-09T15:30:00+02:00,2021-04-09T16:00:00+02:00,27.50,EUR,,MWh
Power,Intraday,Continuous,NL,IDFULL,HH,2021-04-09T16:00:00+02:00,2021-04-09T16:30:00+02:00,37.88,EUR,,MWh
Power,Intraday,Continuous,NL,IDFULL,HH,2021-04-09T16:30:00+02:00,2021-04-09T17:00:00+02:00,37.88,EUR,,MWh
Power,Intraday,Continuous,NL,IDFULL,HH,2021-04-09T17:00:00+02:00,2021-04-09T17:30:00+02:00,50.17,EUR,,MWh
Power,Intraday,Continuous,NL,IDFULL,HH,2021-04-09T17:30:00+02:00,2021-04-09T18:00:00+02:00,50.17,EUR,,MWh
Power,Intraday,Continuous,NL,IDFULL,HH,2021-04-09T18:00:00+02:00,2021-04-09T18:30:00+02:00,51.97,EUR,,MWh
Power,Intraday,Continuous,NL,IDFULL,HH,2021-04-09T18:30:00+02:00,2021-04-09T19:00:00+02:00,51.97,EUR,,MWh
Power,Intraday,Continuous,NL,IDFULL,HH,2021-04-09T19:00:00+02:00,2021-04-09T19:30:00+02:00,71.93,EUR,,MWh
Power,Intraday,Continuous,NL,IDFULL,HH,2021-04-09T19:30:00+02:00,2021-04-09T20:00:00+02:00,71.93,EUR,,MWh
Power,Intraday,Continuous,NL,IDFULL,HH,2021-04-09T20:00:00+02:00,2021-04-09T20:30:00+02:00,75.59,EUR,,MWh
Power,Intraday,Continuous,NL,IDFULL,HH,2021-04-09T20:30:00+02:00,2021-04-09T21:00:00+02:00,75.59,EUR,,MWh
Power,Intraday,Continuous,NL,IDFULL,HH,2021-04-09T21:00:00+02:00,2021-04-09T21:30:00+02:00,53.25,EUR,,MWh
Power,Intraday,Continuous,NL,IDFULL,HH,2021-04-09T21:30:00+02:00,2021-04-09T22:00:00+02:00,53.25,EUR,,MWh
Power,Intraday,Continuous,NL,IDFULL,HH,2021-04-09T22:00:00+02:00,2021-04-09T22:30:00+02:00,55.49,EUR,,MWh
Power,Intraday,Continuous,NL,IDFULL,HH,2021-04-09T22:30:00+02:00,2021-04-09T23:00:00+02:00,55.49,EUR,,MWh
Power,Intraday,Continuous,NL,IDFULL,HH,2021-04-09T23:00:00+02:00,2021-04-09T23:30:00+02:00,59.59,EUR,,MWh
Power,Intraday,Continuous,NL,IDFULL,HH,2021-04-09T23:30:00+02:00,2021-04-10T00:00:00+02:00,59.59,EUR,,MWh
Power,Intraday,Continuous,NL,ID1,HH,2021-04-09T00:00:00+02:00,2021-04-09T00:30:00+02:00,41.61,EUR,,MWh
Power,Intraday,Continuous,NL,ID1,HH,2021-04-09T00:30:00+02:00,2021-04-09T01:00:00+02:00,41.61,EUR,,MWh
Power,Intraday,Continuous,NL,ID1,HH,2021-04-09T01:00:00+02:00,2021-04-09T01:30:00+02:00,36.67,EUR,,MWh
Power,Intraday,Continuous,NL,ID1,HH,2021-04-09T01:30:00+02:00,2021-04-09T02:00:00+02:00,36.67,EUR,,MWh
Power,Intraday,Continuous,NL,ID1,HH,2021-04-09T02:00:00+02:00,2021-04-09T02:30:00+02:00,34.65,EUR,,MWh
Power,Intraday,Continuous,NL,ID1,HH,2021-04-09T02:30:00+02:00,2021-04-09T03:00:00+02:00,34.65,EUR,,MWh
Power,Intraday,Continuous,NL,ID1,HH,2021-04-09T03:00:00+02:00,2021-04-09T03:30:00+02:00,33.02,EUR,,MWh
Power,Intraday,Continuous,NL,ID1,HH,2021-04-09T03:30:00+02:00,2021-04-09T04:00:00+02:00,33.02,EUR,,MWh
Power,Intraday,Continuous,NL,ID1,HH,2021-04-09T04:00:00+02:00,2021-04-09T04:30:00+02:00,18.86,EUR,,MWh
Power,Intraday,Continuous,NL,ID1,HH,2021-04-09T04:30:00+02:00,2021-04-09T05:00:00+02:00,18.86,EUR,,MWh
Power,Intraday,Continuous,NL,ID1,HH,2021-04-09T05:00:00+02:00,2021-04-09T05:30:00+02:00,18.20,EUR,,MWh
Power,Intraday,Continuous,NL,ID1,HH,2021-04-09T05:30:00+02:00,2021-04-09T06:00:00+02:00,18.20,EUR,,MWh
Power,Intraday,Continuous,NL,ID1,HH,2021-04-09T06:00:00+02:00,2021-04-09T06:30:00+02:00,28.10,EUR,,MWh
Power,Intraday,Continuous,NL,ID1,HH,2021-04-09T06:30:00+02:00,2021-04-09T07:00:00+02:00,28.10,EUR,,MWh
Power,Intraday,Continuous,NL,ID1,HH,2021-04-09T07:00:00+02:00,2021-04-09T07:30:00+02:00,36.75,EUR,,MWh
Power,Intraday,Continuous,NL,ID1,HH,2021-04-09T07:30:00+02:00,2021-04-09T08:00:00+02:00,36.75,EUR,,MWh
Power,Intraday,Continuous,NL,ID1,HH,2021-04-09T08:00:00+02:00,2021-04-09T08:30:00+02:00,49.94,EUR,,MWh
Power,Intraday,Continuous,NL,ID1,HH,2021-04-09T08:30:00+02:00,2021-04-09T09:00:00+02:00,49.94,EUR,,MWh
Power,Intraday,Continuous,NL,ID1,HH,2021-04-09T09:00:00+02:00,2021-04-09T09:30:00+02:00,32.27,EUR,,MWh
Power,Intraday,Continuous,NL,ID1,HH,2021-04-09T09:30:00+02:00,2021-04-09T10:00:00+02:00,32.27,EUR,,MWh
Power,Intraday,Continuous,NL,ID1,HH,2021-04-09T10:00:00+02:00,2021-04-09T10:30:00+02:00,27.87,EUR,,MWh
Power,Intraday,Continuous,NL,ID1,HH,2021-04-09T10:30:00+02:00,2021-04-09T11:00:00+02:00,27.87,EUR,,MWh
Power,Intraday,Continuous,NL,ID1,HH,2021-04-09T11:00:00+02:00,2021-04-09T11:30:00+02:00,21.35,EUR,,MWh
Power,Intraday,Continuous,NL,ID1,HH,2021-04-09T11:30:00+02:00,2021-04-09T12:00:00+02:00,21.35,EUR,,MWh
Power,Intraday,Continuous,NL,ID1,HH,2021-04-09T12:00:00+02:00,2021-04-09T12:30:00+02:00,25.12,EUR,,MWh
Power,Intraday,Continuous,NL,ID1,HH,2021-04-09T12:30:00+02:00,2021-04-09T13:00:00+02:00,25.12,EUR,,MWh
Power,Intraday,Continuous,NL,ID1,HH,2021-04-09T13:00:00+02:00,2021-04-09T13:30:00+02:00,24.49,EUR,,MWh
Power,Intraday,Continuous,NL,ID1,HH,2021-04-09T13:30:00+02:00,2021-04-09T14:00:00+02:00,24.49,EUR,,MWh
Power,Intraday,Continuous,NL,ID1,HH,2021-04-09T14:00:00+02:00,2021-04-09T14:30:00+02:00,23.51,EUR,,MWh
Power,Intraday,Continuous,NL,ID1,HH,2021-04-09T14:30:00+02:00,2021-04-09T15:00:00+02:00,23.51,EUR,,MWh
Power,Intraday,Continuous,NL,ID1,HH,2021-04-09T15:00:00+02:00,2021-04-09T15:30:00+02:00,27.50,EUR,,MWh
Power,Intraday,Continuous,NL,ID1,HH,2021-04-09T15:30:00+02:00,2021-04-09T16:00:00+02:00,27.50,EUR,,MWh
Power,Intraday,Continuous,NL,ID1,HH,2021-04-09T16:00:00+02:00,2021-04-09T16:30:00+02:00,37.88,EUR,,MWh
Power,Intraday,Continuous,NL,ID1,HH,2021-04-09T16:30:00+02:00,2021-04-09T17:00:00+02:00,37.88,EUR,,MWh
Power,Intraday,Continuous,NL,ID1,HH,2021-04-09T17:00:00+02:00,2021-04-09T17:30:00+02:00,50.17,EUR,,MWh
Power,Intraday,Continuous,NL,ID1,HH,2021-04-09T17:30:00+02:00,2021-04-09T18:00:00+02:00,50.17,EUR,,MWh
Power,Intraday,Continuous,NL,ID1,HH,2021-04-09T18:00:00+02:00,2021-04-09T18:30:00+02:00,51.97,EUR,,MWh
Power,Intraday,Continuous,NL,ID1,HH,2021-04-09T18:30:00+02:00,2021-04-09T19:00:00+02:00,51.97,EUR,,MWh
Power,Intraday,Continuous,NL,ID1,HH,2021-04-09T19:00:00+02:00,2021-04-09T19:30:00+02:00,71.93,EUR,,MWh
Power,Intraday,Continuous,NL,ID1,HH,2021-04-09T19:30:00+02:00,2021-04-09T20:00:00+02:00,71.93,EUR,,MWh
Power,Intraday,Continuous,NL,ID1,HH,2021-04-09T20:00:00+02:00,2021-04-09T20:30:00+02:00,75.59,EUR,,MWh
Power,Intraday,Continuous,NL,ID1,HH,2021-04-09T20:30:00+02:00,2021-04-09T21:00:00+02:00,75.59,EUR,,MWh
Power,Intraday,Continuous,NL,ID1,HH,2021-04-09T21:00:00+02:00,2021-04-09T21:30:00+02:00,53.25,EUR,,MWh
Power,Intraday,Continuous,NL,ID1,HH,2021-04-09T21:30:00+02:00,2021-04-09T22:00:00+02:00,53.25,EUR,,MWh
Power,Intraday,Continuous,NL,ID1,HH,2021-04-09T22:00:00+02:00,2021-04-09T22:30:00+02:00,55.49,EUR,,MWh
Power,Intraday,Continuous,NL,ID1,HH,2021-04-09T22:30:00+02:00,2021-04-09T23:00:00+02:00,55.49,EUR,,MWh
Power,Intraday,Continuous,NL,ID1,HH,2021-04-09T23:00:00+02:00,2021-04-09T23:30:00+02:00,59.59,EUR,,MWh
Power,Intraday,Continuous,NL,ID1,HH,2021-04-09T23:30:00+02:00,2021-04-10T00:00:00+02:00,59.59,EUR,,MWh
Power,Intraday,Continuous,NL,ID3,HH,2021-04-09T00:00:00+02:00,2021-04-09T00:30:00+02:00,41.61,EUR,,MWh
Power,Intraday,Continuous,NL,ID3,HH,2021-04-09T00:30:00+02:00,2021-04-09T01:00:00+02:00,41.61,EUR,,MWh
Power,Intraday,Continuous,NL,ID3,HH,2021-04-09T01:00:00+02:00,2021-04-09T01:30:00+02:00,36.67,EUR,,MWh
Power,Intraday,Continuous,NL,ID3,HH,2021-04-09T01:30:00+02:00,2021-04-09T02:00:00+02:00,36.67,EUR,,MWh
Power,Intraday,Continuous,NL,ID3,HH,2021-04-09T02:00:00+02:00,2021-04-09T02:30:00+02:00,34.65,EUR,,MWh
Power,Intraday,Continuous,NL,ID3,HH,2021-04-09T02:30:00+02:00,2021-04-09T03:00:00+02:00,34.65,EUR,,MWh
Power,Intraday,Continuous,NL,ID3,HH,2021-04-09T03:00:00+02:00,2021-04-09T03:30:00+02:00,33.02,EUR,,MWh
Power,Intraday,Continuous,NL,ID3,HH,2021-04-09T03:30:00+02:00,2021-04-09T04:00:00+02:00,33.02,EUR,,MWh
Power,Intraday,Continuous,NL,ID3,HH,2021-04-09T04:00:00+02:00,2021-04-09T04:30:00+02:00,18.86,EUR,,MWh
Power,Intraday,Continuous,NL,ID3,HH,2021-04-09T04:30:00+02:00,2021-04-09T05:00:00+02:00,18.86,EUR,,MWh
Power,Intraday,Continuous,NL,ID3,HH,2021-04-09T05:00:00+02:00,2021-04-09T05:30:00+02:00,18.20,EUR,,MWh
Power,Intraday,Continuous,NL,ID3,HH,2021-04-09T05:30:00+02:00,2021-04-09T06:00:00+02:00,18.20,EUR,,MWh
Power,Intraday,Continuous,NL,ID3,HH,2021-04-09T06:00:00+02:00,2021-04-09T06:30:00+02:00,28.10,EUR,,MWh
Power,Intraday,Continuous,NL,ID3,HH,2021-04-09T06:30:00+02:00,2021-04-09T07:00:00+02:00,28.10,EUR,,MWh
Power,Intraday,Continuous,NL,ID3,HH,2021-04-09T07:00:00+02:00,2021-04-09T07:30:00+02:00,36.75,EUR,,MWh
Power,Intraday,Continuous,NL,ID3,HH,2021-04-09T07:30:00+02:00,2021-04-09T08:00:00+02:00,36.75,EUR,,MWh
Power,Intraday,Continuous,NL,ID3,HH,2021-04-09T08:00:00+02:00,2021-04-09T08:30:00+02:00,49.94,EUR,,MWh
Power,Intraday,Continuous,NL,ID3,HH,2021-04-09T08:30:00+02:00,2021-04-09T09:00:00+02:00,49.94,EUR,,MWh
Power,Intraday,Continuous,NL,ID3,HH,2021-04-09T09:00:00+02:00,2021-04-09T09:30:00+02:00,32.27,EUR,,MWh
Power,Intraday,Continuous,NL,ID3,HH,2021-04-09T09:30:00+02:00,2021-04-09T10:00:00+02:00,32.27,EUR,,MWh
Power,Intraday,Continuous,NL,ID3,HH,2021-04-09T10:00:00+02:00,2021-04-09T10:30:00+02:00,27.87,EUR,,MWh
Power,Intraday,Continuous,NL,ID3,HH,2021-04-09T10:30:00+02:00,2021-04-09T11:00:00+02:00,27.87,EUR,,MWh
Power,Intraday,Continuous,NL,ID3,HH,2021-04-09T11:00:00+02:00,2021-04-09T11:30:00+02:00,21.35,EUR,,MWh
Power,Intraday,Continuous,NL,ID3,HH,2021-04-09T11:30:00+02:00,2021-04-09T12:00:00+02:00,21.35,EUR,,MWh
Power,Intraday,Continuous,NL,ID3,HH,2021-04-09T12:00:00+02:00,2021-04-09T12:30:00+02:00,25.12,EUR,,MWh
Power,Intraday,Continuous,NL,ID3,HH,2021-04-09T12:30:00+02:00,2021-04-09T13:00:00+02:00,25.12,EUR,,MWh
Power,Intraday,Continuous,NL,ID3,HH,2021-04-09T13:00:00+02:00,2021-04-09T13:30:00+02:00,24.49,EUR,,MWh
Power,Intraday,Continuous,NL,ID3,HH,2021-04-09T13:30:00+02:00,2021-04-09T14:00:00+02:00,24.49,EUR,,MWh
Power,Intraday,Continuous,NL,ID3,HH,2021-04-09T14:00:00+02:00,2021-04-09T14:30:00+02:00,23.51,EUR,,MWh
Power,Intraday,Continuous,NL,ID3,HH,2021-04-09T14:30:00+02:00,2021-04-09T15:00:00+02:00,23.51,EUR,,MWh
Power,Intraday,Continuous,NL,ID3,HH,2021-04-09T15:00:00+02:00,2021-04-09T15:30:00+02:00,27.50,EUR,,MWh
Power,Intraday,Continuous,NL,ID3,HH,2021-04-09T15:30:00+02:00,2021-04-09T16:00:00+02:00,27.50,EUR,,MWh
Power,Intraday,Continuous,NL,ID3,HH,2021-04-09T16:00:00+02:00,2021-04-09T16:30:00+02:00,37.88,EUR,,MWh
Power,Intraday,Continuous,NL,ID3,HH,2021-04-09T16:30:00+02:00,2021-04-09T17:00:00+02:00,37.88,EUR,,MWh
Power,Intraday,Continuous,NL,ID3,HH,2021-04-09T17:00:00+02:00,2021-04-09T17:30:00+02:00,50.17,EUR,,MWh
Power,Intraday,Continuous,NL,ID3,HH,2021-04-09T17:30:00+02:00,2021-04-09T18:00:00+02:00,50.17,EUR,,MWh
Power,Intraday,Continuous,NL,ID3,HH,2021-04-09T18:00:00+02:00,2021-04-09T18:30:00+02:00,51.97,EUR,,MWh
Power,Intraday,Continuous,NL,ID3,HH,2021-04-09T18:30:00+02:00,2021-04-09T19:00:00+02:00,51.97,EUR,,MWh
Power,Intraday,Continuous,NL,ID3,HH,2021-04-09T19:00:00+02:00,2021-04-09T19:30:00+02:00,71.93,EUR,,MWh
Power,Intraday,Continuous,NL,ID3,HH,2021-04-09T19:30:00+02:00,2021-04-09T20:00:00+02:00,71.93,EUR,,MWh
Power,Intraday,Continuous,NL,ID3,HH,2021-04-09T20:00:00+02:00,2021-04-09T20:30:00+02:00,75.59,EUR,,MWh
Power,Intraday,Continuous,NL,ID3,HH,2021-04-09T20:30:00+02:00,2021-04-09T21:00:00+02:00,75.59,EUR,,MWh
Power,Intraday,Continuous,NL,ID3,HH,2021-04-09T21:00:00+02:00,2021-04-09T21:30:00+02:00,53.25,EUR,,MWh
Power,Intraday,Continuous,NL,ID3,HH,2021-04-09T21:30:00+02:00,2021-04-09T22:00:00+02:00,53.25,EUR,,MWh
Power,Intraday,Continuous,NL,ID3,HH,2021-04-09T22:00:00+02:00,2021-04-09T22:30:00+02:00,55.49,EUR,,MWh
Power,Intraday,Continuous,NL,ID3,HH,2021-04-09T22:30:00+02:00,2021-04-09T23:00:00+02:00,55.49,EUR,,MWh
Power,Intraday,Continuous,NL,ID3,HH,2021-04-09T23:00:00+02:00,2021-04-09T23:30:00+02:00,59.59,EUR,,MWh
Power,Intraday,Continuous,NL,ID3,HH,2021-04-09T23:30:00+02:00,2021-04-10T00:00:00+02:00,59.59,EUR,,MWh
Power,Intraday,Continuous,NL,IDFULL,QH,2021-04-09T00:00:00+02:00,2021-04-09T00:15:00+02:00,41.61,EUR,,MWh
Power,Intraday,Continuous,NL,IDFULL,QH,2021-04-09T00:15:00+02:00,2021-04-09T00:30:00+02:00,41.61,EUR,,MWh
Power,Intraday,Continuous,NL,IDFULL,QH,2021-04-09T00:30:00+02:00,2021-04-09T00:45:00+02:00,41.61,EUR,,MWh
Power,Intraday,Continuous,NL,IDFULL,QH,2021-04-09T00:45:00+02:00,2021-04-09T01:00:00+02:00,41.61,EUR,,MWh
Power,Intraday,Continuous,NL,IDFULL,QH,2021-04-09T01:00:00+02:00,2021-04-09T01:15:00+02:00,36.67,EUR,,MWh
Power,Intraday,Continuous,NL,IDFULL,QH,2021-04-09T01:15:00+02:00,2021-04-09T01:30:00+02:00,36.67,EUR,,MWh
Power,Intraday,Continuous,NL,IDFULL,QH,2021-04-09T01:30:00+02:00,2021-04-09T01:45:00+02:00,36.67,EUR,,MWh
Power,Intraday,Continuous,NL,IDFULL,QH,2021-04-09T01:45:00+02:00,2021-04-09T02:00:00+02:00,36.67,EUR,,MWh
Power,Intraday,Continuous,NL,IDFULL,QH,2021-04-09T02:00:00+02:00,2021-04-09T02:15:00+02:00,34.65,EUR,,MWh
Power,Intraday,Continuous,NL,IDFULL,QH,2021-04-09T02:15:00+02:00,2021-04-09T02:30:00+02:00,34.65,EUR,,MWh
Power,Intraday,Continuous,NL,IDFULL,QH,2021-04-09T02:30:00+02:00,2021-04-09T02:45:00+02:00,34.65,EUR,,MWh
Power,Intraday,Continuous,NL,IDFULL,QH,2021-04-09T02:45:00+02:00,2021-04-09T03:00:00+02:00,34.65,EUR,,MWh
Power,Intraday,Continuous,NL,IDFULL,QH,2021-04-09T03:00:00+02:00,2021-04-09T03:15:00+02:00,33.02,EUR,,MWh
Power,Intraday,Continuous,NL,IDFULL,QH,2021-04-09T03:15:00+02:00,2021-04-09T03:30:00+02:00,33.02,EUR,,MWh
Power,Intraday,Continuous,NL,IDFULL,QH,2021-04-09T03:30:00+02:00,2021-04-09T03:45:00+02:00,33.02,EUR,,MWh
Power,Intraday,Continuous,NL,IDFULL,QH,2021-04-09T03:45:00+02:00,2021-04-09T04:00:00+02:00,33.02,EUR,,MWh
Power,Intraday,Continuous,NL,IDFULL,QH,2021-04-09T04:00:00+02:00,2021-04-09T04:15:00+02:00,18.86,EUR,,MWh
Power,Intraday,Continuous,NL,IDFULL,QH,2021-04-09T04:15:00+02:00,2021-04-09T04:30:00+02:00,18.86,EUR,,MWh
Power,Intraday,Continuous,NL,IDFULL,QH,2021-04-09T04:30:00+02:00,2021-04-09T04:45:00+02:00,18.86,EUR,,MWh
Power,Intraday,Continuous,NL,IDFULL,QH,2021-04-09T04:45:00+02:00,2021-04-09T05:00:00+02:00,18.86,EUR,,MWh
Power,Intraday,Continuous,NL,IDFULL,QH,2021-04-09T05:00:00+02:00,2021-04-09T05:15:00+02:00,46.27,EUR,4.150,MWh
Power,Intraday,Continuous,NL,IDFULL,QH,2021-04-09T05:15:00+02:00,2021-04-09T05:30:00+02:00,47.26,EUR,5.730,MWh
Power,Intraday,Continuous,NL,IDFULL,QH,2021-04-09T05:30:00+02:00,2021-04-09T05:45:00+02:00,-10.37,EUR,,MWh
Power,Intraday,Continuous,NL,IDFULL,QH,2021-04-09T05:45:00+02:00,2021-04-09T06:00:00+02:00,-10.37,EUR,,MWh
Power,Intraday,Continuous,NL,IDFULL,QH,2021-04-09T06:00:00+02:00,2021-04-09T06:15:00+02:00,20.97,EUR,,MWh
Power,Intraday,Continuous,NL,IDFULL,QH,2021-04-09T06:15:00+02:00,2021-04-09T06:30:00+02:00,20.97,EUR,,MWh
Power,Intraday,Continuous,NL,IDFULL,QH,2021-04-09T06:30:00+02:00,2021-04-09T06:45:00+02:00,49.50,EUR,5.700,MWh
Power,Intraday,Continuous,NL,IDFULL,QH,2021-04-09T06:45:00+02:00,2021-04-09T07:00:00+02:00,20.97,EUR,,MWh
Power,Intraday,Continuous,NL,IDFULL,QH,2021-04-09T07:00:00+02:00,2021-04-09T07:15:00+02:00,20.60,EUR,4.680,MWh
Power,Intraday,Continuous,NL,IDFULL,QH,2021-04-09T07:15:00+02:00,2021-04-09T07:30:00+02:00,20.54,EUR,6.250,MWh
Power,Intraday,Continuous,NL,IDFULL,QH,2021-04-09T07:30:00+02:00,2021-04-09T07:45:00+02:00,35.14,EUR,5.500,MWh
Power,Intraday,Continuous,NL,IDFULL,QH,2021-04-09T07:45:00+02:00,2021-04-09T08:00:00+02:00,41.17,EUR,5.150,MWh
Power,Intraday,Continuous,NL,IDFULL,QH,2021-04-09T08:00:00+02:00,2021-04-09T08:15:00+02:00,18.21,EUR,3.750,MWh
Power,Intraday,Continuous,NL,IDFULL,QH,2021-04-09T08:15:00+02:00,2021-04-09T08:30:00+02:00,100.94,EUR,,MWh
Power,Intraday,Continuous,NL,IDFULL,QH,2021-04-09T08:30:00+02:00,2021-04-09T08:45:00+02:00,43.45,EUR,11.250,MWh
Power,Intraday,Continuous,NL,IDFULL,QH,2021-04-09T08:45:00+02:00,2021-04-09T09:00:00+02:00,37.16,EUR,16.080,MWh
Power,Intraday,Continuous,NL,IDFULL,QH,2021-04-09T09:00:00+02:00,2021-04-09T09:15:00+02:00,43.98,EUR,6.330,MWh
Power,Intraday,Continuous,NL,IDFULL,QH,2021-04-09T09:15:00+02:00,2021-04-09T09:30:00+02:00,35.79,EUR,8.930,MWh
Power,Intraday,Continuous,NL,IDFULL,QH,2021-04-09T09:30:00+02:00,2021-04-09T09:45:00+02:00,25.80,EUR,7.930,MWh
Power,Intraday,Continuous,NL,IDFULL,QH,2021-04-09T09:45:00+02:00,2021-04-09T10:00:00+02:00,9.69,EUR,8.750,MWh
Power,Intraday,Continuous,NL,IDFULL,QH,2021-04-09T10:00:00+02:00,2021-04-09T10:15:00+02:00,41.01,EUR,4.050,MWh
Power,Intraday,Continuous,NL,IDFULL,QH,2021-04-09T10:15:00+02:00,2021-04-09T10:30:00+02:00,27.35,EUR,5.750,MWh
Power,Intraday,Continuous,NL,IDFULL,QH,2021-04-09T10:30:00+02:00,2021-04-09T10:45:00+02:00,10.76,EUR,5.180,MWh
Power,Intraday,Continuous,NL,IDFULL,QH,2021-04-09T10:45:00+02:00,2021-04-09T11:00:00+02:00,34.45,EUR,6.150,MWh
Power,Intraday,Continuous,NL,IDFULL,QH,2021-04-09T11:00:00+02:00,2021-04-09T11:15:00+02:00,43.66,EUR,14.500,MWh
Power,Intraday,Continuous,NL,IDFULL,QH,2021-04-09T11:15:00+02:00,2021-04-09T11:30:00+02:00,39.48,EUR,3.650,MWh
Power,Intraday,Continuous,NL,IDFULL,QH,2021-04-09T11:30:00+02:00,2021-04-09T11:45:00+02:00,-12.65,EUR,,MWh
Power,Intraday,Continuous,NL,IDFULL,QH,2021-04-09T11:45:00+02:00,2021-04-09T12:00:00+02:00,14.91,EUR,5.900,MWh
Power,Intraday,Continuous,NL,IDFULL,QH,2021-04-09T12:00:00+02:00,2021-04-09T12:15:00+02:00,48.15,EUR,6.250,MWh
Power,Intraday,Continuous,NL,IDFULL,QH,2021-04-09T12:15:00+02:00,2021-04-09T12:30:00+02:00,17.44,EUR,,MWh
Power,Intraday,Continuous,NL,IDFULL,QH,2021-04-09T12:30:00+02:00,2021-04-09T12:45:00+02:00,17.44,EUR,,MWh
Power,Intraday,Continuous,NL,IDFULL,QH,2021-04-09T12:45:00+02:00,2021-04-09T13:00:00+02:00,17.44,EUR,,MWh
Power,Intraday,Continuous,NL,IDFULL,QH,2021-04-09T13:00:00+02:00,2021-04-09T13:15:00+02:00,32.50,EUR,5.000,MWh
Power,Intraday,Continuous,NL,IDFULL,QH,2021-04-09T13:15:00+02:00,2021-04-09T13:30:00+02:00,11.49,EUR,,MWh
Power,Intraday,Continuous,NL,IDFULL,QH,2021-04-09T13:30:00+02:00,2021-04-09T13:45:00+02:00,42.49,EUR,3.750,MWh
Power,Intraday,Continuous,NL,IDFULL,QH,2021-04-09T13:45:00+02:00,2021-04-09T14:00:00+02:00,11.49,EUR,,MWh
Power,Intraday,Continuous,NL,IDFULL,QH,2021-04-09T14:00:00+02:00,2021-04-09T14:15:00+02:00,55.00,EUR,3.000,MWh
Power,Intraday,Continuous,NL,IDFULL,QH,2021-04-09T14:15:00+02:00,2021-04-09T14:30:00+02:00,-8.20,EUR,,MWh
Power,Intraday,Continuous,NL,IDFULL,QH,2021-04-09T14:30:00+02:00,2021-04-09T14:45:00+02:00,55.44,EUR,4.580,MWh
Power,Intraday,Continuous,NL,IDFULL,QH,2021-04-09T14:45:00+02:00,2021-04-09T15:00:00+02:00,-8.20,EUR,,MWh
Power,Intraday,Continuous,NL,IDFULL,QH,2021-04-09T15:00:00+02:00,2021-04-09T15:15:00+02:00,-18.67,EUR,20.700,MWh
Power,Intraday,Continuous,NL,IDFULL,QH,2021-04-09T15:15:00+02:00,2021-04-09T15:30:00+02:00,25.52,EUR,34.230,MWh
Power,Intraday,Continuous,NL,IDFULL,QH,2021-04-09T15:30:00+02:00,2021-04-09T15:45:00+02:00,54.00,EUR,30.380,MWh
Power,Intraday,Continuous,NL,IDFULL,QH,2021-04-09T15:45:00+02:00,2021-04-09T16:00:00+02:00,56.34,EUR,46.280,MWh
Power,Intraday,Continuous,NL,IDFULL,QH,2021-04-09T16:00:00+02:00,2021-04-09T16:15:00+02:00,22.47,EUR,12.130,MWh
Power,Intraday,Continuous,NL,IDFULL,QH,2021-04-09T16:15:00+02:00,2021-04-09T16:30:00+02:00,29.05,EUR,15.000,MWh
Power,Intraday,Continuous,NL,IDFULL,QH,2021-04-09T16:30:00+02:00,2021-04-09T16:45:00+02:00,48.57,EUR,20.000,MWh
Power,Intraday,Continuous,NL,IDFULL,QH,2021-04-09T16:45:00+02:00,2021-04-09T17:00:00+02:00,64.02,EUR,30.130,MWh
Power,Intraday,Continuous,NL,IDFULL,QH,2021-04-09T17:00:00+02:00,2021-04-09T17:15:00+02:00,31.12,EUR,114.850,MWh
Power,Intraday,Continuous,NL,IDFULL,QH,2021-04-09T17:15:00+02:00,2021-04-09T17:30:00+02:00,47.44,EUR,73.700,MWh
Power,Intraday,Continuous,NL,IDFULL,QH,2021-04-09T17:30:00+02:00,2021-04-09T17:45:00+02:00,54.95,EUR,85.230,MWh
Power,Intraday,Continuous,NL,IDFULL,QH,2021-04-09T17:45:00+02:00,2021-04-09T18:00:00+02:00,70.52,EUR,90.000,MWh
Power,Intraday,Continuous,NL,IDFULL,QH,2021-04-09T18:00:00+02:00,2021-04-09T18:15:00+02:00,37.72,EUR,15.430,MWh
Power,Intraday,Continuous,NL,IDFULL,QH,2021-04-09T18:15:00+02:00,2021-04-09T18:30:00+02:00,47.18,EUR,14.650,MWh
Power,Intraday,Continuous,NL,IDFULL,QH,2021-04-09T18:30:00+02:00,2021-04-09T18:45:00+02:00,65.63,EUR,28.800,MWh
Power,Intraday,Continuous,NL,IDFULL,QH,2021-04-09T18:45:00+02:00,2021-04-09T19:00:00+02:00,89.99,EUR,34.900,MWh
Power,Intraday,Continuous,NL,IDFULL,QH,2021-04-09T19:00:00+02:00,2021-04-09T19:15:00+02:00,60.16,EUR,43.030,MWh
Power,Intraday,Continuous,NL,IDFULL,QH,2021-04-09T19:15:00+02:00,2021-04-09T19:30:00+02:00,66.73,EUR,34.330,MWh
Power,Intraday,Continuous,NL,IDFULL,QH,2021-04-09T19:30:00+02:00,2021-04-09T19:45:00+02:00,76.24,EUR,26.000,MWh
Power,Intraday,Continuous,NL,IDFULL,QH,2021-04-09T19:45:00+02:00,2021-04-09T20:00:00+02:00,80.69,EUR,32.130,MWh
Power,Intraday,Continuous,NL,IDFULL,QH,2021-04-09T20:00:00+02:00,2021-04-09T20:15:00+02:00,84.75,EUR,28.950,MWh
Power,Intraday,Continuous,NL,IDFULL,QH,2021-04-09T20:15:00+02:00,2021-04-09T20:30:00+02:00,70.67,EUR,11.980,MWh
Power,Intraday,Continuous,NL,IDFULL,QH,2021-04-09T20:30:00+02:00,2021-04-09T20:45:00+02:00,81.08,EUR,13.400,MWh
Power,Intraday,Continuous,NL,IDFULL,QH,2021-04-09T20:45:00+02:00,2021-04-09T21:00:00+02:00,67.14,EUR,19.200,MWh
Power,Intraday,Continuous,NL,IDFULL,QH,2021-04-09T21:00:00+02:00,2021-04-09T21:15:00+02:00,88.13,EUR,8.000,MWh
Power,Intraday,Continuous,NL,IDFULL,QH,2021-04-09T21:15:00+02:00,2021-04-09T21:30:00+02:00,55.54,EUR,,MWh
Power,Intraday,Continuous,NL,IDFULL,QH,2021-04-09T21:30:00+02:00,2021-04-09T21:45:00+02:00,48.18,EUR,5.250,MWh
Power,Intraday,Continuous,NL,IDFULL,QH,2021-04-09T21:45:00+02:00,2021-04-09T22:00:00+02:00,21.15,EUR,10.900,MWh
Power,Intraday,Continuous,NL,IDFULL,QH,2021-04-09T22:00:00+02:00,2021-04-09T22:15:00+02:00,65.73,EUR,,MWh
Power,Intraday,Continuous,NL,IDFULL,QH,2021-04-09T22:15:00+02:00,2021-04-09T22:30:00+02:00,65.73,EUR,,MWh
Power,Intraday,Continuous,NL,IDFULL,QH,2021-04-09T22:30:00+02:00,2021-04-09T22:45:00+02:00,51.50,EUR,9.930,MWh
Power,Intraday,Continuous,NL,IDFULL,QH,2021-04-09T22:45:00+02:00,2021-04-09T23:00:00+02:00,39.01,EUR,15.280,MWh
Power,Intraday,Continuous,NL,IDFULL,QH,2021-04-09T23:00:00+02:00,2021-04-09T23:15:00+02:00,78.99,EUR,13.680,MWh
Power,Intraday,Continuous,NL,IDFULL,QH,2021-04-09T23:15:00+02:00,2021-04-09T23:30:00+02:00,61.72,EUR,11.100,MWh
Power,Intraday,Continuous,NL,IDFULL,QH,2021-04-09T23:30:00+02:00,2021-04-09T23:45:00+02:00,56.44,EUR,,MWh
Power,Intraday,Continuous,NL,IDFULL,QH,2021-04-09T23:45:00+02:00,2021-04-10T00:00:00+02:00,41.21,EUR,5.580,MWh
Power,Intraday,Continuous,NL,ID1,QH,2021-04-09T00:00:00+02:00,2021-04-09T00:15:00+02:00,41.61,EUR,,MWh
Power,Intraday,Continuous,NL,ID1,QH,2021-04-09T00:15:00+02:00,2021-04-09T00:30:00+02:00,41.61,EUR,,MWh
Power,Intraday,Continuous,NL,ID1,QH,2021-04-09T00:30:00+02:00,2021-04-09T00:45:00+02:00,41.61,EUR,,MWh
Power,Intraday,Continuous,NL,ID1,QH,2021-04-09T00:45:00+02:00,2021-04-09T01:00:00+02:00,41.61,EUR,,MWh
Power,Intraday,Continuous,NL,ID1,QH,2021-04-09T01:00:00+02:00,2021-04-09T01:15:00+02:00,36.67,EUR,,MWh
Power,Intraday,Continuous,NL,ID1,QH,2021-04-09T01:15:00+02:00,2021-04-09T01:30:00+02:00,36.67,EUR,,MWh
Power,Intraday,Continuous,NL,ID1,QH,2021-04-09T01:30:00+02:00,2021-04-09T01:45:00+02:00,36.67,EUR,,MWh
Power,Intraday,Continuous,NL,ID1,QH,2021-04-09T01:45:00+02:00,2021-04-09T02:00:00+02:00,36.67,EUR,,MWh
Power,Intraday,Continuous,NL,ID1,QH,2021-04-09T02:00:00+02:00,2021-04-09T02:15:00+02:00,34.65,EUR,,MWh
Power,Intraday,Continuous,NL,ID1,QH,2021-04-09T02:15:00+02:00,2021-04-09T02:30:00+02:00,34.65,EUR,,MWh
Power,Intraday,Continuous,NL,ID1,QH,2021-04-09T02:30:00+02:00,2021-04-09T02:45:00+02:00,34.65,EUR,,MWh
Power,Intraday,Continuous,NL,ID1,QH,2021-04-09T02:45:00+02:00,2021-04-09T03:00:00+02:00,34.65,EUR,,MWh
Power,Intraday,Continuous,NL,ID1,QH,2021-04-09T03:00:00+02:00,2021-04-09T03:15:00+02:00,33.02,EUR,,MWh
Power,Intraday,Continuous,NL,ID1,QH,2021-04-09T03:15:00+02:00,2021-04-09T03:30:00+02:00,33.02,EUR,,MWh
Power,Intraday,Continuous,NL,ID1,QH,2021-04-09T03:30:00+02:00,2021-04-09T03:45:00+02:00,33.02,EUR,,MWh
Power,Intraday,Continuous,NL,ID1,QH,2021-04-09T03:45:00+02:00,2021-04-09T04:00:00+02:00,33.02,EUR,,MWh
Power,Intraday,Continuous,NL,ID1,QH,2021-04-09T04:00:00+02:00,2021-04-09T04:15:00+02:00,18.86,EUR,,MWh
Power,Intraday,Continuous,NL,ID1,QH,2021-04-09T04:15:00+02:00,2021-04-09T04:30:00+02:00,18.86,EUR,,MWh
Power,Intraday,Continuous,NL,ID1,QH,2021-04-09T04:30:00+02:00,2021-04-09T04:45:00+02:00,18.86,EUR,,MWh
Power,Intraday,Continuous,NL,ID1,QH,2021-04-09T04:45:00+02:00,2021-04-09T05:00:00+02:00,18.86,EUR,,MWh
Power,Intraday,Continuous,NL,ID1,QH,2021-04-09T05:00:00+02:00,2021-04-09T05:15:00+02:00,43.83,EUR,3.000,MWh
Power,Intraday,Continuous,NL,ID1,QH,2021-04-09T05:15:00+02:00,2021-04-09T05:30:00+02:00,43.13,EUR,3.750,MWh
Power,Intraday,Continuous,NL,ID1,QH,2021-04-09T05:30:00+02:00,2021-04-09T05:45:00+02:00,-10.37,EUR,,MWh
Power,Intraday,Continuous,NL,ID1,QH,2021-04-09T05:45:00+02:00,2021-04-09T06:00:00+02:00,-10.37,EUR,,MWh
Power,Intraday,Continuous,NL,ID1,QH,2021-04-09T06:00:00+02:00,2021-04-09T06:15:00+02:00,20.97,EUR,,MWh
Power,Intraday,Continuous,NL,ID1,QH,2021-04-09T06:15:00+02:00,2021-04-09T06:30:00+02:00,20.97,EUR,,MWh
Power,Intraday,Continuous,NL,ID1,QH,2021-04-09T06:30:00+02:00,2021-04-09T06:45:00+02:00,49.50,EUR,5.700,MWh
Power,Intraday,Continuous,NL,ID1,QH,2021-04-09T06:45:00+02:00,2021-04-09T07:00:00+02:00,20.97,EUR,,MWh
Power,Intraday,Continuous,NL,ID1,QH,2021-04-09T07:00:00+02:00,2021-04-09T07:15:00+02:00,20.60,EUR,,MWh
Power,Intraday,Continuous,NL,ID1,QH,2021-04-09T07:15:00+02:00,2021-04-09T07:30:00+02:00,22.29,EUR,3.100,MWh
Power,Intraday,Continuous,NL,ID1,QH,2021-04-09T07:30:00+02:00,2021-04-09T07:45:00+02:00,35.14,EUR,5.500,MWh
Power,Intraday,Continuous,NL,ID1,QH,2021-04-09T07:45:00+02:00,2021-04-09T08:00:00+02:00,41.17,EUR,5.150,MWh
Power,Intraday,Continuous,NL,ID1,QH,2021-04-09T08:00:00+02:00,2021-04-09T08:15:00+02:00,15.00,EUR,2.500,MWh
Power,Intraday,Continuous,NL,ID1,QH,2021-04-09T08:15:00+02:00,2021-04-09T08:30:00+02:00,100.94,EUR,,MWh
Power,Intraday,Continuous,NL,ID1,QH,2021-04-09T08:30:00+02:00,2021-04-09T08:45:00+02:00,43.45,EUR,11.250,MWh
Power,Intraday,Continuous,NL,ID1,QH,2021-04-09T08:45:00+02:00,2021-04-09T09:00:00+02:00,37.16,EUR,16.080,MWh
Power,Intraday,Continuous,NL,ID1,QH,2021-04-09T09:00:00+02:00,2021-04-09T09:15:00+02:00,43.88,EUR,6.250,MWh
Power,Intraday,Continuous,NL,ID1,QH,2021-04-09T09:15:00+02:00,2021-04-09T09:30:00+02:00,35.98,EUR,3.330,MWh
Power,Intraday,Continuous,NL,ID1,QH,2021-04-09T09:30:00+02:00,2021-04-09T09:45:00+02:00,29.23,EUR,4.180,MWh
Power,Intraday,Continuous,NL,ID1,QH,2021-04-09T09:45:00+02:00,2021-04-09T10:00:00+02:00,0.47,EUR,5.000,MWh
Power,Intraday,Continuous,NL,ID1,QH,2021-04-09T10:00:00+02:00,2021-04-09T10:15:00+02:00,41.01,EUR,4.050,MWh
Power,Intraday,Continuous,NL,ID1,QH,2021-04-09T10:15:00+02:00,2021-04-09T10:30:00+02:00,27.35,EUR,5.750,MWh
Power,Intraday,Continuous,NL,ID1,QH,2021-04-09T10:30:00+02:00,2021-04-09T10:45:00+02:00,10.76,EUR,,MWh
Power,Intraday,Continuous,NL,ID1,QH,2021-04-09T10:45:00+02:00,2021-04-09T11:00:00+02:00,33.54,EUR,,MWh
Power,Intraday,Continuous,NL,ID1,QH,2021-04-09T11:00:00+02:00,2021-04-09T11:15:00+02:00,40.87,EUR,11.980,MWh
Power,Intraday,Continuous,NL,ID1,QH,2021-04-09T11:15:00+02:00,2021-04-09T11:30:00+02:00,39.48,EUR,,MWh
Power,Intraday,Continuous,NL,ID1,QH,2021-04-09T11:30:00+02:00,2021-04-09T11:45:00+02:00,-12.65,EUR,,MWh
Power,Intraday,Continuous,NL,ID1,QH,2021-04-09T11:45:00+02:00,2021-04-09T12:00:00+02:00,14.91,EUR,5.900,MWh
Power,Intraday,Continuous,NL,ID1,QH,2021-04-09T12:00:00+02:00,2021-04-09T12:15:00+02:00,48.15,EUR,6.250,MWh
Power,Intraday,Continuous,NL,ID1,QH,2021-04-09T12:15:00+02:00,2021-04-09T12:30:00+02:00,17.44,EUR,,MWh
Power,Intraday,Continuous,NL,ID1,QH,2021-04-09T12:30:00+02:00,2021-04-09T12:45:00+02:00,17.44,EUR,,MWh
Power,Intraday,Continuous,NL,ID1,QH,2021-04-09T12:45:00+02:00,2021-04-09T13:00:00+02:00,17.44,EUR,,MWh
Power,Intraday,Continuous,NL,ID1,QH,2021-04-09T13:00:00+02:00,2021-04-09T13:15:00+02:00,32.50,EUR,5.000,MWh
Power,Intraday,Continuous,NL,ID1,QH,2021-04-09T13:15:00+02:00,2021-04-09T13:30:00+02:00,11.49,EUR,,MWh
Power,Intraday,Continuous,NL,ID1,QH,2021-04-09T13:30:00+02:00,2021-04-09T13:45:00+02:00,42.49,EUR,3.750,MWh
Power,Intraday,Continuous,NL,ID1,QH,2021-04-09T13:45:00+02:00,2021-04-09T14:00:00+02:00,11.49,EUR,,MWh
Power,Intraday,Continuous,NL,ID1,QH,2021-04-09T14:00:00+02:00,2021-04-09T14:15:00+02:00,55.00,EUR,3.000,MWh
Power,Intraday,Continuous,NL,ID1,QH,2021-04-09T14:15:00+02:00,2021-04-09T14:30:00+02:00,-8.20,EUR,,MWh
Power,Intraday,Continuous,NL,ID1,QH,2021-04-09T14:30:00+02:00,2021-04-09T14:45:00+02:00,55.44,EUR,4.580,MWh
Power,Intraday,Continuous,NL,ID1,QH,2021-04-09T14:45:00+02:00,2021-04-09T15:00:00+02:00,-8.20,EUR,,MWh
Power,Intraday,Continuous,NL,ID1,QH,2021-04-09T15:00:00+02:00,2021-04-09T15:15:00+02:00,-17.86,EUR,,MWh
Power,Intraday,Continuous,NL,ID1,QH,2021-04-09T15:15:00+02:00,2021-04-09T15:30:00+02:00,22.47,EUR,,MWh
Power,Intraday,Continuous,NL,ID1,QH,2021-04-09T15:30:00+02:00,2021-04-09T15:45:00+02:00,55.23,EUR,,MWh
Power,Intraday,Continuous,NL,ID1,QH,2021-04-09T15:45:00+02:00,2021-04-09T16:00:00+02:00,44.27,EUR,5.480,MWh
Power,Intraday,Continuous,NL,ID1,QH,2021-04-09T16:00:00+02:00,2021-04-09T16:15:00+02:00,22.70,EUR,,MWh
Power,Intraday,Continuous,NL,ID1,QH,2021-04-09T16:15:00+02:00,2021-04-09T16:30:00+02:00,31.23,EUR,,MWh
Power,Intraday,Continuous,NL,ID1,QH,2021-04-09T16:30:00+02:00,2021-04-09T16:45:00+02:00,45.32,EUR,10.580,MWh
Power,Intraday,Continuous,NL,ID1,QH,2021-04-09T16:45:00+02:00,2021-04-09T17:00:00+02:00,65.53,EUR,,MWh
Power,Intraday,Continuous,NL,ID1,QH,2021-04-09T17:00:00+02:00,2021-04-09T17:15:00+02:00,30.59,EUR,,MWh
Power,Intraday,Continuous,NL,ID1,QH,2021-04-09T17:15:00+02:00,2021-04-09T17:30:00+02:00,46.87,EUR,,MWh
Power,Intraday,Continuous,NL,ID1,QH,2021-04-09T17:30:00+02:00,2021-04-09T17:45:00+02:00,53.36,EUR,,MWh
Power,Intraday,Continuous,NL,ID1,QH,2021-04-09T17:45:00+02:00,2021-04-09T18:00:00+02:00,69.40,EUR,,MWh
Power,Intraday,Continuous,NL,ID1,QH,2021-04-09T18:00:00+02:00,2021-04-09T18:15:00+02:00,19.74,EUR,,MWh
Power,Intraday,Continuous,NL,ID1,QH,2021-04-09T18:15:00+02:00,2021-04-09T18:30:00+02:00,22.96,EUR,,MWh
Power,Intraday,Continuous,NL,ID1,QH,2021-04-09T18:30:00+02:00,2021-04-09T18:45:00+02:00,62.17,EUR,,MWh
Power,Intraday,Continuous,NL,ID1,QH,2021-04-09T18:45:00+02:00,2021-04-09T19:00:00+02:00,93.01,EUR,,MWh
Power,Intraday,Continuous,NL,ID1,QH,2021-04-09T19:00:00+02:00,2021-04-09T19:15:00+02:00,59.29,EUR,,MWh
Power,Intraday,Continuous,NL,ID1,QH,2021-04-09T19:15:00+02:00,2021-04-09T19:30:00+02:00,65.77,EUR,,MWh
Power,Intraday,Continuous,NL,ID1,QH,2021-04-09T19:30:00+02:00,2021-04-09T19:45:00+02:00,76.22,EUR,,MWh
Power,Intraday,Continuous,NL,ID1,QH,2021-04-09T19:45:00+02:00,2021-04-09T20:00:00+02:00,81.15,EUR,,MWh
Power,Intraday,Continuous,NL,ID1,QH,2021-04-09T20:00:00+02:00,2021-04-09T20:15:00+02:00,84.63,EUR,,MWh
Power,Intraday,Continuous,NL,ID1,QH,2021-04-09T20:15:00+02:00,2021-04-09T20:30:00+02:00,70.63,EUR,,MWh
Power,Intraday,Continuous,NL,ID1,QH,2021-04-09T20:30:00+02:00,2021-04-09T20:45:00+02:00,84.73,EUR,,MWh
Power,Intraday,Continuous,NL,ID1,QH,2021-04-09T20:45:00+02:00,2021-04-09T21:00:00+02:00,67.81,EUR,,MWh
Power,Intraday,Continuous,NL,ID1,QH,2021-04-09T21:00:00+02:00,2021-04-09T21:15:00+02:00,88.13,EUR,,MWh
Power,Intraday,Continuous,NL,ID1,QH,2021-04-09T21:15:00+02:00,2021-04-09T21:30:00+02:00,55.54,EUR,,MWh
Power,Intraday,Continuous,NL,ID1,QH,2021-04-09T21:30:00+02:00,2021-04-09T21:45:00+02:00,55.54,EUR,4.000,MWh
Power,Intraday,Continuous,NL,ID1,QH,2021-04-09T21:45:00+02:00,2021-04-09T22:00:00+02:00,21.55,EUR,8.400,MWh
Power,Intraday,Continuous,NL,ID1,QH,2021-04-09T22:00:00+02:00,2021-04-09T22:15:00+02:00,65.73,EUR,,MWh
Power,Intraday,Continuous,NL,ID1,QH,2021-04-09T22:15:00+02:00,2021-04-09T22:30:00+02:00,65.73,EUR,,MWh
Power,Intraday,Continuous,NL,ID1,QH,2021-04-09T22:30:00+02:00,2021-04-09T22:45:00+02:00,62.16,EUR,7.430,MWh
Power,Intraday,Continuous,NL,ID1,QH,2021-04-09T22:45:00+02:00,2021-04-09T23:00:00+02:00,65.84,EUR,6.980,MWh
Power,Intraday,Continuous,NL,ID1,QH,2021-04-09T23:00:00+02:00,2021-04-09T23:15:00+02:00,78.99,EUR,,MWh
Power,Intraday,Continuous,NL,ID1,QH,2021-04-09T23:15:00+02:00,2021-04-09T23:30:00+02:00,61.72,EUR,,MWh
Power,Intraday,Continuous,NL,ID1,QH,2021-04-09T23:30:00+02:00,2021-04-09T23:45:00+02:00,56.44,EUR,,MWh
Power,Intraday,Continuous,NL,ID1,QH,2021-04-09T23:45:00+02:00,2021-04-10T00:00:00+02:00,41.21,EUR,,MWh
Power,Intraday,Continuous,NL,ID3,QH,2021-04-09T00:00:00+02:00,2021-04-09T00:15:00+02:00,41.61,EUR,,MWh
Power,Intraday,Continuous,NL,ID3,QH,2021-04-09T00:15:00+02:00,2021-04-09T00:30:00+02:00,41.61,EUR,,MWh
Power,Intraday,Continuous,NL,ID3,QH,2021-04-09T00:30:00+02:00,2021-04-09T00:45:00+02:00,41.61,EUR,,MWh
Power,Intraday,Continuous,NL,ID3,QH,2021-04-09T00:45:00+02:00,2021-04-09T01:00:00+02:00,41.61,EUR,,MWh
Power,Intraday,Continuous,NL,ID3,QH,2021-04-09T01:00:00+02:00,2021-04-09T01:15:00+02:00,36.67,EUR,,MWh
Power,Intraday,Continuous,NL,ID3,QH,2021-04-09T01:15:00+02:00,2021-04-09T01:30:00+02:00,36.67,EUR,,MWh
Power,Intraday,Continuous,NL,ID3,QH,2021-04-09T01:30:00+02:00,2021-04-09T01:45:00+02:00,36.67,EUR,,MWh
Power,Intraday,Continuous,NL,ID3,QH,2021-04-09T01:45:00+02:00,2021-04-09T02:00:00+02:00,36.67,EUR,,MWh
Power,Intraday,Continuous,NL,ID3,QH,2021-04-09T02:00:00+02:00,2021-04-09T02:15:00+02:00,34.65,EUR,,MWh
Power,Intraday,Continuous,NL,ID3,QH,2021-04-09T02:15:00+02:00,2021-04-09T02:30:00+02:00,34.65,EUR,,MWh
Power,Intraday,Continuous,NL,ID3,QH,2021-04-09T02:30:00+02:00,2021-04-09T02:45:00+02:00,34.65,EUR,,MWh
Power,Intraday,Continuous,NL,ID3,QH,2021-04-09T02:45:00+02:00,2021-04-09T03:00:00+02:00,34.65,EUR,,MWh
Power,Intraday,Continuous,NL,ID3,QH,2021-04-09T03:00:00+02:00,2021-04-09T03:15:00+02:00,33.02,EUR,,MWh
Power,Intraday,Continuous,NL,ID3,QH,2021-04-09T03:15:00+02:00,2021-04-09T03:30:00+02:00,33.02,EUR,,MWh
Power,Intraday,Continuous,NL,ID3,QH,2021-04-09T03:30:00+02:00,2021-04-09T03:45:00+02:00,33.02,EUR,,MWh
Power,Intraday,Continuous,NL,ID3,QH,2021-04-09T03:45:00+02:00,2021-04-09T04:00:00+02:00,33.02,EUR,,MWh
Power,Intraday,Continuous,NL,ID3,QH,2021-04-09T04:00:00+02:00,2021-04-09T04:15:00+02:00,18.86,EUR,,MWh
Power,Intraday,Continuous,NL,ID3,QH,2021-04-09T04:15:00+02:00,2021-04-09T04:30:00+02:00,18.86,EUR,,MWh
Power,Intraday,Continuous,NL,ID3,QH,2021-04-09T04:30:00+02:00,2021-04-09T04:45:00+02:00,18.86,EUR,,MWh
Power,Intraday,Continuous,NL,ID3,QH,2021-04-09T04:45:00+02:00,2021-04-09T05:00:00+02:00,18.86,EUR,,MWh
Power,Intraday,Continuous,NL,ID3,QH,2021-04-09T05:00:00+02:00,2021-04-09T05:15:00+02:00,46.27,EUR,4.150,MWh
Power,Intraday,Continuous,NL,ID3,QH,2021-04-09T05:15:00+02:00,2021-04-09T05:30:00+02:00,47.26,EUR,5.730,MWh
Power,Intraday,Continuous,NL,ID3,QH,2021-04-09T05:30:00+02:00,2021-04-09T05:45:00+02:00,-10.37,EUR,,MWh
Power,Intraday,Continuous,NL,ID3,QH,2021-04-09T05:45:00+02:00,2021-04-09T06:00:00+02:00,-10.37,EUR,,MWh
Power,Intraday,Continuous,NL,ID3,QH,2021-04-09T06:00:00+02:00,2021-04-09T06:15:00+02:00,20.97,EUR,,MWh
Power,Intraday,Continuous,NL,ID3,QH,2021-04-09T06:15:00+02:00,2021-04-09T06:30:00+02:00,20.97,EUR,,MWh
Power,Intraday,Continuous,NL,ID3,QH,2021-04-09T06:30:00+02:00,2021-04-09T06:45:00+02:00,49.50,EUR,5.700,MWh
Power,Intraday,Continuous,NL,ID3,QH,2021-04-09T06:45:00+02:00,2021-04-09T07:00:00+02:00,20.97,EUR,,MWh
Power,Intraday,Continuous,NL,ID3,QH,2021-04-09T07:00:00+02:00,2021-04-09T07:15:00+02:00,20.60,EUR,4.680,MWh
Power,Intraday,Continuous,NL,ID3,QH,2021-04-09T07:15:00+02:00,2021-04-09T07:30:00+02:00,20.54,EUR,6.250,MWh
Power,Intraday,Continuous,NL,ID3,QH,2021-04-09T07:30:00+02:00,2021-04-09T07:45:00+02:00,35.14,EUR,5.500,MWh
Power,Intraday,Continuous,NL,ID3,QH,2021-04-09T07:45:00+02:00,2021-04-09T08:00:00+02:00,41.17,EUR,5.150,MWh
Power,Intraday,Continuous,NL,ID3,QH,2021-04-09T08:00:00+02:00,2021-04-09T08:15:00+02:00,18.21,EUR,3.750,MWh
Power,Intraday,Continuous,NL,ID3,QH,2021-04-09T08:15:00+02:00,2021-04-09T08:30:00+02:00,100.94,EUR,,MWh
Power,Intraday,Continuous,NL,ID3,QH,2021-04-09T08:30:00+02:00,2021-04-09T08:45:00+02:00,43.45,EUR,11.250,MWh
Power,Intraday,Continuous,NL,ID3,QH,2021-04-09T08:45:00+02:00,2021-04-09T09:00:00+02:00,37.16,EUR,16.080,MWh
Power,Intraday,Continuous,NL,ID3,QH,2021-04-09T09:00:00+02:00,2021-04-09T09:15:00+02:00,43.98,EUR,6.330,MWh
Power,Intraday,Continuous,NL,ID3,QH,2021-04-09T09:15:00+02:00,2021-04-09T09:30:00+02:00,35.79,EUR,8.930,MWh
Power,Intraday,Continuous,NL,ID3,QH,2021-04-09T09:30:00+02:00,2021-04-09T09:45:00+02:00,25.80,EUR,7.930,MWh
Power,Intraday,Continuous,NL,ID3,QH,2021-04-09T09:45:00+02:00,2021-04-09T10:00:00+02:00,9.69,EUR,8.750,MWh
Power,Intraday,Continuous,NL,ID3,QH,2021-04-09T10:00:00+02:00,2021-04-09T10:15:00+02:00,41.01,EUR,4.050,MWh
Power,Intraday,Continuous,NL,ID3,QH,2021-04-09T10:15:00+02:00,2021-04-09T10:30:00+02:00,27.35,EUR,5.750,MWh
Power,Intraday,Continuous,NL,ID3,QH,2021-04-09T10:30:00+02:00,2021-04-09T10:45:00+02:00,10.76,EUR,5.180,MWh
Power,Intraday,Continuous,NL,ID3,QH,2021-04-09T10:45:00+02:00,2021-04-09T11:00:00+02:00,33.54,EUR,4.900,MWh
Power,Intraday,Continuous,NL,ID3,QH,2021-04-09T11:00:00+02:00,2021-04-09T11:15:00+02:00,43.66,EUR,14.500,MWh
Power,Intraday,Continuous,NL,ID3,QH,2021-04-09T11:15:00+02:00,2021-04-09T11:30:00+02:00,39.48,EUR,3.650,MWh
Power,Intraday,Continuous,NL,ID3,QH,2021-04-09T11:30:00+02:00,2021-04-09T11:45:00+02:00,-12.65,EUR,,MWh
Power,Intraday,Continuous,NL,ID3,QH,2021-04-09T11:45:00+02:00,2021-04-09T12:00:00+02:00,14.91,EUR,5.900,MWh
Power,Intraday,Continuous,NL,ID3,QH,2021-04-09T12:00:00+02:00,2021-04-09T12:15:00+02:00,48.15,EUR,6.250,MWh
Power,Intraday,Continuous,NL,ID3,QH,2021-04-09T12:15:00+02:00,2021-04-09T12:30:00+02:00,17.44,EUR,,MWh
Power,Intraday,Continuous,NL,ID3,QH,2021-04-09T12:30:00+02:00,2021-04-09T12:45:00+02:00,17.44,EUR,,MWh
Power,Intraday,Continuous,NL,ID3,QH,2021-04-09T12:45:00+02:00,2021-04-09T13:00:00+02:00,17.44,EUR,,MWh
Power,Intraday,Continuous,NL,ID3,QH,2021-04-09T13:00:00+02:00,2021-04-09T13:15:00+02:00,32.50,EUR,5.000,MWh
Power,Intraday,Continuous,NL,ID3,QH,2021-04-09T13:15:00+02:00,2021-04-09T13:30:00+02:00,11.49,EUR,,MWh
Power,Intraday,Continuous,NL,ID3,QH,2021-04-09T13:30:00+02:00,2021-04-09T13:45:00+02:00,42.49,EUR,3.750,MWh
Power,Intraday,Continuous,NL,ID3,QH,2021-04-09T13:45:00+02:00,2021-04-09T14:00:00+02:00,11.49,EUR,,MWh
Power,Intraday,Continuous,NL,ID3,QH,2021-04-09T14:00:00+02:00,2021-04-09T14:15:00+02:00,55.00,EUR,3.000,MWh
Power,Intraday,Continuous,NL,ID3,QH,2021-04-09T14:15:00+02:00,2021-04-09T14:30:00+02:00,-8.20,EUR,,MWh
Power,Intraday,Continuous,NL,ID3,QH,2021-04-09T14:30:00+02:00,2021-04-09T14:45:00+02:00,55.44,EUR,4.580,MWh
Power,Intraday,Continuous,NL,ID3,QH,2021-04-09T14:45:00+02:00,2021-04-09T15:00:00+02:00,-8.20,EUR,,MWh
Power,Intraday,Continuous,NL,ID3,QH,2021-04-09T15:00:00+02:00,2021-04-09T15:15:00+02:00,-17.86,EUR,16.200,MWh
Power,Intraday,Continuous,NL,ID3,QH,2021-04-09T15:15:00+02:00,2021-04-09T15:30:00+02:00,22.47,EUR,27.530,MWh
Power,Intraday,Continuous,NL,ID3,QH,2021-04-09T15:30:00+02:00,2021-04-09T15:45:00+02:00,55.23,EUR,22.880,MWh
Power,Intraday,Continuous,NL,ID3,QH,2021-04-09T15:45:00+02:00,2021-04-09T16:00:00+02:00,56.74,EUR,39.350,MWh
Power,Intraday,Continuous,NL,ID3,QH,2021-04-09T16:00:00+02:00,2021-04-09T16:15:00+02:00,22.70,EUR,8.380,MWh
Power,Intraday,Continuous,NL,ID3,QH,2021-04-09T16:15:00+02:00,2021-04-09T16:30:00+02:00,31.23,EUR,11.250,MWh
Power,Intraday,Continuous,NL,ID3,QH,2021-04-09T16:30:00+02:00,2021-04-09T16:45:00+02:00,48.57,EUR,20.000,MWh
Power,Intraday,Continuous,NL,ID3,QH,2021-04-09T16:45:00+02:00,2021-04-09T17:00:00+02:00,65.53,EUR,11.730,MWh
Power,Intraday,Continuous,NL,ID3,QH,2021-04-09T17:00:00+02:00,2021-04-09T17:15:00+02:00,30.59,EUR,51.400,MWh
Power,Intraday,Continuous,NL,ID3,QH,2021-04-09T17:15:00+02:00,2021-04-09T17:30:00+02:00,46.87,EUR,47.850,MWh
Power,Intraday,Continuous,NL,ID3,QH,2021-04-09T17:30:00+02:00,2021-04-09T17:45:00+02:00,53.36,EUR,63.750,MWh
Power,Intraday,Continuous,NL,ID3,QH,2021-04-09T17:45:00+02:00,2021-04-09T18:00:00+02:00,69.40,EUR,64.830,MWh
Power,Intraday,Continuous,NL,ID3,QH,2021-04-09T18:00:00+02:00,2021-04-09T18:15:00+02:00,19.74,EUR,3.950,MWh
Power,Intraday,Continuous,NL,ID3,QH,2021-04-09T18:15:00+02:00,2021-04-09T18:30:00+02:00,22.96,EUR,4.430,MWh
Power,Intraday,Continuous,NL,ID3,QH,2021-04-09T18:30:00+02:00,2021-04-09T18:45:00+02:00,62.17,EUR,12.380,MWh
Power,Intraday,Continuous,NL,ID3,QH,2021-04-09T18:45:00+02:00,2021-04-09T19:00:00+02:00,93.01,EUR,15.100,MWh
Power,Intraday,Continuous,NL,ID3,QH,2021-04-09T19:00:00+02:00,2021-04-09T19:15:00+02:00,59.29,EUR,38.700,MWh
Power,Intraday,Continuous,NL,ID3,QH,2021-04-09T19:15:00+02:00,2021-04-09T19:30:00+02:00,65.77,EUR,30.180,MWh
Power,Intraday,Continuous,NL,ID3,QH,2021-04-09T19:30:00+02:00,2021-04-09T19:45:00+02:00,76.22,EUR,20.300,MWh
Power,Intraday,Continuous,NL,ID3,QH,2021-04-09T19:45:00+02:00,2021-04-09T20:00:00+02:00,81.15,EUR,26.050,MWh
Power,Intraday,Continuous,NL,ID3,QH,2021-04-09T20:00:00+02:00,2021-04-09T20:15:00+02:00,84.63,EUR,25.200,MWh
Power,Intraday,Continuous,NL,ID3,QH,2021-04-09T20:15:00+02:00,2021-04-09T20:30:00+02:00,70.63,EUR,8.000,MWh
Power,Intraday,Continuous,NL,ID3,QH,2021-04-09T20:30:00+02:00,2021-04-09T20:45:00+02:00,84.73,EUR,9.480,MWh
Power,Intraday,Continuous,NL,ID3,QH,2021-04-09T20:45:00+02:00,2021-04-09T21:00:00+02:00,67.81,EUR,15.000,MWh
Power,Intraday,Continuous,NL,ID3,QH,2021-04-09T21:00:00+02:00,2021-04-09T21:15:00+02:00,88.13,EUR,8.000,MWh
Power,Intraday,Continuous,NL,ID3,QH,2021-04-09T21:15:00+02:00,2021-04-09T21:30:00+02:00,55.54,EUR,,MWh
Power,Intraday,Continuous,NL,ID3,QH,2021-04-09T21:30:00+02:00,2021-04-09T21:45:00+02:00,48.18,EUR,5.250,MWh
Power,Intraday,Continuous,NL,ID3,QH,2021-04-09T21:45:00+02:00,2021-04-09T22:00:00+02:00,21.15,EUR,10.900,MWh
Power,Intraday,Continuous,NL,ID3,QH,2021-04-09T22:00:00+02:00,2021-04-09T22:15:00+02:00,65.73,EUR,,MWh
Power,Intraday,Continuous,NL,ID3,QH,2021-04-09T22:15:00+02:00,2021-04-09T22:30:00+02:00,65.73,EUR,,MWh
Power,Intraday,Continuous,NL,ID3,QH,2021-04-09T22:30:00+02:00,2021-04-09T22:45:00+02:00,51.50,EUR,9.930,MWh
Power,Intraday,Continuous,NL,ID3,QH,2021-04-09T22:45:00+02:00,2021-04-09T23:00:00+02:00,39.01,EUR,15.280,MWh
Power,Intraday,Continuous,NL,ID3,QH,2021-04-09T23:00:00+02:00,2021-04-09T23:15:00+02:00,78.99,EUR,13.680,MWh
Power,Intraday,Continuous,NL,ID3,QH,2021-04-09T23:15:00+02:00,2021-04-09T23:30:00+02:00,61.72,EUR,11.100,MWh
Power,Intraday,Continuous,NL,ID3,QH,2021-04-09T23:30:00+02:00,2021-04-09T23:45:00+02:00,56.44,EUR,,MWh
Power,Intraday,Continuous,NL,ID3,QH,2021-04-09T23:45:00+02:00,2021-04-10T00:00:00+02:00,41.21,EUR,5.580,MWh
Power,Intraday,Continuous,NL,IDFULL,BASE,2021-04-09T00:00:00+02:00,2021-04-10T00:00:00+02:00,38.99,EUR,15739.200,MWh
Power,Intraday,Continuous,NL,IDFULL,PEAK,2021-04-09T08:00:00+02:00,2021-04-09T20:00:00+02:00,37.00,EUR,11368.800,MWh
