Commodity,NominationModality,TradingModality,MarketArea,IndexName,TimeResolution,DeliveryStart,DeliveryEnd,IndexPrice,Currency,Volume,VolumeUnit
Power,Intraday,Continuous,NL,IDFULL,H,2021-04-16T00:00:00+02:00,2021-04-16T01:00:00+02:00,55.56,EUR,323.100,MWh
Power,Intraday,Continuous,NL,IDFULL,H,2021-04-16T01:00:00+02:00,2021-04-16T02:00:00+02:00,56.23,EUR,299.600,MWh
Power,Intraday,Continuous,NL,IDFULL,H,2021-04-16T02:00:00+02:00,2021-04-16T03:00:00+02:00,57.00,EUR,462.300,MWh
Power,Intraday,Continuous,NL,IDFULL,H,2021-04-16T03:00:00+02:00,2021-04-16T04:00:00+02:00,58.81,EUR,186.900,MWh
Power,Intraday,Continuous,NL,IDFULL,H,2021-04-16T04:00:00+02:00,2021-04-16T05:00:00+02:00,60.17,EUR,195.900,MWh
Power,Intraday,Continuous,NL,IDFULL,H,2021-04-16T05:00:00+02:00,2021-04-16T06:00:00+02:00,65.36,EUR,158.600,MWh
Power,Intraday,Continuous,NL,IDFULL,H,2021-04-16T06:00:00+02:00,2021-04-16T07:00:00+02:00,85.36,EUR,336.600,MWh
Power,Intraday,Continuous,NL,IDFULL,H,2021-04-16T07:00:00+02:00,2021-04-16T08:00:00+02:00,85.84,EUR,239.300,MWh
Power,Intraday,Continuous,NL,IDFULL,H,2021-04-16T08:00:00+02:00,2021-04-16T09:00:00+02:00,95.65,EUR,583.600,MWh
Power,Intraday,Continuous,NL,IDFULL,H,2021-04-16T09:00:00+02:00,2021-04-16T10:00:00+02:00,63.95,EUR,351.900,MWh
Power,Intraday,Continuous,NL,IDFULL,H,2021-04-16T10:00:00+02:00,2021-04-16T11:00:00+02:00,55.25,EUR,1259.600,MWh
Power,Intraday,Continuous,NL,IDFULL,H,2021-04-16T11:00:00+02:00,2021-04-16T12:00:00+02:00,51.62,EUR,1327.100,MWh
Power,Intraday,Continuous,NL,IDFULL,H,2021-04-16T12:00:00+02:00,2021-04-16T13:00:00+02:00,50.46,EUR,1096.200,MWh
Power,Intraday,Continuous,NL,IDFULL,H,2021-04-16T13:00:00+02:00,2021-04-16T14:00:00+02:00,48.31,EUR,1325.600,MWh
Power,Intraday,Continuous,NL,IDFULL,H,2021-04-16T14:00:00+02:00,2021-04-16T15:00:00+02:00,46.30,EUR,1173.400,MWh
Power,Intraday,Continuous,NL,IDFULL,H,2021-04-16T15:00:00+02:00,2021-04-16T16:00:00+02:00,45.32,EUR,1097.600,MWh
Power,Intraday,Continuous,NL,IDFULL,H,2021-04-16T16:00:00+02:00,2021-04-16T17:00:00+02:00,44.64,EUR,1479.900,MWh
Power,Intraday,Continuous,NL,IDFULL,H,2021-04-16T17:00:00+02:00,2021-04-16T18:00:00+02:00,43.87,EUR,1236.600,MWh
Power,Intraday,Continuous,NL,IDFULL,H,2021-04-16T18:00:00+02:00,2021-04-16T19:00:00+02:00,55.49,EUR,656.300,MWh
Power,Intraday,Continuous,NL,IDFULL,H,2021-04-16T19:00:00+02:00,2021-04-16T20:00:00+02:00,54.28,EUR,296.800,MWh
Power,Intraday,Continuous,NL,IDFULL,H,2021-04-16T20:00:00+02:00,2021-04-16T21:00:00+02:00,60.89,EUR,303.800,MWh
Power,Intraday,Continuous,NL,IDFULL,H,2021-04-16T21:00:00+02:00,2021-04-16T22:00:00+02:00,54.15,EUR,486.400,MWh
Power,Intraday,Continuous,NL,IDFULL,H,2021-04-16T22:00:00+02:00,2021-04-16T23:00:00+02:00,57.80,EUR,332.300,MWh
Power,Intraday,Continuous,NL,IDFULL,H,2021-04-16T23:00:00+02:00,2021-04-17T00:00:00+02:00,49.83,EUR,580.500,MWh
Power,Intraday,Continuous,NL,ID1,H,2021-04-16T00:00:00+02:00,2021-04-16T01:00:00+02:00,54.88,EUR,59.300,MWh
Power,Intraday,Continuous,NL,ID1,H,2021-04-16T01:00:00+02:00,2021-04-16T02:00:00+02:00,56.24,EUR,,MWh
Power,Intraday,Continuous,NL,ID1,H,2021-04-16T02:00:00+02:00,2021-04-16T03:00:00+02:00,50.20,EUR,10.400,MWh
Power,Intraday,Continuous,NL,ID1,H,2021-04-16T03:00:00+02:00,2021-04-16T04:00:00+02:00,58.85,EUR,,MWh
Power,Intraday,Continuous,NL,ID1,H,2021-04-16T04:00:00+02:00,2021-04-16T05:00:00+02:00,59.91,EUR,,MWh
Power,Intraday,Continuous,NL,ID1,H,2021-04-16T05:00:00+02:00,2021-04-16T06:00:00+02:00,74.32,EUR,16.100,MWh
Power,Intraday,Continuous,NL,ID1,H,2021-04-16T06:00:00+02:00,2021-04-16T07:00:00+02:00,93.43,EUR,,MWh
Power,Intraday,Continuous,NL,ID1,H,2021-04-16T07:00:00+02:00,2021-04-16T08:00:00+02:00,83.55,EUR,27.700,MWh
Power,Intraday,Continuous,NL,ID1,H,2021-04-16T08:00:00+02:00,2021-04-16T09:00:00+02:00,93.05,EUR,12.000,MWh
Power,Intraday,Continuous,NL,ID1,H,2021-04-16T09:00:00+02:00,2021-04-16T10:00:00+02:00,56.10,EUR,49.000,MWh
Power,Intraday,Continuous,NL,ID1,H,2021-04-16T10:00:00+02:00,2021-04-16T11:00:00+02:00,47.54,EUR,272.800,MWh
Power,Intraday,Continuous,NL,ID1,H,2021-04-16T11:00:00+02:00,2021-04-16T12:00:00+02:00,37.82,EUR,277.000,MWh
Power,Intraday,Continuous,NL,ID1,H,2021-04-16T12:00:00+02:00,2021-04-16T13:00:00+02:00,37.24,EUR,143.100,MWh
Power,Intraday,Continuous,NL,ID1,H,2021-04-16T13:00:00+02:00,2021-04-16T14:00:00+02:00,35.55,EUR,198.900,MWh
Power,Intraday,Continuous,NL,ID1,H,2021-04-16T14:00:00+02:00,2021-04-16T15:00:00+02:00,35.26,EUR,260.800,MWh
Power,Intraday,Continuous,NL,ID1,H,2021-04-16T15:00:00+02:00,2021-04-16T16:00:00+02:00,21.49,EUR,111.100,MWh
Power,Intraday,Continuous,NL,ID1,H,2021-04-16T16:00:00+02:00,2021-04-16T17:00:00+02:00,23.12,EUR,132.400,MWh
Power,Intraday,Continuous,NL,ID1,H,2021-04-16T17:00:00+02:00,2021-04-16T18:00:00+02:00,21.38,EUR,94.700,MWh
Power,Intraday,Continuous,NL,ID1,H,2021-04-16T18:00:00+02:00,2021-04-16T19:00:00+02:00,59.14,EUR,101.800,MWh
Power,Intraday,Continuous,NL,ID1,H,2021-04-16T19:00:00+02:00,2021-04-16T20:00:00+02:00,48.76,EUR,106.200,MWh
Power,Intraday,Continuous,NL,ID1,H,2021-04-16T20:00:00+02:00,2021-04-16T21:00:00+02:00,54.15,EUR,142.800,MWh
Power,Intraday,Continuous,NL,ID1,H,2021-04-16T21:00:00+02:00,2021-04-16T22:00:00+02:00,41.28,EUR,14.000,MWh
Power,Intraday,Continuous,NL,ID1,H,2021-04-16T22:00:00+02:00,2021-04-16T23:00:00+02:00,51.57,EUR,52.600,MWh
Power,Intraday,Continuous,NL,ID1,H,2021-04-16T23:00:00+02:00,2021-04-17T00:00:00+02:00,45.69,EUR,,MWh
Power,Intraday,Continuous,NL,ID3,H,2021-04-16T00:00:00+02:00,2021-04-16T01:00:00+02:00,56.08,EUR,266.400,MWh
Power,Intraday,Continuous,NL,ID3,H,2021-04-16T01:00:00+02:00,2021-04-16T02:00:00+02:00,56.24,EUR,298.500,MWh
Power,Intraday,Continuous,NL,ID3,H,2021-04-16T02:00:00+02:00,2021-04-16T03:00:00+02:00,57.01,EUR,417.300,MWh
Power,Intraday,Continuous,NL,ID3,H,2021-04-16T03:00:00+02:00,2021-04-16T04:00:00+02:00,58.85,EUR,179.800,MWh
Power,Intraday,Continuous,NL,ID3,H,2021-04-16T04:00:00+02:00,2021-04-16T05:00:00+02:00,59.91,EUR,122.200,MWh
Power,Intraday,Continuous,NL,ID3,H,2021-04-16T05:00:00+02:00,2021-04-16T06:00:00+02:00,67.96,EUR,91.400,MWh
Power,Intraday,Continuous,NL,ID3,H,2021-04-16T06:00:00+02:00,2021-04-16T07:00:00+02:00,93.43,EUR,197.500,MWh
Power,Intraday,Continuous,NL,ID3,H,2021-04-16T07:00:00+02:00,2021-04-16T08:00:00+02:00,84.91,EUR,169.400,MWh
Power,Intraday,Continuous,NL,ID3,H,2021-04-16T08:00:00+02:00,2021-04-16T09:00:00+02:00,93.50,EUR,345.400,MWh
Power,Intraday,Continuous,NL,ID3,H,2021-04-16T09:00:00+02:00,2021-04-16T10:00:00+02:00,63.88,EUR,337.600,MWh
Power,Intraday,Continuous,NL,ID3,H,2021-04-16T10:00:00+02:00,2021-04-16T11:00:00+02:00,55.24,EUR,939.200,MWh
Power,Intraday,Continuous,NL,ID3,H,2021-04-16T11:00:00+02:00,2021-04-16T12:00:00+02:00,49.01,EUR,875.600,MWh
Power,Intraday,Continuous,NL,ID3,H,2021-04-16T12:00:00+02:00,2021-04-16T13:00:00+02:00,48.64,EUR,689.800,MWh
Power,Intraday,Continuous,NL,ID3,H,2021-04-16T13:00:00+02:00,2021-04-16T14:00:00+02:00,45.95,EUR,868.800,MWh
Power,Intraday,Continuous,NL,ID3,H,2021-04-16T14:00:00+02:00,2021-04-16T15:00:00+02:00,44.92,EUR,930.900,MWh
Power,Intraday,Continuous,NL,ID3,H,2021-04-16T15:00:00+02:00,2021-04-16T16:00:00+02:00,42.40,EUR,755.600,MWh
Power,Intraday,Continuous,NL,ID3,H,2021-04-16T16:00:00+02:00,2021-04-16T17:00:00+02:00,41.15,EUR,953.000,MWh
Power,Intraday,Continuous,NL,ID3,H,2021-04-16T17:00:00+02:00,2021-04-16T18:00:00+02:00,40.07,EUR,810.900,MWh
Power,Intraday,Continuous,NL,ID3,H,2021-04-16T18:00:00+02:00,2021-04-16T19:00:00+02:00,50.32,EUR,461.300,MWh
Power,Intraday,Continuous,NL,ID3,H,2021-04-16T19:00:00+02:00,2021-04-16T20:00:00+02:00,53.33,EUR,285.400,MWh
Power,Intraday,Continuous,NL,ID3,H,2021-04-16T20:00:00+02:00,2021-04-16T21:00:00+02:00,59.76,EUR,267.100,MWh
Power,Intraday,Continuous,NL,ID3,H,2021-04-16T21:00:00+02:00,2021-04-16T22:00:00+02:00,53.15,EUR,191.700,MWh
Power,Intraday,Continuous,NL,ID3,H,2021-04-16T22:00:00+02:00,2021-04-16T23:00:00+02:00,58.34,EUR,272.200,MWh
Power,Intraday,Continuous,NL,ID3,H,2021-04-16T23:00:00+02:00,2021-04-17T00:00:00+02:00,45.69,EUR,258.600,MWh
Power,Intraday,Continuous,NL,IDFULL,HH,2021-04-16T00:00:00+02:00,2021-04-16T00:30:00+02:00,55.56,EUR,,MWh
Power,Intraday,Continuous,NL,IDFULL,HH,2021-04-16T00:30:00+02:00,2021-04-16T01:00:00+02:00,55.56,EUR,,MWh
Power,Intraday,Continuous,NL,IDFULL,HH,2021-04-16T01:00:00+02:00,2021-04-16T01:30:00+02:00,56.23,EUR,,MWh
Power,Intraday,Continuous,NL,IDFULL,HH,2021-04-16T01:30:00+02:00,2021-04-16T02:00:00+02:00,56.23,EUR,,MWh
Power,Intraday,Continuous,NL,IDFULL,HH,2021-04-16T02:00:00+02:00,2021-04-16T02:30:00+02:00,57.00,EUR,,MWh
Power,Intraday,Continuous,NL,IDFULL,HH,2021-04-16T02:30:00+02:00,2021-04-16T03:00:00+02:00,57.00,EUR,,MWh
Power,Intraday,Continuous,NL,IDFULL,HH,2021-04-16T03:00:00+02:00,2021-04-16T03:30:00+02:00,58.81,EUR,,MWh
Power,Intraday,Continuous,NL,IDFULL,HH,2021-04-16T03:30:00+02:00,2021-04-16T04:00:00+02:00,58.81,EUR,,MWh
Power,Intraday,Continuous,NL,IDFULL,HH,2021-04-16T04:00:00+02:00,2021-04-16T04:30:00+02:00,60.17,EUR,,MWh
Power,Intraday,Continuous,NL,IDFULL,HH,2021-04-16T04:30:00+02:00,2021-04-16T05:00:00+02:00,60.17,EUR,,MWh
Power,Intraday,Continuous,NL,IDFULL,HH,2021-04-16T05:00:00+02:00,2021-04-16T05:30:00+02:00,65.36,EUR,,MWh
Power,Intraday,Continuous,NL,IDFULL,HH,2021-04-16T05:30:00+02:00,2021-04-16T06:00:00+02:00,65.36,EUR,,MWh
Power,Intraday,Continuous,NL,IDFULL,HH,2021-04-16T06:00:00+02:00,2021-04-16T06:30:00+02:00,67.00,EUR,8.400,MWh
Power,Intraday,Continuous,NL,IDFULL,HH,2021-04-16T06:30:00+02:00,2021-04-16T07:00:00+02:00,103.72,EUR,,MWh
Power,Intraday,Continuous,NL,IDFULL,HH,2021-04-16T07:00:00+02:00,2021-04-16T07:30:00+02:00,85.84,EUR,,MWh
Power,Intraday,Continuous,NL,IDFULL,HH,2021-04-16T07:30:00+02:00,2021-04-16T08:00:00+02:00,85.84,EUR,,MWh
Power,Intraday,Continuous,NL,IDFULL,HH,2021-04-16T08:00:00+02:00,2021-04-16T08:30:00+02:00,95.65,EUR,,MWh
Power,Intraday,Continuous,NL,IDFULL,HH,2021-04-16T08:30:00+02:00,2021-04-16T09:00:00+02:00,95.65,EUR,,MWh
Power,Intraday,Continuous,NL,IDFULL,HH,2021-04-16T09:00:00+02:00,2021-04-16T09:30:00+02:00,63.95,EUR,,MWh
Power,Intraday,Continuous,NL,IDFULL,HH,2021-04-16T09:30:00+02:00,2021-04-16T10:00:00+02:00,63.95,EUR,,MWh
Power,Intraday,Continuous,NL,IDFULL,HH,2021-04-16T10:00:00+02:00,2021-04-16T10:30:00+02:00,55.25,EUR,,MWh
Power,Intraday,Continuous,NL,IDFULL,HH,2021-04-16T10:30:00+02:00,2021-04-16T11:00:00+02:00,55.25,EUR,,MWh
Power,Intraday,Continuous,NL,IDFULL,HH,2021-04-16T11:00:00+02:00,2021-04-16T11:30:00+02:00,51.62,EUR,,MWh
Power,Intraday,Continuous,NL,IDFULL,HH,2021-04-16T11:30:00+02:00,2021-04-16T12:00:00+02:00,51.62,EUR,,MWh
Power,Intraday,Continuous,NL,IDFULL,HH,2021-04-16T12:00:00+02:00,2021-04-16T12:30:00+02:00,50.46,EUR,,MWh
Power,Intraday,Continuous,NL,IDFULL,HH,2021-04-16T12:30:00+02:00,2021-04-16T13:00:00+02:00,50.46,EUR,,MWh
Power,Intraday,Continuous,NL,IDFULL,HH,2021-04-16T13:00:00+02:00,2021-04-16T13:30:00+02:00,48.31,EUR,,MWh
Power,Intraday,Continuous,NL,IDFULL,HH,2021-04-16T13:30:00+02:00,2021-04-16T14:00:00+02:00,48.31,EUR,,MWh
Power,Intraday,Continuous,NL,IDFULL,HH,2021-04-16T14:00:00+02:00,2021-04-16T14:30:00+02:00,46.30,EUR,,MWh
Power,Intraday,Continuous,NL,IDFULL,HH,2021-04-16T14:30:00+02:00,2021-04-16T15:00:00+02:00,46.30,EUR,,MWh
Power,Intraday,Continuous,NL,IDFULL,HH,2021-04-16T15:00:00+02:00,2021-04-16T15:30:00+02:00,45.32,EUR,,MWh
Power,Intraday,Continuous,NL,IDFULL,HH,2021-04-16T15:30:00+02:00,2021-04-16T16:00:00+02:00,45.32,EUR,,MWh
Power,Intraday,Continuous,NL,IDFULL,HH,2021-04-16T16:00:00+02:00,2021-04-16T16:30:00+02:00,44.64,EUR,,MWh
Power,Intraday,Continuous,NL,IDFULL,HH,2021-04-16T16:30:00+02:00,2021-04-16T17:00:00+02:00,44.64,EUR,,MWh
Power,Intraday,Continuous,NL,IDFULL,HH,2021-04-16T17:00:00+02:00,2021-04-16T17:30:00+02:00,43.87,EUR,,MWh
Power,Intraday,Continuous,NL,IDFULL,HH,2021-04-16T17:30:00+02:00,2021-04-16T18:00:00+02:00,43.87,EUR,,MWh
Power,Intraday,Continuous,NL,IDFULL,HH,2021-04-16T18:00:00+02:00,2021-04-16T18:30:00+02:00,30.98,EUR,,MWh
Power,Intraday,Continuous,NL,IDFULL,HH,2021-04-16T18:30:00+02:00,2021-04-16T19:00:00+02:00,80.00,EUR,6.500,MWh
Power,Intraday,Continuous,NL,IDFULL,HH,2021-04-16T19:00:00+02:00,2021-04-16T19:30:00+02:00,54.28,EUR,,MWh
Power,Intraday,Continuous,NL,IDFULL,HH,2021-04-16T19:30:00+02:00,2021-04-16T20:00:00+02:00,54.28,EUR,,MWh
Power,Intraday,Continuous,NL,IDFULL,HH,2021-04-16T20:00:00+02:00,2021-04-16T20:30:00+02:00,60.89,EUR,,MWh
Power,Intraday,Continuous,NL,IDFULL,HH,2021-04-16T20:30:00+02:00,2021-04-16T21:00:00+02:00,60.89,EUR,,MWh
Power,Intraday,Continuous,NL,IDFULL,HH,2021-04-16T21:00:00+02:00,2021-04-16T21:30:00+02:00,54.15,EUR,,MWh
Power,Intraday,Continuous,NL,IDFULL,HH,2021-04-16T21:30:00+02:00,2021-04-16T22:00:00+02:00,54.15,EUR,,MWh
Power,Intraday,Continuous,NL,IDFULL,HH,2021-04-16T22:00:00+02:00,2021-04-16T22:30:00+02:00,57.80,EUR,,MWh
Power,Intraday,Continuous,NL,IDFULL,HH,2021-04-16T22:30:00+02:00,2021-04-16T23:00:00+02:00,57.80,EUR,,MWh
Power,Intraday,Continuous,NL,IDFULL,HH,2021-04-16T23:00:00+02:00,2021-04-16T23:30:00+02:00,49.83,EUR,,MWh
Power,Intraday,Continuous,NL,IDFULL,HH,2021-04-16T23:30:00+02:00,2021-04-17T00:00:00+02:00,49.83,EUR,,MWh
Power,Intraday,Continuous,NL,ID1,HH,2021-04-16T00:00:00+02:00,2021-04-16T00:30:00+02:00,55.56,EUR,,MWh
Power,Intraday,Continuous,NL,ID1,HH,2021-04-16T00:30:00+02:00,2021-04-16T01:00:00+02:00,55.56,EUR,,MWh
Power,Intraday,Continuous,NL,ID1,HH,2021-04-16T01:00:00+02:00,2021-04-16T01:30:00+02:00,56.23,EUR,,MWh
Power,Intraday,Continuous,NL,ID1,HH,2021-04-16T01:30:00+02:00,2021-04-16T02:00:00+02:00,56.23,EUR,,MWh
Power,Intraday,Continuous,NL,ID1,HH,2021-04-16T02:00:00+02:00,2021-04-16T02:30:00+02:00,57.00,EUR,,MWh
Power,Intraday,Continuous,NL,ID1,HH,2021-04-16T02:30:00+02:00,2021-04-16T03:00:00+02:00,57.00,EUR,,MWh
Power,Intraday,Continuous,NL,ID1,HH,2021-04-16T03:00:00+02:00,2021-04-16T03:30:00+02:00,58.81,EUR,,MWh
Power,Intraday,Continuous,NL,ID1,HH,2021-04-16T03:30:00+02:00,2021-04-16T04:00:00+02:00,58.81,EUR,,MWh
Power,Intraday,Continuous,NL,ID1,HH,2021-04-16T04:00:00+02:00,2021-04-16T04:30:00+02:00,60.17,EUR,,MWh
Power,Intraday,Continuous,NL,ID1,HH,2021-04-16T04:30:00+02:00,2021-04-16T05:00:00+02:00,60.17,EUR,,MWh
Power,Intraday,Continuous,NL,ID1,HH,2021-04-16T05:00:00+02:00,2021-04-16T05:30:00+02:00,65.36,EUR,,MWh
Power,Intraday,Continuous,NL,ID1,HH,2021-04-16T05:30:00+02:00,2021-04-16T06:00:00+02:00,65.36,EUR,,MWh
Power,Intraday,Continuous,NL,ID1,HH,2021-04-16T06:00:00+02:00,2021-04-16T06:30:00+02:00,67.00,EUR,,MWh
Power,Intraday,Continuous,NL,ID1,HH,2021-04-16T06:30:00+02:00,2021-04-16T07:00:00+02:00,103.72,EUR,,MWh
Power,Intraday,Continuous,NL,ID1,HH,2021-04-16T07:00:00+02:00,2021-04-16T07:30:00+02:00,85.84,EUR,,MWh
Power,Intraday,Continuous,NL,ID1,HH,2021-04-16T07:30:00+02:00,2021-04-16T08:00:00+02:00,85.84,EUR,,MWh
Power,Intraday,Continuous,NL,ID1,HH,2021-04-16T08:00:00+02:00,2021-04-16T08:30:00+02:00,95.65,EUR,,MWh
Power,Intraday,Continuous,NL,ID1,HH,2021-04-16T08:30:00+02:00,2021-04-16T09:00:00+02:00,95.65,EUR,,MWh
Power,Intraday,Continuous,NL,ID1,HH,2021-04-16T09:00:00+02:00,2021-04-16T09:30:00+02:00,63.95,EUR,,MWh
Power,Intraday,Continuous,NL,ID1,HH,2021-04-16T09:30:00+02:00,2021-04-16T10:00:00+02:00,63.95,EUR,,MWh
Power,Intraday,Continuous,NL,ID1,HH,2021-04-16T10:00:00+02:00,2021-04-16T10:30:00+02:00,55.25,EUR,,MWh
Power,Intraday,Continuous,NL,ID1,HH,2021-04-16T10:30:00+02:00,2021-04-16T11:00:00+02:00,55.25,EUR,,MWh
Power,Intraday,Continuous,NL,ID1,HH,2021-04-16T11:00:00+02:00,2021-04-16T11:30:00+02:00,51.62,EUR,,MWh
Power,Intraday,Continuous,NL,ID1,HH,2021-04-16T11:30:00+02:00,2021-04-16T12:00:00+02:00,51.62,EUR,,MWh
Power,Intraday,Continuous,NL,ID1,HH,2021-04-16T12:00:00+02:00,2021-04-16T12:30:00+02:00,50.46,EUR,,MWh
Power,Intraday,Continuous,NL,ID1,HH,2021-04-16T12:30:00+02:00,2021-04-16T13:00:00+02:00,50.46,EUR,,MWh
Power,Intraday,Continuous,NL,ID1,HH,2021-04-16T13:00:00+02:00,2021-04-16T13:30:00+02:00,48.31,EUR,,MWh
Power,Intraday,Continuous,NL,ID1,HH,2021-04-16T13:30:00+02:00,2021-04-16T14:00:00+02:00,48.31,EUR,,MWh
Power,Intraday,Continuous,NL,ID1,HH,2021-04-16T14:00:00+02:00,2021-04-16T14:30:00+02:00,46.30,EUR,,MWh
Power,Intraday,Continuous,NL,ID1,HH,2021-04-16T14:30:00+02:00,2021-04-16T15:00:00+02:00,46.30,EUR,,MWh
Power,Intraday,Continuous,NL,ID1,HH,2021-04-16T15:00:00+02:00,2021-04-16T15:30:00+02:00,45.32,EUR,,MWh
Power,Intraday,Continuous,NL,ID1,HH,2021-04-16T15:30:00+02:00,2021-04-16T16:00:00+02:00,45.32,EUR,,MWh
Power,Intraday,Continuous,NL,ID1,HH,2021-04-16T16:00:00+02:00,2021-04-16T16:30:00+02:00,44.64,EUR,,MWh
Power,Intraday,Continuous,NL,ID1,HH,2021-04-16T16:30:00+02:00,2021-04-16T17:00:00+02:00,44.64,EUR,,MWh
Power,Intraday,Continuous,NL,ID1,HH,2021-04-16T17:00:00+02:00,2021-04-16T17:30:00+02:00,43.87,EUR,,MWh
Power,Intraday,Continuous,NL,ID1,HH,2021-04-16T17:30:00+02:00,2021-04-16T18:00:00+02:00,43.87,EUR,,MWh
Power,Intraday,Continuous,NL,ID1,HH,2021-04-16T18:00:00+02:00,2021-04-16T18:30:00+02:00,30.98,EUR,,MWh
Power,Intraday,Continuous,NL,ID1,HH,2021-04-16T18:30:00+02:00,2021-04-16T19:00:00+02:00,80.00,EUR,,MWh
Power,Intraday,Continuous,NL,ID1,HH,2021-04-16T19:00:00+02:00,2021-04-16T19:30:00+02:00,54.28,EUR,,MWh
Power,Intraday,Continuous,NL,ID1,HH,2021-04-16T19:30:00+02:00,2021-04-16T20:00:00+02:00,54.28,EUR,,MWh
Power,Intraday,Continuous,NL,ID1,HH,2021-04-16T20:00:00+02:00,2021-04-16T20:30:00+02:00,60.89,EUR,,MWh
Power,Intraday,Continuous,NL,ID1,HH,2021-04-16T20:30:00+02:00,2021-04-16T21:00:00+02:00,60.89,EUR,,MWh
Power,Intraday,Continuous,NL,ID1,HH,2021-04-16T21:00:00+02:00,2021-04-16T21:30:00+02:00,54.15,EUR,,MWh
Power,Intraday,Continuous,NL,ID1,HH,2021-04-16T21:30:00+02:00,2021-04-16T22:00:00+02:00,54.15,EUR,,MWh
Power,Intraday,Continuous,NL,ID1,HH,2021-04-16T22:00:00+02:00,2021-04-16T22:30:00+02:00,57.80,EUR,,MWh
Power,Intraday,Continuous,NL,ID1,HH,2021-04-16T22:30:00+02:00,2021-04-16T23:00:00+02:00,57.80,EUR,,MWh
Power,Intraday,Continuous,NL,ID1,HH,2021-04-16T23:00:00+02:00,2021-04-16T23:30:00+02:00,49.83,EUR,,MWh
Power,Intraday,Continuous,NL,ID1,HH,2021-04-16T23:30:00+02:00,2021-04-17T00:00:00+02:00,49.83,EUR,,MWh
Power,Intraday,Continuous,NL,ID3,HH,2021-04-16T00:00:00+02:00,2021-04-16T00:30:00+02:00,55.56,EUR,,MWh
Power,Intraday,Continuous,NL,ID3,HH,2021-04-16T00:30:00+02:00,2021-04-16T01:00:00+02:00,55.56,EUR,,MWh
Power,Intraday,Continuous,NL,ID3,HH,2021-04-16T01:00:00+02:00,2021-04-16T01:30:00+02:00,56.23,EUR,,MWh
Power,Intraday,Continuous,NL,ID3,HH,2021-04-16T01:30:00+02:00,2021-04-16T02:00:00+02:00,56.23,EUR,,MWh
Power,Intraday,Continuous,NL,ID3,HH,2021-04-16T02:00:00+02:00,2021-04-16T02:30:00+02:00,57.00,EUR,,MWh
Power,Intraday,Continuous,NL,ID3,HH,2021-04-16T02:30:00+02:00,2021-04-16T03:00:00+02:00,57.00,EUR,,MWh
Power,Intraday,Continuous,NL,ID3,HH,2021-04-16T03:00:00+02:00,2021-04-16T03:30:00+02:00,58.81,EUR,,MWh
Power,Intraday,Continuous,NL,ID3,HH,2021-04-16T03:30:00+02:00,2021-04-16T04:00:00+02:00,58.81,EUR,,MWh
Power,Intraday,Continuous,NL,ID3,HH,2021-04-16T04:00:00+02:00,2021-04-16T04:30:00+02:00,60.17,EUR,,MWh
Power,Intraday,Continuous,NL,ID3,HH,2021-04-16T04:30:00+02:00,2021-04-16T05:00:00+02:00,60.17,EUR,,MWh
Power,Intraday,Continuous,NL,ID3,HH,2021-04-16T05:00:00+02:00,2021-04-16T05:30:00+02:00,65.36,EUR,,MWh
Power,Intraday,Continuous,NL,ID3,HH,2021-04-16T05:30:00+02:00,2021-04-16T06:00:00+02:00,65.36,EUR,,MWh
Power,Intraday,Continuous,NL,ID3,HH,2021-04-16T06:00:00+02:00,2021-04-16T06:30:00+02:00,67.00,EUR,8.400,MWh
Power,Intraday,Continuous,NL,ID3,HH,2021-04-16T06:30:00+02:00,2021-04-16T07:00:00+02:00,103.72,EUR,,MWh
Power,Intraday,Continuous,NL,ID3,HH,2021-04-16T07:00:00+02:00,2021-04-16T07:30:00+02:00,85.84,EUR,,MWh
Power,Intraday,Continuous,NL,ID3,HH,2021-04-16T07:30:00+02:00,2021-04-16T08:00:00+02:00,85.84,EUR,,MWh
Power,Intraday,Continuous,NL,ID3,HH,2021-04-16T08:00:00+02:00,2021-04-16T08:30:00+02:00,95.65,EUR,,MWh
Power,Intraday,Continuous,NL,ID3,HH,2021-04-16T08:30:00+02:00,2021-04-16T09:00:00+02:00,95.65,EUR,,MWh
Power,Intraday,Continuous,NL,ID3,HH,2021-04-16T09:00:00+02:00,2021-04-16T09:30:00+02:00,63.95,EUR,,MWh
Power,Intraday,Continuous,NL,ID3,HH,2021-04-16T09:30:00+02:00,2021-04-16T10:00:00+02:00,63.95,EUR,,MWh
Power,Intraday,Continuous,NL,ID3,HH,2021-04-16T10:00:00+02:00,2021-04-16T10:30:00+02:00,55.25,EUR,,MWh
Power,Intraday,Continuous,NL,ID3,HH,2021-04-16T10:30:00+02:00,2021-04-16T11:00:00+02:00,55.25,EUR,,MWh
Power,Intraday,Continuous,NL,ID3,HH,2021-04-16T11:00:00+02:00,2021-04-16T11:30:00+02:00,51.62,EUR,,MWh
Power,Intraday,Continuous,NL,ID3,HH,2021-04-16T11:30:00+02:00,2021-04-16T12:00:00+02:00,51.62,EUR,,MWh
Power,Intraday,Continuous,NL,ID3,HH,2021-04-16T12:00:00+02:00,2021-04-16T12:30:00+02:00,50.46,EUR,,MWh
Power,Intraday,Continuous,NL,ID3,HH,2021-04-16T12:30:00+02:00,2021-04-16T13:00:00+02:00,50.46,EUR,,MWh
Power,Intraday,Continuous,NL,ID3,HH,2021-04-16T13:00:00+02:00,2021-04-16T13:30:00+02:00,48.31,EUR,,MWh
Power,Intraday,Continuous,NL,ID3,HH,2021-04-16T13:30:00+02:00,2021-04-16T14:00:00+02:00,48.31,EUR,,MWh
Power,Intraday,Continuous,NL,ID3,HH,2021-04-16T14:00:00+02:00,2021-04-16T14:30:00+02:00,46.30,EUR,,MWh
Power,Intraday,Continuous,NL,ID3,HH,2021-04-16T14:30:00+02:00,2021-04-16T15:00:00+02:00,46.30,EUR,,MWh
Power,Intraday,Continuous,NL,ID3,HH,2021-04-16T15:00:00+02:00,2021-04-16T15:30:00+02:00,45.32,EUR,,MWh
Power,Intraday,Continuous,NL,ID3,HH,2021-04-16T15:30:00+02:00,2021-04-16T16:00:00+02:00,45.32,EUR,,MWh
Power,Intraday,Continuous,NL,ID3,HH,2021-04-16T16:00:00+02:00,2021-04-16T16:30:00+02:00,44.64,EUR,,MWh
Power,Intraday,Continuous,NL,ID3,HH,2021-04-16T16:30:00+02:00,2021-04-16T17:00:00+02:00,44.64,EUR,,MWh
Power,Intraday,Continuous,NL,ID3,HH,2021-04-16T17:00:00+02:00,2021-04-16T17:30:00+02:00,43.87,EUR,,MWh
Power,Intraday,Continuous,NL,ID3,HH,2021-04-16T17:30:00+02:00,2021-04-16T18:00:00+02:00,43.87,EUR,,MWh
Power,Intraday,Continuous,NL,ID3,HH,2021-04-16T18:00:00+02:00,2021-04-16T18:30:00+02:00,30.98,EUR,,MWh
Power,Intraday,Continuous,NL,ID3,HH,2021-04-16T18:30:00+02:00,2021-04-16T19:00:00+02:00,80.00,EUR,5.500,MWh
Power,Intraday,Continuous,NL,ID3,HH,2021-04-16T19:00:00+02:00,2021-04-16T19:30:00+02:00,54.28,EUR,,MWh
Power,Intraday,Continuous,NL,ID3,HH,2021-04-16T19:30:00+02:00,2021-04-16T20:00:00+02:00,54.28,EUR,,MWh
Power,Intraday,Continuous,NL,ID3,HH,2021-04-16T20:00:00+02:00,2021-04-16T20:30:00+02:00,60.89,EUR,,MWh
Power,Intraday,Continuous,NL,ID3,HH,2021-04-16T20:30:00+02:00,2021-04-16T21:00:00+02:00,60.89,EUR,,MWh
Power,Intraday,Continuous,NL,ID3,HH,2021-04-16T21:00:00+02:00,2021-04-16T21:30:00+02:00,54.15,EUR,,MWh
Power,Intraday,Continuous,NL,ID3,HH,2021-04-16T21:30:00+02:00,2021-04-16T22:00:00+02:00,54.15,EUR,,MWh
Power,Intraday,Continuous,NL,ID3,HH,2021-04-16T22:00:00+02:00,2021-04-16T22:30:00+02:00,57.80,EUR,,MWh
Power,Intraday,Continuous,NL,ID3,HH,2021-04-16T22:30:00+02:00,2021-04-16T23:00:00+02:00,57.80,EUR,,MWh
Power,Intraday,Continuous,NL,ID3,HH,2021-04-16T23:00:00+02:00,2021-04-16T23:30:00+02:00,49.83,EUR,,MWh
Power,Intraday,Continuous,NL,ID3,HH,2021-04-16T23:30:00+02:00,2021-04-17T00:00:00+02:00,49.83,EUR,,MWh
Power,Intraday,Continuous,NL,IDFULL,QH,2021-04-16T00:00:00+02:00,2021-04-16T00:15:00+02:00,76.69,EUR,15.200,MWh
Power,Intraday,Continuous,NL,IDFULL,QH,2021-04-16T00:15:00+02:00,2021-04-16T00:30:00+02:00,58.22,EUR,8.700,MWh
Power,Intraday,Continuous,NL,IDFULL,QH,2021-04-16T00:30:00+02:00,2021-04-16T00:45:00+02:00,49.61,EUR,16.200,MWh
Power,Intraday,Continuous,NL,IDFULL,QH,2021-04-16T00:45:00+02:00,2021-04-16T01:00:00+02:00,42.65,EUR,21.680,MWh
Power,Intraday,Continuous,NL,IDFULL,QH,2021-04-16T01:00:00+02:00,2021-04-16T01:15:00+02:00,59.64,EUR,16.080,MWh
Power,Intraday,Continuous,NL,IDFULL,QH,2021-04-16T01:15:00+02:00,2021-04-16T01:30:00+02:00,55.99,EUR,8.430,MWh
Power,Intraday,Continuous,NL,IDFULL,QH,2021-04-16T01:30:00+02:00,2021-04-16T01:45:00+02:00,55.21,EUR,11.030,MWh
Power,Intraday,Continuous,NL,IDFULL,QH,2021-04-16T01:45:00+02:00,2021-04-16T02:00:00+02:00,51.83,EUR,22.750,MWh
Power,Intraday,Continuous,NL,IDFULL,QH,2021-04-16T02:00:00+02:00,2021-04-16T02:15:00+02:00,60.19,EUR,15.850,MWh
Power,Intraday,Continuous,NL,IDFULL,QH,2021-04-16T02:15:00+02:00,2021-04-16T02:30:00+02:00,56.69,EUR,12.400,MWh
Power,Intraday,Continuous,NL,IDFULL,QH,2021-04-16T02:30:00+02:00,2021-04-16T02:45:00+02:00,57.63,EUR,12.500,MWh
Power,Intraday,Continuous,NL,IDFULL,QH,2021-04-16T02:45:00+02:00,2021-04-16T03:00:00+02:00,56.96,EUR,13.430,MWh
Power,Intraday,Continuous,NL,IDFULL,QH,2021-04-16T03:00:00+02:00,2021-04-16T03:15:00+02:00,55.82,EUR,11.200,MWh
Power,Intraday,Continuous,NL,IDFULL,QH,2021-04-16T03:15:00+02:00,2021-04-16T03:30:00+02:00,56.96,EUR,10.830,MWh
Power,Intraday,Continuous,NL,IDFULL,QH,2021-04-16T03:30:00+02:00,2021-04-16T03:45:00+02:00,58.18,EUR,11.950,MWh
Power,Intraday,Continuous,NL,IDFULL,QH,2021-04-16T03:45:00+02:00,2021-04-16T04:00:00+02:00,62.43,EUR,10.330,MWh
Power,Intraday,Continuous,NL,IDFULL,QH,2021-04-16T04:00:00+02:00,2021-04-16T04:15:00+02:00,49.33,EUR,8.950,MWh
Power,Intraday,Continuous,NL,IDFULL,QH,2021-04-16T04:15:00+02:00,2021-04-16T04:30:00+02:00,53.65,EUR,9.030,MWh
Power,Intraday,Continuous,NL,IDFULL,QH,2021-04-16T04:30:00+02:00,2021-04-16T04:45:00+02:00,58.66,EUR,9.300,MWh
Power,Intraday,Continuous,NL,IDFULL,QH,2021-04-16T04:45:00+02:00,2021-04-16T05:00:00+02:00,69.08,EUR,9.950,MWh
Power,Intraday,Continuous,NL,IDFULL,QH,2021-04-16T05:00:00+02:00,2021-04-16T05:15:00+02:00,50.10,EUR,11.950,MWh
Power,Intraday,Continuous,NL,IDFULL,QH,2021-04-16T05:15:00+02:00,2021-04-16T05:30:00+02:00,53.63,EUR,9.480,MWh
Power,Intraday,Continuous,NL,IDFULL,QH,2021-04-16T05:30:00+02:00,2021-04-16T05:45:00+02:00,75.69,EUR,4.680,MWh
Power,Intraday,Continuous,NL,IDFULL,QH,2021-04-16T05:45:00+02:00,2021-04-16T06:00:00+02:00,82.65,EUR,7.050,MWh
Power,Intraday,Continuous,NL,IDFULL,QH,2021-04-16T06:00:00+02:00,2021-04-16T06:15:00+02:00,61.05,EUR,61.000,MWh
Power,Intraday,Continuous,NL,IDFULL,QH,2021-04-16T06:15:00+02:00,2021-04-16T06:30:00+02:00,68.71,EUR,41.630,MWh
Power,Intraday,Continuous,NL,IDFULL,QH,2021-04-16T06:30:00+02:00,2021-04-16T06:45:00+02:00,80.10,EUR,23.450,MWh
Power,Intraday,Continuous,NL,IDFULL,QH,2021-04-16T06:45:00+02:00,2021-04-16T07:00:00+02:00,86.84,EUR,20.900,MWh
Power,Intraday,Continuous,NL,IDFULL,QH,2021-04-16T07:00:00+02:00,2021-04-16T07:15:00+02:00,71.76,EUR,50.500,MWh
Power,Intraday,Continuous,NL,IDFULL,QH,2021-04-16T07:15:00+02:00,2021-04-16T07:30:00+02:00,87.57,EUR,23.600,MWh
Power,Intraday,Continuous,NL,IDFULL,QH,2021-04-16T07:30:00+02:00,2021-04-16T07:45:00+02:00,94.48,EUR,40.600,MWh
Power,Intraday,Continuous,NL,IDFULL,QH,2021-04-16T07:45:00+02:00,2021-04-16T08:00:00+02:00,91.35,EUR,55.780,MWh
Power,Intraday,Continuous,NL,IDFULL,QH,2021-04-16T08:00:00+02:00,2021-04-16T08:15:00+02:00,109.77,EUR,27.150,MWh
Power,Intraday,Continuous,NL,IDFULL,QH,2021-04-16T08:15:00+02:00,2021-04-16T08:30:00+02:00,78.28,EUR,18.000,MWh
Power,Intraday,Continuous,NL,IDFULL,QH,2021-04-16T08:30:00+02:00,2021-04-16T08:45:00+02:00,93.00,EUR,21.180,MWh
Power,Intraday,Continuous,NL,IDFULL,QH,2021-04-16T08:45:00+02:00,2021-04-16T09:00:00+02:00,77.32,EUR,31.350,MWh
Power,Intraday,Continuous,NL,IDFULL,QH,2021-04-16T09:00:00+02:00,2021-04-16T09:15:00+02:00,91.39,EUR,65.500,MWh
Power,Intraday,Continuous,NL,IDFULL,QH,2021-04-16T09:15:00+02:00,2021-04-16T09:30:00+02:00,75.61,EUR,39.650,MWh
Power,Intraday,Continuous,NL,IDFULL,QH,2021-04-16T09:30:00+02:00,2021-04-16T09:45:00+02:00,55.51,EUR,47.330,MWh
Power,Intraday,Continuous,NL,IDFULL,QH,2021-04-16T09:45:00+02:00,2021-04-16T10:00:00+02:00,42.80,EUR,52.300,MWh
Power,Intraday,Continuous,NL,IDFULL,QH,2021-04-16T10:00:00+02:00,2021-04-16T10:15:00+02:00,83.07,EUR,31.930,MWh
Power,Intraday,Continuous,NL,IDFULL,QH,2021-04-16T10:15:00+02:00,2021-04-16T10:30:00+02:00,59.81,EUR,25.980,MWh
Power,Intraday,Continuous,NL,IDFULL,QH,2021-04-16T10:30:00+02:00,2021-04-16T10:45:00+02:00,48.50,EUR,31.750,MWh
Power,Intraday,Continuous,NL,IDFULL,QH,2021-04-16T10:45:00+02:00,2021-04-16T11:00:00+02:00,37.72,EUR,45.950,MWh
Power,Intraday,Continuous,NL,IDFULL,QH,2021-04-16T11:00:00+02:00,2021-04-16T11:15:00+02:00,59.23,EUR,40.200,MWh
Power,Intraday,Continuous,NL,IDFULL,QH,2021-04-16T11:15:00+02:00,2021-04-16T11:30:00+02:00,50.44,EUR,53.600,MWh
Power,Intraday,Continuous,NL,IDFULL,QH,2021-04-16T11:30:00+02:00,2021-04-16T11:45:00+02:00,44.15,EUR,47.630,MWh
Power,Intraday,Continuous,NL,IDFULL,QH,2021-04-16T11:45:00+02:00,2021-04-16T12:00:00+02:00,45.76,EUR,43.530,MWh
Power,Intraday,Continuous,NL,IDFULL,QH,2021-04-16T12:00:00+02:00,2021-04-16T12:15:00+02:00,68.13,EUR,53.380,MWh
Power,Intraday,Continuous,NL,IDFULL,QH,2021-04-16T12:15:00+02:00,2021-04-16T12:30:00+02:00,53.76,EUR,64.700,MWh
Power,Intraday,Continuous,NL,IDFULL,QH,2021-04-16T12:30:00+02:00,2021-04-16T12:45:00+02:00,28.83,EUR,27.650,MWh
Power,Intraday,Continuous,NL,IDFULL,QH,2021-04-16T12:45:00+02:00,2021-04-16T13:00:00+02:00,32.12,EUR,33.000,MWh
Power,Intraday,Continuous,NL,IDFULL,QH,2021-04-16T13:00:00+02:00,2021-04-16T13:15:00+02:00,65.84,EUR,57.000,MWh
Power,Intraday,Continuous,NL,IDFULL,QH,2021-04-16T13:15:00+02:00,2021-04-16T13:30:00+02:00,53.73,EUR,51.400,MWh
Power,Intraday,Continuous,NL,IDFULL,QH,2021-04-16T13:30:00+02:00,2021-04-16T13:45:00+02:00,22.75,EUR,18.400,MWh
Power,Intraday,Continuous,NL,IDFULL,QH,2021-04-16T13:45:00+02:00,2021-04-16T14:00:00+02:00,19.80,EUR,20.480,MWh
Power,Intraday,Continuous,NL,IDFULL,QH,2021-04-16T14:00:00+02:00,2021-04-16T14:15:00+02:00,23.83,EUR,29.830,MWh
Power,Intraday,Continuous,NL,IDFULL,QH,2021-04-16T14:15:00+02:00,2021-04-16T14:30:00+02:00,18.96,EUR,14.400,MWh
Power,Intraday,Continuous,NL,IDFULL,QH,2021-04-16T14:30:00+02:00,2021-04-16T14:45:00+02:00,42.36,EUR,34.780,MWh
Power,Intraday,Continuous,NL,IDFULL,QH,2021-04-16T14:45:00+02:00,2021-04-16T15:00:00+02:00,44.25,EUR,58.050,MWh
Power,Intraday,Continuous,NL,IDFULL,QH,2021-04-16T15:00:00+02:00,2021-04-16T15:15:00+02:00,-14.13,EUR,12.600,MWh
Power,Intraday,Continuous,NL,IDFULL,QH,2021-04-16T15:15:00+02:00,2021-04-16T15:30:00+02:00,4.38,EUR,16.500,MWh
Power,Intraday,Continuous,NL,IDFULL,QH,2021-04-16T15:30:00+02:00,2021-04-16T15:45:00+02:00,44.39,EUR,42.350,MWh
Power,Intraday,Continuous,NL,IDFULL,QH,2021-04-16T15:45:00+02:00,2021-04-16T16:00:00+02:00,42.69,EUR,35.700,MWh
Power,Intraday,Continuous,NL,IDFULL,QH,2021-04-16T16:00:00+02:00,2021-04-16T16:15:00+02:00,-3.31,EUR,16.550,MWh
Power,Intraday,Continuous,NL,IDFULL,QH,2021-04-16T16:15:00+02:00,2021-04-16T16:30:00+02:00,-10.25,EUR,9.300,MWh
Power,Intraday,Continuous,NL,IDFULL,QH,2021-04-16T16:30:00+02:00,2021-04-16T16:45:00+02:00,45.63,EUR,39.900,MWh
Power,Intraday,Continuous,NL,IDFULL,QH,2021-04-16T16:45:00+02:00,2021-04-16T17:00:00+02:00,49.33,EUR,41.780,MWh
Power,Intraday,Continuous,NL,IDFULL,QH,2021-04-16T17:00:00+02:00,2021-04-16T17:15:00+02:00,21.07,EUR,34.400,MWh
Power,Intraday,Continuous,NL,IDFULL,QH,2021-04-16T17:15:00+02:00,2021-04-16T17:30:00+02:00,51.97,EUR,32.850,MWh
Power,Intraday,Continuous,NL,IDFULL,QH,2021-04-16T17:30:00+02:00,2021-04-16T17:45:00+02:00,51.21,EUR,22.150,MWh
Power,Intraday,Continuous,NL,IDFULL,QH,2021-04-16T17:45:00+02:00,2021-04-16T18:00:00+02:00,75.66,EUR,41.300,MWh
Power,Intraday,Continuous,NL,IDFULL,QH,2021-04-16T18:00:00+02:00,2021-04-16T18:15:00+02:00,26.33,EUR,13.750,MWh
Power,Intraday,Continuous,NL,IDFULL,QH,2021-04-16T18:15:00+02:00,2021-04-16T18:30:00+02:00,43.53,EUR,7.330,MWh
Power,Intraday,Continuous,NL,IDFULL,QH,2021-04-16T18:30:00+02:00,2021-04-16T18:45:00+02:00,77.76,EUR,6.750,MWh
Power,Intraday,Continuous,NL,IDFULL,QH,2021-04-16T18:45:00+02:00,2021-04-16T19:00:00+02:00,82.86,EUR,10.550,MWh
Power,Intraday,Continuous,NL,IDFULL,QH,2021-04-16T19:00:00+02:00,2021-04-16T19:15:00+02:00,22.53,EUR,7.100,MWh
Power,Intraday,Continuous,NL,IDFULL,QH,2021-04-16T19:15:00+02:00,2021-04-16T19:30:00+02:00,53.17,EUR,6.100,MWh
Power,Intraday,Continuous,NL,IDFULL,QH,2021-04-16T19:30:00+02:00,2021-04-16T19:45:00+02:00,53.99,EUR,,MWh
Power,Intraday,Continuous,NL,IDFULL,QH,2021-04-16T19:45:00+02:00,2021-04-16T20:00:00+02:00,87.43,EUR,7.100,MWh
Power,Intraday,Continuous,NL,IDFULL,QH,2021-04-16T20:00:00+02:00,2021-04-16T20:15:00+02:00,60.00,EUR,,MWh
Power,Intraday,Continuous,NL,IDFULL,QH,2021-04-16T20:15:00+02:00,2021-04-16T20:30:00+02:00,60.00,EUR,,MWh
Power,Intraday,Continuous,NL,IDFULL,QH,2021-04-16T20:30:00+02:00,2021-04-16T20:45:00+02:00,60.00,EUR,,MWh
Power,Intraday,Continuous,NL,IDFULL,QH,2021-04-16T20:45:00+02:00,2021-04-16T21:00:00+02:00,63.56,EUR,18.880,MWh
Power,Intraday,Continuous,NL,IDFULL,QH,2021-04-16T21:00:00+02:00,2021-04-16T21:15:00+02:00,73.09,EUR,3.750,MWh
Power,Intraday,Continuous,NL,IDFULL,QH,2021-04-16T21:15:00+02:00,2021-04-16T21:30:00+02:00,57.32,EUR,3.750,MWh
Power,Intraday,Continuous,NL,IDFULL,QH,2021-04-16T21:30:00+02:00,2021-04-16T21:45:00+02:00,43.10,EUR,,MWh
Power,Intraday,Continuous,NL,IDFULL,QH,2021-04-16T21:45:00+02:00,2021-04-16T22:00:00+02:00,43.10,EUR,,MWh
Power,Intraday,Continuous,NL,IDFULL,QH,2021-04-16T22:00:00+02:00,2021-04-16T22:15:00+02:00,82.82,EUR,9.230,MWh
Power,Intraday,Continuous,NL,IDFULL,QH,2021-04-16T22:15:00+02:00,2021-04-16T22:30:00+02:00,73.39,EUR,3.680,MWh
Power,Intraday,Continuous,NL,IDFULL,QH,2021-04-16T22:30:00+02:00,2021-04-16T22:45:00+02:00,59.72,EUR,8.330,MWh
Power,Intraday,Continuous,NL,IDFULL,QH,2021-04-16T22:45:00+02:00,2021-04-16T23:00:00+02:00,39.87,EUR,6.500,MWh
Power,Intraday,Continuous,NL,IDFULL,QH,2021-04-16T23:00:00+02:00,2021-04-16T23:15:00+02:00,49.83,EUR,,MWh
Power,Intraday,Continuous,NL,IDFULL,QH,2021-04-16T23:15:00+02:00,2021-04-16T23:30:00+02:00,49.83,EUR,,MWh
Power,Intraday,Continuous,NL,IDFULL,QH,2021-04-16T23:30:00+02:00,2021-04-16T23:45:00+02:00,49.83,EUR,,MWh
Power,Intraday,Continuous,NL,IDFULL,QH,2021-04-16T23:45:00+02:00,2021-04-17T00:00:00+02:00,49.83,EUR,,MWh
Power,Intraday,Continuous,NL,ID1,QH,2021-04-16T00:00:00+02:00,2021-04-16T00:15:00+02:00,76.69,EUR,,MWh
Power,Intraday,Continuous,NL,ID1,QH,2021-04-16T00:15:00+02:00,2021-04-16T00:30:00+02:00,58.22,EUR,,MWh
Power,Intraday,Continuous,NL,ID1,QH,2021-04-16T00:30:00+02:00,2021-04-16T00:45:00+02:00,49.61,EUR,,MWh
Power,Intraday,Continuous,NL,ID1,QH,2021-04-16T00:45:00+02:00,2021-04-16T01:00:00+02:00,42.65,EUR,,MWh
Power,Intraday,Continuous,NL,ID1,QH,2021-04-16T01:00:00+02:00,2021-04-16T01:15:00+02:00,60.22,EUR,,MWh
Power,Intraday,Continuous,NL,ID1,QH,2021-04-16T01:15:00+02:00,2021-04-16T01:30:00+02:00,56.32,EUR,,MWh
Power,Intraday,Continuous,NL,ID1,QH,2021-04-16T01:30:00+02:00,2021-04-16T01:45:00+02:00,54.80,EUR,,MWh
Power,Intraday,Continuous,NL,ID1,QH,2021-04-16T01:45:00+02:00,2021-04-16T02:00:00+02:00,53.34,EUR,,MWh
Power,Intraday,Continuous,NL,ID1,QH,2021-04-16T02:00:00+02:00,2021-04-16T02:15:00+02:00,62.00,EUR,,MWh
Power,Intraday,Continuous,NL,ID1,QH,2021-04-16T02:15:00+02:00,2021-04-16T02:30:00+02:00,57.32,EUR,,MWh
Power,Intraday,Continuous,NL,ID1,QH,2021-04-16T02:30:00+02:00,2021-04-16T02:45:00+02:00,58.16,EUR,,MWh
Power,Intraday,Continuous,NL,ID1,QH,2021-04-16T02:45:00+02:00,2021-04-16T03:00:00+02:00,57.87,EUR,,MWh
Power,Intraday,Continuous,NL,ID1,QH,2021-04-16T03:00:00+02:00,2021-04-16T03:15:00+02:00,55.82,EUR,,MWh
Power,Intraday,Continuous,NL,ID1,QH,2021-04-16T03:15:00+02:00,2021-04-16T03:30:00+02:00,57.11,EUR,,MWh
Power,Intraday,Continuous,NL,ID1,QH,2021-04-16T03:30:00+02:00,2021-04-16T03:45:00+02:00,58.87,EUR,,MWh
Power,Intraday,Continuous,NL,ID1,QH,2021-04-16T03:45:00+02:00,2021-04-16T04:00:00+02:00,64.40,EUR,,MWh
Power,Intraday,Continuous,NL,ID1,QH,2021-04-16T04:00:00+02:00,2021-04-16T04:15:00+02:00,49.33,EUR,,MWh
Power,Intraday,Continuous,NL,ID1,QH,2021-04-16T04:15:00+02:00,2021-04-16T04:30:00+02:00,53.65,EUR,,MWh
Power,Intraday,Continuous,NL,ID1,QH,2021-04-16T04:30:00+02:00,2021-04-16T04:45:00+02:00,58.66,EUR,,MWh
Power,Intraday,Continuous,NL,ID1,QH,2021-04-16T04:45:00+02:00,2021-04-16T05:00:00+02:00,69.08,EUR,,MWh
Power,Intraday,Continuous,NL,ID1,QH,2021-04-16T05:00:00+02:00,2021-04-16T05:15:00+02:00,50.10,EUR,,MWh
Power,Intraday,Continuous,NL,ID1,QH,2021-04-16T05:15:00+02:00,2021-04-16T05:30:00+02:00,53.63,EUR,,MWh
Power,Intraday,Continuous,NL,ID1,QH,2021-04-16T05:30:00+02:00,2021-04-16T05:45:00+02:00,75.75,EUR,,MWh
Power,Intraday,Continuous,NL,ID1,QH,2021-04-16T05:45:00+02:00,2021-04-16T06:00:00+02:00,84.50,EUR,,MWh
Power,Intraday,Continuous,NL,ID1,QH,2021-04-16T06:00:00+02:00,2021-04-16T06:15:00+02:00,60.83,EUR,,MWh
Power,Intraday,Continuous,NL,ID1,QH,2021-04-16T06:15:00+02:00,2021-04-16T06:30:00+02:00,68.78,EUR,,MWh
Power,Intraday,Continuous,NL,ID1,QH,2021-04-16T06:30:00+02:00,2021-04-16T06:45:00+02:00,80.10,EUR,,MWh
Power,Intraday,Continuous,NL,ID1,QH,2021-04-16T06:45:00+02:00,2021-04-16T07:00:00+02:00,86.84,EUR,,MWh
Power,Intraday,Continuous,NL,ID1,QH,2021-04-16T07:00:00+02:00,2021-04-16T07:15:00+02:00,69.20,EUR,,MWh
Power,Intraday,Continuous,NL,ID1,QH,2021-04-16T07:15:00+02:00,2021-04-16T07:30:00+02:00,84.23,EUR,,MWh
Power,Intraday,Continuous,NL,ID1,QH,2021-04-16T07:30:00+02:00,2021-04-16T07:45:00+02:00,85.06,EUR,,MWh
Power,Intraday,Continuous,NL,ID1,QH,2021-04-16T07:45:00+02:00,2021-04-16T08:00:00+02:00,82.05,EUR,,MWh
Power,Intraday,Continuous,NL,ID1,QH,2021-04-16T08:00:00+02:00,2021-04-16T08:15:00+02:00,109.77,EUR,,MWh
Power,Intraday,Continuous,NL,ID1,QH,2021-04-16T08:15:00+02:00,2021-04-16T08:30:00+02:00,78.28,EUR,,MWh
Power,Intraday,Continuous,NL,ID1,QH,2021-04-16T08:30:00+02:00,2021-04-16T08:45:00+02:00,93.00,EUR,,MWh
Power,Intraday,Continuous,NL,ID1,QH,2021-04-16T08:45:00+02:00,2021-04-16T09:00:00+02:00,90.43,EUR,6.000,MWh
Power,Intraday,Continuous,NL,ID1,QH,2021-04-16T09:00:00+02:00,2021-04-16T09:15:00+02:00,91.39,EUR,,MWh
Power,Intraday,Continuous,NL,ID1,QH,2021-04-16T09:15:00+02:00,2021-04-16T09:30:00+02:00,75.61,EUR,,MWh
Power,Intraday,Continuous,NL,ID1,QH,2021-04-16T09:30:00+02:00,2021-04-16T09:45:00+02:00,32.89,EUR,3.400,MWh
Power,Intraday,Continuous,NL,ID1,QH,2021-04-16T09:45:00+02:00,2021-04-16T10:00:00+02:00,42.80,EUR,,MWh
Power,Intraday,Continuous,NL,ID1,QH,2021-04-16T10:00:00+02:00,2021-04-16T10:15:00+02:00,83.07,EUR,,MWh
Power,Intraday,Continuous,NL,ID1,QH,2021-04-16T10:15:00+02:00,2021-04-16T10:30:00+02:00,59.81,EUR,,MWh
Power,Intraday,Continuous,NL,ID1,QH,2021-04-16T10:30:00+02:00,2021-04-16T10:45:00+02:00,48.50,EUR,,MWh
Power,Intraday,Continuous,NL,ID1,QH,2021-04-16T10:45:00+02:00,2021-04-16T11:00:00+02:00,37.72,EUR,,MWh
Power,Intraday,Continuous,NL,ID1,QH,2021-04-16T11:00:00+02:00,2021-04-16T11:15:00+02:00,57.84,EUR,6.980,MWh
Power,Intraday,Continuous,NL,ID1,QH,2021-04-16T11:15:00+02:00,2021-04-16T11:30:00+02:00,54.18,EUR,,MWh
Power,Intraday,Continuous,NL,ID1,QH,2021-04-16T11:30:00+02:00,2021-04-16T11:45:00+02:00,20.07,EUR,5.450,MWh
Power,Intraday,Continuous,NL,ID1,QH,2021-04-16T11:45:00+02:00,2021-04-16T12:00:00+02:00,44.86,EUR,,MWh
Power,Intraday,Continuous,NL,ID1,QH,2021-04-16T12:00:00+02:00,2021-04-16T12:15:00+02:00,64.41,EUR,,MWh
Power,Intraday,Continuous,NL,ID1,QH,2021-04-16T12:15:00+02:00,2021-04-16T12:30:00+02:00,50.18,EUR,,MWh
Power,Intraday,Continuous,NL,ID1,QH,2021-04-16T12:30:00+02:00,2021-04-16T12:45:00+02:00,36.67,EUR,,MWh
Power,Intraday,Continuous,NL,ID1,QH,2021-04-16T12:45:00+02:00,2021-04-16T13:00:00+02:00,38.85,EUR,,MWh
Power,Intraday,Continuous,NL,ID1,QH,2021-04-16T13:00:00+02:00,2021-04-16T13:15:00+02:00,64.25,EUR,,MWh
Power,Intraday,Continuous,NL,ID1,QH,2021-04-16T13:15:00+02:00,2021-04-16T13:30:00+02:00,51.66,EUR,,MWh
Power,Intraday,Continuous,NL,ID1,QH,2021-04-16T13:30:00+02:00,2021-04-16T13:45:00+02:00,23.98,EUR,,MWh
Power,Intraday,Continuous,NL,ID1,QH,2021-04-16T13:45:00+02:00,2021-04-16T14:00:00+02:00,28.13,EUR,,MWh
Power,Intraday,Continuous,NL,ID1,QH,2021-04-16T14:00:00+02:00,2021-04-16T14:15:00+02:00,23.71,EUR,,MWh
Power,Intraday,Continuous,NL,ID1,QH,2021-04-16T14:15:00+02:00,2021-04-16T14:30:00+02:00,26.97,EUR,,MWh
Power,Intraday,Continuous,NL,ID1,QH,2021-04-16T14:30:00+02:00,2021-04-16T14:45:00+02:00,46.68,EUR,,MWh
Power,Intraday,Continuous,NL,ID1,QH,2021-04-16T14:45:00+02:00,2021-04-16T15:00:00+02:00,3.92,EUR,8.700,MWh
Power,Intraday,Continuous,NL,ID1,QH,2021-04-16T15:00:00+02:00,2021-04-16T15:15:00+02:00,-0.81,EUR,7.350,MWh
Power,Intraday,Continuous,NL,ID1,QH,2021-04-16T15:15:00+02:00,2021-04-16T15:30:00+02:00,20.99,EUR,4.250,MWh
Power,Intraday,Continuous,NL,ID1,QH,2021-04-16T15:30:00+02:00,2021-04-16T15:45:00+02:00,48.71,EUR,,MWh
Power,Intraday,Continuous,NL,ID1,QH,2021-04-16T15:45:00+02:00,2021-04-16T16:00:00+02:00,47.95,EUR,,MWh
Power,Intraday,Continuous,NL,ID1,QH,2021-04-16T16:00:00+02:00,2021-04-16T16:15:00+02:00,-3.31,EUR,,MWh
Power,Intraday,Continuous,NL,ID1,QH,2021-04-16T16:15:00+02:00,2021-04-16T16:30:00+02:00,19.59,EUR,2.950,MWh
Power,Intraday,Continuous,NL,ID1,QH,2021-04-16T16:30:00+02:00,2021-04-16T16:45:00+02:00,48.98,EUR,3.730,MWh
Power,Intraday,Continuous,NL,ID1,QH,2021-04-16T16:45:00+02:00,2021-04-16T17:00:00+02:00,34.80,EUR,9.300,MWh
Power,Intraday,Continuous,NL,ID1,QH,2021-04-16T17:00:00+02:00,2021-04-16T17:15:00+02:00,5.55,EUR,3.130,MWh
Power,Intraday,Continuous,NL,ID1,QH,2021-04-16T17:15:00+02:00,2021-04-16T17:30:00+02:00,51.72,EUR,,MWh
Power,Intraday,Continuous,NL,ID1,QH,2021-04-16T17:30:00+02:00,2021-04-16T17:45:00+02:00,52.51,EUR,,MWh
Power,Intraday,Continuous,NL,ID1,QH,2021-04-16T17:45:00+02:00,2021-04-16T18:00:00+02:00,78.10,EUR,,MWh
Power,Intraday,Continuous,NL,ID1,QH,2021-04-16T18:00:00+02:00,2021-04-16T18:15:00+02:00,34.71,EUR,3.800,MWh
Power,Intraday,Continuous,NL,ID1,QH,2021-04-16T18:15:00+02:00,2021-04-16T18:30:00+02:00,43.53,EUR,,MWh
Power,Intraday,Continuous,NL,ID1,QH,2021-04-16T18:30:00+02:00,2021-04-16T18:45:00+02:00,78.62,EUR,,MWh
Power,Intraday,Continuous,NL,ID1,QH,2021-04-16T18:45:00+02:00,2021-04-16T19:00:00+02:00,82.46,EUR,,MWh
Power,Intraday,Continuous,NL,ID1,QH,2021-04-16T19:00:00+02:00,2021-04-16T19:15:00+02:00,25.00,EUR,3.230,MWh
Power,Intraday,Continuous,NL,ID1,QH,2021-04-16T19:15:00+02:00,2021-04-16T19:30:00+02:00,59.59,EUR,4.780,MWh
Power,Intraday,Continuous,NL,ID1,QH,2021-04-16T19:30:00+02:00,2021-04-16T19:45:00+02:00,53.99,EUR,,MWh
Power,Intraday,Continuous,NL,ID1,QH,2021-04-16T19:45:00+02:00,2021-04-16T20:00:00+02:00,87.43,EUR,,MWh
Power,Intraday,Continuous,NL,ID1,QH,2021-04-16T20:00:00+02:00,2021-04-16T20:15:00+02:00,60.00,EUR,,MWh
Power,Intraday,Continuous,NL,ID1,QH,2021-04-16T20:15:00+02:00,2021-04-16T20:30:00+02:00,60.00,EUR,,MWh
Power,Intraday,Continuous,NL,ID1,QH,2021-04-16T20:30:00+02:00,2021-04-16T20:45:00+02:00,60.00,EUR,,MWh
Power,Intraday,Continuous,NL,ID1,QH,2021-04-16T20:45:00+02:00,2021-04-16T21:00:00+02:00,63.56,EUR,,MWh
Power,Intraday,Continuous,NL,ID1,QH,2021-04-16T21:00:00+02:00,2021-04-16T21:15:00+02:00,73.09,EUR,3.750,MWh
Power,Intraday,Continuous,NL,ID1,QH,2021-04-16T21:15:00+02:00,2021-04-16T21:30:00+02:00,57.32,EUR,3.750,MWh
Power,Intraday,Continuous,NL,ID1,QH,2021-04-16T21:30:00+02:00,2021-04-16T21:45:00+02:00,43.10,EUR,,MWh
Power,Intraday,Continuous,NL,ID1,QH,2021-04-16T21:45:00+02:00,2021-04-16T22:00:00+02:00,43.10,EUR,,MWh
Power,Intraday,Continuous,NL,ID1,QH,2021-04-16T22:00:00+02:00,2021-04-16T22:15:00+02:00,82.82,EUR,,MWh
Power,Intraday,Continuous,NL,ID1,QH,2021-04-16T22:15:00+02:00,2021-04-16T22:30:00+02:00,73.39,EUR,,MWh
Power,Intraday,Continuous,NL,ID1,QH,2021-04-16T22:30:00+02:00,2021-04-16T22:45:00+02:00,59.61,EUR,,MWh
Power,Intraday,Continuous,NL,ID1,QH,2021-04-16T22:45:00+02:00,2021-04-16T23:00:00+02:00,37.48,EUR,,MWh
Power,Intraday,Continuous,NL,ID1,QH,2021-04-16T23:00:00+02:00,2021-04-16T23:15:00+02:00,49.83,EUR,,MWh
Power,Intraday,Continuous,NL,ID1,QH,2021-04-16T23:15:00+02:00,2021-04-16T23:30:00+02:00,49.83,EUR,,MWh
Power,Intraday,Continuous,NL,ID1,QH,2021-04-16T23:30:00+02:00,2021-04-16T23:45:00+02:00,49.83,EUR,,MWh
Power,Intraday,Continuous,NL,ID1,QH,2021-04-16T23:45:00+02:00,2021-04-17T00:00:00+02:00,49.83,EUR,,MWh
Power,Intraday,Continuous,NL,ID3,QH,2021-04-16T00:00:00+02:00,2021-04-16T00:15:00+02:00,76.69,EUR,15.200,MWh
Power,Intraday,Continuous,NL,ID3,QH,2021-04-16T00:15:00+02:00,2021-04-16T00:30:00+02:00,58.22,EUR,8.700,MWh
Power,Intraday,Continuous,NL,ID3,QH,2021-04-16T00:30:00+02:00,2021-04-16T00:45:00+02:00,49.61,EUR,16.200,MWh
Power,Intraday,Continuous,NL,ID3,QH,2021-04-16T00:45:00+02:00,2021-04-16T01:00:00+02:00,42.65,EUR,21.680,MWh
Power,Intraday,Continuous,NL,ID3,QH,2021-04-16T01:00:00+02:00,2021-04-16T01:15:00+02:00,60.22,EUR,14.380,MWh
Power,Intraday,Continuous,NL,ID3,QH,2021-04-16T01:15:00+02:00,2021-04-16T01:30:00+02:00,56.32,EUR,2.800,MWh
Power,Intraday,Continuous,NL,ID3,QH,2021-04-16T01:30:00+02:00,2021-04-16T01:45:00+02:00,54.80,EUR,3.950,MWh
Power,Intraday,Continuous,NL,ID3,QH,2021-04-16T01:45:00+02:00,2021-04-16T02:00:00+02:00,53.34,EUR,4.600,MWh
Power,Intraday,Continuous,NL,ID3,QH,2021-04-16T02:00:00+02:00,2021-04-16T02:15:00+02:00,62.00,EUR,9.580,MWh
Power,Intraday,Continuous,NL,ID3,QH,2021-04-16T02:15:00+02:00,2021-04-16T02:30:00+02:00,57.32,EUR,8.050,MWh
Power,Intraday,Continuous,NL,ID3,QH,2021-04-16T02:30:00+02:00,2021-04-16T02:45:00+02:00,58.16,EUR,8.450,MWh
Power,Intraday,Continuous,NL,ID3,QH,2021-04-16T02:45:00+02:00,2021-04-16T03:00:00+02:00,57.87,EUR,9.230,MWh
Power,Intraday,Continuous,NL,ID3,QH,2021-04-16T03:00:00+02:00,2021-04-16T03:15:00+02:00,55.82,EUR,10.680,MWh
Power,Intraday,Continuous,NL,ID3,QH,2021-04-16T03:15:00+02:00,2021-04-16T03:30:00+02:00,57.11,EUR,9.700,MWh
Power,Intraday,Continuous,NL,ID3,QH,2021-04-16T03:30:00+02:00,2021-04-16T03:45:00+02:00,58.87,EUR,7.600,MWh
Power,Intraday,Continuous,NL,ID3,QH,2021-04-16T03:45:00+02:00,2021-04-16T04:00:00+02:00,64.40,EUR,6.650,MWh
Power,Intraday,Continuous,NL,ID3,QH,2021-04-16T04:00:00+02:00,2021-04-16T04:15:00+02:00,49.33,EUR,,MWh
Power,Intraday,Continuous,NL,ID3,QH,2021-04-16T04:15:00+02:00,2021-04-16T04:30:00+02:00,53.65,EUR,,MWh
Power,Intraday,Continuous,NL,ID3,QH,2021-04-16T04:30:00+02:00,2021-04-16T04:45:00+02:00,58.66,EUR,,MWh
Power,Intraday,Continuous,NL,ID3,QH,2021-04-16T04:45:00+02:00,2021-04-16T05:00:00+02:00,69.08,EUR,,MWh
Power,Intraday,Continuous,NL,ID3,QH,2021-04-16T05:00:00+02:00,2021-04-16T05:15:00+02:00,50.10,EUR,11.950,MWh
Power,Intraday,Continuous,NL,ID3,QH,2021-04-16T05:15:00+02:00,2021-04-16T05:30:00+02:00,53.63,EUR,9.480,MWh
Power,Intraday,Continuous,NL,ID3,QH,2021-04-16T05:30:00+02:00,2021-04-16T05:45:00+02:00,75.75,EUR,4.630,MWh
Power,Intraday,Continuous,NL,ID3,QH,2021-04-16T05:45:00+02:00,2021-04-16T06:00:00+02:00,84.50,EUR,5.280,MWh
Power,Intraday,Continuous,NL,ID3,QH,2021-04-16T06:00:00+02:00,2021-04-16T06:15:00+02:00,60.83,EUR,54.130,MWh
Power,Intraday,Continuous,NL,ID3,QH,2021-04-16T06:15:00+02:00,2021-04-16T06:30:00+02:00,68.78,EUR,35.930,MWh
Power,Intraday,Continuous,NL,ID3,QH,2021-04-16T06:30:00+02:00,2021-04-16T06:45:00+02:00,80.10,EUR,23.450,MWh
Power,Intraday,Continuous,NL,ID3,QH,2021-04-16T06:45:00+02:00,2021-04-16T07:00:00+02:00,86.84,EUR,20.900,MWh
Power,Intraday,Continuous,NL,ID3,QH,2021-04-16T07:00:00+02:00,2021-04-16T07:15:00+02:00,69.20,EUR,18.330,MWh
Power,Intraday,Continuous,NL,ID3,QH,2021-04-16T07:15:00+02:00,2021-04-16T07:30:00+02:00,84.23,EUR,11.050,MWh
Power,Intraday,Continuous,NL,ID3,QH,2021-04-16T07:30:00+02:00,2021-04-16T07:45:00+02:00,85.06,EUR,10.830,MWh
Power,Intraday,Continuous,NL,ID3,QH,2021-04-16T07:45:00+02:00,2021-04-16T08:00:00+02:00,82.05,EUR,24.650,MWh
Power,Intraday,Continuous,NL,ID3,QH,2021-04-16T08:00:00+02:00,2021-04-16T08:15:00+02:00,109.77,EUR,27.150,MWh
Power,Intraday,Continuous,NL,ID3,QH,2021-04-16T08:15:00+02:00,2021-04-16T08:30:00+02:00,78.28,EUR,18.000,MWh
Power,Intraday,Continuous,NL,ID3,QH,2021-04-16T08:30:00+02:00,2021-04-16T08:45:00+02:00,93.00,EUR,21.180,MWh
Power,Intraday,Continuous,NL,ID3,QH,2021-04-16T08:45:00+02:00,2021-04-16T09:00:00+02:00,77.32,EUR,31.350,MWh
Power,Intraday,Continuous,NL,ID3,QH,2021-04-16T09:00:00+02:00,2021-04-16T09:15:00+02:00,91.39,EUR,65.500,MWh
Power,Intraday,Continuous,NL,ID3,QH,2021-04-16T09:15:00+02:00,2021-04-16T09:30:00+02:00,75.61,EUR,39.650,MWh
Power,Intraday,Continuous,NL,ID3,QH,2021-04-16T09:30:00+02:00,2021-04-16T09:45:00+02:00,55.51,EUR,47.330,MWh
Power,Intraday,Continuous,NL,ID3,QH,2021-04-16T09:45:00+02:00,2021-04-16T10:00:00+02:00,42.80,EUR,52.300,MWh
Power,Intraday,Continuous,NL,ID3,QH,2021-04-16T10:00:00+02:00,2021-04-16T10:15:00+02:00,83.07,EUR,31.930,MWh
Power,Intraday,Continuous,NL,ID3,QH,2021-04-16T10:15:00+02:00,2021-04-16T10:30:00+02:00,59.81,EUR,25.980,MWh
Power,Intraday,Continuous,NL,ID3,QH,2021-04-16T10:30:00+02:00,2021-04-16T10:45:00+02:00,48.50,EUR,31.750,MWh
Power,Intraday,Continuous,NL,ID3,QH,2021-04-16T10:45:00+02:00,2021-04-16T11:00:00+02:00,37.72,EUR,45.950,MWh
Power,Intraday,Continuous,NL,ID3,QH,2021-04-16T11:00:00+02:00,2021-04-16T11:15:00+02:00,59.23,EUR,40.200,MWh
Power,Intraday,Continuous,NL,ID3,QH,2021-04-16T11:15:00+02:00,2021-04-16T11:30:00+02:00,54.18,EUR,49.350,MWh
Power,Intraday,Continuous,NL,ID3,QH,2021-04-16T11:30:00+02:00,2021-04-16T11:45:00+02:00,47.59,EUR,42.630,MWh
Power,Intraday,Continuous,NL,ID3,QH,2021-04-16T11:45:00+02:00,2021-04-16T12:00:00+02:00,44.86,EUR,37.550,MWh
Power,Intraday,Continuous,NL,ID3,QH,2021-04-16T12:00:00+02:00,2021-04-16T12:15:00+02:00,64.41,EUR,37.800,MWh
Power,Intraday,Continuous,NL,ID3,QH,2021-04-16T12:15:00+02:00,2021-04-16T12:30:00+02:00,50.18,EUR,48.080,MWh
Power,Intraday,Continuous,NL,ID3,QH,2021-04-16T12:30:00+02:00,2021-04-16T12:45:00+02:00,36.67,EUR,25.150,MWh
Power,Intraday,Continuous,NL,ID3,QH,2021-04-16T12:45:00+02:00,2021-04-16T13:00:00+02:00,38.85,EUR,30.500,MWh
Power,Intraday,Continuous,NL,ID3,QH,2021-04-16T13:00:00+02:00,2021-04-16T13:15:00+02:00,64.25,EUR,45.580,MWh
Power,Intraday,Continuous,NL,ID3,QH,2021-04-16T13:15:00+02:00,2021-04-16T13:30:00+02:00,51.66,EUR,29.580,MWh
Power,Intraday,Continuous,NL,ID3,QH,2021-04-16T13:30:00+02:00,2021-04-16T13:45:00+02:00,23.98,EUR,17.100,MWh
Power,Intraday,Continuous,NL,ID3,QH,2021-04-16T13:45:00+02:00,2021-04-16T14:00:00+02:00,28.13,EUR,16.350,MWh
Power,Intraday,Continuous,NL,ID3,QH,2021-04-16T14:00:00+02:00,2021-04-16T14:15:00+02:00,23.71,EUR,29.700,MWh
Power,Intraday,Continuous,NL,ID3,QH,2021-04-16T14:15:00+02:00,2021-04-16T14:30:00+02:00,26.97,EUR,11.900,MWh
Power,Intraday,Continuous,NL,ID3,QH,2021-04-16T14:30:00+02:00,2021-04-16T14:45:00+02:00,46.68,EUR,32.550,MWh
Power,Intraday,Continuous,NL,ID3,QH,2021-04-16T14:45:00+02:00,2021-04-16T15:00:00+02:00,44.16,EUR,56.600,MWh
Power,Intraday,Continuous,NL,ID3,QH,2021-04-16T15:00:00+02:00,2021-04-16T15:15:00+02:00,-14.13,EUR,12.600,MWh
Power,Intraday,Continuous,NL,ID3,QH,2021-04-16T15:15:00+02:00,2021-04-16T15:30:00+02:00,-7.59,EUR,9.600,MWh
Power,Intraday,Continuous,NL,ID3,QH,2021-04-16T15:30:00+02:00,2021-04-16T15:45:00+02:00,48.71,EUR,39.850,MWh
Power,Intraday,Continuous,NL,ID3,QH,2021-04-16T15:45:00+02:00,2021-04-16T16:00:00+02:00,47.95,EUR,33.200,MWh
Power,Intraday,Continuous,NL,ID3,QH,2021-04-16T16:00:00+02:00,2021-04-16T16:15:00+02:00,-3.31,EUR,16.550,MWh
Power,Intraday,Continuous,NL,ID3,QH,2021-04-16T16:15:00+02:00,2021-04-16T16:30:00+02:00,-4.34,EUR,6.800,MWh
Power,Intraday,Continuous,NL,ID3,QH,2021-04-16T16:30:00+02:00,2021-04-16T16:45:00+02:00,51.77,EUR,35.900,MWh
Power,Intraday,Continuous,NL,ID3,QH,2021-04-16T16:45:00+02:00,2021-04-16T17:00:00+02:00,55.66,EUR,37.780,MWh
Power,Intraday,Continuous,NL,ID3,QH,2021-04-16T17:00:00+02:00,2021-04-16T17:15:00+02:00,15.61,EUR,24.650,MWh
Power,Intraday,Continuous,NL,ID3,QH,2021-04-16T17:15:00+02:00,2021-04-16T17:30:00+02:00,51.72,EUR,17.050,MWh
Power,Intraday,Continuous,NL,ID3,QH,2021-04-16T17:30:00+02:00,2021-04-16T17:45:00+02:00,52.51,EUR,10.030,MWh
Power,Intraday,Continuous,NL,ID3,QH,2021-04-16T17:45:00+02:00,2021-04-16T18:00:00+02:00,78.10,EUR,26.230,MWh
Power,Intraday,Continuous,NL,ID3,QH,2021-04-16T18:00:00+02:00,2021-04-16T18:15:00+02:00,6.81,EUR,7.250,MWh
Power,Intraday,Continuous,NL,ID3,QH,2021-04-16T18:15:00+02:00,2021-04-16T18:30:00+02:00,43.53,EUR,,MWh
Power,Intraday,Continuous,NL,ID3,QH,2021-04-16T18:30:00+02:00,2021-04-16T18:45:00+02:00,78.62,EUR,3.250,MWh
Power,Intraday,Continuous,NL,ID3,QH,2021-04-16T18:45:00+02:00,2021-04-16T19:00:00+02:00,82.46,EUR,4.680,MWh
Power,Intraday,Continuous,NL,ID3,QH,2021-04-16T19:00:00+02:00,2021-04-16T19:15:00+02:00,22.53,EUR,7.100,MWh
Power,Intraday,Continuous,NL,ID3,QH,2021-04-16T19:15:00+02:00,2021-04-16T19:30:00+02:00,52.65,EUR,5.980,MWh
Power,Intraday,Continuous,NL,ID3,QH,2021-04-16T19:30:00+02:00,2021-04-16T19:45:00+02:00,53.99,EUR,,MWh
Power,Intraday,Continuous,NL,ID3,QH,2021-04-16T19:45:00+02:00,2021-04-16T20:00:00+02:00,87.43,EUR,,MWh
Power,Intraday,Continuous,NL,ID3,QH,2021-04-16T20:00:00+02:00,2021-04-16T20:15:00+02:00,60.00,EUR,,MWh
Power,Intraday,Continuous,NL,ID3,QH,2021-04-16T20:15:00+02:00,2021-04-16T20:30:00+02:00,60.00,EUR,,MWh
Power,Intraday,Continuous,NL,ID3,QH,2021-04-16T20:30:00+02:00,2021-04-16T20:45:00+02:00,60.00,EUR,,MWh
Power,Intraday,Continuous,NL,ID3,QH,2021-04-16T20:45:00+02:00,2021-04-16T21:00:00+02:00,63.56,EUR,18.880,MWh
Power,Intraday,Continuous,NL,ID3,QH,2021-04-16T21:00:00+02:00,2021-04-16T21:15:00+02:00,73.09,EUR,3.750,MWh
Power,Intraday,Continuous,NL,ID3,QH,2021-04-16T21:15:00+02:00,2021-04-16T21:30:00+02:00,57.32,EUR,3.750,MWh
Power,Intraday,Continuous,NL,ID3,QH,2021-04-16T21:30:00+02:00,2021-04-16T21:45:00+02:00,43.10,EUR,,MWh
Power,Intraday,Continuous,NL,ID3,QH,2021-04-16T21:45:00+02:00,2021-04-16T22:00:00+02:00,43.10,EUR,,MWh
Power,Intraday,Continuous,NL,ID3,QH,2021-04-16T22:00:00+02:00,2021-04-16T22:15:00+02:00,82.82,EUR,9.230,MWh
Power,Intraday,Continuous,NL,ID3,QH,2021-04-16T22:15:00+02:00,2021-04-16T22:30:00+02:00,73.39,EUR,3.680,MWh
Power,Intraday,Continuous,NL,ID3,QH,2021-04-16T22:30:00+02:00,2021-04-16T22:45:00+02:00,59.61,EUR,5.830,MWh
Power,Intraday,Continuous,NL,ID3,QH,2021-04-16T22:45:00+02:00,2021-04-16T23:00:00+02:00,37.48,EUR,3.800,MWh
Power,Intraday,Continuous,NL,ID3,QH,2021-04-16T23:00:00+02:00,2021-04-16T23:15:00+02:00,49.83,EUR,,MWh
Power,Intraday,Continuous,NL,ID3,QH,2021-04-16T23:15:00+02:00,2021-04-16T23:30:00+02:00,49.83,EUR,,MWh
Power,Intraday,Continuous,NL,ID3,QH,2021-04-16T23:30:00+02:00,2021-04-16T23:45:00+02:00,49.83,EUR,,MWh
Power,Intraday,Continuous,NL,ID3,QH,2021-04-16T23:45:00+02:00,2021-04-17T00:00:00+02:00,49.83,EUR,,MWh
Power,Intraday,Continuous,NL,IDFULL,BASE,2021-04-16T00:00:00+02:00,2021-04-17T00:00:00+02:00,58.42,EUR,15789.900,MWh
Power,Intraday,Continuous,NL,IDFULL,PEAK,2021-04-16T08:00:00+02:00,2021-04-16T20:00:00+02:00,54.60,EUR,11884.600,MWh
