Commodity,NominationModality,TradingModality,MarketArea,IndexName,TimeResolution,DeliveryStart,DeliveryEnd,IndexPrice,Currency,Volume,VolumeUnit
Power,Intraday,Continuous,NL,IDFULL,H,2021-06-11T00:00:00+02:00,2021-06-11T01:00:00+02:00,82.38,EUR,557.500,MWh
Power,Intraday,Continuous,NL,IDFULL,H,2021-06-11T01:00:00+02:00,2021-06-11T02:00:00+02:00,77.23,EUR,824.600,MWh
Power,Intraday,Continuous,NL,IDFULL,H,2021-06-11T02:00:00+02:00,2021-06-11T03:00:00+02:00,72.84,EUR,864.900,MWh
Power,Intraday,Continuous,NL,IDFULL,H,2021-06-11T03:00:00+02:00,2021-06-11T04:00:00+02:00,72.93,EUR,1063.500,MWh
Power,Intraday,Continuous,NL,IDFULL,H,2021-06-11T04:00:00+02:00,2021-06-11T05:00:00+02:00,70.43,EUR,698.200,MWh
Power,Intraday,Continuous,NL,IDFULL,H,2021-06-11T05:00:00+02:00,2021-06-11T06:00:00+02:00,76.54,EUR,457.500,MWh
Power,Intraday,Continuous,NL,IDFULL,H,2021-06-11T06:00:00+02:00,2021-06-11T07:00:00+02:00,86.05,EUR,1020.900,MWh
Power,Intraday,Continuous,NL,IDFULL,H,2021-06-11T07:00:00+02:00,2021-06-11T08:00:00+02:00,95.32,EUR,706.600,MWh
Power,Intraday,Continuous,NL,IDFULL,H,2021-06-11T08:00:00+02:00,2021-06-11T09:00:00+02:00,100.53,EUR,1115.600,MWh
Power,Intraday,Continuous,NL,IDFULL,H,2021-06-11T09:00:00+02:00,2021-06-11T10:00:00+02:00,85.82,EUR,873.300,MWh
Power,Intraday,Continuous,NL,IDFULL,H,2021-06-11T10:00:00+02:00,2021-06-11T11:00:00+02:00,73.75,EUR,1241.900,MWh
Power,Intraday,Continuous,NL,IDFULL,H,2021-06-11T11:00:00+02:00,2021-06-11T12:00:00+02:00,75.33,EUR,1122.400,MWh
Power,Intraday,Continuous,NL,IDFULL,H,2021-06-11T12:00:00+02:00,2021-06-11T13:00:00+02:00,75.10,EUR,990.000,MWh
Power,Intraday,Continuous,NL,IDFULL,H,2021-06-11T13:00:00+02:00,2021-06-11T14:00:00+02:00,68.43,EUR,1556.000,MWh
Power,Intraday,Continuous,NL,IDFULL,H,2021-06-11T14:00:00+02:00,2021-06-11T15:00:00+02:00,70.02,EUR,1648.200,MWh
Power,Intraday,Continuous,NL,IDFULL,H,2021-06-11T15:00:00+02:00,2021-06-11T16:00:00+02:00,70.10,EUR,1813.100,MWh
Power,Intraday,Continuous,NL,IDFULL,H,2021-06-11T16:00:00+02:00,2021-06-11T17:00:00+02:00,69.34,EUR,1556.000,MWh
Power,Intraday,Continuous,NL,IDFULL,H,2021-06-11T17:00:00+02:00,2021-06-11T18:00:00+02:00,79.21,EUR,909.800,MWh
Power,Intraday,Continuous,NL,IDFULL,H,2021-06-11T18:00:00+02:00,2021-06-11T19:00:00+02:00,89.72,EUR,1212.200,MWh
Power,Intraday,Continuous,NL,IDFULL,H,2021-06-11T19:00:00+02:00,2021-06-11T20:00:00+02:00,95.91,EUR,1769.200,MWh
Power,Intraday,Continuous,NL,IDFULL,H,2021-06-11T20:00:00+02:00,2021-06-11T21:00:00+02:00,95.70,EUR,1382.200,MWh
Power,Intraday,Continuous,NL,IDFULL,H,2021-06-11T21:00:00+02:00,2021-06-11T22:00:00+02:00,94.50,EUR,1606.500,MWh
Power,Intraday,Continuous,NL,IDFULL,H,2021-06-11T22:00:00+02:00,2021-06-11T23:00:00+02:00,90.58,EUR,1992.900,MWh
Power,Intraday,Continuous,NL,IDFULL,H,2021-06-11T23:00:00+02:00,2021-06-12T00:00:00+02:00,85.53,EUR,1229.000,MWh
Power,Intraday,Continuous,NL,ID1,H,2021-06-11T00:00:00+02:00,2021-06-11T01:00:00+02:00,82.38,EUR,,MWh
Power,Intraday,Continuous,NL,ID1,H,2021-06-11T01:00:00+02:00,2021-06-11T02:00:00+02:00,77.39,EUR,,MWh
Power,Intraday,Continuous,NL,ID1,H,2021-06-11T02:00:00+02:00,2021-06-11T03:00:00+02:00,74.22,EUR,,MWh
Power,Intraday,Continuous,NL,ID1,H,2021-06-11T03:00:00+02:00,2021-06-11T04:00:00+02:00,84.75,EUR,32.300,MWh
Power,Intraday,Continuous,NL,ID1,H,2021-06-11T04:00:00+02:00,2021-06-11T05:00:00+02:00,71.28,EUR,,MWh
Power,Intraday,Continuous,NL,ID1,H,2021-06-11T05:00:00+02:00,2021-06-11T06:00:00+02:00,77.75,EUR,,MWh
Power,Intraday,Continuous,NL,ID1,H,2021-06-11T06:00:00+02:00,2021-06-11T07:00:00+02:00,87.21,EUR,,MWh
Power,Intraday,Continuous,NL,ID1,H,2021-06-11T07:00:00+02:00,2021-06-11T08:00:00+02:00,91.86,EUR,,MWh
Power,Intraday,Continuous,NL,ID1,H,2021-06-11T08:00:00+02:00,2021-06-11T09:00:00+02:00,84.09,EUR,62.000,MWh
Power,Intraday,Continuous,NL,ID1,H,2021-06-11T09:00:00+02:00,2021-06-11T10:00:00+02:00,92.40,EUR,25.000,MWh
Power,Intraday,Continuous,NL,ID1,H,2021-06-11T10:00:00+02:00,2021-06-11T11:00:00+02:00,57.31,EUR,156.100,MWh
Power,Intraday,Continuous,NL,ID1,H,2021-06-11T11:00:00+02:00,2021-06-11T12:00:00+02:00,79.41,EUR,42.400,MWh
Power,Intraday,Continuous,NL,ID1,H,2021-06-11T12:00:00+02:00,2021-06-11T13:00:00+02:00,98.49,EUR,42.000,MWh
Power,Intraday,Continuous,NL,ID1,H,2021-06-11T13:00:00+02:00,2021-06-11T14:00:00+02:00,69.80,EUR,,MWh
Power,Intraday,Continuous,NL,ID1,H,2021-06-11T14:00:00+02:00,2021-06-11T15:00:00+02:00,70.92,EUR,16.500,MWh
Power,Intraday,Continuous,NL,ID1,H,2021-06-11T15:00:00+02:00,2021-06-11T16:00:00+02:00,43.17,EUR,108.300,MWh
Power,Intraday,Continuous,NL,ID1,H,2021-06-11T16:00:00+02:00,2021-06-11T17:00:00+02:00,59.42,EUR,89.100,MWh
Power,Intraday,Continuous,NL,ID1,H,2021-06-11T17:00:00+02:00,2021-06-11T18:00:00+02:00,79.13,EUR,,MWh
Power,Intraday,Continuous,NL,ID1,H,2021-06-11T18:00:00+02:00,2021-06-11T19:00:00+02:00,135.35,EUR,44.000,MWh
Power,Intraday,Continuous,NL,ID1,H,2021-06-11T19:00:00+02:00,2021-06-11T20:00:00+02:00,82.26,EUR,39.000,MWh
Power,Intraday,Continuous,NL,ID1,H,2021-06-11T20:00:00+02:00,2021-06-11T21:00:00+02:00,101.85,EUR,,MWh
Power,Intraday,Continuous,NL,ID1,H,2021-06-11T21:00:00+02:00,2021-06-11T22:00:00+02:00,95.03,EUR,,MWh
Power,Intraday,Continuous,NL,ID1,H,2021-06-11T22:00:00+02:00,2021-06-11T23:00:00+02:00,92.75,EUR,,MWh
Power,Intraday,Continuous,NL,ID1,H,2021-06-11T23:00:00+02:00,2021-06-12T00:00:00+02:00,120.44,EUR,15.000,MWh
Power,Intraday,Continuous,NL,ID3,H,2021-06-11T00:00:00+02:00,2021-06-11T01:00:00+02:00,82.38,EUR,557.100,MWh
Power,Intraday,Continuous,NL,ID3,H,2021-06-11T01:00:00+02:00,2021-06-11T02:00:00+02:00,77.39,EUR,711.100,MWh
Power,Intraday,Continuous,NL,ID3,H,2021-06-11T02:00:00+02:00,2021-06-11T03:00:00+02:00,74.22,EUR,618.400,MWh
Power,Intraday,Continuous,NL,ID3,H,2021-06-11T03:00:00+02:00,2021-06-11T04:00:00+02:00,76.14,EUR,538.400,MWh
Power,Intraday,Continuous,NL,ID3,H,2021-06-11T04:00:00+02:00,2021-06-11T05:00:00+02:00,71.28,EUR,486.300,MWh
Power,Intraday,Continuous,NL,ID3,H,2021-06-11T05:00:00+02:00,2021-06-11T06:00:00+02:00,77.75,EUR,332.000,MWh
Power,Intraday,Continuous,NL,ID3,H,2021-06-11T06:00:00+02:00,2021-06-11T07:00:00+02:00,87.21,EUR,468.600,MWh
Power,Intraday,Continuous,NL,ID3,H,2021-06-11T07:00:00+02:00,2021-06-11T08:00:00+02:00,91.86,EUR,274.400,MWh
Power,Intraday,Continuous,NL,ID3,H,2021-06-11T08:00:00+02:00,2021-06-11T09:00:00+02:00,101.61,EUR,938.700,MWh
Power,Intraday,Continuous,NL,ID3,H,2021-06-11T09:00:00+02:00,2021-06-11T10:00:00+02:00,86.46,EUR,681.000,MWh
Power,Intraday,Continuous,NL,ID3,H,2021-06-11T10:00:00+02:00,2021-06-11T11:00:00+02:00,73.01,EUR,991.100,MWh
Power,Intraday,Continuous,NL,ID3,H,2021-06-11T11:00:00+02:00,2021-06-11T12:00:00+02:00,75.52,EUR,754.400,MWh
Power,Intraday,Continuous,NL,ID3,H,2021-06-11T12:00:00+02:00,2021-06-11T13:00:00+02:00,76.08,EUR,584.600,MWh
Power,Intraday,Continuous,NL,ID3,H,2021-06-11T13:00:00+02:00,2021-06-11T14:00:00+02:00,69.80,EUR,757.200,MWh
Power,Intraday,Continuous,NL,ID3,H,2021-06-11T14:00:00+02:00,2021-06-11T15:00:00+02:00,71.05,EUR,1226.600,MWh
Power,Intraday,Continuous,NL,ID3,H,2021-06-11T15:00:00+02:00,2021-06-11T16:00:00+02:00,71.25,EUR,1262.400,MWh
Power,Intraday,Continuous,NL,ID3,H,2021-06-11T16:00:00+02:00,2021-06-11T17:00:00+02:00,69.34,EUR,926.200,MWh
Power,Intraday,Continuous,NL,ID3,H,2021-06-11T17:00:00+02:00,2021-06-11T18:00:00+02:00,79.13,EUR,665.000,MWh
Power,Intraday,Continuous,NL,ID3,H,2021-06-11T18:00:00+02:00,2021-06-11T19:00:00+02:00,90.94,EUR,930.500,MWh
Power,Intraday,Continuous,NL,ID3,H,2021-06-11T19:00:00+02:00,2021-06-11T20:00:00+02:00,101.55,EUR,779.300,MWh
Power,Intraday,Continuous,NL,ID3,H,2021-06-11T20:00:00+02:00,2021-06-11T21:00:00+02:00,101.85,EUR,615.700,MWh
Power,Intraday,Continuous,NL,ID3,H,2021-06-11T21:00:00+02:00,2021-06-11T22:00:00+02:00,95.03,EUR,660.800,MWh
Power,Intraday,Continuous,NL,ID3,H,2021-06-11T22:00:00+02:00,2021-06-11T23:00:00+02:00,92.75,EUR,627.000,MWh
Power,Intraday,Continuous,NL,ID3,H,2021-06-11T23:00:00+02:00,2021-06-12T00:00:00+02:00,85.58,EUR,494.500,MWh
Power,Intraday,Continuous,NL,IDFULL,HH,2021-06-11T00:00:00+02:00,2021-06-11T00:30:00+02:00,82.38,EUR,,MWh
Power,Intraday,Continuous,NL,IDFULL,HH,2021-06-11T00:30:00+02:00,2021-06-11T01:00:00+02:00,82.38,EUR,,MWh
Power,Intraday,Continuous,NL,IDFULL,HH,2021-06-11T01:00:00+02:00,2021-06-11T01:30:00+02:00,77.23,EUR,,MWh
Power,Intraday,Continuous,NL,IDFULL,HH,2021-06-11T01:30:00+02:00,2021-06-11T02:00:00+02:00,77.23,EUR,,MWh
Power,Intraday,Continuous,NL,IDFULL,HH,2021-06-11T02:00:00+02:00,2021-06-11T02:30:00+02:00,72.84,EUR,,MWh
Power,Intraday,Continuous,NL,IDFULL,HH,2021-06-11T02:30:00+02:00,2021-06-11T03:00:00+02:00,72.84,EUR,,MWh
Power,Intraday,Continuous,NL,IDFULL,HH,2021-06-11T03:00:00+02:00,2021-06-11T03:30:00+02:00,72.93,EUR,,MWh
Power,Intraday,Continuous,NL,IDFULL,HH,2021-06-11T03:30:00+02:00,2021-06-11T04:00:00+02:00,72.93,EUR,,MWh
Power,Intraday,Continuous,NL,IDFULL,HH,2021-06-11T04:00:00+02:00,2021-06-11T04:30:00+02:00,70.43,EUR,,MWh
Power,Intraday,Continuous,NL,IDFULL,HH,2021-06-11T04:30:00+02:00,2021-06-11T05:00:00+02:00,70.43,EUR,,MWh
Power,Intraday,Continuous,NL,IDFULL,HH,2021-06-11T05:00:00+02:00,2021-06-11T05:30:00+02:00,76.54,EUR,,MWh
Power,Intraday,Continuous,NL,IDFULL,HH,2021-06-11T05:30:00+02:00,2021-06-11T06:00:00+02:00,76.54,EUR,,MWh
Power,Intraday,Continuous,NL,IDFULL,HH,2021-06-11T06:00:00+02:00,2021-06-11T06:30:00+02:00,86.05,EUR,,MWh
Power,Intraday,Continuous,NL,IDFULL,HH,2021-06-11T06:30:00+02:00,2021-06-11T07:00:00+02:00,86.05,EUR,,MWh
Power,Intraday,Continuous,NL,IDFULL,HH,2021-06-11T07:00:00+02:00,2021-06-11T07:30:00+02:00,95.32,EUR,,MWh
Power,Intraday,Continuous,NL,IDFULL,HH,2021-06-11T07:30:00+02:00,2021-06-11T08:00:00+02:00,95.32,EUR,,MWh
Power,Intraday,Continuous,NL,IDFULL,HH,2021-06-11T08:00:00+02:00,2021-06-11T08:30:00+02:00,100.53,EUR,,MWh
Power,Intraday,Continuous,NL,IDFULL,HH,2021-06-11T08:30:00+02:00,2021-06-11T09:00:00+02:00,100.53,EUR,,MWh
Power,Intraday,Continuous,NL,IDFULL,HH,2021-06-11T09:00:00+02:00,2021-06-11T09:30:00+02:00,85.82,EUR,,MWh
Power,Intraday,Continuous,NL,IDFULL,HH,2021-06-11T09:30:00+02:00,2021-06-11T10:00:00+02:00,85.82,EUR,,MWh
Power,Intraday,Continuous,NL,IDFULL,HH,2021-06-11T10:00:00+02:00,2021-06-11T10:30:00+02:00,73.75,EUR,,MWh
Power,Intraday,Continuous,NL,IDFULL,HH,2021-06-11T10:30:00+02:00,2021-06-11T11:00:00+02:00,73.75,EUR,,MWh
Power,Intraday,Continuous,NL,IDFULL,HH,2021-06-11T11:00:00+02:00,2021-06-11T11:30:00+02:00,75.33,EUR,,MWh
Power,Intraday,Continuous,NL,IDFULL,HH,2021-06-11T11:30:00+02:00,2021-06-11T12:00:00+02:00,75.33,EUR,,MWh
Power,Intraday,Continuous,NL,IDFULL,HH,2021-06-11T12:00:00+02:00,2021-06-11T12:30:00+02:00,75.10,EUR,,MWh
Power,Intraday,Continuous,NL,IDFULL,HH,2021-06-11T12:30:00+02:00,2021-06-11T13:00:00+02:00,75.10,EUR,,MWh
Power,Intraday,Continuous,NL,IDFULL,HH,2021-06-11T13:00:00+02:00,2021-06-11T13:30:00+02:00,68.43,EUR,,MWh
Power,Intraday,Continuous,NL,IDFULL,HH,2021-06-11T13:30:00+02:00,2021-06-11T14:00:00+02:00,68.43,EUR,,MWh
Power,Intraday,Continuous,NL,IDFULL,HH,2021-06-11T14:00:00+02:00,2021-06-11T14:30:00+02:00,70.02,EUR,,MWh
Power,Intraday,Continuous,NL,IDFULL,HH,2021-06-11T14:30:00+02:00,2021-06-11T15:00:00+02:00,70.02,EUR,,MWh
Power,Intraday,Continuous,NL,IDFULL,HH,2021-06-11T15:00:00+02:00,2021-06-11T15:30:00+02:00,70.10,EUR,,MWh
Power,Intraday,Continuous,NL,IDFULL,HH,2021-06-11T15:30:00+02:00,2021-06-11T16:00:00+02:00,70.10,EUR,,MWh
Power,Intraday,Continuous,NL,IDFULL,HH,2021-06-11T16:00:00+02:00,2021-06-11T16:30:00+02:00,69.34,EUR,,MWh
Power,Intraday,Continuous,NL,IDFULL,HH,2021-06-11T16:30:00+02:00,2021-06-11T17:00:00+02:00,69.34,EUR,,MWh
Power,Intraday,Continuous,NL,IDFULL,HH,2021-06-11T17:00:00+02:00,2021-06-11T17:30:00+02:00,79.21,EUR,,MWh
Power,Intraday,Continuous,NL,IDFULL,HH,2021-06-11T17:30:00+02:00,2021-06-11T18:00:00+02:00,79.21,EUR,,MWh
Power,Intraday,Continuous,NL,IDFULL,HH,2021-06-11T18:00:00+02:00,2021-06-11T18:30:00+02:00,89.72,EUR,,MWh
Power,Intraday,Continuous,NL,IDFULL,HH,2021-06-11T18:30:00+02:00,2021-06-11T19:00:00+02:00,89.72,EUR,,MWh
Power,Intraday,Continuous,NL,IDFULL,HH,2021-06-11T19:00:00+02:00,2021-06-11T19:30:00+02:00,95.91,EUR,,MWh
Power,Intraday,Continuous,NL,IDFULL,HH,2021-06-11T19:30:00+02:00,2021-06-11T20:00:00+02:00,95.91,EUR,,MWh
Power,Intraday,Continuous,NL,IDFULL,HH,2021-06-11T20:00:00+02:00,2021-06-11T20:30:00+02:00,95.70,EUR,,MWh
Power,Intraday,Continuous,NL,IDFULL,HH,2021-06-11T20:30:00+02:00,2021-06-11T21:00:00+02:00,95.70,EUR,,MWh
Power,Intraday,Continuous,NL,IDFULL,HH,2021-06-11T21:00:00+02:00,2021-06-11T21:30:00+02:00,94.50,EUR,,MWh
Power,Intraday,Continuous,NL,IDFULL,HH,2021-06-11T21:30:00+02:00,2021-06-11T22:00:00+02:00,94.50,EUR,,MWh
Power,Intraday,Continuous,NL,IDFULL,HH,2021-06-11T22:00:00+02:00,2021-06-11T22:30:00+02:00,90.58,EUR,,MWh
Power,Intraday,Continuous,NL,IDFULL,HH,2021-06-11T22:30:00+02:00,2021-06-11T23:00:00+02:00,90.58,EUR,,MWh
Power,Intraday,Continuous,NL,IDFULL,HH,2021-06-11T23:00:00+02:00,2021-06-11T23:30:00+02:00,85.53,EUR,,MWh
Power,Intraday,Continuous,NL,IDFULL,HH,2021-06-11T23:30:00+02:00,2021-06-12T00:00:00+02:00,85.53,EUR,,MWh
Power,Intraday,Continuous,NL,ID1,HH,2021-06-11T00:00:00+02:00,2021-06-11T00:30:00+02:00,82.38,EUR,,MWh
Power,Intraday,Continuous,NL,ID1,HH,2021-06-11T00:30:00+02:00,2021-06-11T01:00:00+02:00,82.38,EUR,,MWh
Power,Intraday,Continuous,NL,ID1,HH,2021-06-11T01:00:00+02:00,2021-06-11T01:30:00+02:00,77.23,EUR,,MWh
Power,Intraday,Continuous,NL,ID1,HH,2021-06-11T01:30:00+02:00,2021-06-11T02:00:00+02:00,77.23,EUR,,MWh
Power,Intraday,Continuous,NL,ID1,HH,2021-06-11T02:00:00+02:00,2021-06-11T02:30:00+02:00,72.84,EUR,,MWh
Power,Intraday,Continuous,NL,ID1,HH,2021-06-11T02:30:00+02:00,2021-06-11T03:00:00+02:00,72.84,EUR,,MWh
Power,Intraday,Continuous,NL,ID1,HH,2021-06-11T03:00:00+02:00,2021-06-11T03:30:00+02:00,72.93,EUR,,MWh
Power,Intraday,Continuous,NL,ID1,HH,2021-06-11T03:30:00+02:00,2021-06-11T04:00:00+02:00,72.93,EUR,,MWh
Power,Intraday,Continuous,NL,ID1,HH,2021-06-11T04:00:00+02:00,2021-06-11T04:30:00+02:00,70.43,EUR,,MWh
Power,Intraday,Continuous,NL,ID1,HH,2021-06-11T04:30:00+02:00,2021-06-11T05:00:00+02:00,70.43,EUR,,MWh
Power,Intraday,Continuous,NL,ID1,HH,2021-06-11T05:00:00+02:00,2021-06-11T05:30:00+02:00,76.54,EUR,,MWh
Power,Intraday,Continuous,NL,ID1,HH,2021-06-11T05:30:00+02:00,2021-06-11T06:00:00+02:00,76.54,EUR,,MWh
Power,Intraday,Continuous,NL,ID1,HH,2021-06-11T06:00:00+02:00,2021-06-11T06:30:00+02:00,86.05,EUR,,MWh
Power,Intraday,Continuous,NL,ID1,HH,2021-06-11T06:30:00+02:00,2021-06-11T07:00:00+02:00,86.05,EUR,,MWh
Power,Intraday,Continuous,NL,ID1,HH,2021-06-11T07:00:00+02:00,2021-06-11T07:30:00+02:00,95.32,EUR,,MWh
Power,Intraday,Continuous,NL,ID1,HH,2021-06-11T07:30:00+02:00,2021-06-11T08:00:00+02:00,95.32,EUR,,MWh
Power,Intraday,Continuous,NL,ID1,HH,2021-06-11T08:00:00+02:00,2021-06-11T08:30:00+02:00,100.53,EUR,,MWh
Power,Intraday,Continuous,NL,ID1,HH,2021-06-11T08:30:00+02:00,2021-06-11T09:00:00+02:00,100.53,EUR,,MWh
Power,Intraday,Continuous,NL,ID1,HH,2021-06-11T09:00:00+02:00,2021-06-11T09:30:00+02:00,85.82,EUR,,MWh
Power,Intraday,Continuous,NL,ID1,HH,2021-06-11T09:30:00+02:00,2021-06-11T10:00:00+02:00,85.82,EUR,,MWh
Power,Intraday,Continuous,NL,ID1,HH,2021-06-11T10:00:00+02:00,2021-06-11T10:30:00+02:00,73.75,EUR,,MWh
Power,Intraday,Continuous,NL,ID1,HH,2021-06-11T10:30:00+02:00,2021-06-11T11:00:00+02:00,73.75,EUR,,MWh
Power,Intraday,Continuous,NL,ID1,HH,2021-06-11T11:00:00+02:00,2021-06-11T11:30:00+02:00,75.33,EUR,,MWh
Power,Intraday,Continuous,NL,ID1,HH,2021-06-11T11:30:00+02:00,2021-06-11T12:00:00+02:00,75.33,EUR,,MWh
Power,Intraday,Continuous,NL,ID1,HH,2021-06-11T12:00:00+02:00,2021-06-11T12:30:00+02:00,75.10,EUR,,MWh
Power,Intraday,Continuous,NL,ID1,HH,2021-06-11T12:30:00+02:00,2021-06-11T13:00:00+02:00,75.10,EUR,,MWh
Power,Intraday,Continuous,NL,ID1,HH,2021-06-11T13:00:00+02:00,2021-06-11T13:30:00+02:00,68.43,EUR,,MWh
Power,Intraday,Continuous,NL,ID1,HH,2021-06-11T13:30:00+02:00,2021-06-11T14:00:00+02:00,68.43,EUR,,MWh
Power,Intraday,Continuous,NL,ID1,HH,2021-06-11T14:00:00+02:00,2021-06-11T14:30:00+02:00,70.02,EUR,,MWh
Power,Intraday,Continuous,NL,ID1,HH,2021-06-11T14:30:00+02:00,2021-06-11T15:00:00+02:00,70.02,EUR,,MWh
Power,Intraday,Continuous,NL,ID1,HH,2021-06-11T15:00:00+02:00,2021-06-11T15:30:00+02:00,70.10,EUR,,MWh
Power,Intraday,Continuous,NL,ID1,HH,2021-06-11T15:30:00+02:00,2021-06-11T16:00:00+02:00,70.10,EUR,,MWh
Power,Intraday,Continuous,NL,ID1,HH,2021-06-11T16:00:00+02:00,2021-06-11T16:30:00+02:00,69.34,EUR,,MWh
Power,Intraday,Continuous,NL,ID1,HH,2021-06-11T16:30:00+02:00,2021-06-11T17:00:00+02:00,69.34,EUR,,MWh
Power,Intraday,Continuous,NL,ID1,HH,2021-06-11T17:00:00+02:00,2021-06-11T17:30:00+02:00,79.21,EUR,,MWh
Power,Intraday,Continuous,NL,ID1,HH,2021-06-11T17:30:00+02:00,2021-06-11T18:00:00+02:00,79.21,EUR,,MWh
Power,Intraday,Continuous,NL,ID1,HH,2021-06-11T18:00:00+02:00,2021-06-11T18:30:00+02:00,89.72,EUR,,MWh
Power,Intraday,Continuous,NL,ID1,HH,2021-06-11T18:30:00+02:00,2021-06-11T19:00:00+02:00,89.72,EUR,,MWh
Power,Intraday,Continuous,NL,ID1,HH,2021-06-11T19:00:00+02:00,2021-06-11T19:30:00+02:00,95.91,EUR,,MWh
Power,Intraday,Continuous,NL,ID1,HH,2021-06-11T19:30:00+02:00,2021-06-11T20:00:00+02:00,95.91,EUR,,MWh
Power,Intraday,Continuous,NL,ID1,HH,2021-06-11T20:00:00+02:00,2021-06-11T20:30:00+02:00,95.70,EUR,,MWh
Power,Intraday,Continuous,NL,ID1,HH,2021-06-11T20:30:00+02:00,2021-06-11T21:00:00+02:00,95.70,EUR,,MWh
Power,Intraday,Continuous,NL,ID1,HH,2021-06-11T21:00:00+02:00,2021-06-11T21:30:00+02:00,94.50,EUR,,MWh
Power,Intraday,Continuous,NL,ID1,HH,2021-06-11T21:30:00+02:00,2021-06-11T22:00:00+02:00,94.50,EUR,,MWh
Power,Intraday,Continuous,NL,ID1,HH,2021-06-11T22:00:00+02:00,2021-06-11T22:30:00+02:00,90.58,EUR,,MWh
Power,Intraday,Continuous,NL,ID1,HH,2021-06-11T22:30:00+02:00,2021-06-11T23:00:00+02:00,90.58,EUR,,MWh
Power,Intraday,Continuous,NL,ID1,HH,2021-06-11T23:00:00+02:00,2021-06-11T23:30:00+02:00,85.53,EUR,,MWh
Power,Intraday,Continuous,NL,ID1,HH,2021-06-11T23:30:00+02:00,2021-06-12T00:00:00+02:00,85.53,EUR,,MWh
Power,Intraday,Continuous,NL,ID3,HH,2021-06-11T00:00:00+02:00,2021-06-11T00:30:00+02:00,82.38,EUR,,MWh
Power,Intraday,Continuous,NL,ID3,HH,2021-06-11T00:30:00+02:00,2021-06-11T01:00:00+02:00,82.38,EUR,,MWh
Power,Intraday,Continuous,NL,ID3,HH,2021-06-11T01:00:00+02:00,2021-06-11T01:30:00+02:00,77.23,EUR,,MWh
Power,Intraday,Continuous,NL,ID3,HH,2021-06-11T01:30:00+02:00,2021-06-11T02:00:00+02:00,77.23,EUR,,MWh
Power,Intraday,Continuous,NL,ID3,HH,2021-06-11T02:00:00+02:00,2021-06-11T02:30:00+02:00,72.84,EUR,,MWh
Power,Intraday,Continuous,NL,ID3,HH,2021-06-11T02:30:00+02:00,2021-06-11T03:00:00+02:00,72.84,EUR,,MWh
Power,Intraday,Continuous,NL,ID3,HH,2021-06-11T03:00:00+02:00,2021-06-11T03:30:00+02:00,72.93,EUR,,MWh
Power,Intraday,Continuous,NL,ID3,HH,2021-06-11T03:30:00+02:00,2021-06-11T04:00:00+02:00,72.93,EUR,,MWh
Power,Intraday,Continuous,NL,ID3,HH,2021-06-11T04:00:00+02:00,2021-06-11T04:30:00+02:00,70.43,EUR,,MWh
Power,Intraday,Continuous,NL,ID3,HH,2021-06-11T04:30:00+02:00,2021-06-11T05:00:00+02:00,70.43,EUR,,MWh
Power,Intraday,Continuous,NL,ID3,HH,2021-06-11T05:00:00+02:00,2021-06-11T05:30:00+02:00,76.54,EUR,,MWh
Power,Intraday,Continuous,NL,ID3,HH,2021-06-11T05:30:00+02:00,2021-06-11T06:00:00+02:00,76.54,EUR,,MWh
Power,Intraday,Continuous,NL,ID3,HH,2021-06-11T06:00:00+02:00,2021-06-11T06:30:00+02:00,86.05,EUR,,MWh
Power,Intraday,Continuous,NL,ID3,HH,2021-06-11T06:30:00+02:00,2021-06-11T07:00:00+02:00,86.05,EUR,,MWh
Power,Intraday,Continuous,NL,ID3,HH,2021-06-11T07:00:00+02:00,2021-06-11T07:30:00+02:00,95.32,EUR,,MWh
Power,Intraday,Continuous,NL,ID3,HH,2021-06-11T07:30:00+02:00,2021-06-11T08:00:00+02:00,95.32,EUR,,MWh
Power,Intraday,Continuous,NL,ID3,HH,2021-06-11T08:00:00+02:00,2021-06-11T08:30:00+02:00,100.53,EUR,,MWh
Power,Intraday,Continuous,NL,ID3,HH,2021-06-11T08:30:00+02:00,2021-06-11T09:00:00+02:00,100.53,EUR,,MWh
Power,Intraday,Continuous,NL,ID3,HH,2021-06-11T09:00:00+02:00,2021-06-11T09:30:00+02:00,85.82,EUR,,MWh
Power,Intraday,Continuous,NL,ID3,HH,2021-06-11T09:30:00+02:00,2021-06-11T10:00:00+02:00,85.82,EUR,,MWh
Power,Intraday,Continuous,NL,ID3,HH,2021-06-11T10:00:00+02:00,2021-06-11T10:30:00+02:00,73.75,EUR,,MWh
Power,Intraday,Continuous,NL,ID3,HH,2021-06-11T10:30:00+02:00,2021-06-11T11:00:00+02:00,73.75,EUR,,MWh
Power,Intraday,Continuous,NL,ID3,HH,2021-06-11T11:00:00+02:00,2021-06-11T11:30:00+02:00,75.33,EUR,,MWh
Power,Intraday,Continuous,NL,ID3,HH,2021-06-11T11:30:00+02:00,2021-06-11T12:00:00+02:00,75.33,EUR,,MWh
Power,Intraday,Continuous,NL,ID3,HH,2021-06-11T12:00:00+02:00,2021-06-11T12:30:00+02:00,75.10,EUR,,MWh
Power,Intraday,Continuous,NL,ID3,HH,2021-06-11T12:30:00+02:00,2021-06-11T13:00:00+02:00,75.10,EUR,,MWh
Power,Intraday,Continuous,NL,ID3,HH,2021-06-11T13:00:00+02:00,2021-06-11T13:30:00+02:00,68.43,EUR,,MWh
Power,Intraday,Continuous,NL,ID3,HH,2021-06-11T13:30:00+02:00,2021-06-11T14:00:00+02:00,68.43,EUR,,MWh
Power,Intraday,Continuous,NL,ID3,HH,2021-06-11T14:00:00+02:00,2021-06-11T14:30:00+02:00,70.02,EUR,,MWh
Power,Intraday,Continuous,NL,ID3,HH,2021-06-11T14:30:00+02:00,2021-06-11T15:00:00+02:00,70.02,EUR,,MWh
Power,Intraday,Continuous,NL,ID3,HH,2021-06-11T15:00:00+02:00,2021-06-11T15:30:00+02:00,70.10,EUR,,MWh
Power,Intraday,Continuous,NL,ID3,HH,2021-06-11T15:30:00+02:00,2021-06-11T16:00:00+02:00,70.10,EUR,,MWh
Power,Intraday,Continuous,NL,ID3,HH,2021-06-11T16:00:00+02:00,2021-06-11T16:30:00+02:00,69.34,EUR,,MWh
Power,Intraday,Continuous,NL,ID3,HH,2021-06-11T16:30:00+02:00,2021-06-11T17:00:00+02:00,69.34,EUR,,MWh
Power,Intraday,Continuous,NL,ID3,HH,2021-06-11T17:00:00+02:00,2021-06-11T17:30:00+02:00,79.21,EUR,,MWh
Power,Intraday,Continuous,NL,ID3,HH,2021-06-11T17:30:00+02:00,2021-06-11T18:00:00+02:00,79.21,EUR,,MWh
Power,Intraday,Continuous,NL,ID3,HH,2021-06-11T18:00:00+02:00,2021-06-11T18:30:00+02:00,89.72,EUR,,MWh
Power,Intraday,Continuous,NL,ID3,HH,2021-06-11T18:30:00+02:00,2021-06-11T19:00:00+02:00,89.72,EUR,,MWh
Power,Intraday,Continuous,NL,ID3,HH,2021-06-11T19:00:00+02:00,2021-06-11T19:30:00+02:00,95.91,EUR,,MWh
Power,Intraday,Continuous,NL,ID3,HH,2021-06-11T19:30:00+02:00,2021-06-11T20:00:00+02:00,95.91,EUR,,MWh
Power,Intraday,Continuous,NL,ID3,HH,2021-06-11T20:00:00+02:00,2021-06-11T20:30:00+02:00,95.70,EUR,,MWh
Power,Intraday,Continuous,NL,ID3,HH,2021-06-11T20:30:00+02:00,2021-06-11T21:00:00+02:00,95.70,EUR,,MWh
Power,Intraday,Continuous,NL,ID3,HH,2021-06-11T21:00:00+02:00,2021-06-11T21:30:00+02:00,94.50,EUR,,MWh
Power,Intraday,Continuous,NL,ID3,HH,2021-06-11T21:30:00+02:00,2021-06-11T22:00:00+02:00,94.50,EUR,,MWh
Power,Intraday,Continuous,NL,ID3,HH,2021-06-11T22:00:00+02:00,2021-06-11T22:30:00+02:00,90.58,EUR,,MWh
Power,Intraday,Continuous,NL,ID3,HH,2021-06-11T22:30:00+02:00,2021-06-11T23:00:00+02:00,90.58,EUR,,MWh
Power,Intraday,Continuous,NL,ID3,HH,2021-06-11T23:00:00+02:00,2021-06-11T23:30:00+02:00,85.53,EUR,,MWh
Power,Intraday,Continuous,NL,ID3,HH,2021-06-11T23:30:00+02:00,2021-06-12T00:00:00+02:00,85.53,EUR,,MWh
Power,Intraday,Continuous,NL,IDFULL,QH,2021-06-11T00:00:00+02:00,2021-06-11T00:15:00+02:00,99.82,EUR,42.480,MWh
Power,Intraday,Continuous,NL,IDFULL,QH,2021-06-11T00:15:00+02:00,2021-06-11T00:30:00+02:00,81.86,EUR,19.930,MWh
Power,Intraday,Continuous,NL,IDFULL,QH,2021-06-11T00:30:00+02:00,2021-06-11T00:45:00+02:00,76.82,EUR,18.730,MWh
Power,Intraday,Continuous,NL,IDFULL,QH,2021-06-11T00:45:00+02:00,2021-06-11T01:00:00+02:00,71.94,EUR,30.850,MWh
Power,Intraday,Continuous,NL,IDFULL,QH,2021-06-11T01:00:00+02:00,2021-06-11T01:15:00+02:00,83.55,EUR,18.400,MWh
Power,Intraday,Continuous,NL,IDFULL,QH,2021-06-11T01:15:00+02:00,2021-06-11T01:30:00+02:00,77.69,EUR,9.250,MWh
Power,Intraday,Continuous,NL,IDFULL,QH,2021-06-11T01:30:00+02:00,2021-06-11T01:45:00+02:00,75.29,EUR,6.280,MWh
Power,Intraday,Continuous,NL,IDFULL,QH,2021-06-11T01:45:00+02:00,2021-06-11T02:00:00+02:00,67.10,EUR,7.600,MWh
Power,Intraday,Continuous,NL,IDFULL,QH,2021-06-11T02:00:00+02:00,2021-06-11T02:15:00+02:00,80.01,EUR,11.800,MWh
Power,Intraday,Continuous,NL,IDFULL,QH,2021-06-11T02:15:00+02:00,2021-06-11T02:30:00+02:00,78.06,EUR,14.000,MWh
Power,Intraday,Continuous,NL,IDFULL,QH,2021-06-11T02:30:00+02:00,2021-06-11T02:45:00+02:00,73.81,EUR,8.800,MWh
Power,Intraday,Continuous,NL,IDFULL,QH,2021-06-11T02:45:00+02:00,2021-06-11T03:00:00+02:00,67.88,EUR,14.000,MWh
Power,Intraday,Continuous,NL,IDFULL,QH,2021-06-11T03:00:00+02:00,2021-06-11T03:15:00+02:00,72.23,EUR,3.880,MWh
Power,Intraday,Continuous,NL,IDFULL,QH,2021-06-11T03:15:00+02:00,2021-06-11T03:30:00+02:00,71.29,EUR,6.980,MWh
Power,Intraday,Continuous,NL,IDFULL,QH,2021-06-11T03:30:00+02:00,2021-06-11T03:45:00+02:00,67.29,EUR,6.730,MWh
Power,Intraday,Continuous,NL,IDFULL,QH,2021-06-11T03:45:00+02:00,2021-06-11T04:00:00+02:00,66.15,EUR,9.000,MWh
Power,Intraday,Continuous,NL,IDFULL,QH,2021-06-11T04:00:00+02:00,2021-06-11T04:15:00+02:00,64.51,EUR,8.350,MWh
Power,Intraday,Continuous,NL,IDFULL,QH,2021-06-11T04:15:00+02:00,2021-06-11T04:30:00+02:00,69.76,EUR,6.180,MWh
Power,Intraday,Continuous,NL,IDFULL,QH,2021-06-11T04:30:00+02:00,2021-06-11T04:45:00+02:00,68.84,EUR,6.180,MWh
Power,Intraday,Continuous,NL,IDFULL,QH,2021-06-11T04:45:00+02:00,2021-06-11T05:00:00+02:00,78.00,EUR,8.730,MWh
Power,Intraday,Continuous,NL,IDFULL,QH,2021-06-11T05:00:00+02:00,2021-06-11T05:15:00+02:00,61.27,EUR,16.780,MWh
Power,Intraday,Continuous,NL,IDFULL,QH,2021-06-11T05:15:00+02:00,2021-06-11T05:30:00+02:00,69.91,EUR,13.700,MWh
Power,Intraday,Continuous,NL,IDFULL,QH,2021-06-11T05:30:00+02:00,2021-06-11T05:45:00+02:00,80.44,EUR,25.880,MWh
Power,Intraday,Continuous,NL,IDFULL,QH,2021-06-11T05:45:00+02:00,2021-06-11T06:00:00+02:00,91.61,EUR,34.930,MWh
Power,Intraday,Continuous,NL,IDFULL,QH,2021-06-11T06:00:00+02:00,2021-06-11T06:15:00+02:00,64.91,EUR,19.830,MWh
Power,Intraday,Continuous,NL,IDFULL,QH,2021-06-11T06:15:00+02:00,2021-06-11T06:30:00+02:00,87.38,EUR,4.330,MWh
Power,Intraday,Continuous,NL,IDFULL,QH,2021-06-11T06:30:00+02:00,2021-06-11T06:45:00+02:00,99.36,EUR,5.650,MWh
Power,Intraday,Continuous,NL,IDFULL,QH,2021-06-11T06:45:00+02:00,2021-06-11T07:00:00+02:00,94.68,EUR,26.930,MWh
Power,Intraday,Continuous,NL,IDFULL,QH,2021-06-11T07:00:00+02:00,2021-06-11T07:15:00+02:00,93.25,EUR,15.480,MWh
Power,Intraday,Continuous,NL,IDFULL,QH,2021-06-11T07:15:00+02:00,2021-06-11T07:30:00+02:00,95.27,EUR,20.300,MWh
Power,Intraday,Continuous,NL,IDFULL,QH,2021-06-11T07:30:00+02:00,2021-06-11T07:45:00+02:00,96.05,EUR,41.230,MWh
Power,Intraday,Continuous,NL,IDFULL,QH,2021-06-11T07:45:00+02:00,2021-06-11T08:00:00+02:00,85.62,EUR,62.200,MWh
Power,Intraday,Continuous,NL,IDFULL,QH,2021-06-11T08:00:00+02:00,2021-06-11T08:15:00+02:00,219.02,EUR,42.600,MWh
Power,Intraday,Continuous,NL,IDFULL,QH,2021-06-11T08:15:00+02:00,2021-06-11T08:30:00+02:00,101.87,EUR,24.580,MWh
Power,Intraday,Continuous,NL,IDFULL,QH,2021-06-11T08:30:00+02:00,2021-06-11T08:45:00+02:00,66.95,EUR,47.800,MWh
Power,Intraday,Continuous,NL,IDFULL,QH,2021-06-11T08:45:00+02:00,2021-06-11T09:00:00+02:00,39.76,EUR,45.900,MWh
Power,Intraday,Continuous,NL,IDFULL,QH,2021-06-11T09:00:00+02:00,2021-06-11T09:15:00+02:00,111.28,EUR,85.000,MWh
Power,Intraday,Continuous,NL,IDFULL,QH,2021-06-11T09:15:00+02:00,2021-06-11T09:30:00+02:00,87.32,EUR,58.330,MWh
Power,Intraday,Continuous,NL,IDFULL,QH,2021-06-11T09:30:00+02:00,2021-06-11T09:45:00+02:00,77.24,EUR,55.050,MWh
Power,Intraday,Continuous,NL,IDFULL,QH,2021-06-11T09:45:00+02:00,2021-06-11T10:00:00+02:00,67.39,EUR,70.530,MWh
Power,Intraday,Continuous,NL,IDFULL,QH,2021-06-11T10:00:00+02:00,2021-06-11T10:15:00+02:00,89.02,EUR,70.480,MWh
Power,Intraday,Continuous,NL,IDFULL,QH,2021-06-11T10:15:00+02:00,2021-06-11T10:30:00+02:00,70.56,EUR,35.300,MWh
Power,Intraday,Continuous,NL,IDFULL,QH,2021-06-11T10:30:00+02:00,2021-06-11T10:45:00+02:00,72.53,EUR,75.850,MWh
Power,Intraday,Continuous,NL,IDFULL,QH,2021-06-11T10:45:00+02:00,2021-06-11T11:00:00+02:00,65.67,EUR,104.230,MWh
Power,Intraday,Continuous,NL,IDFULL,QH,2021-06-11T11:00:00+02:00,2021-06-11T11:15:00+02:00,82.79,EUR,44.200,MWh
Power,Intraday,Continuous,NL,IDFULL,QH,2021-06-11T11:15:00+02:00,2021-06-11T11:30:00+02:00,78.02,EUR,13.680,MWh
Power,Intraday,Continuous,NL,IDFULL,QH,2021-06-11T11:30:00+02:00,2021-06-11T11:45:00+02:00,74.00,EUR,43.700,MWh
Power,Intraday,Continuous,NL,IDFULL,QH,2021-06-11T11:45:00+02:00,2021-06-11T12:00:00+02:00,66.42,EUR,67.550,MWh
Power,Intraday,Continuous,NL,IDFULL,QH,2021-06-11T12:00:00+02:00,2021-06-11T12:15:00+02:00,82.93,EUR,40.880,MWh
Power,Intraday,Continuous,NL,IDFULL,QH,2021-06-11T12:15:00+02:00,2021-06-11T12:30:00+02:00,76.07,EUR,19.550,MWh
Power,Intraday,Continuous,NL,IDFULL,QH,2021-06-11T12:30:00+02:00,2021-06-11T12:45:00+02:00,77.21,EUR,39.630,MWh
Power,Intraday,Continuous,NL,IDFULL,QH,2021-06-11T12:45:00+02:00,2021-06-11T13:00:00+02:00,65.85,EUR,48.480,MWh
Power,Intraday,Continuous,NL,IDFULL,QH,2021-06-11T13:00:00+02:00,2021-06-11T13:15:00+02:00,76.24,EUR,6.630,MWh
Power,Intraday,Continuous,NL,IDFULL,QH,2021-06-11T13:15:00+02:00,2021-06-11T13:30:00+02:00,71.88,EUR,5.780,MWh
Power,Intraday,Continuous,NL,IDFULL,QH,2021-06-11T13:30:00+02:00,2021-06-11T13:45:00+02:00,71.36,EUR,5.930,MWh
Power,Intraday,Continuous,NL,IDFULL,QH,2021-06-11T13:45:00+02:00,2021-06-11T14:00:00+02:00,65.79,EUR,7.080,MWh
Power,Intraday,Continuous,NL,IDFULL,QH,2021-06-11T14:00:00+02:00,2021-06-11T14:15:00+02:00,69.49,EUR,10.500,MWh
Power,Intraday,Continuous,NL,IDFULL,QH,2021-06-11T14:15:00+02:00,2021-06-11T14:30:00+02:00,74.44,EUR,13.030,MWh
Power,Intraday,Continuous,NL,IDFULL,QH,2021-06-11T14:30:00+02:00,2021-06-11T14:45:00+02:00,82.06,EUR,15.000,MWh
Power,Intraday,Continuous,NL,IDFULL,QH,2021-06-11T14:45:00+02:00,2021-06-11T15:00:00+02:00,60.87,EUR,34.480,MWh
Power,Intraday,Continuous,NL,IDFULL,QH,2021-06-11T15:00:00+02:00,2021-06-11T15:15:00+02:00,58.41,EUR,63.180,MWh
Power,Intraday,Continuous,NL,IDFULL,QH,2021-06-11T15:15:00+02:00,2021-06-11T15:30:00+02:00,70.72,EUR,40.600,MWh
Power,Intraday,Continuous,NL,IDFULL,QH,2021-06-11T15:30:00+02:00,2021-06-11T15:45:00+02:00,73.63,EUR,51.500,MWh
Power,Intraday,Continuous,NL,IDFULL,QH,2021-06-11T15:45:00+02:00,2021-06-11T16:00:00+02:00,71.51,EUR,70.480,MWh
Power,Intraday,Continuous,NL,IDFULL,QH,2021-06-11T16:00:00+02:00,2021-06-11T16:15:00+02:00,55.11,EUR,77.600,MWh
Power,Intraday,Continuous,NL,IDFULL,QH,2021-06-11T16:15:00+02:00,2021-06-11T16:30:00+02:00,64.05,EUR,68.180,MWh
Power,Intraday,Continuous,NL,IDFULL,QH,2021-06-11T16:30:00+02:00,2021-06-11T16:45:00+02:00,70.74,EUR,92.880,MWh
Power,Intraday,Continuous,NL,IDFULL,QH,2021-06-11T16:45:00+02:00,2021-06-11T17:00:00+02:00,81.04,EUR,107.700,MWh
Power,Intraday,Continuous,NL,IDFULL,QH,2021-06-11T17:00:00+02:00,2021-06-11T17:15:00+02:00,59.69,EUR,112.550,MWh
Power,Intraday,Continuous,NL,IDFULL,QH,2021-06-11T17:15:00+02:00,2021-06-11T17:30:00+02:00,74.44,EUR,66.380,MWh
Power,Intraday,Continuous,NL,IDFULL,QH,2021-06-11T17:30:00+02:00,2021-06-11T17:45:00+02:00,83.13,EUR,111.700,MWh
Power,Intraday,Continuous,NL,IDFULL,QH,2021-06-11T17:45:00+02:00,2021-06-11T18:00:00+02:00,98.29,EUR,184.800,MWh
Power,Intraday,Continuous,NL,IDFULL,QH,2021-06-11T18:00:00+02:00,2021-06-11T18:15:00+02:00,67.30,EUR,95.330,MWh
Power,Intraday,Continuous,NL,IDFULL,QH,2021-06-11T18:15:00+02:00,2021-06-11T18:30:00+02:00,77.76,EUR,99.300,MWh
Power,Intraday,Continuous,NL,IDFULL,QH,2021-06-11T18:30:00+02:00,2021-06-11T18:45:00+02:00,98.41,EUR,99.250,MWh
Power,Intraday,Continuous,NL,IDFULL,QH,2021-06-11T18:45:00+02:00,2021-06-11T19:00:00+02:00,115.01,EUR,123.330,MWh
Power,Intraday,Continuous,NL,IDFULL,QH,2021-06-11T19:00:00+02:00,2021-06-11T19:15:00+02:00,74.14,EUR,103.030,MWh
Power,Intraday,Continuous,NL,IDFULL,QH,2021-06-11T19:15:00+02:00,2021-06-11T19:30:00+02:00,84.79,EUR,64.100,MWh
Power,Intraday,Continuous,NL,IDFULL,QH,2021-06-11T19:30:00+02:00,2021-06-11T19:45:00+02:00,99.98,EUR,83.650,MWh
Power,Intraday,Continuous,NL,IDFULL,QH,2021-06-11T19:45:00+02:00,2021-06-11T20:00:00+02:00,127.76,EUR,96.780,MWh
Power,Intraday,Continuous,NL,IDFULL,QH,2021-06-11T20:00:00+02:00,2021-06-11T20:15:00+02:00,91.63,EUR,69.930,MWh
Power,Intraday,Continuous,NL,IDFULL,QH,2021-06-11T20:15:00+02:00,2021-06-11T20:30:00+02:00,99.88,EUR,32.400,MWh
Power,Intraday,Continuous,NL,IDFULL,QH,2021-06-11T20:30:00+02:00,2021-06-11T20:45:00+02:00,94.87,EUR,51.680,MWh
Power,Intraday,Continuous,NL,IDFULL,QH,2021-06-11T20:45:00+02:00,2021-06-11T21:00:00+02:00,95.06,EUR,50.930,MWh
Power,Intraday,Continuous,NL,IDFULL,QH,2021-06-11T21:00:00+02:00,2021-06-11T21:15:00+02:00,101.73,EUR,30.450,MWh
Power,Intraday,Continuous,NL,IDFULL,QH,2021-06-11T21:15:00+02:00,2021-06-11T21:30:00+02:00,99.31,EUR,47.900,MWh
Power,Intraday,Continuous,NL,IDFULL,QH,2021-06-11T21:30:00+02:00,2021-06-11T21:45:00+02:00,98.48,EUR,32.550,MWh
Power,Intraday,Continuous,NL,IDFULL,QH,2021-06-11T21:45:00+02:00,2021-06-11T22:00:00+02:00,87.28,EUR,64.980,MWh
Power,Intraday,Continuous,NL,IDFULL,QH,2021-06-11T22:00:00+02:00,2021-06-11T22:15:00+02:00,101.17,EUR,26.750,MWh
Power,Intraday,Continuous,NL,IDFULL,QH,2021-06-11T22:15:00+02:00,2021-06-11T22:30:00+02:00,90.15,EUR,23.530,MWh
Power,Intraday,Continuous,NL,IDFULL,QH,2021-06-11T22:30:00+02:00,2021-06-11T22:45:00+02:00,93.15,EUR,26.130,MWh
Power,Intraday,Continuous,NL,IDFULL,QH,2021-06-11T22:45:00+02:00,2021-06-11T23:00:00+02:00,81.21,EUR,31.580,MWh
Power,Intraday,Continuous,NL,IDFULL,QH,2021-06-11T23:00:00+02:00,2021-06-11T23:15:00+02:00,97.55,EUR,125.630,MWh
Power,Intraday,Continuous,NL,IDFULL,QH,2021-06-11T23:15:00+02:00,2021-06-11T23:30:00+02:00,84.89,EUR,85.800,MWh
Power,Intraday,Continuous,NL,IDFULL,QH,2021-06-11T23:30:00+02:00,2021-06-11T23:45:00+02:00,84.13,EUR,68.800,MWh
Power,Intraday,Continuous,NL,IDFULL,QH,2021-06-11T23:45:00+02:00,2021-06-12T00:00:00+02:00,73.19,EUR,101.580,MWh
Power,Intraday,Continuous,NL,ID1,QH,2021-06-11T00:00:00+02:00,2021-06-11T00:15:00+02:00,99.82,EUR,,MWh
Power,Intraday,Continuous,NL,ID1,QH,2021-06-11T00:15:00+02:00,2021-06-11T00:30:00+02:00,81.42,EUR,,MWh
Power,Intraday,Continuous,NL,ID1,QH,2021-06-11T00:30:00+02:00,2021-06-11T00:45:00+02:00,76.66,EUR,,MWh
Power,Intraday,Continuous,NL,ID1,QH,2021-06-11T00:45:00+02:00,2021-06-11T01:00:00+02:00,71.96,EUR,,MWh
Power,Intraday,Continuous,NL,ID1,QH,2021-06-11T01:00:00+02:00,2021-06-11T01:15:00+02:00,82.98,EUR,,MWh
Power,Intraday,Continuous,NL,ID1,QH,2021-06-11T01:15:00+02:00,2021-06-11T01:30:00+02:00,76.16,EUR,,MWh
Power,Intraday,Continuous,NL,ID1,QH,2021-06-11T01:30:00+02:00,2021-06-11T01:45:00+02:00,75.29,EUR,,MWh
Power,Intraday,Continuous,NL,ID1,QH,2021-06-11T01:45:00+02:00,2021-06-11T02:00:00+02:00,67.10,EUR,,MWh
Power,Intraday,Continuous,NL,ID1,QH,2021-06-11T02:00:00+02:00,2021-06-11T02:15:00+02:00,80.21,EUR,,MWh
Power,Intraday,Continuous,NL,ID1,QH,2021-06-11T02:15:00+02:00,2021-06-11T02:30:00+02:00,80.12,EUR,,MWh
Power,Intraday,Continuous,NL,ID1,QH,2021-06-11T02:30:00+02:00,2021-06-11T02:45:00+02:00,76.50,EUR,,MWh
Power,Intraday,Continuous,NL,ID1,QH,2021-06-11T02:45:00+02:00,2021-06-11T03:00:00+02:00,67.63,EUR,,MWh
Power,Intraday,Continuous,NL,ID1,QH,2021-06-11T03:00:00+02:00,2021-06-11T03:15:00+02:00,72.23,EUR,,MWh
Power,Intraday,Continuous,NL,ID1,QH,2021-06-11T03:15:00+02:00,2021-06-11T03:30:00+02:00,71.06,EUR,,MWh
Power,Intraday,Continuous,NL,ID1,QH,2021-06-11T03:30:00+02:00,2021-06-11T03:45:00+02:00,65.84,EUR,,MWh
Power,Intraday,Continuous,NL,ID1,QH,2021-06-11T03:45:00+02:00,2021-06-11T04:00:00+02:00,63.98,EUR,,MWh
Power,Intraday,Continuous,NL,ID1,QH,2021-06-11T04:00:00+02:00,2021-06-11T04:15:00+02:00,65.25,EUR,,MWh
Power,Intraday,Continuous,NL,ID1,QH,2021-06-11T04:15:00+02:00,2021-06-11T04:30:00+02:00,69.76,EUR,,MWh
Power,Intraday,Continuous,NL,ID1,QH,2021-06-11T04:30:00+02:00,2021-06-11T04:45:00+02:00,68.84,EUR,,MWh
Power,Intraday,Continuous,NL,ID1,QH,2021-06-11T04:45:00+02:00,2021-06-11T05:00:00+02:00,78.19,EUR,,MWh
Power,Intraday,Continuous,NL,ID1,QH,2021-06-11T05:00:00+02:00,2021-06-11T05:15:00+02:00,64.02,EUR,,MWh
Power,Intraday,Continuous,NL,ID1,QH,2021-06-11T05:15:00+02:00,2021-06-11T05:30:00+02:00,72.70,EUR,,MWh
Power,Intraday,Continuous,NL,ID1,QH,2021-06-11T05:30:00+02:00,2021-06-11T05:45:00+02:00,80.86,EUR,,MWh
Power,Intraday,Continuous,NL,ID1,QH,2021-06-11T05:45:00+02:00,2021-06-11T06:00:00+02:00,91.71,EUR,,MWh
Power,Intraday,Continuous,NL,ID1,QH,2021-06-11T06:00:00+02:00,2021-06-11T06:15:00+02:00,66.11,EUR,,MWh
Power,Intraday,Continuous,NL,ID1,QH,2021-06-11T06:15:00+02:00,2021-06-11T06:30:00+02:00,87.38,EUR,,MWh
Power,Intraday,Continuous,NL,ID1,QH,2021-06-11T06:30:00+02:00,2021-06-11T06:45:00+02:00,99.05,EUR,,MWh
Power,Intraday,Continuous,NL,ID1,QH,2021-06-11T06:45:00+02:00,2021-06-11T07:00:00+02:00,93.51,EUR,,MWh
Power,Intraday,Continuous,NL,ID1,QH,2021-06-11T07:00:00+02:00,2021-06-11T07:15:00+02:00,92.55,EUR,,MWh
Power,Intraday,Continuous,NL,ID1,QH,2021-06-11T07:15:00+02:00,2021-06-11T07:30:00+02:00,91.06,EUR,,MWh
Power,Intraday,Continuous,NL,ID1,QH,2021-06-11T07:30:00+02:00,2021-06-11T07:45:00+02:00,94.81,EUR,,MWh
Power,Intraday,Continuous,NL,ID1,QH,2021-06-11T07:45:00+02:00,2021-06-11T08:00:00+02:00,85.53,EUR,,MWh
Power,Intraday,Continuous,NL,ID1,QH,2021-06-11T08:00:00+02:00,2021-06-11T08:15:00+02:00,228.99,EUR,,MWh
Power,Intraday,Continuous,NL,ID1,QH,2021-06-11T08:15:00+02:00,2021-06-11T08:30:00+02:00,98.13,EUR,,MWh
Power,Intraday,Continuous,NL,ID1,QH,2021-06-11T08:30:00+02:00,2021-06-11T08:45:00+02:00,70.59,EUR,2.500,MWh
Power,Intraday,Continuous,NL,ID1,QH,2021-06-11T08:45:00+02:00,2021-06-11T09:00:00+02:00,66.97,EUR,3.750,MWh
Power,Intraday,Continuous,NL,ID1,QH,2021-06-11T09:00:00+02:00,2021-06-11T09:15:00+02:00,111.53,EUR,,MWh
Power,Intraday,Continuous,NL,ID1,QH,2021-06-11T09:15:00+02:00,2021-06-11T09:30:00+02:00,87.50,EUR,,MWh
Power,Intraday,Continuous,NL,ID1,QH,2021-06-11T09:30:00+02:00,2021-06-11T09:45:00+02:00,78.02,EUR,,MWh
Power,Intraday,Continuous,NL,ID1,QH,2021-06-11T09:45:00+02:00,2021-06-11T10:00:00+02:00,67.46,EUR,,MWh
Power,Intraday,Continuous,NL,ID1,QH,2021-06-11T10:00:00+02:00,2021-06-11T10:15:00+02:00,65.00,EUR,5.630,MWh
Power,Intraday,Continuous,NL,ID1,QH,2021-06-11T10:15:00+02:00,2021-06-11T10:30:00+02:00,47.60,EUR,9.000,MWh
Power,Intraday,Continuous,NL,ID1,QH,2021-06-11T10:30:00+02:00,2021-06-11T10:45:00+02:00,46.17,EUR,3.750,MWh
Power,Intraday,Continuous,NL,ID1,QH,2021-06-11T10:45:00+02:00,2021-06-11T11:00:00+02:00,48.97,EUR,4.630,MWh
Power,Intraday,Continuous,NL,ID1,QH,2021-06-11T11:00:00+02:00,2021-06-11T11:15:00+02:00,82.83,EUR,,MWh
Power,Intraday,Continuous,NL,ID1,QH,2021-06-11T11:15:00+02:00,2021-06-11T11:30:00+02:00,77.92,EUR,,MWh
Power,Intraday,Continuous,NL,ID1,QH,2021-06-11T11:30:00+02:00,2021-06-11T11:45:00+02:00,59.79,EUR,4.250,MWh
Power,Intraday,Continuous,NL,ID1,QH,2021-06-11T11:45:00+02:00,2021-06-11T12:00:00+02:00,56.79,EUR,5.000,MWh
Power,Intraday,Continuous,NL,ID1,QH,2021-06-11T12:00:00+02:00,2021-06-11T12:15:00+02:00,83.07,EUR,,MWh
Power,Intraday,Continuous,NL,ID1,QH,2021-06-11T12:15:00+02:00,2021-06-11T12:30:00+02:00,76.31,EUR,,MWh
Power,Intraday,Continuous,NL,ID1,QH,2021-06-11T12:30:00+02:00,2021-06-11T12:45:00+02:00,77.92,EUR,,MWh
Power,Intraday,Continuous,NL,ID1,QH,2021-06-11T12:45:00+02:00,2021-06-11T13:00:00+02:00,71.50,EUR,2.500,MWh
Power,Intraday,Continuous,NL,ID1,QH,2021-06-11T13:00:00+02:00,2021-06-11T13:15:00+02:00,77.27,EUR,,MWh
Power,Intraday,Continuous,NL,ID1,QH,2021-06-11T13:15:00+02:00,2021-06-11T13:30:00+02:00,73.07,EUR,,MWh
Power,Intraday,Continuous,NL,ID1,QH,2021-06-11T13:30:00+02:00,2021-06-11T13:45:00+02:00,72.31,EUR,,MWh
Power,Intraday,Continuous,NL,ID1,QH,2021-06-11T13:45:00+02:00,2021-06-11T14:00:00+02:00,66.93,EUR,,MWh
Power,Intraday,Continuous,NL,ID1,QH,2021-06-11T14:00:00+02:00,2021-06-11T14:15:00+02:00,71.06,EUR,,MWh
Power,Intraday,Continuous,NL,ID1,QH,2021-06-11T14:15:00+02:00,2021-06-11T14:30:00+02:00,75.68,EUR,,MWh
Power,Intraday,Continuous,NL,ID1,QH,2021-06-11T14:30:00+02:00,2021-06-11T14:45:00+02:00,85.30,EUR,,MWh
Power,Intraday,Continuous,NL,ID1,QH,2021-06-11T14:45:00+02:00,2021-06-11T15:00:00+02:00,40.18,EUR,12.630,MWh
Power,Intraday,Continuous,NL,ID1,QH,2021-06-11T15:00:00+02:00,2021-06-11T15:15:00+02:00,40.00,EUR,12.500,MWh
Power,Intraday,Continuous,NL,ID1,QH,2021-06-11T15:15:00+02:00,2021-06-11T15:30:00+02:00,70.92,EUR,,MWh
Power,Intraday,Continuous,NL,ID1,QH,2021-06-11T15:30:00+02:00,2021-06-11T15:45:00+02:00,75.31,EUR,,MWh
Power,Intraday,Continuous,NL,ID1,QH,2021-06-11T15:45:00+02:00,2021-06-11T16:00:00+02:00,40.00,EUR,12.500,MWh
Power,Intraday,Continuous,NL,ID1,QH,2021-06-11T16:00:00+02:00,2021-06-11T16:15:00+02:00,40.00,EUR,12.500,MWh
Power,Intraday,Continuous,NL,ID1,QH,2021-06-11T16:15:00+02:00,2021-06-11T16:30:00+02:00,40.00,EUR,12.500,MWh
Power,Intraday,Continuous,NL,ID1,QH,2021-06-11T16:30:00+02:00,2021-06-11T16:45:00+02:00,40.00,EUR,12.500,MWh
Power,Intraday,Continuous,NL,ID1,QH,2021-06-11T16:45:00+02:00,2021-06-11T17:00:00+02:00,53.00,EUR,18.750,MWh
Power,Intraday,Continuous,NL,ID1,QH,2021-06-11T17:00:00+02:00,2021-06-11T17:15:00+02:00,67.63,EUR,3.750,MWh
Power,Intraday,Continuous,NL,ID1,QH,2021-06-11T17:15:00+02:00,2021-06-11T17:30:00+02:00,74.32,EUR,,MWh
Power,Intraday,Continuous,NL,ID1,QH,2021-06-11T17:30:00+02:00,2021-06-11T17:45:00+02:00,83.45,EUR,,MWh
Power,Intraday,Continuous,NL,ID1,QH,2021-06-11T17:45:00+02:00,2021-06-11T18:00:00+02:00,95.00,EUR,21.800,MWh
Power,Intraday,Continuous,NL,ID1,QH,2021-06-11T18:00:00+02:00,2021-06-11T18:15:00+02:00,66.79,EUR,,MWh
Power,Intraday,Continuous,NL,ID1,QH,2021-06-11T18:15:00+02:00,2021-06-11T18:30:00+02:00,77.76,EUR,,MWh
Power,Intraday,Continuous,NL,ID1,QH,2021-06-11T18:30:00+02:00,2021-06-11T18:45:00+02:00,100.24,EUR,,MWh
Power,Intraday,Continuous,NL,ID1,QH,2021-06-11T18:45:00+02:00,2021-06-11T19:00:00+02:00,116.99,EUR,,MWh
Power,Intraday,Continuous,NL,ID1,QH,2021-06-11T19:00:00+02:00,2021-06-11T19:15:00+02:00,73.95,EUR,,MWh
Power,Intraday,Continuous,NL,ID1,QH,2021-06-11T19:15:00+02:00,2021-06-11T19:30:00+02:00,80.00,EUR,3.500,MWh
Power,Intraday,Continuous,NL,ID1,QH,2021-06-11T19:30:00+02:00,2021-06-11T19:45:00+02:00,103.02,EUR,,MWh
Power,Intraday,Continuous,NL,ID1,QH,2021-06-11T19:45:00+02:00,2021-06-11T20:00:00+02:00,141.96,EUR,,MWh
Power,Intraday,Continuous,NL,ID1,QH,2021-06-11T20:00:00+02:00,2021-06-11T20:15:00+02:00,102.07,EUR,,MWh
Power,Intraday,Continuous,NL,ID1,QH,2021-06-11T20:15:00+02:00,2021-06-11T20:30:00+02:00,100.80,EUR,,MWh
Power,Intraday,Continuous,NL,ID1,QH,2021-06-11T20:30:00+02:00,2021-06-11T20:45:00+02:00,92.04,EUR,,MWh
Power,Intraday,Continuous,NL,ID1,QH,2021-06-11T20:45:00+02:00,2021-06-11T21:00:00+02:00,92.97,EUR,,MWh
Power,Intraday,Continuous,NL,ID1,QH,2021-06-11T21:00:00+02:00,2021-06-11T21:15:00+02:00,100.82,EUR,,MWh
Power,Intraday,Continuous,NL,ID1,QH,2021-06-11T21:15:00+02:00,2021-06-11T21:30:00+02:00,99.27,EUR,,MWh
Power,Intraday,Continuous,NL,ID1,QH,2021-06-11T21:30:00+02:00,2021-06-11T21:45:00+02:00,100.15,EUR,,MWh
Power,Intraday,Continuous,NL,ID1,QH,2021-06-11T21:45:00+02:00,2021-06-11T22:00:00+02:00,90.06,EUR,,MWh
Power,Intraday,Continuous,NL,ID1,QH,2021-06-11T22:00:00+02:00,2021-06-11T22:15:00+02:00,105.48,EUR,,MWh
Power,Intraday,Continuous,NL,ID1,QH,2021-06-11T22:15:00+02:00,2021-06-11T22:30:00+02:00,90.26,EUR,,MWh
Power,Intraday,Continuous,NL,ID1,QH,2021-06-11T22:30:00+02:00,2021-06-11T22:45:00+02:00,92.82,EUR,,MWh
Power,Intraday,Continuous,NL,ID1,QH,2021-06-11T22:45:00+02:00,2021-06-11T23:00:00+02:00,87.13,EUR,,MWh
Power,Intraday,Continuous,NL,ID1,QH,2021-06-11T23:00:00+02:00,2021-06-11T23:15:00+02:00,95.39,EUR,,MWh
Power,Intraday,Continuous,NL,ID1,QH,2021-06-11T23:15:00+02:00,2021-06-11T23:30:00+02:00,83.62,EUR,,MWh
Power,Intraday,Continuous,NL,ID1,QH,2021-06-11T23:30:00+02:00,2021-06-11T23:45:00+02:00,85.79,EUR,,MWh
Power,Intraday,Continuous,NL,ID1,QH,2021-06-11T23:45:00+02:00,2021-06-12T00:00:00+02:00,76.05,EUR,,MWh
Power,Intraday,Continuous,NL,ID3,QH,2021-06-11T00:00:00+02:00,2021-06-11T00:15:00+02:00,99.82,EUR,42.480,MWh
Power,Intraday,Continuous,NL,ID3,QH,2021-06-11T00:15:00+02:00,2021-06-11T00:30:00+02:00,81.42,EUR,16.680,MWh
Power,Intraday,Continuous,NL,ID3,QH,2021-06-11T00:30:00+02:00,2021-06-11T00:45:00+02:00,76.66,EUR,13.930,MWh
Power,Intraday,Continuous,NL,ID3,QH,2021-06-11T00:45:00+02:00,2021-06-11T01:00:00+02:00,71.96,EUR,20.230,MWh
Power,Intraday,Continuous,NL,ID3,QH,2021-06-11T01:00:00+02:00,2021-06-11T01:15:00+02:00,82.98,EUR,14.180,MWh
Power,Intraday,Continuous,NL,ID3,QH,2021-06-11T01:15:00+02:00,2021-06-11T01:30:00+02:00,76.16,EUR,5.380,MWh
Power,Intraday,Continuous,NL,ID3,QH,2021-06-11T01:30:00+02:00,2021-06-11T01:45:00+02:00,75.29,EUR,,MWh
Power,Intraday,Continuous,NL,ID3,QH,2021-06-11T01:45:00+02:00,2021-06-11T02:00:00+02:00,67.10,EUR,,MWh
Power,Intraday,Continuous,NL,ID3,QH,2021-06-11T02:00:00+02:00,2021-06-11T02:15:00+02:00,80.21,EUR,9.300,MWh
Power,Intraday,Continuous,NL,ID3,QH,2021-06-11T02:15:00+02:00,2021-06-11T02:30:00+02:00,80.12,EUR,11.280,MWh
Power,Intraday,Continuous,NL,ID3,QH,2021-06-11T02:30:00+02:00,2021-06-11T02:45:00+02:00,76.50,EUR,5.450,MWh
Power,Intraday,Continuous,NL,ID3,QH,2021-06-11T02:45:00+02:00,2021-06-11T03:00:00+02:00,67.63,EUR,12.700,MWh
Power,Intraday,Continuous,NL,ID3,QH,2021-06-11T03:00:00+02:00,2021-06-11T03:15:00+02:00,72.23,EUR,,MWh
Power,Intraday,Continuous,NL,ID3,QH,2021-06-11T03:15:00+02:00,2021-06-11T03:30:00+02:00,71.06,EUR,5.000,MWh
Power,Intraday,Continuous,NL,ID3,QH,2021-06-11T03:30:00+02:00,2021-06-11T03:45:00+02:00,65.84,EUR,2.980,MWh
Power,Intraday,Continuous,NL,ID3,QH,2021-06-11T03:45:00+02:00,2021-06-11T04:00:00+02:00,63.98,EUR,4.600,MWh
Power,Intraday,Continuous,NL,ID3,QH,2021-06-11T04:00:00+02:00,2021-06-11T04:15:00+02:00,65.25,EUR,5.700,MWh
Power,Intraday,Continuous,NL,ID3,QH,2021-06-11T04:15:00+02:00,2021-06-11T04:30:00+02:00,69.76,EUR,,MWh
Power,Intraday,Continuous,NL,ID3,QH,2021-06-11T04:30:00+02:00,2021-06-11T04:45:00+02:00,68.84,EUR,,MWh
Power,Intraday,Continuous,NL,ID3,QH,2021-06-11T04:45:00+02:00,2021-06-11T05:00:00+02:00,78.19,EUR,5.580,MWh
Power,Intraday,Continuous,NL,ID3,QH,2021-06-11T05:00:00+02:00,2021-06-11T05:15:00+02:00,64.02,EUR,4.950,MWh
Power,Intraday,Continuous,NL,ID3,QH,2021-06-11T05:15:00+02:00,2021-06-11T05:30:00+02:00,72.70,EUR,5.700,MWh
Power,Intraday,Continuous,NL,ID3,QH,2021-06-11T05:30:00+02:00,2021-06-11T05:45:00+02:00,80.86,EUR,17.850,MWh
Power,Intraday,Continuous,NL,ID3,QH,2021-06-11T05:45:00+02:00,2021-06-11T06:00:00+02:00,91.71,EUR,17.630,MWh
Power,Intraday,Continuous,NL,ID3,QH,2021-06-11T06:00:00+02:00,2021-06-11T06:15:00+02:00,66.11,EUR,9.530,MWh
Power,Intraday,Continuous,NL,ID3,QH,2021-06-11T06:15:00+02:00,2021-06-11T06:30:00+02:00,87.38,EUR,,MWh
Power,Intraday,Continuous,NL,ID3,QH,2021-06-11T06:30:00+02:00,2021-06-11T06:45:00+02:00,99.05,EUR,5.300,MWh
Power,Intraday,Continuous,NL,ID3,QH,2021-06-11T06:45:00+02:00,2021-06-11T07:00:00+02:00,93.51,EUR,21.500,MWh
Power,Intraday,Continuous,NL,ID3,QH,2021-06-11T07:00:00+02:00,2021-06-11T07:15:00+02:00,92.55,EUR,13.130,MWh
Power,Intraday,Continuous,NL,ID3,QH,2021-06-11T07:15:00+02:00,2021-06-11T07:30:00+02:00,91.06,EUR,12.500,MWh
Power,Intraday,Continuous,NL,ID3,QH,2021-06-11T07:30:00+02:00,2021-06-11T07:45:00+02:00,94.81,EUR,29.950,MWh
Power,Intraday,Continuous,NL,ID3,QH,2021-06-11T07:45:00+02:00,2021-06-11T08:00:00+02:00,85.53,EUR,49.300,MWh
Power,Intraday,Continuous,NL,ID3,QH,2021-06-11T08:00:00+02:00,2021-06-11T08:15:00+02:00,228.99,EUR,38.880,MWh
Power,Intraday,Continuous,NL,ID3,QH,2021-06-11T08:15:00+02:00,2021-06-11T08:30:00+02:00,98.13,EUR,15.150,MWh
Power,Intraday,Continuous,NL,ID3,QH,2021-06-11T08:30:00+02:00,2021-06-11T08:45:00+02:00,63.36,EUR,42.530,MWh
Power,Intraday,Continuous,NL,ID3,QH,2021-06-11T08:45:00+02:00,2021-06-11T09:00:00+02:00,36.85,EUR,35.650,MWh
Power,Intraday,Continuous,NL,ID3,QH,2021-06-11T09:00:00+02:00,2021-06-11T09:15:00+02:00,111.53,EUR,66.200,MWh
Power,Intraday,Continuous,NL,ID3,QH,2021-06-11T09:15:00+02:00,2021-06-11T09:30:00+02:00,87.50,EUR,51.980,MWh
Power,Intraday,Continuous,NL,ID3,QH,2021-06-11T09:30:00+02:00,2021-06-11T09:45:00+02:00,78.02,EUR,46.230,MWh
Power,Intraday,Continuous,NL,ID3,QH,2021-06-11T09:45:00+02:00,2021-06-11T10:00:00+02:00,67.46,EUR,48.230,MWh
Power,Intraday,Continuous,NL,ID3,QH,2021-06-11T10:00:00+02:00,2021-06-11T10:15:00+02:00,88.24,EUR,59.250,MWh
Power,Intraday,Continuous,NL,ID3,QH,2021-06-11T10:15:00+02:00,2021-06-11T10:30:00+02:00,65.96,EUR,23.600,MWh
Power,Intraday,Continuous,NL,ID3,QH,2021-06-11T10:30:00+02:00,2021-06-11T10:45:00+02:00,72.55,EUR,68.300,MWh
Power,Intraday,Continuous,NL,ID3,QH,2021-06-11T10:45:00+02:00,2021-06-11T11:00:00+02:00,66.33,EUR,83.250,MWh
Power,Intraday,Continuous,NL,ID3,QH,2021-06-11T11:00:00+02:00,2021-06-11T11:15:00+02:00,82.83,EUR,42.850,MWh
Power,Intraday,Continuous,NL,ID3,QH,2021-06-11T11:15:00+02:00,2021-06-11T11:30:00+02:00,77.92,EUR,12.680,MWh
Power,Intraday,Continuous,NL,ID3,QH,2021-06-11T11:30:00+02:00,2021-06-11T11:45:00+02:00,73.97,EUR,40.930,MWh
Power,Intraday,Continuous,NL,ID3,QH,2021-06-11T11:45:00+02:00,2021-06-11T12:00:00+02:00,66.44,EUR,64.150,MWh
Power,Intraday,Continuous,NL,ID3,QH,2021-06-11T12:00:00+02:00,2021-06-11T12:15:00+02:00,83.07,EUR,38.650,MWh
Power,Intraday,Continuous,NL,ID3,QH,2021-06-11T12:15:00+02:00,2021-06-11T12:30:00+02:00,76.31,EUR,18.300,MWh
Power,Intraday,Continuous,NL,ID3,QH,2021-06-11T12:30:00+02:00,2021-06-11T12:45:00+02:00,77.92,EUR,34.730,MWh
Power,Intraday,Continuous,NL,ID3,QH,2021-06-11T12:45:00+02:00,2021-06-11T13:00:00+02:00,65.84,EUR,46.680,MWh
Power,Intraday,Continuous,NL,ID3,QH,2021-06-11T13:00:00+02:00,2021-06-11T13:15:00+02:00,77.27,EUR,3.900,MWh
Power,Intraday,Continuous,NL,ID3,QH,2021-06-11T13:15:00+02:00,2021-06-11T13:30:00+02:00,73.07,EUR,4.280,MWh
Power,Intraday,Continuous,NL,ID3,QH,2021-06-11T13:30:00+02:00,2021-06-11T13:45:00+02:00,72.31,EUR,4.030,MWh
Power,Intraday,Continuous,NL,ID3,QH,2021-06-11T13:45:00+02:00,2021-06-11T14:00:00+02:00,66.93,EUR,5.350,MWh
Power,Intraday,Continuous,NL,ID3,QH,2021-06-11T14:00:00+02:00,2021-06-11T14:15:00+02:00,71.06,EUR,7.900,MWh
Power,Intraday,Continuous,NL,ID3,QH,2021-06-11T14:15:00+02:00,2021-06-11T14:30:00+02:00,75.68,EUR,10.850,MWh
Power,Intraday,Continuous,NL,ID3,QH,2021-06-11T14:30:00+02:00,2021-06-11T14:45:00+02:00,85.30,EUR,12.900,MWh
Power,Intraday,Continuous,NL,ID3,QH,2021-06-11T14:45:00+02:00,2021-06-11T15:00:00+02:00,61.04,EUR,28.950,MWh
Power,Intraday,Continuous,NL,ID3,QH,2021-06-11T15:00:00+02:00,2021-06-11T15:15:00+02:00,58.33,EUR,61.100,MWh
Power,Intraday,Continuous,NL,ID3,QH,2021-06-11T15:15:00+02:00,2021-06-11T15:30:00+02:00,70.92,EUR,38.280,MWh
Power,Intraday,Continuous,NL,ID3,QH,2021-06-11T15:30:00+02:00,2021-06-11T15:45:00+02:00,75.31,EUR,43.050,MWh
Power,Intraday,Continuous,NL,ID3,QH,2021-06-11T15:45:00+02:00,2021-06-11T16:00:00+02:00,71.07,EUR,66.650,MWh
Power,Intraday,Continuous,NL,ID3,QH,2021-06-11T16:00:00+02:00,2021-06-11T16:15:00+02:00,55.02,EUR,64.280,MWh
Power,Intraday,Continuous,NL,ID3,QH,2021-06-11T16:15:00+02:00,2021-06-11T16:30:00+02:00,60.65,EUR,41.400,MWh
Power,Intraday,Continuous,NL,ID3,QH,2021-06-11T16:30:00+02:00,2021-06-11T16:45:00+02:00,69.27,EUR,73.150,MWh
Power,Intraday,Continuous,NL,ID3,QH,2021-06-11T16:45:00+02:00,2021-06-11T17:00:00+02:00,78.86,EUR,80.630,MWh
Power,Intraday,Continuous,NL,ID3,QH,2021-06-11T17:00:00+02:00,2021-06-11T17:15:00+02:00,58.71,EUR,84.250,MWh
Power,Intraday,Continuous,NL,ID3,QH,2021-06-11T17:15:00+02:00,2021-06-11T17:30:00+02:00,74.32,EUR,60.880,MWh
Power,Intraday,Continuous,NL,ID3,QH,2021-06-11T17:30:00+02:00,2021-06-11T17:45:00+02:00,83.45,EUR,80.350,MWh
Power,Intraday,Continuous,NL,ID3,QH,2021-06-11T17:45:00+02:00,2021-06-11T18:00:00+02:00,99.78,EUR,134.050,MWh
Power,Intraday,Continuous,NL,ID3,QH,2021-06-11T18:00:00+02:00,2021-06-11T18:15:00+02:00,66.79,EUR,78.000,MWh
Power,Intraday,Continuous,NL,ID3,QH,2021-06-11T18:15:00+02:00,2021-06-11T18:30:00+02:00,77.76,EUR,92.350,MWh
Power,Intraday,Continuous,NL,ID3,QH,2021-06-11T18:30:00+02:00,2021-06-11T18:45:00+02:00,100.24,EUR,77.980,MWh
Power,Intraday,Continuous,NL,ID3,QH,2021-06-11T18:45:00+02:00,2021-06-11T19:00:00+02:00,116.99,EUR,78.950,MWh
Power,Intraday,Continuous,NL,ID3,QH,2021-06-11T19:00:00+02:00,2021-06-11T19:15:00+02:00,73.95,EUR,66.680,MWh
Power,Intraday,Continuous,NL,ID3,QH,2021-06-11T19:15:00+02:00,2021-06-11T19:30:00+02:00,85.97,EUR,47.450,MWh
Power,Intraday,Continuous,NL,ID3,QH,2021-06-11T19:30:00+02:00,2021-06-11T19:45:00+02:00,103.02,EUR,50.880,MWh
Power,Intraday,Continuous,NL,ID3,QH,2021-06-11T19:45:00+02:00,2021-06-11T20:00:00+02:00,141.96,EUR,25.900,MWh
Power,Intraday,Continuous,NL,ID3,QH,2021-06-11T20:00:00+02:00,2021-06-11T20:15:00+02:00,102.07,EUR,28.950,MWh
Power,Intraday,Continuous,NL,ID3,QH,2021-06-11T20:15:00+02:00,2021-06-11T20:30:00+02:00,100.80,EUR,23.780,MWh
Power,Intraday,Continuous,NL,ID3,QH,2021-06-11T20:30:00+02:00,2021-06-11T20:45:00+02:00,92.04,EUR,30.780,MWh
Power,Intraday,Continuous,NL,ID3,QH,2021-06-11T20:45:00+02:00,2021-06-11T21:00:00+02:00,92.97,EUR,23.350,MWh
Power,Intraday,Continuous,NL,ID3,QH,2021-06-11T21:00:00+02:00,2021-06-11T21:15:00+02:00,100.82,EUR,18.850,MWh
Power,Intraday,Continuous,NL,ID3,QH,2021-06-11T21:15:00+02:00,2021-06-11T21:30:00+02:00,99.27,EUR,32.300,MWh
Power,Intraday,Continuous,NL,ID3,QH,2021-06-11T21:30:00+02:00,2021-06-11T21:45:00+02:00,100.15,EUR,25.480,MWh
Power,Intraday,Continuous,NL,ID3,QH,2021-06-11T21:45:00+02:00,2021-06-11T22:00:00+02:00,90.06,EUR,37.750,MWh
Power,Intraday,Continuous,NL,ID3,QH,2021-06-11T22:00:00+02:00,2021-06-11T22:15:00+02:00,105.48,EUR,9.280,MWh
Power,Intraday,Continuous,NL,ID3,QH,2021-06-11T22:15:00+02:00,2021-06-11T22:30:00+02:00,90.26,EUR,8.380,MWh
Power,Intraday,Continuous,NL,ID3,QH,2021-06-11T22:30:00+02:00,2021-06-11T22:45:00+02:00,92.82,EUR,21.530,MWh
Power,Intraday,Continuous,NL,ID3,QH,2021-06-11T22:45:00+02:00,2021-06-11T23:00:00+02:00,87.13,EUR,15.830,MWh
Power,Intraday,Continuous,NL,ID3,QH,2021-06-11T23:00:00+02:00,2021-06-11T23:15:00+02:00,95.39,EUR,85.050,MWh
Power,Intraday,Continuous,NL,ID3,QH,2021-06-11T23:15:00+02:00,2021-06-11T23:30:00+02:00,83.62,EUR,54.380,MWh
Power,Intraday,Continuous,NL,ID3,QH,2021-06-11T23:30:00+02:00,2021-06-11T23:45:00+02:00,85.79,EUR,35.030,MWh
Power,Intraday,Continuous,NL,ID3,QH,2021-06-11T23:45:00+02:00,2021-06-12T00:00:00+02:00,76.05,EUR,49.600,MWh
Power,Intraday,Continuous,NL,IDFULL,BASE,2021-06-11T00:00:00+02:00,2021-06-12T00:00:00+02:00,81.39,EUR,28212.000,MWh
Power,Intraday,Continuous,NL,IDFULL,PEAK,2021-06-11T08:00:00+02:00,2021-06-11T20:00:00+02:00,79.44,EUR,15807.700,MWh
