EV_id;Start time mean;Start time std [h];Target time;Starting state of charge percentage mean;Starting charge percentage std;Target state of charge;Battery size [kWh];max charge rate [kW];Charging efficiency rate;Daily demand mean [kWh];Daily demand std [kWh]
1;18:30;1;08:00;0.4;0.2;0.7;60;11;0.9;12;2
2;18:30;1;08:00;0.4;0.2;0.7;60;11;0.9;12;2
3;18:30;1;08:00;0.4;0.2;0.7;60;11;0.9;12;2
4;18:30;1;08:00;0.4;0.2;0.7;60;11;0.9;12;2
5;18:30;1;08:00;0.4;0.2;0.7;60;11;0.9;12;2
6;18:30;1;08:00;0.4;0.2;0.7;60;11;0.9;12;2
7;18:30;1;08:00;0.4;0.2;0.7;60;11;0.9;12;2
8;18:30;1;08:00;0.4;0.2;0.7;60;11;0.9;12;2
9;18:30;1;08:00;0.4;0.2;0.7;60;11;0.9;12;2
10;18:30;1;08:00;0.4;0.2;0.7;60;11;0.9;12;2
11;18:30;1;08:00;0.4;0.2;0.7;60;11;0.9;12;2
12;18:30;1;08:00;0.4;0.2;0.7;60;11;0.9;12;2
13;18:30;1;08:00;0.4;0.2;0.7;60;11;0.9;12;2
14;18:30;1;08:00;0.4;0.2;0.7;60;11;0.9;12;2
15;18:30;1;08:00;0.4;0.2;0.7;60;11;0.9;12;2
16;18:30;1;08:00;0.4;0.2;0.7;60;11;0.9;12;2
17;18:30;1;08:00;0.4;0.2;0.7;60;11;0.9;12;2
18;18:30;1;08:00;0.4;0.2;0.7;60;11;0.9;12;2
19;18:30;1;08:00;0.4;0.2;0.7;60;11;0.9;12;2
20;18:30;1;08:00;0.4;0.2;0.7;60;11;0.9;12;2
21;18:30;1;08:00;0.4;0.2;0.7;60;11;0.9;12;2
22;18:30;1;08:00;0.4;0.2;0.7;60;11;0.9;12;2
23;18:30;1;08:00;0.4;0.2;0.7;60;11;0.9;12;2
24;18:30;1;08:00;0.4;0.2;0.7;60;11;0.9;12;2
25;18:30;1;08:00;0.4;0.2;0.7;60;11;0.9;12;2
26;18:30;1;08:00;0.4;0.2;0.7;60;11;0.9;12;2
27;18:30;1;08:00;0.4;0.2;0.7;60;11;0.9;12;2
28;18:30;1;08:00;0.4;0.2;0.7;60;11;0.9;12;2
29;18:30;1;08:00;0.4;0.2;0.7;60;11;0.9;12;2
30;18:30;1;08:00;0.4;0.2;0.7;60;11;0.9;12;2
31;18:30;1;08:00;0.4;0.2;0.7;60;11;0.9;12;2
32;18:30;1;08:00;0.4;0.2;0.7;60;11;0.9;12;2
33;18:30;1;08:00;0.4;0.2;0.7;60;11;0.9;12;2
34;18:30;1;08:00;0.4;0.2;0.7;60;11;0.9;12;2
35;18:30;1;08:00;0.4;0.2;0.7;60;11;0.9;12;2
36;18:30;1;08:00;0.4;0.2;0.7;60;11;0.9;12;2
37;18:30;1;08:00;0.4;0.2;0.7;60;11;0.9;12;2
38;18:30;1;08:00;0.4;0.2;0.7;60;11;0.9;12;2
39;18:30;1;08:00;0.4;0.2;0.7;60;11;0.9;12;2
40;18:30;1;08:00;0.4;0.2;0.7;60;11;0.9;12;2
41;18:30;1;08:00;0.4;0.2;0.7;60;11;0.9;12;2
42;18:30;1;08:00;0.4;0.2;0.7;60;11;0.9;12;2
43;18:30;1;08:00;0.4;0.2;0.7;60;11;0.9;12;2
44;18:30;1;08:00;0.4;0.2;0.7;60;11;0.9;12;2
45;18:30;1;08:00;0.4;0.2;0.7;60;11;0.9;12;2
46;18:30;1;08:00;0.4;0.2;0.7;60;11;0.9;12;2
47;18:30;1;08:00;0.4;0.2;0.7;60;11;0.9;12;2
48;18:30;1;08:00;0.4;0.2;0.7;60;11;0.9;12;2
49;18:30;1;08:00;0.4;0.2;0.7;60;11;0.9;12;2
50;18:30;1;08:00;0.4;0.2;0.7;60;11;0.9;12;2
51;18:30;1;08:00;0.4;0.2;0.7;60;11;0.9;12;2
52;18:30;1;08:00;0.4;0.2;0.7;60;11;0.9;12;2
53;18:30;1;08:00;0.4;0.2;0.7;60;11;0.9;12;2
54;18:30;1;08:00;0.4;0.2;0.7;60;11;0.9;12;2
55;18:30;1;08:00;0.4;0.2;0.7;60;11;0.9;12;2
56;18:30;1;08:00;0.4;0.2;0.7;60;11;0.9;12;2
57;18:30;1;08:00;0.4;0.2;0.7;60;11;0.9;12;2
58;18:30;1;08:00;0.4;0.2;0.7;60;11;0.9;12;2
59;18:30;1;08:00;0.4;0.2;0.7;60;11;0.9;12;2
60;18:30;1;08:00;0.4;0.2;0.7;60;11;0.9;12;2
61;18:30;1;08:00;0.4;0.2;0.7;60;11;0.9;12;2
62;18:30;1;08:00;0.4;0.2;0.7;60;11;0.9;12;2
63;18:30;1;08:00;0.4;0.2;0.7;60;11;0.9;12;2
64;18:30;1;08:00;0.4;0.2;0.7;60;11;0.9;12;2
65;18:30;1;08:00;0.4;0.2;0.7;60;11;0.9;12;2
66;18:30;1;08:00;0.4;0.2;0.7;60;11;0.9;12;2
67;18:30;1;08:00;0.4;0.2;0.7;60;11;0.9;12;2
68;18:30;1;08:00;0.4;0.2;0.7;60;11;0.9;12;2
69;18:30;1;08:00;0.4;0.2;0.7;60;11;0.9;12;2
70;18:30;1;08:00;0.4;0.2;0.7;60;11;0.9;12;2
71;18:30;1;08:00;0.4;0.2;0.7;60;11;0.9;12;2
72;18:30;1;08:00;0.4;0.2;0.7;60;11;0.9;12;2
73;18:30;1;08:00;0.4;0.2;0.7;60;11;0.9;12;2
74;18:30;1;08:00;0.4;0.2;0.7;60;11;0.9;12;2
75;18:30;1;08:00;0.4;0.2;0.7;60;11;0.9;12;2
76;18:30;1;08:00;0.4;0.2;0.7;60;11;0.9;12;2
77;18:30;1;08:00;0.4;0.2;0.7;60;11;0.9;12;2
78;18:30;1;08:00;0.4;0.2;0.7;60;11;0.9;12;2
79;18:30;1;08:00;0.4;0.2;0.7;60;11;0.9;12;2
80;18:30;1;08:00;0.4;0.2;0.7;60;11;0.9;12;2
81;18:30;1;08:00;0.4;0.2;0.7;60;11;0.9;12;2
82;18:30;1;08:00;0.4;0.2;0.7;60;11;0.9;12;2
83;18:30;1;08:00;0.4;0.2;0.7;60;11;0.9;12;2
84;18:30;1;08:00;0.4;0.2;0.7;60;11;0.9;12;2
85;18:30;1;08:00;0.4;0.2;0.7;60;11;0.9;12;2
86;18:30;1;08:00;0.4;0.2;0.7;60;11;0.9;12;2
87;18:30;1;08:00;0.4;0.2;0.7;60;11;0.9;12;2
88;18:30;1;08:00;0.4;0.2;0.7;60;11;0.9;12;2
89;18:30;1;08:00;0.4;0.2;0.7;60;11;0.9;12;2
90;18:30;1;08:00;0.4;0.2;0.7;60;11;0.9;12;2
91;18:30;1;08:00;0.4;0.2;0.7;60;11;0.9;12;2
92;18:30;1;08:00;0.4;0.2;0.7;60;11;0.9;12;2
93;18:30;1;08:00;0.4;0.2;0.7;60;11;0.9;12;2
94;18:30;1;08:00;0.4;0.2;0.7;60;11;0.9;12;2
95;18:30;1;08:00;0.4;0.2;0.7;60;11;0.9;12;2
96;18:30;1;08:00;0.4;0.2;0.7;60;11;0.9;12;2
97;18:30;1;08:00;0.4;0.2;0.7;60;11;0.9;12;2
98;18:30;1;08:00;0.4;0.2;0.7;60;11;0.9;12;2
99;18:30;1;08:00;0.4;0.2;0.7;60;11;0.9;12;2
100;18:30;1;08:00;0.4;0.2;0.7;60;11;0.9;12;2
101;18:30;1;08:00;0.4;0.2;0.7;60;11;0.9;12;2
102;18:30;1;08:00;0.4;0.2;0.7;60;11;0.9;12;2
103;18:30;1;08:00;0.4;0.2;0.7;60;11;0.9;12;2
104;18:30;1;08:00;0.4;0.2;0.7;60;11;0.9;12;2
105;18:30;1;08:00;0.4;0.2;0.7;60;11;0.9;12;2
106;18:30;1;08:00;0.4;0.2;0.7;60;11;0.9;12;2
107;18:30;1;08:00;0.4;0.2;0.7;60;11;0.9;12;2
108;18:30;1;08:00;0.4;0.2;0.7;60;11;0.9;12;2
109;18:30;1;08:00;0.4;0.2;0.7;60;11;0.9;12;2
110;18:30;1;08:00;0.4;0.2;0.7;60;11;0.9;12;2
111;18:30;1;08:00;0.4;0.2;0.7;60;11;0.9;12;2
112;18:30;1;08:00;0.4;0.2;0.7;60;11;0.9;12;2
113;18:30;1;08:00;0.4;0.2;0.7;60;11;0.9;12;2
114;18:30;1;08:00;0.4;0.2;0.7;60;11;0.9;12;2
115;18:30;1;08:00;0.4;0.2;0.7;60;11;0.9;12;2
116;18:30;1;08:00;0.4;0.2;0.7;60;11;0.9;12;2
117;18:30;1;08:00;0.4;0.2;0.7;60;11;0.9;12;2
118;18:30;1;08:00;0.4;0.2;0.7;60;11;0.9;12;2
119;18:30;1;08:00;0.4;0.2;0.7;60;11;0.9;12;2
120;18:30;1;08:00;0.4;0.2;0.7;60;11;0.9;12;2
121;18:30;1;08:00;0.4;0.2;0.7;60;11;0.9;12;2
122;18:30;1;08:00;0.4;0.2;0.7;60;11;0.9;12;2
123;18:30;1;08:00;0.4;0.2;0.7;60;11;0.9;12;2
124;18:30;1;08:00;0.4;0.2;0.7;60;11;0.9;12;2
125;18:30;1;08:00;0.4;0.2;0.7;60;11;0.9;12;2
126;18:30;1;08:00;0.4;0.2;0.7;60;11;0.9;12;2
127;18:30;1;08:00;0.4;0.2;0.7;60;11;0.9;12;2
128;18:30;1;08:00;0.4;0.2;0.7;60;11;0.9;12;2
129;18:30;1;08:00;0.4;0.2;0.7;60;11;0.9;12;2
130;18:30;1;08:00;0.4;0.2;0.7;60;11;0.9;12;2
131;18:30;1;08:00;0.4;0.2;0.7;60;11;0.9;12;2
132;18:30;1;08:00;0.4;0.2;0.7;60;11;0.9;12;2
133;18:30;1;08:00;0.4;0.2;0.7;60;11;0.9;12;2
134;18:30;1;08:00;0.4;0.2;0.7;60;11;0.9;12;2
135;18:30;1;08:00;0.4;0.2;0.7;60;11;0.9;12;2
136;18:30;1;08:00;0.4;0.2;0.7;60;11;0.9;12;2
137;18:30;1;08:00;0.4;0.2;0.7;60;11;0.9;12;2
138;18:30;1;08:00;0.4;0.2;0.7;60;11;0.9;12;2
139;18:30;1;08:00;0.4;0.2;0.7;60;11;0.9;12;2
140;18:30;1;08:00;0.4;0.2;0.7;60;11;0.9;12;2
141;18:30;1;08:00;0.4;0.2;0.7;60;11;0.9;12;2
142;18:30;1;08:00;0.4;0.2;0.7;60;11;0.9;12;2
143;18:30;1;08:00;0.4;0.2;0.7;60;11;0.9;12;2
144;18:30;1;08:00;0.4;0.2;0.7;60;11;0.9;12;2
145;18:30;1;08:00;0.4;0.2;0.7;60;11;0.9;12;2
146;18:30;1;08:00;0.4;0.2;0.7;60;11;0.9;12;2
147;18:30;1;08:00;0.4;0.2;0.7;60;11;0.9;12;2
148;18:30;1;08:00;0.4;0.2;0.7;60;11;0.9;12;2
149;18:30;1;08:00;0.4;0.2;0.7;60;11;0.9;12;2
150;18:30;1;08:00;0.4;0.2;0.7;60;11;0.9;12;2
151;18:30;1;08:00;0.4;0.2;0.7;60;11;0.9;12;2
152;18:30;1;08:00;0.4;0.2;0.7;60;11;0.9;12;2
153;18:30;1;08:00;0.4;0.2;0.7;60;11;0.9;12;2
154;18:30;1;08:00;0.4;0.2;0.7;60;11;0.9;12;2
155;18:30;1;08:00;0.4;0.2;0.7;60;11;0.9;12;2
156;18:30;1;08:00;0.4;0.2;0.7;60;11;0.9;12;2
157;18:30;1;08:00;0.4;0.2;0.7;60;11;0.9;12;2
158;18:30;1;08:00;0.4;0.2;0.7;60;11;0.9;12;2
159;18:30;1;08:00;0.4;0.2;0.7;60;11;0.9;12;2
160;18:30;1;08:00;0.4;0.2;0.7;60;11;0.9;12;2
161;18:30;1;08:00;0.4;0.2;0.7;60;11;0.9;12;2
162;18:30;1;08:00;0.4;0.2;0.7;60;11;0.9;12;2
163;18:30;1;08:00;0.4;0.2;0.7;60;11;0.9;12;2
164;18:30;1;08:00;0.4;0.2;0.7;60;11;0.9;12;2
165;18:30;1;08:00;0.4;0.2;0.7;60;11;0.9;12;2
166;18:30;1;08:00;0.4;0.2;0.7;60;11;0.9;12;2
167;18:30;1;08:00;0.4;0.2;0.7;60;11;0.9;12;2
168;18:30;1;08:00;0.4;0.2;0.7;60;11;0.9;12;2
169;18:30;1;08:00;0.4;0.2;0.7;60;11;0.9;12;2
170;18:30;1;08:00;0.4;0.2;0.7;60;11;0.9;12;2
171;18:30;1;08:00;0.4;0.2;0.7;60;11;0.9;12;2
172;18:30;1;08:00;0.4;0.2;0.7;60;11;0.9;12;2
173;18:30;1;08:00;0.4;0.2;0.7;60;11;0.9;12;2
174;18:30;1;08:00;0.4;0.2;0.7;60;11;0.9;12;2
175;18:30;1;08:00;0.4;0.2;0.7;60;11;0.9;12;2
176;18:30;1;08:00;0.4;0.2;0.7;60;11;0.9;12;2
177;18:30;1;08:00;0.4;0.2;0.7;60;11;0.9;12;2
178;18:30;1;08:00;0.4;0.2;0.7;60;11;0.9;12;2
179;18:30;1;08:00;0.4;0.2;0.7;60;11;0.9;12;2
180;18:30;1;08:00;0.4;0.2;0.7;60;11;0.9;12;2
181;18:30;1;08:00;0.4;0.2;0.7;60;11;0.9;12;2
182;18:30;1;08:00;0.4;0.2;0.7;60;11;0.9;12;2
183;18:30;1;08:00;0.4;0.2;0.7;60;11;0.9;12;2
184;18:30;1;08:00;0.4;0.2;0.7;60;11;0.9;12;2
185;18:30;1;08:00;0.4;0.2;0.7;60;11;0.9;12;2
186;18:30;1;08:00;0.4;0.2;0.7;60;11;0.9;12;2
187;18:30;1;08:00;0.4;0.2;0.7;60;11;0.9;12;2
188;18:30;1;08:00;0.4;0.2;0.7;60;11;0.9;12;2
189;18:30;1;08:00;0.4;0.2;0.7;60;11;0.9;12;2
190;18:30;1;08:00;0.4;0.2;0.7;60;11;0.9;12;2
191;18:30;1;08:00;0.4;0.2;0.7;60;11;0.9;12;2
192;18:30;1;08:00;0.4;0.2;0.7;60;11;0.9;12;2
193;18:30;1;08:00;0.4;0.2;0.7;60;11;0.9;12;2
194;18:30;1;08:00;0.4;0.2;0.7;60;11;0.9;12;2
195;18:30;1;08:00;0.4;0.2;0.7;60;11;0.9;12;2
196;18:30;1;08:00;0.4;0.2;0.7;60;11;0.9;12;2
197;18:30;1;08:00;0.4;0.2;0.7;60;11;0.9;12;2
198;18:30;1;08:00;0.4;0.2;0.7;60;11;0.9;12;2
199;18:30;1;08:00;0.4;0.2;0.7;60;11;0.9;12;2
200;18:30;1;08:00;0.4;0.2;0.7;60;11;0.9;12;2
201;18:30;1;08:00;0.4;0.2;0.7;60;11;0.9;12;2
202;18:30;1;08:00;0.4;0.2;0.7;60;11;0.9;12;2
203;18:30;1;08:00;0.4;0.2;0.7;60;11;0.9;12;2
204;18:30;1;08:00;0.4;0.2;0.7;60;11;0.9;12;2
205;18:30;1;08:00;0.4;0.2;0.7;60;11;0.9;12;2
206;18:30;1;08:00;0.4;0.2;0.7;60;11;0.9;12;2
207;18:30;1;08:00;0.4;0.2;0.7;60;11;0.9;12;2
208;18:30;1;08:00;0.4;0.2;0.7;60;11;0.9;12;2
209;18:30;1;08:00;0.4;0.2;0.7;60;11;0.9;12;2
210;18:30;1;08:00;0.4;0.2;0.7;60;11;0.9;12;2
211;18:30;1;08:00;0.4;0.2;0.7;60;11;0.9;12;2
212;18:30;1;08:00;0.4;0.2;0.7;60;11;0.9;12;2
213;18:30;1;08:00;0.4;0.2;0.7;60;11;0.9;12;2
214;18:30;1;08:00;0.4;0.2;0.7;60;11;0.9;12;2
215;18:30;1;08:00;0.4;0.2;0.7;60;11;0.9;12;2
216;18:30;1;08:00;0.4;0.2;0.7;60;11;0.9;12;2
217;18:30;1;08:00;0.4;0.2;0.7;60;11;0.9;12;2
218;18:30;1;08:00;0.4;0.2;0.7;60;11;0.9;12;2
219;18:30;1;08:00;0.4;0.2;0.7;60;11;0.9;12;2
220;18:30;1;08:00;0.4;0.2;0.7;60;11;0.9;12;2
221;18:30;1;08:00;0.4;0.2;0.7;60;11;0.9;12;2
222;18:30;1;08:00;0.4;0.2;0.7;60;11;0.9;12;2
223;18:30;1;08:00;0.4;0.2;0.7;60;11;0.9;12;2
224;18:30;1;08:00;0.4;0.2;0.7;60;11;0.9;12;2
225;18:30;1;08:00;0.4;0.2;0.7;60;11;0.9;12;2
226;18:30;1;08:00;0.4;0.2;0.7;60;11;0.9;12;2
227;18:30;1;08:00;0.4;0.2;0.7;60;11;0.9;12;2
228;18:30;1;08:00;0.4;0.2;0.7;60;11;0.9;12;2
229;18:30;1;08:00;0.4;0.2;0.7;60;11;0.9;12;2
230;18:30;1;08:00;0.4;0.2;0.7;60;11;0.9;12;2
231;18:30;1;08:00;0.4;0.2;0.7;60;11;0.9;12;2
232;18:30;1;08:00;0.4;0.2;0.7;60;11;0.9;12;2
233;18:30;1;08:00;0.4;0.2;0.7;60;11;0.9;12;2
234;18:30;1;08:00;0.4;0.2;0.7;60;11;0.9;12;2
235;18:30;1;08:00;0.4;0.2;0.7;60;11;0.9;12;2
236;18:30;1;08:00;0.4;0.2;0.7;60;11;0.9;12;2
237;18:30;1;08:00;0.4;0.2;0.7;60;11;0.9;12;2
238;18:30;1;08:00;0.4;0.2;0.7;60;11;0.9;12;2
239;18:30;1;08:00;0.4;0.2;0.7;60;11;0.9;12;2
240;18:30;1;08:00;0.4;0.2;0.7;60;11;0.9;12;2
241;18:30;1;08:00;0.4;0.2;0.7;60;11;0.9;12;2
242;18:30;1;08:00;0.4;0.2;0.7;60;11;0.9;12;2
243;18:30;1;08:00;0.4;0.2;0.7;60;11;0.9;12;2
244;18:30;1;08:00;0.4;0.2;0.7;60;11;0.9;12;2
245;18:30;1;08:00;0.4;0.2;0.7;60;11;0.9;12;2
246;18:30;1;08:00;0.4;0.2;0.7;60;11;0.9;12;2
247;18:30;1;08:00;0.4;0.2;0.7;60;11;0.9;12;2
248;18:30;1;08:00;0.4;0.2;0.7;60;11;0.9;12;2
249;18:30;1;08:00;0.4;0.2;0.7;60;11;0.9;12;2
250;18:30;1;08:00;0.4;0.2;0.7;60;11;0.9;12;2
251;18:30;1;08:00;0.4;0.2;0.7;60;11;0.9;12;2
252;18:30;1;08:00;0.4;0.2;0.7;60;11;0.9;12;2
253;18:30;1;08:00;0.4;0.2;0.7;60;11;0.9;12;2
254;18:30;1;08:00;0.4;0.2;0.7;60;11;0.9;12;2
255;18:30;1;08:00;0.4;0.2;0.7;60;11;0.9;12;2
256;18:30;1;08:00;0.4;0.2;0.7;60;11;0.9;12;2
257;18:30;1;08:00;0.4;0.2;0.7;60;11;0.9;12;2
258;18:30;1;08:00;0.4;0.2;0.7;60;11;0.9;12;2
259;18:30;1;08:00;0.4;0.2;0.7;60;11;0.9;12;2
260;18:30;1;08:00;0.4;0.2;0.7;60;11;0.9;12;2
261;18:30;1;08:00;0.4;0.2;0.7;60;11;0.9;12;2
262;18:30;1;08:00;0.4;0.2;0.7;60;11;0.9;12;2
263;18:30;1;08:00;0.4;0.2;0.7;60;11;0.9;12;2
264;18:30;1;08:00;0.4;0.2;0.7;60;11;0.9;12;2
265;18:30;1;08:00;0.4;0.2;0.7;60;11;0.9;12;2
266;18:30;1;08:00;0.4;0.2;0.7;60;11;0.9;12;2
267;18:30;1;08:00;0.4;0.2;0.7;60;11;0.9;12;2
268;18:30;1;08:00;0.4;0.2;0.7;60;11;0.9;12;2
269;18:30;1;08:00;0.4;0.2;0.7;60;11;0.9;12;2
270;18:30;1;08:00;0.4;0.2;0.7;60;11;0.9;12;2
271;18:30;1;08:00;0.4;0.2;0.7;60;11;0.9;12;2
272;18:30;1;08:00;0.4;0.2;0.7;60;11;0.9;12;2
273;18:30;1;08:00;0.4;0.2;0.7;60;11;0.9;12;2
274;18:30;1;08:00;0.4;0.2;0.7;60;11;0.9;12;2
275;18:30;1;08:00;0.4;0.2;0.7;60;11;0.9;12;2
276;18:30;1;08:00;0.4;0.2;0.7;60;11;0.9;12;2
277;18:30;1;08:00;0.4;0.2;0.7;60;11;0.9;12;2
278;18:30;1;08:00;0.4;0.2;0.7;60;11;0.9;12;2
279;18:30;1;08:00;0.4;0.2;0.7;60;11;0.9;12;2
280;18:30;1;08:00;0.4;0.2;0.7;60;11;0.9;12;2
281;18:30;1;08:00;0.4;0.2;0.7;60;11;0.9;12;2
282;18:30;1;08:00;0.4;0.2;0.7;60;11;0.9;12;2
283;18:30;1;08:00;0.4;0.2;0.7;60;11;0.9;12;2
284;18:30;1;08:00;0.4;0.2;0.7;60;11;0.9;12;2
285;18:30;1;08:00;0.4;0.2;0.7;60;11;0.9;12;2
286;18:30;1;08:00;0.4;0.2;0.7;60;11;0.9;12;2
287;18:30;1;08:00;0.4;0.2;0.7;60;11;0.9;12;2
288;18:30;1;08:00;0.4;0.2;0.7;60;11;0.9;12;2
289;18:30;1;08:00;0.4;0.2;0.7;60;11;0.9;12;2
290;18:30;1;08:00;0.4;0.2;0.7;60;11;0.9;12;2
291;18:30;1;08:00;0.4;0.2;0.7;60;11;0.9;12;2
292;18:30;1;08:00;0.4;0.2;0.7;60;11;0.9;12;2
293;18:30;1;08:00;0.4;0.2;0.7;60;11;0.9;12;2
294;18:30;1;08:00;0.4;0.2;0.7;60;11;0.9;12;2
295;18:30;1;08:00;0.4;0.2;0.7;60;11;0.9;12;2
296;18:30;1;08:00;0.4;0.2;0.7;60;11;0.9;12;2
297;18:30;1;08:00;0.4;0.2;0.7;60;11;0.9;12;2
298;18:30;1;08:00;0.4;0.2;0.7;60;11;0.9;12;2
299;18:30;1;08:00;0.4;0.2;0.7;60;11;0.9;12;2
300;18:30;1;08:00;0.4;0.2;0.7;60;11;0.9;12;2
